Energy,Episode length,Green food,Number of nodes,Red food,Trained time steps
0.515337543536038,36.9,0.95,75.0,0.05,200
0.5403714832607989,42.2,1.8,134.0,0.3,400
0.5871854803276829,60.45,4.65,186.0,0.3,600
0.5340136111444707,61.85,4.95,235.0,0.45,800
0.5918542558797615,74.9,6.45,286.0,0.05,1000
0.5854804756322858,64.2,4.8,326.0,0.15,1200
0.5739410727762758,70.65,5.95,371.0,0.15,1400
0.6178370624341689,77.4,7.3,417.0,0.15,1600
0.6279227189353592,72.35,7.35,460.0,0.55,1800
0.607794608023215,80.55,8.25,494.0,0.35,2000
0.5688596272733953,60.1,4.65,534.0,0.4,2200
0.5821201628066194,65.3,5.3,573.0,0.4,2400
0.4892210068707417,57.1,3.8,605.0,0.35,2600
0.5325960074771264,54.6,3.35,637.0,0.15,2800
0.5687705188563112,68.3,5.5,671.0,0.15,3000
0.5161355314581736,56.6,3.9,708.0,0.4,3200
0.5772040744431137,66.45,5.85,751.0,0.35,3400
0.5712257616063497,65.2,5.25,789.0,0.3,3600
0.6106397340638618,67.8,6.15,835.0,0.25,3800
0.5783422169531014,68.3,6.0,880.0,0.25,4000
0.6292595225360345,75.75,7.9,923.0,0.15,4200
0.6075674326633862,70.6,6.85,959.0,0.15,4400
0.6083959981077285,81.1,7.75,985.0,0.05,4600
0.5826965534450386,76.0,6.65,1020.0,0.25,4800
0.5809201740862838,71.15,6.05,1056.0,0.15,5000
0.5527756546735818,70.55,5.6,1088.0,0.0,5200
0.5407432925054937,60.35,4.4,1116.0,0.1,5400
0.5807996727496032,75.2,6.75,1148.0,0.2,5600
0.5783690935716072,67.65,5.75,1173.0,0.25,5800
0.6080479489637806,75.5,7.2,1195.0,0.05,6000
0.5902125198945061,75.9,7.25,1226.0,0.25,6200
0.6055196832922815,71.9,6.7,1245.0,0.1,6400
0.5962852925251971,79.2,7.25,1273.0,0.0,6600
0.5968345145501168,81.75,8.4,1296.0,0.3,6800
0.61068301597697,88.0,8.65,1317.0,0.05,7000
0.5884299195822406,70.1,6.25,1337.0,0.15,7200
0.5374608138003556,68.5,5.8,1362.0,0.1,7400
0.6062649519709116,64.75,5.4,1385.0,0.15,7600
0.5906247909909305,68.25,6.25,1404.0,0.15,7800
0.5623484931148308,71.5,6.1,1425.0,0.15,8000
0.6218779966880044,79.1,7.65,1445.0,0.05,8200
0.6121620645386503,77.25,8.0,1462.0,0.25,8400
0.6129042563290868,77.4,7.25,1470.0,0.1,8600
0.6070330808385311,72.45,6.6,1489.0,0.15,8800
0.6189840049175543,82.4,7.95,1501.0,0.2,9000
0.5989987228375102,76.7,7.3,1522.0,0.15,9200
0.5672794766277999,71.95,6.5,1533.0,0.3,9400
0.6161620886686963,75.25,7.15,1544.0,0.2,9600
0.6021097380115851,69.65,6.55,1561.0,0.3,9800
0.6143456116706407,71.8,6.55,1572.0,0.25,10000
0.5023348875498501,41.0,1.65,80.0,0.25,200
0.5061967467172479,40.8,1.45,135.0,0.05,400
0.5811189439017965,49.05,3.3,189.0,0.25,600
0.5711709115014456,54.75,3.8,242.0,0.2,800
0.5383216296084558,44.8,2.3,285.0,0.15,1000
0.5969674508277018,58.45,4.5,327.0,0.15,1200
0.5418432718552509,52.7,3.55,374.0,0.15,1400
0.580243057743308,71.4,6.05,411.0,0.15,1600
0.5930479761123524,65.2,5.5,436.0,0.15,1800
0.5878081498916272,76.75,6.8,476.0,0.2,2000
0.5736012189502919,60.95,4.55,508.0,0.3,2200
0.6439615363359825,79.45,7.9,547.0,0.15,2400
0.6097675840562531,77.55,6.75,573.0,0.15,2600
0.6101637651590833,75.85,6.9,612.0,0.2,2800
0.6160120984648224,75.85,7.2,635.0,0.05,3000
0.6301280597713249,75.55,7.45,665.0,0.25,3200
0.59172351844526,77.85,6.95,693.0,0.15,3400
0.6072526337826574,81.2,7.85,723.0,0.05,3600
0.6230218584419862,80.5,7.85,749.0,0.15,3800
0.6346711704129804,82.3,8.75,775.0,0.25,4000
0.6036738602215521,81.75,7.95,799.0,0.25,4200
0.6070136246198246,77.7,7.3,825.0,0.15,4400
0.6231434670891536,85.3,8.3,850.0,0.1,4600
0.5863028242469891,72.75,6.4,876.0,0.15,4800
0.6645578048048326,78.15,8.55,896.0,0.35,5000
0.6132564630688325,83.05,8.5,915.0,0.2,5200
0.635780779518131,73.65,7.55,936.0,0.25,5400
0.6527841320995643,89.25,9.7,953.0,0.45,5600
0.6383304474995777,83.6,9.45,970.0,0.25,5800
0.6169451273478251,73.95,7.4,988.0,0.35,6000
0.6521802289060364,81.35,9.2,1001.0,0.25,6200
0.6414889201584317,87.8,9.15,1019.0,0.2,6400
0.6855125439963039,84.1,9.25,1037.0,0.25,6600
0.6263335232209756,77.0,7.7,1050.0,0.3,6800
0.6345996073608532,82.2,8.55,1069.0,0.25,7000
0.6104228945257617,75.4,6.95,1084.0,0.0,7200
0.6166771994178267,82.1,8.3,1093.0,0.2,7400
0.618724187492812,79.9,7.95,1103.0,0.35,7600
0.6685516487315482,81.3,8.55,1116.0,0.0,7800
0.6170062867825813,84.15,9.0,1126.0,0.05,8000
0.7213199853797644,91.4,10.9,1136.0,0.15,8200
0.6596937322556752,87.1,9.9,1151.0,0.2,8400
0.6237689000618334,83.2,9.05,1162.0,0.25,8600
0.6297222652199117,82.35,8.25,1175.0,0.2,8800
0.6346463444389225,91.4,10.1,1181.0,0.2,9000
0.667876132453203,89.4,9.95,1188.0,0.2,9200
0.6404070902894593,83.6,8.85,1198.0,0.15,9400
0.6656800910037234,83.2,9.4,1207.0,0.1,9600
0.6263189798700053,84.65,8.3,1213.0,0.05,9800
0.6322256233246867,77.8,7.9,1216.0,0.2,10000
0.5375343024654569,47.9,2.0,73.0,0.15,200
0.5435724143371823,44.3,2.5,128.0,0.75,400
0.5675803890008385,51.5,3.45,179.0,0.65,600
0.5448052689582267,53.5,3.75,227.0,0.6,800
0.5384241198452713,43.2,2.8,283.0,0.9,1000
0.6070983383372746,66.5,6.35,334.0,0.8,1200
0.6093908874941464,62.7,6.0,381.0,0.8,1400
0.6461630338398705,76.25,8.8,417.0,0.85,1600
0.589877258941315,61.3,5.45,453.0,0.95,1800
0.6723215628161314,86.45,10.25,491.0,0.9,2000
0.616468663711398,66.4,6.1,528.0,0.5,2200
0.5729073144961189,64.7,6.05,557.0,0.7,2400
0.6293695411237226,72.0,7.35,589.0,0.85,2600
0.6244168304608146,76.75,8.35,627.0,0.75,2800
0.6027412065953277,65.1,6.6,660.0,0.6,3000
0.6733841381576067,84.6,9.6,687.0,0.9,3200
0.6302482946832347,70.0,7.55,714.0,0.7,3400
0.66081031988316,85.95,9.2,731.0,0.6,3600
0.6720563537675601,86.45,10.15,757.0,0.35,3800
0.6647725328729837,82.4,9.55,778.0,0.45,4000
0.6628772848830911,81.5,9.0,796.0,0.75,4200
0.6869949557370807,84.15,10.05,817.0,0.6,4400
0.6284998127151303,74.25,8.15,831.0,1.0,4600
0.6413090496313495,74.9,7.85,850.0,0.85,4800
0.624881669645393,83.8,9.15,867.0,0.8,5000
0.7096350953868615,85.05,9.9,879.0,0.45,5200
0.6551044061942851,86.3,9.65,893.0,0.55,5400
0.6208352425732865,78.1,8.5,905.0,1.05,5600
0.6848410958503653,83.0,9.25,914.0,0.4,5800
0.6333080025129917,81.95,9.25,928.0,0.7,6000
0.6821527131426147,90.7,10.9,937.0,0.95,6200
0.6369095767632962,73.0,7.55,947.0,0.6,6400
0.6788682771517333,88.5,10.7,955.0,0.55,6600
0.6464089618244862,85.75,9.95,964.0,0.45,6800
0.659278689145063,82.35,9.0,972.0,0.65,7000
0.6876360400643574,81.2,9.7,981.0,0.6,7200
0.6344449645977607,73.45,8.2,987.0,0.8,7400
0.672857375096844,83.5,10.25,991.0,0.8,7600
0.7179175063389048,84.3,11.0,1000.0,0.6,7800
0.6840765620362003,89.2,10.8,1007.0,0.55,8000
0.708528040006417,87.1,10.35,1014.0,0.35,8200
0.7040327117412618,84.55,10.3,1019.0,0.5,8400
0.6377903289167204,81.15,9.65,1023.0,0.7,8600
0.6719076747311822,93.0,11.6,1031.0,0.85,8800
0.6161286219472643,75.85,7.85,1037.0,0.7,9000
0.6568458177747527,75.85,8.55,1040.0,0.75,9200
0.6633348774750565,88.2,10.65,1049.0,0.55,9400
0.6872647524002566,85.75,10.25,1054.0,0.55,9600
0.6233195601458258,80.9,8.65,1061.0,0.6,9800
0.7268601275045532,91.6,11.65,1070.0,0.6,10000
0.48678872599741707,36.05,1.0,76.0,0.25,200
0.5742771446122679,45.5,2.55,136.0,0.35,400
0.5361704468353147,48.0,2.7,187.0,0.4,600
0.5703142349071981,64.45,5.45,246.0,0.3,800
0.5914664734884381,66.6,5.35,300.0,0.2,1000
0.5781740786744713,73.95,7.1,345.0,0.4,1200
0.6156585029271768,73.75,6.65,396.0,0.3,1400
0.5836992183563543,66.2,5.95,432.0,0.5,1600
0.6068801980078369,79.8,7.5,472.0,0.25,1800
0.5742847240078163,61.65,4.85,506.0,0.4,2000
0.6083920105927337,74.95,6.9,536.0,0.5,2200
0.5803034933026773,74.3,7.2,570.0,0.5,2400
0.6219829952152787,73.35,6.95,613.0,0.45,2600
0.5986623404151865,69.35,6.4,637.0,0.55,2800
0.6224942762658517,77.55,7.05,669.0,0.2,3000
0.6275948759821153,83.5,8.95,690.0,0.45,3200
0.6149640761602173,78.1,8.3,721.0,0.35,3400
0.6060909269121264,75.25,7.0,750.0,0.35,3600
0.634466582636184,82.2,8.9,771.0,0.85,3800
0.6656408837292422,88.05,10.2,796.0,0.45,4000
0.6413252286467244,74.05,7.75,818.0,0.55,4200
0.6509087254901955,87.65,9.8,843.0,0.3,4400
0.6649452460856871,83.75,9.25,866.0,0.55,4600
0.7073281459784612,83.9,9.7,879.0,0.35,4800
0.6302617061402971,81.05,9.3,894.0,0.6,5000
0.6456369695192528,79.15,8.7,911.0,0.55,5200
0.6136957156631332,71.7,7.1,921.0,0.5,5400
0.6585221508104352,82.7,9.3,936.0,0.6,5600
0.6797375035135232,90.1,10.45,946.0,0.7,5800
0.6400070405877504,80.1,8.65,963.0,0.35,6000
0.6589996866299258,82.25,9.15,970.0,0.35,6200
0.6145754573558505,80.6,8.8,978.0,0.55,6400
0.6437445738887357,83.85,9.05,984.0,0.45,6600
0.6316105675831803,85.3,9.05,994.0,0.4,6800
0.6576754814364805,82.6,9.25,1003.0,0.45,7000
0.6701213397021316,83.7,9.25,1019.0,0.45,7200
0.6846290439252618,95.7,11.6,1028.0,0.35,7400
0.6511823280423029,82.9,9.0,1036.0,0.5,7600
0.6523963782491351,87.4,9.1,1042.0,0.3,7800
0.6907147354159567,93.05,11.05,1054.0,0.4,8000
0.6668484437926898,84.25,9.3,1062.0,0.45,8200
0.6783087594696964,92.4,10.75,1068.0,0.5,8400
0.6219711890408745,79.5,8.0,1074.0,0.3,8600
0.6398081301986893,79.6,8.2,1079.0,0.3,8800
0.7162205642180638,95.05,11.65,1084.0,0.5,9000
0.7155220561156069,94.25,11.75,1092.0,0.4,9200
0.69211475530856,84.85,10.0,1103.0,0.4,9400
0.656663259689154,85.6,9.05,1110.0,0.15,9600
0.651752247922097,79.7,8.9,1114.0,0.25,9800
0.6944285141028903,83.75,9.9,1120.0,0.45,10000
0.4808802557095772,35.3,0.2,71.0,0.0,200
0.5177504755316615,38.9,1.3,128.0,0.2,400
0.5154224911729436,45.6,2.85,173.0,0.8,600
0.5733788312443465,46.6,3.5,219.0,0.95,800
0.6006346859846692,52.25,4.45,272.0,1.2,1000
0.5247745115131902,49.65,3.6,337.0,1.0,1200
0.6066337764287228,57.65,5.95,383.0,1.6,1400
0.5567796871296241,59.25,5.5,434.0,1.5,1600
0.5585198264349015,54.2,4.15,476.0,0.75,1800
0.544849766168489,53.4,3.9,523.0,0.45,2000
0.5830390323710514,60.2,4.65,563.0,0.6,2200
0.5736491879135283,68.3,6.1,594.0,0.5,2400
0.6176033516304757,70.25,6.85,626.0,0.75,2600
0.5755584936283753,63.6,5.55,662.0,0.5,2800
0.6518008226809614,67.25,6.85,695.0,0.85,3000
0.5898435979697294,66.4,5.8,725.0,0.6,3200
0.6066266656149092,67.6,6.25,756.0,0.7,3400
0.6171745351040925,74.65,7.35,789.0,0.45,3600
0.5766559462363527,69.75,6.4,828.0,0.6,3800
0.6175691808858126,71.7,6.6,859.0,0.6,4000
0.5826864280385513,65.25,5.6,889.0,0.65,4200
0.5836725658814506,67.35,5.65,917.0,0.45,4400
0.6110988954555865,69.3,6.3,950.0,0.6,4600
0.6011184573573352,71.85,6.4,979.0,0.45,4800
0.584893313776284,63.55,5.25,1003.0,0.35,5000
0.6209832953115126,72.3,7.0,1037.0,0.25,5200
0.6044858330289979,72.2,6.8,1070.0,0.3,5400
0.61616408916255,65.85,5.7,1097.0,0.25,5600
0.6007933646986625,63.5,5.2,1121.0,0.15,5800
0.5798300878290186,64.95,5.8,1142.0,0.25,6000
0.5629227390739469,61.25,4.45,1172.0,0.05,6200
0.5797277165845531,61.3,4.45,1196.0,0.15,6400
0.5652625413492665,59.95,4.95,1220.0,0.4,6600
0.568339857061452,54.75,3.8,1243.0,0.3,6800
0.5645466675630144,64.05,5.0,1272.0,0.35,7000
0.6041394938239301,81.85,8.1,1291.0,0.45,7200
0.5825779199413159,62.15,5.05,1312.0,0.35,7400
0.5855165788036392,59.85,5.1,1341.0,0.45,7600
0.6266823275704374,73.05,7.45,1358.0,0.45,7800
0.5747081191254944,66.3,5.65,1378.0,0.35,8000
0.5566191016683585,61.95,4.95,1398.0,0.45,8200
0.5670791981593137,58.8,4.5,1408.0,0.35,8400
0.5996954727205642,72.85,6.7,1430.0,0.35,8600
0.5705366168917131,65.65,4.9,1454.0,0.35,8800
0.6566233165291826,74.45,7.7,1473.0,0.6,9000
0.5932065532167817,71.0,6.3,1484.0,0.35,9200
0.5747213747182783,74.5,6.3,1500.0,0.2,9400
0.5874172905279103,60.8,5.25,1517.0,0.55,9600
0.5825296200610334,65.15,5.7,1532.0,0.35,9800
0.5682033949964249,50.85,3.5,1545.0,0.5,10000
0.4971887312952704,34.8,1.25,98.0,0.45,200
0.5537644106094435,44.25,2.95,148.0,0.95,400
0.5192226237360306,38.65,1.75,204.0,0.7,600
0.6095952203567964,64.1,5.85,254.0,0.55,800
0.5997819424340187,61.15,5.6,304.0,0.5,1000
0.5752496903371183,69.5,6.25,360.0,0.45,1200
0.5800279188407645,65.95,6.0,416.0,0.55,1400
0.6267052675321467,71.0,7.0,468.0,0.95,1600
0.6285092987155525,79.75,9.15,511.0,1.15,1800
0.5956491662612498,67.3,6.6,552.0,0.65,2000
0.6005499602366157,72.4,7.35,595.0,1.0,2200
0.6426355168541632,70.35,7.35,636.0,0.85,2400
0.6053913313815317,79.1,7.8,677.0,0.4,2600
0.6545543780639786,72.55,7.75,714.0,0.65,2800
0.6159590908553512,66.9,6.4,758.0,0.55,3000
0.5669766403301254,65.3,5.8,802.0,0.65,3200
0.6522562939169428,83.95,8.85,837.0,0.65,3400
0.629579326740243,78.0,8.05,884.0,0.65,3600
0.6086784111196908,71.25,6.6,924.0,0.7,3800
0.5879444357779756,68.5,6.5,945.0,0.5,4000
0.6260607224882502,80.25,8.0,980.0,0.45,4200
0.6347507869101865,69.1,6.65,1007.0,0.55,4400
0.6293627643512586,73.8,7.75,1030.0,0.85,4600
0.5913992663714496,68.15,6.3,1062.0,0.55,4800
0.6093044472104596,74.45,7.2,1079.0,0.65,5000
0.6467874713119429,83.55,9.4,1099.0,0.55,5200
0.6207821259689108,67.35,6.7,1120.0,0.35,5400
0.6155578396689892,76.2,7.6,1137.0,0.6,5600
0.5934746545287792,69.25,6.25,1152.0,0.45,5800
0.6128692738066154,75.15,7.7,1167.0,0.75,6000
0.6367682976413717,82.05,8.5,1188.0,0.35,6200
0.6178461255035644,77.25,6.95,1204.0,0.4,6400
0.5990582945978374,63.15,5.85,1215.0,0.55,6600
0.5992878833747193,78.75,8.55,1232.0,0.55,6800
0.6274703614532396,79.95,8.45,1244.0,0.7,7000
0.5679322070799206,69.3,6.15,1255.0,0.6,7200
0.6126076277109547,77.45,7.6,1275.0,0.55,7400
0.6173248371226062,74.45,7.55,1289.0,0.55,7600
0.6104461271779121,76.0,7.5,1303.0,0.35,7800
0.6075409128948451,75.05,7.35,1317.0,0.35,8000
0.5589331423737888,70.15,6.05,1322.0,0.5,8200
0.6372308156240782,85.5,9.1,1336.0,0.5,8400
0.6323346141976454,85.65,9.4,1350.0,0.65,8600
0.5910637010151977,76.3,7.5,1363.0,0.7,8800
0.602509030010465,71.65,7.25,1366.0,0.6,9000
0.6560681741749217,81.0,8.45,1371.0,0.55,9200
0.6435080218752323,80.25,8.55,1377.0,0.55,9400
0.6305499007020688,72.9,7.25,1382.0,0.45,9600
0.6321858536765356,74.55,7.65,1393.0,0.6,9800
0.6440474613939824,73.9,7.7,1405.0,0.6,10000
0.5067162887731915,37.1,1.1,79.0,0.5,200
0.5160785251575897,45.95,2.3,139.0,0.4,400
0.6250277276537346,55.95,4.5,183.0,1.0,600
0.5564941035999966,52.25,4.35,239.0,0.9,800
0.5495362986175594,50.6,3.65,289.0,0.8,1000
0.6020037487463152,82.9,8.0,333.0,0.2,1200
0.6143739129966657,74.2,6.8,366.0,0.55,1400
0.5988964961872412,64.65,5.15,409.0,0.3,1600
0.6030062205342632,64.95,5.65,443.0,0.6,1800
0.5934580666148961,64.95,5.4,484.0,0.5,2000
0.5491094826534455,62.9,4.9,518.0,0.35,2200
0.5847425051310522,63.45,5.5,553.0,0.4,2400
0.6113368338046129,71.65,7.0,578.0,0.4,2600
0.5837207564575475,70.25,6.2,600.0,0.3,2800
0.570906136230835,58.2,4.4,633.0,0.2,3000
0.6213140551272854,70.85,6.45,659.0,0.45,3200
0.6179022835328151,80.2,7.95,684.0,0.3,3400
0.594896895279127,76.65,7.3,705.0,0.3,3600
0.5923710072693437,82.85,8.1,730.0,0.05,3800
0.6485993959080708,83.6,8.95,749.0,0.25,4000
0.6580873532768565,83.1,8.85,781.0,0.45,4200
0.6529979026816416,86.7,9.3,807.0,0.35,4400
0.6031462293020832,73.95,7.35,831.0,0.4,4600
0.6080125085348382,74.7,7.05,855.0,0.4,4800
0.6357539374675676,76.8,7.8,879.0,0.45,5000
0.6207568876631587,74.4,7.9,900.0,0.4,5200
0.639775645025493,78.15,8.55,925.0,0.35,5400
0.6160908447919584,74.85,8.0,942.0,0.5,5600
0.6110350646560929,77.55,7.6,957.0,0.65,5800
0.6563341633973705,86.4,9.55,972.0,0.2,6000
0.6179417473416785,77.95,7.9,985.0,0.3,6200
0.6235830079682383,82.9,8.35,1001.0,0.4,6400
0.616027792017397,78.15,7.75,1012.0,0.55,6600
0.6466185399240183,86.8,9.6,1019.0,0.3,6800
0.6106530051032324,84.7,8.85,1024.0,0.45,7000
0.6316052318456736,80.05,8.2,1039.0,0.55,7200
0.6312458552971029,78.2,8.15,1050.0,0.45,7400
0.6228631108830212,75.0,7.45,1059.0,0.75,7600
0.6079975034251253,75.0,7.4,1069.0,0.7,7800
0.6010128595767376,83.3,8.25,1074.0,0.4,8000
0.6615368640687318,79.05,8.35,1082.0,0.5,8200
0.6721195560080159,85.95,10.2,1093.0,0.5,8400
0.6267280858229123,82.8,8.35,1106.0,0.4,8600
0.6402706982337457,84.0,8.9,1115.0,0.35,8800
0.6516131673042481,75.35,7.9,1122.0,0.5,9000
0.6472416099955296,79.55,8.45,1130.0,0.25,9200
0.6252143259331086,78.1,7.55,1137.0,0.35,9400
0.5976074958452775,76.3,7.15,1143.0,0.2,9600
0.657480752006495,85.3,9.55,1150.0,0.35,9800
0.6049601674476445,74.1,7.05,1151.0,0.25,10000
0.481953507225628,30.35,0.35,73.0,0.3,200
0.5399847562311764,47.25,2.4,130.0,0.15,400
0.5221652112949208,44.95,1.95,189.0,0.1,600
0.5399374532864349,56.75,3.65,249.0,0.15,800
0.6085774261338714,63.15,5.0,302.0,0.15,1000
0.5905916098648649,69.75,5.75,346.0,0.35,1200
0.5709964901879057,65.2,5.9,394.0,0.45,1400
0.56798263833658,66.05,5.1,435.0,0.45,1600
0.5500709808611288,60.75,4.45,468.0,0.35,1800
0.5949283868419386,72.0,6.5,496.0,0.45,2000
0.5670571310734814,67.3,5.5,536.0,0.25,2200
0.5654650182998442,66.9,5.25,565.0,0.35,2400
0.5824340159925688,59.1,4.55,602.0,0.25,2600
0.5712746964880552,62.85,4.95,642.0,0.3,2800
0.5669110314285593,68.9,6.6,668.0,0.5,3000
0.5547371109102507,61.5,5.15,688.0,0.55,3200
0.5984005096323861,75.55,6.95,731.0,0.5,3400
0.5722102500256774,70.15,5.95,762.0,0.25,3600
0.6229837463339956,63.45,5.4,795.0,0.25,3800
0.5742230202844167,67.25,5.75,825.0,0.25,4000
0.5721465146509414,69.75,6.2,858.0,0.25,4200
0.5867436518186955,65.7,5.4,887.0,0.25,4400
0.6100492498457315,72.4,6.85,917.0,0.35,4600
0.6273013473310508,79.25,7.65,954.0,0.3,4800
0.6059643783017911,77.2,7.45,980.0,0.15,5000
0.6855699110209618,88.15,9.65,1005.0,0.45,5200
0.6577032054545255,82.35,8.7,1033.0,0.15,5400
0.6537009986986071,83.2,8.6,1059.0,0.15,5600
0.6441055688773748,78.5,8.0,1085.0,0.5,5800
0.6487150236928063,85.6,9.35,1106.0,0.35,6000
0.6515051732542737,84.2,9.25,1129.0,0.45,6200
0.6483016807502534,72.1,7.35,1152.0,0.3,6400
0.6583602846224705,81.75,8.75,1176.0,0.55,6600
0.6491920062903247,83.95,8.9,1197.0,0.2,6800
0.6514913759391492,94.2,10.2,1209.0,0.05,7000
0.6390378475665579,88.3,9.6,1225.0,0.45,7200
0.5991630247054162,70.6,6.65,1238.0,0.4,7400
0.6095958616268893,72.95,7.1,1248.0,0.6,7600
0.6895291656903446,87.9,9.65,1269.0,0.25,7800
0.6054665010848634,75.6,7.3,1277.0,0.25,8000
0.634662107585046,83.15,9.3,1287.0,0.2,8200
0.6500130124873065,87.7,9.55,1296.0,0.65,8400
0.6339983987258903,82.85,8.5,1308.0,0.4,8600
0.673927740504849,87.6,9.85,1318.0,0.2,8800
0.6195869160774063,76.4,7.5,1321.0,0.2,9000
0.6210038624923222,81.9,7.85,1332.0,0.2,9200
0.5952886778866121,74.15,7.2,1340.0,0.35,9400
0.6245579831416455,80.35,8.55,1352.0,0.35,9600
0.6404535805933697,81.05,8.6,1359.0,0.35,9800
0.6405301459427386,77.95,8.4,1368.0,0.5,10000
0.5313527106394014,36.55,1.35,75.0,0.2,200
0.5232775388048184,35.9,1.9,131.0,0.7,400
0.5231159317382562,42.6,2.95,186.0,1.2,600
0.5455190135607821,43.15,2.15,234.0,0.25,800
0.6249806531646468,63.8,5.6,277.0,0.5,1000
0.5807072571802717,71.7,5.7,314.0,0.15,1200
0.5459760462739066,56.35,3.65,353.0,0.2,1400
0.5975873067794303,71.45,6.05,388.0,0.2,1600
0.5556667850549067,64.9,5.0,428.0,0.2,1800
0.5618612132620181,60.1,4.4,474.0,0.15,2000
0.5367370522602097,52.15,3.15,508.0,0.1,2200
0.5627569509476584,64.6,5.1,543.0,0.15,2400
0.5560292369537885,70.9,5.65,581.0,0.1,2600
0.5501615210106955,63.2,4.85,615.0,0.1,2800
0.5658882413207329,59.3,4.5,647.0,0.15,3000
0.5611395876527758,63.75,4.7,677.0,0.25,3200
0.5760571396470289,70.45,5.8,709.0,0.1,3400
0.5891578622168093,78.6,7.1,732.0,0.05,3600
0.6076678438755381,75.85,6.9,765.0,0.2,3800
0.6387437353053897,83.5,8.15,796.0,0.3,4000
0.5850465046423583,76.3,7.25,824.0,0.3,4200
0.5777723132144379,63.05,5.25,850.0,0.4,4400
0.6008303292174592,81.2,7.55,878.0,0.2,4600
0.6056321573004703,74.5,6.65,900.0,0.2,4800
0.5945202517497696,74.8,6.55,934.0,0.3,5000
0.546958108962848,68.1,5.25,964.0,0.15,5200
0.5979869722759332,73.75,6.8,982.0,0.1,5400
0.5495271815870246,59.35,4.15,1009.0,0.2,5600
0.6081359972232756,77.45,7.2,1037.0,0.2,5800
0.5610553479789496,64.15,5.4,1056.0,0.2,6000
0.5883237109738155,74.85,6.5,1079.0,0.15,6200
0.5759382858801643,67.95,5.6,1091.0,0.0,6400
0.6086696887835362,74.05,6.35,1112.0,0.3,6600
0.6033569043314129,76.25,6.9,1131.0,0.1,6800
0.5837041188086325,72.95,6.4,1150.0,0.25,7000
0.5829807868815579,66.3,5.8,1167.0,0.2,7200
0.5858374049625306,71.15,6.25,1176.0,0.45,7400
0.6339997015288742,86.35,9.1,1193.0,0.3,7600
0.5408482652270861,57.25,3.7,1200.0,0.2,7800
0.5749976754133712,60.8,4.8,1215.0,0.15,8000
0.6159648875722744,80.6,7.7,1229.0,0.15,8200
0.5995513742025755,75.55,6.6,1242.0,0.25,8400
0.5993920516865697,70.85,6.25,1254.0,0.2,8600
0.6354943727470473,79.15,8.1,1263.0,0.25,8800
0.597932675440359,74.6,6.8,1274.0,0.3,9000
0.5966010099639656,81.6,7.85,1288.0,0.4,9200
0.6386681427341253,80.9,8.35,1296.0,0.15,9400
0.5963878922881094,75.3,6.5,1310.0,0.2,9600
0.6368051040701668,75.95,7.5,1321.0,0.4,9800
0.6291669552695093,77.05,7.7,1330.0,0.3,10000
0.5214038881203559,35.95,1.0,95.0,0.3,200
0.5249430357489124,36.95,1.75,153.0,0.4,400
0.5091749959372989,43.05,2.5,201.0,0.9,600
0.5598887337990012,43.75,2.75,261.0,0.85,800
0.5407858672315377,47.0,3.7,311.0,1.15,1000
0.5849373661650861,51.8,4.2,359.0,0.65,1200
0.6478785535500435,76.15,7.95,412.0,0.5,1400
0.5916155124637412,68.45,6.5,462.0,0.85,1600
0.5977709867907584,64.7,6.45,509.0,0.95,1800
0.6420429021560796,70.5,7.45,550.0,0.95,2000
0.6326506698103849,73.25,8.35,590.0,1.0,2200
0.6465020938527543,75.45,7.8,622.0,0.6,2400
0.6303146514600957,69.9,7.25,650.0,0.65,2600
0.6545427788610649,84.55,9.3,674.0,0.5,2800
0.6318061373063969,85.1,9.2,703.0,0.5,3000
0.6780950913316565,81.85,9.7,732.0,0.5,3200
0.6602255493053303,81.95,9.6,763.0,0.5,3400
0.6747854801433759,82.05,8.8,782.0,0.3,3600
0.6314733365895807,74.6,7.75,814.0,0.5,3800
0.6439309003020275,83.15,9.3,837.0,0.75,4000
0.6463828873488803,86.45,9.8,859.0,0.45,4200
0.6759730024504833,90.15,10.9,880.0,0.4,4400
0.6446613394198755,83.25,9.5,897.0,0.45,4600
0.5896926756053458,74.05,6.75,915.0,0.4,4800
0.657031785742647,83.1,8.8,932.0,0.4,5000
0.6344750504259697,79.5,8.15,946.0,0.4,5200
0.6375426406234866,82.0,8.75,957.0,0.55,5400
0.6380322111204114,84.1,8.65,974.0,0.35,5600
0.6388308590102701,85.95,9.3,984.0,0.35,5800
0.6206707751955274,79.6,7.9,995.0,0.5,6000
0.6982751280093649,89.0,10.25,1002.0,0.4,6200
0.6496832544241059,81.6,8.9,1009.0,0.55,6400
0.6391915161744108,84.6,8.95,1022.0,0.35,6600
0.6358932899360623,77.2,8.5,1030.0,0.75,6800
0.6617898020671048,79.95,9.3,1044.0,0.3,7000
0.6591006203671621,89.55,9.85,1047.0,0.3,7200
0.6868818411968122,94.0,10.65,1054.0,0.3,7400
0.6689700315319494,87.6,9.9,1063.0,0.35,7600
0.679441479531038,88.7,10.45,1070.0,0.25,7800
0.6656178951488617,82.45,9.1,1076.0,0.4,8000
0.6380387816792236,84.1,9.65,1079.0,0.2,8200
0.6778347360931546,83.4,9.5,1085.0,0.3,8400
0.6831290629464714,90.1,10.15,1089.0,0.7,8600
0.6087314482338072,78.1,8.4,1093.0,0.3,8800
0.6500068825089644,88.95,9.75,1102.0,0.45,9000
0.6840280223957983,83.6,9.55,1106.0,0.4,9200
0.6385005282263565,75.1,7.8,1115.0,0.7,9400
0.6753730067428472,92.0,10.6,1120.0,0.4,9600
0.6323658904672563,82.7,9.3,1128.0,0.45,9800
0.6550843444982319,83.75,9.2,1133.0,0.15,10000
0.5067229105336023,39.6,1.65,80.0,0.5,200
0.5453710571034468,49.4,3.05,135.0,0.45,400
0.5937177137934264,62.05,4.85,191.0,0.3,600
0.5515613941863191,54.55,3.9,237.0,0.15,800
0.5683165159419727,60.4,4.3,273.0,0.1,1000
0.5486374403578929,62.05,4.55,315.0,0.0,1200
0.5708181162173013,62.55,4.75,362.0,0.15,1400
0.5986309262543543,70.35,6.25,403.0,0.4,1600
0.594462700030974,68.85,5.95,438.0,0.15,1800
0.5680247318837427,63.85,5.15,474.0,0.35,2000
0.5862892015529103,57.9,4.75,519.0,0.25,2200
0.5735584261706297,58.6,4.35,555.0,0.1,2400
0.5836330482821395,72.65,6.45,590.0,0.25,2600
0.5759046369499907,73.2,6.5,619.0,0.25,2800
0.6322314084585589,74.45,6.65,644.0,0.15,3000
0.5977381845775813,72.15,6.4,667.0,0.15,3200
0.603326829036421,75.8,6.75,688.0,0.25,3400
0.5782373683329123,72.5,5.95,710.0,0.1,3600
0.5770544132998229,70.5,6.3,733.0,0.35,3800
0.5896349464950339,78.45,7.2,765.0,0.1,4000
0.5751557718109053,62.85,4.85,780.0,0.1,4200
0.5514366573702316,61.0,4.5,799.0,0.2,4400
0.616534110962726,80.0,7.7,822.0,0.3,4600
0.556065952970757,65.2,5.35,843.0,0.2,4800
0.6041413634452117,77.7,7.65,865.0,0.25,5000
0.6423349042525726,83.6,8.6,890.0,0.25,5200
0.5667284064549117,79.0,7.15,918.0,0.05,5400
0.6088968657074555,76.75,7.35,936.0,0.2,5600
0.6271168036822682,79.35,8.0,952.0,0.15,5800
0.6535994871361266,84.2,9.0,971.0,0.35,6000
0.6470934440999825,74.9,7.4,990.0,0.2,6200
0.642738751943462,77.2,8.2,1002.0,0.3,6400
0.573707643249581,74.75,6.7,1007.0,0.25,6600
0.6534268884587778,79.5,7.85,1022.0,0.45,6800
0.6666036646973874,89.95,9.4,1031.0,0.25,7000
0.5740530625114928,73.9,6.35,1041.0,0.2,7200
0.6135694886212757,80.65,7.7,1053.0,0.2,7400
0.590124686661069,79.05,7.5,1059.0,0.2,7600
0.6141000008654858,79.9,7.55,1067.0,0.1,7800
0.6080268789407024,71.9,6.3,1077.0,0.25,8000
0.6380632748664647,79.0,7.75,1082.0,0.4,8200
0.6145982056543352,73.25,7.05,1088.0,0.55,8400
0.6265762893251259,83.4,8.15,1096.0,0.25,8600
0.6233652098330882,80.25,7.75,1102.0,0.35,8800
0.6032715845386568,84.15,8.2,1107.0,0.2,9000
0.5999336528095335,79.65,7.5,1115.0,0.2,9200
0.6409374037438166,75.85,7.45,1120.0,0.15,9400
0.6144177683438931,76.0,7.4,1126.0,0.25,9600
0.6416411428464113,85.3,8.6,1129.0,0.15,9800
0.6280812644688897,78.9,7.95,1137.0,0.35,10000
0.515175265199143,34.3,1.05,78.0,0.5,200
0.5298731328276698,43.45,2.5,140.0,0.65,400
0.5762688603932827,56.2,4.0,199.0,0.45,600
0.6224690202291852,74.65,7.3,234.0,0.35,800
0.672559856043342,88.95,10.1,290.0,0.35,1000
0.5611097369922117,67.45,5.7,337.0,0.5,1200
0.5750590182051522,65.75,5.2,395.0,0.2,1400
0.5375983476531393,49.35,3.35,439.0,0.55,1600
0.610048462971905,78.1,7.45,482.0,0.2,1800
0.5978699841194679,69.95,5.95,523.0,0.25,2000
0.5781660472873092,63.15,5.6,568.0,0.6,2200
0.6103254223088705,66.6,6.45,598.0,0.65,2400
0.6114860193846775,79.75,7.8,638.0,0.2,2600
0.558766245522429,65.35,4.95,674.0,0.1,2800
0.5663017373531283,72.6,5.95,707.0,0.25,3000
0.5892872941865731,73.75,6.6,743.0,0.15,3200
0.5738435097914867,77.55,7.1,767.0,0.15,3400
0.5898379780326335,63.65,5.5,803.0,0.2,3600
0.6182111218572167,80.75,8.1,825.0,0.2,3800
0.6030821423063182,70.4,5.9,858.0,0.1,4000
0.5783103342900631,70.35,6.45,892.0,0.15,4200
0.6014522709448598,76.95,7.1,911.0,0.15,4400
0.631033716875124,77.3,7.6,942.0,0.15,4600
0.6088343933924508,75.7,6.95,967.0,0.25,4800
0.5783829259214913,78.1,7.4,985.0,0.2,5000
0.5775691827439339,67.3,5.6,1008.0,0.4,5200
0.5939025159608466,71.75,6.1,1035.0,0.25,5400
0.6197744602780729,72.3,7.05,1059.0,0.3,5600
0.5684976408504868,65.3,5.4,1083.0,0.45,5800
0.5560490803109022,77.05,6.6,1116.0,0.3,6000
0.5578766747395891,65.8,5.35,1139.0,0.6,6200
0.6075158290239167,80.65,7.8,1154.0,0.5,6400
0.6254726240323825,72.95,7.45,1177.0,0.55,6600
0.6174739391205932,81.75,8.0,1196.0,0.35,6800
0.6141068735753006,75.7,7.6,1207.0,0.35,7000
0.6085766807136255,71.2,6.35,1218.0,0.4,7200
0.5808306236230435,74.9,6.75,1229.0,0.45,7400
0.5749957480389248,66.35,5.4,1242.0,0.25,7600
0.5871747768311945,70.0,6.25,1258.0,0.25,7800
0.5978375200158789,71.9,6.85,1270.0,0.15,8000
0.5652482785637347,68.2,6.0,1285.0,0.45,8200
0.6105197443408092,74.35,7.35,1289.0,0.6,8400
0.6212889119848286,81.9,7.95,1300.0,0.25,8600
0.5904770433981172,78.15,7.45,1308.0,0.35,8800
0.5917311611754756,69.2,6.65,1319.0,0.35,9000
0.6087693726580785,63.1,5.8,1327.0,0.3,9200
0.6298460603497642,82.55,8.35,1332.0,0.45,9400
0.6055024791001287,80.7,8.2,1343.0,0.5,9600
0.6579383855306788,88.25,9.95,1351.0,0.4,9800
0.6069482083178696,85.7,8.8,1359.0,0.35,10000
0.5231375366105919,42.45,1.35,73.0,0.0,200
0.5300945939445846,43.3,1.85,125.0,0.25,400
0.5187288850079755,37.85,1.65,175.0,0.35,600
0.5257476686963731,40.8,1.9,244.0,0.4,800
0.5238300123070918,46.05,2.15,294.0,0.0,1000
0.5401787837259819,55.9,3.35,331.0,0.0,1200
0.5663035258939674,50.3,3.25,373.0,0.2,1400
0.5967567690908768,68.5,5.7,408.0,0.15,1600
0.6249431550176192,73.25,6.85,446.0,0.3,1800
0.6015479962855509,68.05,5.5,482.0,0.1,2000
0.5831471694220884,68.1,5.65,512.0,0.25,2200
0.5593108342531571,65.2,5.35,544.0,0.45,2400
0.5470544546179774,51.5,3.35,577.0,0.25,2600
0.571884730055052,63.65,4.6,602.0,0.25,2800
0.5788474707373814,65.0,5.1,632.0,0.15,3000
0.6014675883847627,70.05,6.05,654.0,0.1,3200
0.5879402822208054,70.55,6.25,681.0,0.15,3400
0.5742441823671542,70.95,5.7,702.0,0.05,3600
0.5852920902831342,62.75,4.75,736.0,0.05,3800
0.5699047301374234,66.4,5.35,767.0,0.35,4000
0.563031259680824,57.9,4.35,790.0,0.05,4200
0.5491904249510153,65.05,5.1,825.0,0.0,4400
0.5749896715038985,68.9,5.7,851.0,0.1,4600
0.5637304431122919,63.1,4.8,881.0,0.15,4800
0.6137817237428894,69.7,6.05,910.0,0.1,5000
0.6093825453825276,68.3,6.75,936.0,0.4,5200
0.583196050225895,77.55,6.9,960.0,0.15,5400
0.5614507859964561,64.0,5.25,979.0,0.15,5600
0.585259873643806,71.1,6.1,999.0,0.05,5800
0.6210324568282767,76.4,6.9,1016.0,0.05,6000
0.6200126344448637,71.6,6.3,1027.0,0.25,6200
0.6254448374458874,85.05,8.3,1053.0,0.2,6400
0.5915203101988341,73.2,6.55,1080.0,0.1,6600
0.566382639506687,68.25,5.45,1098.0,0.15,6800
0.550293818391727,67.4,5.2,1115.0,0.2,7000
0.5929939927309662,74.55,6.7,1130.0,0.1,7200
0.5871284711612732,71.65,6.2,1144.0,0.3,7400
0.5994880586685557,69.0,6.05,1169.0,0.05,7600
0.5591458189888389,67.5,5.5,1185.0,0.1,7800
0.6033519374690154,79.6,6.95,1197.0,0.1,8000
0.5998689722144163,67.5,6.1,1206.0,0.15,8200
0.6299183236753002,83.1,8.45,1216.0,0.25,8400
0.6256648388743523,83.15,8.05,1235.0,0.2,8600
0.615742139055458,86.2,8.7,1245.0,0.35,8800
0.6248213635111054,80.3,8.2,1256.0,0.25,9000
0.6515503769852413,82.25,8.85,1267.0,0.25,9200
0.6327821631164049,81.65,8.0,1274.0,0.1,9400
0.5839197871537867,71.3,6.2,1283.0,0.15,9600
0.6091787631245628,81.35,7.7,1297.0,0.2,9800
0.6204232321096977,82.9,8.2,1306.0,0.35,10000
0.516235346574946,36.9,1.2,73.0,0.3,200
0.5065017748319147,41.9,2.4,125.0,0.85,400
0.547770274855859,45.35,3.1,170.0,0.8,600
0.5672359270599147,52.4,4.85,211.0,1.25,800
0.5818635395572815,57.65,4.95,253.0,1.15,1000
0.5473087158077619,67.45,6.6,288.0,1.05,1200
0.5466200913370446,58.15,4.6,338.0,0.75,1400
0.5543536647463172,57.65,4.7,377.0,0.9,1600
0.5764708975602154,58.5,4.35,421.0,0.55,1800
0.6102541103814078,59.6,5.3,452.0,0.6,2000
0.5919648324470982,71.6,7.6,486.0,1.2,2200
0.6162720334304664,69.6,7.25,514.0,1.0,2400
0.6324692738433633,72.9,7.7,544.0,1.05,2600
0.6503279847428521,77.85,8.45,579.0,1.35,2800
0.6238562291508076,71.4,7.15,616.0,0.9,3000
0.621046355478102,74.25,8.0,647.0,0.9,3200
0.6382538268427562,65.55,7.3,690.0,1.0,3400
0.6484555427353523,76.25,8.45,720.0,0.95,3600
0.581325038611425,65.7,6.85,744.0,1.25,3800
0.5892975944056401,81.65,8.75,774.0,1.15,4000
0.6398918916448353,77.2,8.95,804.0,1.25,4200
0.6535312884816175,73.55,8.85,826.0,1.25,4400
0.6615451127665153,75.35,8.8,848.0,1.0,4600
0.634957319730695,80.7,9.1,868.0,1.0,4800
0.6465527419492564,72.35,7.9,890.0,1.15,5000
0.687146396279903,87.75,10.45,908.0,0.65,5200
0.6681924245225902,83.2,9.85,922.0,0.85,5400
0.6567301353090134,80.6,9.5,941.0,1.05,5600
0.6155517846674068,74.65,8.3,961.0,1.15,5800
0.6403813075483494,73.9,7.6,975.0,0.95,6000
0.687585621462601,82.05,9.8,987.0,0.9,6200
0.6359409877493728,86.6,9.75,997.0,0.9,6400
0.6465430457561452,76.95,8.3,1012.0,0.9,6600
0.6319132572199153,79.2,9.2,1030.0,0.85,6800
0.6484771105660402,84.0,9.2,1034.0,0.85,7000
0.6062356742481798,82.55,8.7,1043.0,0.85,7200
0.6464733638001651,82.85,9.25,1055.0,0.45,7400
0.6823396611015449,78.7,9.2,1063.0,0.95,7600
0.6691011483497082,81.3,9.3,1072.0,0.95,7800
0.6822044075598928,81.05,9.35,1079.0,0.55,8000
0.6732145261235347,79.15,9.45,1085.0,0.8,8200
0.673643016831118,80.8,9.2,1094.0,0.9,8400
0.663784533860732,80.2,9.35,1103.0,0.45,8600
0.6651875089196759,80.9,9.5,1108.0,0.8,8800
0.7235036781717719,80.3,9.85,1118.0,0.6,9000
0.6773624115950205,89.4,10.75,1129.0,1.05,9200
0.6435030685324645,83.0,9.3,1143.0,0.55,9400
0.6687438102269365,82.8,9.6,1149.0,0.7,9600
0.6878295967569975,86.1,10.65,1155.0,0.85,9800
0.6396025785004481,77.75,8.65,1165.0,0.6,10000
0.5115097380357614,38.2,1.6,70.0,0.15,200
0.5151486888693211,39.15,1.9,132.0,0.6,400
0.534795171909314,51.1,2.6,186.0,0.0,600
0.5813413397503137,68.45,5.35,249.0,0.1,800
0.5609215384204056,58.85,4.2,302.0,0.2,1000
0.5796221929247214,64.05,5.1,340.0,0.35,1200
0.5847710110926009,60.45,5.15,381.0,0.6,1400
0.5445775058637725,62.1,4.35,423.0,0.1,1600
0.5414319967214037,66.1,4.95,459.0,0.35,1800
0.5665314615257911,65.95,4.8,499.0,0.1,2000
0.5392479686399315,51.45,3.05,535.0,0.25,2200
0.5856153416793303,75.0,6.35,572.0,0.2,2400
0.5824182627901845,68.0,5.6,604.0,0.15,2600
0.5556220872405866,66.05,5.1,639.0,0.15,2800
0.5490748323498342,63.0,4.45,670.0,0.15,3000
0.5530485339940799,67.9,5.4,700.0,0.25,3200
0.5479852824820237,57.05,3.75,732.0,0.15,3400
0.5737328494331312,67.25,5.3,768.0,0.0,3600
0.5428371892836862,57.7,3.7,800.0,0.15,3800
0.5487299901069822,70.85,5.75,821.0,0.15,4000
0.5612579554635074,62.65,4.45,850.0,0.1,4200
0.5492514951814536,72.3,5.9,879.0,0.1,4400
0.5558949250235399,61.75,4.65,904.0,0.25,4600
0.5569851177251861,66.9,5.4,932.0,0.1,4800
0.5673442144596571,57.9,4.3,959.0,0.1,5000
0.5438396539069412,63.25,4.65,981.0,0.25,5200
0.6244110686916,73.6,6.55,1004.0,0.2,5400
0.5581643026552645,59.3,4.15,1028.0,0.1,5600
0.5800653118222414,63.7,4.9,1060.0,0.25,5800
0.5640396838073569,67.65,5.35,1082.0,0.2,6000
0.5764084972402814,77.7,7.05,1107.0,0.25,6200
0.6043354850436502,80.3,7.4,1137.0,0.15,6400
0.5759053715486323,75.55,6.8,1166.0,0.05,6600
0.6421964591660677,75.95,7.5,1184.0,0.3,6800
0.5989445743774792,69.8,6.3,1204.0,0.15,7000
0.5925426571009789,72.6,6.0,1221.0,0.3,7200
0.6184225252676706,78.75,7.4,1240.0,0.1,7400
0.5741388642851015,72.95,6.5,1255.0,0.25,7600
0.6172742385568128,85.1,7.9,1267.0,0.25,7800
0.5760430273668884,80.55,7.35,1286.0,0.15,8000
0.6210533852114353,66.6,6.1,1300.0,0.35,8200
0.5829934354294783,71.45,6.0,1318.0,0.25,8400
0.6230166289401622,81.9,8.25,1331.0,0.2,8600
0.5631704514087253,63.5,4.65,1346.0,0.15,8800
0.612190319492093,78.5,7.5,1358.0,0.25,9000
0.588530464119184,79.05,7.35,1369.0,0.15,9200
0.6169605602464209,78.35,7.65,1376.0,0.1,9400
0.6204917748757525,75.4,7.0,1387.0,0.2,9600
0.5988282853237739,78.55,7.75,1391.0,0.15,9800
0.6026574966544993,77.9,7.2,1402.0,0.25,10000
0.4874906908632153,36.85,1.25,78.0,0.4,200
0.5657097229942741,60.15,4.4,138.0,0.2,400
0.5355517273800507,52.05,3.1,194.0,0.45,600
0.5220802774154967,46.55,2.0,254.0,0.1,800
0.5748388393131278,52.9,3.8,306.0,0.35,1000
0.5826730120021654,60.0,4.45,349.0,0.15,1200
0.6253856056649358,77.15,7.25,400.0,0.3,1400
0.5584465325802475,58.7,4.3,442.0,0.45,1600
0.5879445940326016,60.95,5.1,485.0,0.6,1800
0.5874064008632081,57.9,4.75,523.0,0.5,2000
0.5432791224280524,54.9,3.5,555.0,0.15,2200
0.5866375124348766,67.25,5.45,588.0,0.2,2400
0.6060855010172798,66.7,5.6,621.0,0.45,2600
0.5932420103539919,72.45,6.6,656.0,0.3,2800
0.5626384673352103,72.9,6.65,691.0,0.55,3000
0.5667267253394501,72.55,6.8,729.0,0.4,3200
0.5894128847256908,72.65,6.55,766.0,0.3,3400
0.5959042657363687,69.2,6.35,798.0,0.45,3600
0.585859795686095,66.1,5.65,824.0,0.45,3800
0.5818709240350075,74.3,6.95,859.0,0.5,4000
0.5724781146926532,68.15,5.8,890.0,0.4,4200
0.5597302023417995,69.1,5.7,921.0,0.3,4400
0.5812705377762672,68.95,6.5,947.0,0.35,4600
0.5602972032105427,64.05,5.5,973.0,0.4,4800
0.5885671162384254,70.65,6.45,993.0,0.4,5000
0.5792100438091548,63.75,5.55,1018.0,0.45,5200
0.5813715946437223,72.0,6.5,1054.0,0.25,5400
0.5379569010072947,61.05,4.6,1082.0,0.25,5600
0.5665838860773831,61.55,5.15,1104.0,0.3,5800
0.5769601923855696,64.5,5.4,1125.0,0.45,6000
0.5715642828256892,70.05,5.9,1149.0,0.35,6200
0.5696783593844045,65.15,5.25,1170.0,0.35,6400
0.5786439625026818,65.1,5.8,1202.0,0.5,6600
0.5469256636512302,69.9,6.25,1228.0,0.4,6800
0.5676849465666777,54.6,4.2,1254.0,0.5,7000
0.5718137048712075,61.8,5.4,1277.0,0.6,7200
0.556804395118913,63.1,5.25,1290.0,0.3,7400
0.540287976271596,62.4,4.85,1311.0,0.3,7600
0.58854037639954,66.45,6.3,1330.0,0.65,7800
0.5562507805818347,66.0,5.05,1345.0,0.3,8000
0.5391955171946392,62.7,4.55,1361.0,0.25,8200
0.5798546609618217,77.6,7.1,1376.0,0.4,8400
0.6445888724858034,77.1,7.55,1391.0,0.25,8600
0.5920230537517371,65.85,5.8,1415.0,0.5,8800
0.5900349958017232,68.65,5.75,1427.0,0.3,9000
0.6456027975170116,79.45,8.0,1441.0,0.05,9200
0.5536476595483364,73.0,6.1,1454.0,0.45,9400
0.5707027552600763,62.5,5.6,1464.0,0.8,9600
0.6138508504012501,73.35,6.8,1478.0,0.35,9800
0.6102573877318538,70.2,6.35,1485.0,0.35,10000
0.46111651767483036,30.65,0.45,79.0,0.2,200
0.5481617226615433,59.65,4.2,129.0,0.25,400
0.5718936929596239,62.25,4.75,188.0,0.0,600
0.5340331823898266,51.8,2.95,251.0,0.0,800
0.5733946435965673,53.5,3.3,297.0,0.1,1000
0.5674010522693657,58.8,3.95,351.0,0.0,1200
0.5549263546240468,57.35,3.75,403.0,0.1,1400
0.5410842843018618,57.35,3.8,433.0,0.1,1600
0.5919478196679109,75.55,6.3,472.0,0.1,1800
0.59296232334529,62.3,4.5,511.0,0.3,2000
0.6275348684125484,75.05,7.45,556.0,0.5,2200
0.5507721319285834,65.35,4.85,597.0,0.35,2400
0.5694328566034531,67.35,5.7,637.0,0.45,2600
0.5735708267381596,69.75,6.0,666.0,0.4,2800
0.599095972514047,68.75,5.4,689.0,0.3,3000
0.5737593097372671,69.35,5.6,720.0,0.4,3200
0.6561569216838048,77.3,7.8,746.0,0.35,3400
0.6428170350935034,79.95,7.8,774.0,0.3,3600
0.5926926727193289,74.35,6.5,802.0,0.3,3800
0.5875055903264463,64.85,5.6,831.0,0.65,4000
0.5948711530763274,62.6,5.5,844.0,0.45,4200
0.5809759486904942,75.35,6.55,864.0,0.35,4400
0.5999659427688491,77.7,7.2,879.0,0.3,4600
0.5726624179815792,69.05,5.8,896.0,0.4,4800
0.6407221325045451,89.95,9.25,912.0,0.3,5000
0.6520674819414941,76.85,7.8,926.0,0.55,5200
0.6074993387548865,73.55,7.0,944.0,0.25,5400
0.5930353220899802,74.35,7.15,952.0,0.35,5600
0.5695920492157011,73.25,6.25,962.0,0.45,5800
0.6136636228155311,74.75,6.9,973.0,0.2,6000
0.6445347114457866,82.0,8.95,980.0,0.45,6200
0.6209174222038225,81.8,8.35,995.0,0.4,6400
0.586511814171858,72.55,7.0,1000.0,0.35,6600
0.64086768604808,76.2,8.0,1014.0,0.4,6800
0.6165147830451454,88.25,8.5,1025.0,0.35,7000
0.6250481802875469,78.0,7.8,1040.0,0.15,7200
0.6238348607449204,77.65,7.75,1051.0,0.55,7400
0.6288821984083507,88.45,9.8,1057.0,0.5,7600
0.6824639484082795,87.15,9.85,1065.0,0.5,7800
0.6259030000479227,79.6,8.65,1075.0,0.4,8000
0.6099005824138886,69.4,6.45,1085.0,0.4,8200
0.5822720218589511,72.2,7.15,1095.0,0.6,8400
0.5906958953743229,76.85,7.05,1099.0,0.5,8600
0.6521021982384692,76.65,8.15,1107.0,0.5,8800
0.6396024268937668,80.15,8.55,1114.0,0.35,9000
0.6493496364543395,88.55,9.6,1122.0,0.25,9200
0.6769798173709799,80.6,9.2,1123.0,0.55,9400
0.6823165037053835,86.45,10.1,1130.0,0.5,9600
0.6444163731440967,84.6,8.8,1136.0,0.45,9800
0.6434477961846704,83.6,9.15,1143.0,0.6,10000
0.4745279818764011,31.2,0.5,82.0,0.1,200
0.5087241712918147,41.1,1.95,137.0,0.5,400
0.5467551344351584,54.95,3.6,190.0,0.35,600
0.5880139343123483,64.55,5.25,243.0,0.25,800
0.5241955411776964,45.4,2.45,286.0,0.15,1000
0.5490257782816079,48.75,2.6,334.0,0.15,1200
0.5599145863120867,45.15,2.5,371.0,0.2,1400
0.5417645877327818,59.7,4.25,410.0,0.3,1600
0.5476894104109544,60.35,4.35,451.0,0.15,1800
0.5596901743119813,60.5,4.85,492.0,0.4,2000
0.5828720362822986,66.6,5.2,522.0,0.2,2200
0.6009466052395779,81.3,7.65,549.0,0.3,2400
0.6208529382426762,69.75,6.75,577.0,0.5,2600
0.5807319184913429,57.05,4.3,594.0,0.3,2800
0.6073608977101579,78.6,7.25,620.0,0.3,3000
0.5638006863515613,58.15,4.6,643.0,0.35,3200
0.5977169758178312,71.65,6.25,662.0,0.25,3400
0.5888358330355994,70.0,6.05,678.0,0.3,3600
0.5862793960769102,73.75,6.45,692.0,0.45,3800
0.5800052849523836,58.5,4.65,707.0,0.2,4000
0.5845802773719557,63.2,4.8,725.0,0.15,4200
0.5949531857599606,59.75,4.8,739.0,0.25,4400
0.6034548048465824,67.2,5.85,756.0,0.45,4600
0.6049618813084223,64.45,5.75,770.0,0.5,4800
0.5562136034659528,58.75,4.1,785.0,0.35,5000
0.5373050780725359,62.55,4.7,796.0,0.4,5200
0.6128429219500217,74.25,6.55,806.0,0.2,5400
0.6015755328538894,75.7,7.4,822.0,0.4,5600
0.5505017399324633,54.6,4.25,835.0,0.35,5800
0.575328612241964,74.7,6.65,846.0,0.3,6000
0.6328351883755687,88.0,9.1,856.0,0.35,6200
0.6107457197194961,69.35,7.1,863.0,0.25,6400
0.6278404549863462,77.35,7.5,876.0,0.2,6600
0.5746059530347465,69.5,5.95,886.0,0.05,6800
0.6027794015675625,71.1,6.85,893.0,0.2,7000
0.5794623691101686,57.35,4.5,907.0,0.3,7200
0.6009750111701975,71.55,6.3,917.0,0.1,7400
0.6442771065070154,90.95,9.95,928.0,0.3,7600
0.6004529849996125,74.35,6.85,940.0,0.3,7800
0.6023020907286264,73.8,7.15,947.0,0.15,8000
0.6565860501972894,80.45,7.9,958.0,0.2,8200
0.6750610771870414,83.7,8.9,963.0,0.2,8400
0.6370430821347892,81.95,8.35,973.0,0.35,8600
0.624463366086536,77.1,7.55,983.0,0.25,8800
0.6116687888002768,83.1,8.2,987.0,0.25,9000
0.6255234516330109,71.5,6.95,990.0,0.3,9200
0.5930564986148787,72.75,6.05,993.0,0.1,9400
0.6395782481286336,75.6,7.35,999.0,0.3,9600
0.6853473625433012,80.35,8.75,1004.0,0.2,9800
0.5949873087440055,75.05,6.85,1009.0,0.1,10000
0.5302004636604891,36.8,1.0,79.0,0.25,200
0.505808231686536,36.6,1.45,130.0,0.45,400
0.5718340399089255,56.0,3.65,172.0,0.1,600
0.5565156466730791,62.45,4.85,223.0,0.3,800
0.5646243913168916,64.3,4.9,277.0,0.25,1000
0.590397096262735,72.7,6.35,313.0,0.25,1200
0.5293393119624971,58.5,4.25,368.0,0.45,1400
0.5878707689244662,66.7,5.95,403.0,0.4,1600
0.5855326326057786,59.2,4.3,437.0,0.35,1800
0.56472065697388,61.35,5.0,479.0,0.6,2000
0.6555113753741525,71.55,7.5,509.0,0.55,2200
0.5822018823665099,66.3,5.95,549.0,0.6,2400
0.6137480576130515,66.1,6.05,575.0,0.75,2600
0.6453392310201568,82.05,8.9,606.0,0.75,2800
0.5990501324138184,73.3,7.35,639.0,0.85,3000
0.6177560107160504,74.15,8.2,667.0,0.8,3200
0.6324424479229274,69.65,6.85,698.0,0.55,3400
0.6294856393091,77.6,7.65,726.0,0.5,3600
0.5936647092657263,69.9,6.9,754.0,0.8,3800
0.6346175490442251,78.3,8.5,779.0,0.5,4000
0.6181535811440716,79.7,7.9,803.0,0.55,4200
0.6526567851139188,81.35,8.55,817.0,0.5,4400
0.6386375603364187,82.65,8.7,839.0,0.8,4600
0.6219590982994455,74.2,7.15,861.0,0.55,4800
0.6667539929693956,80.75,9.3,883.0,0.4,5000
0.6709966370035493,85.1,9.8,905.0,0.35,5200
0.6220811298267399,77.1,7.9,926.0,0.6,5400
0.6691829328380573,78.95,8.7,948.0,0.4,5600
0.6305186382461052,79.65,8.05,963.0,0.35,5800
0.6214899501035345,77.65,7.5,980.0,0.55,6000
0.6658085049197198,83.75,9.4,992.0,0.8,6200
0.6640123840949418,85.5,9.7,1006.0,0.3,6400
0.6293040997943526,77.9,7.65,1013.0,0.55,6600
0.6153374652664001,84.75,9.15,1022.0,0.3,6800
0.6207228834008868,77.55,8.2,1032.0,0.5,7000
0.6363655509133613,68.1,7.45,1045.0,0.5,7200
0.6778113438608127,90.95,10.45,1053.0,0.1,7400
0.6412744804580893,81.6,9.35,1063.0,0.4,7600
0.6956092835425438,93.8,11.55,1068.0,0.3,7800
0.6520865591767139,83.3,9.2,1079.0,0.5,8000
0.6401922685700545,73.8,8.0,1084.0,0.45,8200
0.6559364048274552,84.15,9.3,1089.0,0.7,8400
0.6666248011092799,72.8,8.25,1096.0,0.65,8600
0.6454955658626657,67.7,7.1,1101.0,0.65,8800
0.6265171332658049,80.05,8.7,1110.0,0.6,9000
0.6644384939352344,88.05,9.65,1116.0,0.4,9200
0.6028862309613959,81.0,8.3,1118.0,0.25,9400
0.7132079050116547,87.35,10.6,1124.0,0.3,9600
0.6883499916441649,94.7,11.55,1134.0,0.3,9800
0.678936271929824,89.25,10.25,1139.0,0.5,10000
0.4941158089071386,33.7,0.7,77.0,0.2,200
0.5100969046431557,43.65,2.05,125.0,0.55,400
0.5495699991499398,42.8,2.55,183.0,0.8,600
0.5959491352759707,67.1,6.4,242.0,0.75,800
0.5654808253266144,48.3,3.25,291.0,0.5,1000
0.5746041752622946,56.8,3.8,340.0,0.15,1200
0.5751711832855133,53.2,4.05,393.0,0.4,1400
0.5449928479186232,52.75,3.9,449.0,0.5,1600
0.5805359725623551,59.75,4.9,487.0,0.55,1800
0.5891415510475035,69.6,6.0,527.0,0.55,2000
0.58188944312425,74.8,7.05,563.0,0.5,2200
0.6015683238046305,77.4,7.8,618.0,0.6,2400
0.6022028249063117,67.45,6.5,651.0,0.4,2600
0.6721466013715427,77.95,8.15,692.0,0.3,2800
0.6130498134104976,65.75,5.85,725.0,0.4,3000
0.5749437747526163,73.2,6.75,759.0,0.5,3200
0.6152322211928234,72.95,6.75,790.0,0.6,3400
0.5702384396801292,71.45,5.95,826.0,0.35,3600
0.6065703632412429,73.85,7.15,858.0,0.25,3800
0.6233934244185793,75.2,7.45,887.0,0.55,4000
0.6093536345247687,59.95,5.55,927.0,0.7,4200
0.5844494604454533,81.65,8.2,963.0,0.6,4400
0.5987312819013522,71.8,6.65,999.0,0.7,4600
0.5903999690979875,79.4,7.9,1029.0,0.7,4800
0.5994749501695446,75.1,7.45,1053.0,0.65,5000
0.62847590426109,76.5,7.6,1072.0,0.55,5200
0.6459359200515323,78.85,7.85,1098.0,0.6,5400
0.6168779397676357,80.4,8.25,1125.0,0.55,5600
0.672940419685977,84.6,9.1,1143.0,0.45,5800
0.6466046541781025,81.85,9.2,1160.0,0.5,6000
0.6314914258347892,69.75,6.9,1188.0,0.8,6200
0.632726062637542,83.65,9.05,1209.0,0.75,6400
0.6245838170170206,73.3,7.5,1224.0,0.75,6600
0.6222727555765831,78.05,7.6,1237.0,0.35,6800
0.6275268940931681,81.45,8.35,1254.0,0.7,7000
0.6163244837861145,79.95,8.2,1271.0,0.55,7200
0.6328678676414006,71.8,7.15,1290.0,0.75,7400
0.616393167333327,73.7,7.2,1302.0,0.6,7600
0.6205984233818913,79.1,8.65,1314.0,0.75,7800
0.6083925050463072,79.8,8.0,1327.0,0.4,8000
0.6427094887855376,78.65,8.1,1344.0,0.5,8200
0.6109674162101952,77.95,8.1,1360.0,0.5,8400
0.651534299277957,89.6,10.05,1375.0,0.65,8600
0.6212212211507413,76.05,7.95,1386.0,0.6,8800
0.6400843712049603,84.95,9.65,1392.0,0.5,9000
0.6354135833415929,84.85,8.8,1403.0,0.35,9200
0.643358112154831,90.6,9.55,1416.0,0.45,9400
0.6882959148399023,85.55,9.95,1423.0,0.75,9600
0.6121594801430106,77.5,7.3,1438.0,0.5,9800
0.6126478729602951,77.65,7.8,1448.0,0.45,10000
