Energy,Episode length,Green food,Number of nodes,Red food,Trained time steps
0.5054452403964877,37.15,0.7,0.0,0.15,200
0.4949061737200539,37.7,0.9,0.0,0.35,400
0.4929585832692651,37.0,0.85,0.0,0.35,600
0.5361213269981324,40.25,1.3,0.0,0.35,800
0.513043251782842,42.15,1.4,0.0,0.35,1000
0.5105996824000635,36.95,0.85,0.0,0.35,1200
0.5197216475482677,41.2,1.2,0.0,0.25,1400
0.5042036719690057,40.0,1.1,0.0,0.35,1600
0.5080707877430958,36.35,0.7,0.0,0.4,1800
0.5296434752514885,41.15,1.35,0.0,0.5,2000
0.49959649615478485,38.65,1.0,0.0,0.3,2200
0.4990892478900326,39.35,1.1,0.0,0.4,2400
0.4914974697464906,36.15,0.8,0.0,0.4,2600
0.47694072264687215,36.5,0.65,0.0,0.3,2800
0.5004210493063403,38.45,1.0,0.0,0.35,3000
0.5031972091464816,37.7,0.85,0.0,0.3,3200
0.5121498759143914,37.8,0.95,0.0,0.45,3400
0.4986499714193462,37.4,0.95,0.0,0.45,3600
0.5052405749222794,36.7,1.0,0.0,0.55,3800
0.5104139259494238,43.6,1.4,0.0,0.15,4000
0.5150499586770156,38.6,0.8,0.0,0.25,4200
0.511409683470357,34.65,0.65,0.0,0.3,4400
0.507416901948142,38.5,1.05,0.0,0.55,4600
0.5204333768510303,38.2,0.95,0.0,0.25,4800
0.5040187728193743,35.8,0.8,0.0,0.4,5000
0.5099275584875302,37.2,0.75,0.0,0.25,5200
0.5237177803596725,39.65,1.2,0.0,0.25,5400
0.4844604450875691,39.1,1.1,0.0,0.35,5600
0.5035207794818438,37.45,1.05,0.0,0.35,5800
0.4911519951990343,41.65,1.25,0.0,0.25,6000
0.5200084788258803,38.95,1.05,0.0,0.55,6200
0.48031951299661513,37.75,0.9,0.0,0.35,6400
0.49672929339547156,38.45,0.85,0.0,0.1,6600
0.5109219556557613,36.0,0.9,0.0,0.55,6800
0.48706146389383403,39.7,1.05,0.0,0.3,7000
0.5041363052858808,38.1,1.05,0.0,0.55,7200
0.5192926729747753,40.25,1.1,0.0,0.3,7400
0.5123243779929498,34.9,0.85,0.0,0.4,7600
0.5044511870744426,37.15,0.85,0.0,0.4,7800
0.4676303362092071,39.6,1.0,0.0,0.3,8000
0.48853786837521956,38.75,0.8,0.0,0.2,8200
0.521105949681214,33.0,0.65,0.0,0.55,8400
0.49460051917187026,36.5,0.7,0.0,0.25,8600
0.502339548996298,37.8,1.05,0.0,0.4,8800
0.49834368637653065,36.6,0.8,0.0,0.4,9000
0.496444595889512,37.2,0.9,0.0,0.3,9200
0.49571773790623974,39.1,0.9,0.0,0.2,9400
0.49192434578207367,39.7,1.0,0.0,0.3,9600
0.5146204038249597,37.3,1.0,0.0,0.35,9800
0.4968183122283875,32.0,0.3,0.0,0.4,10000
0.5045471303403487,38.95,0.85,0.0,0.1,200
0.4812989926946578,38.55,1.05,0.0,0.45,400
0.5110847942316611,37.65,1.05,0.0,0.3,600
0.5213397927382679,38.6,1.2,0.0,0.45,800
0.5052675751243337,38.8,1.05,0.0,0.35,1000
0.5024468985774045,36.5,0.8,0.0,0.4,1200
0.5217775718638717,43.9,1.7,0.0,0.35,1400
0.5076614907945848,38.2,0.95,0.0,0.25,1600
0.520316651751408,43.9,1.5,0.0,0.2,1800
0.5182395407220457,40.6,1.15,0.0,0.35,2000
0.49281388686850836,38.95,1.1,0.0,0.3,2200
0.4800818174451589,36.9,0.8,0.0,0.3,2400
0.488185775734599,38.45,0.85,0.0,0.2,2600
0.5009821245515282,41.8,1.2,0.0,0.2,2800
0.4814991950560993,41.35,1.15,0.0,0.2,3000
0.4932937665886971,40.3,1.1,0.0,0.25,3200
0.49128519147251826,37.0,1.05,0.0,0.6,3400
0.4644712494192148,37.45,0.85,0.0,0.35,3600
0.5083727935521817,40.9,1.2,0.0,0.25,3800
0.5043876296805763,39.2,0.95,0.0,0.25,4000
0.4910178844741055,38.6,0.9,0.0,0.15,4200
0.48910406722632416,38.2,0.95,0.0,0.4,4400
0.5076145845258413,39.05,0.9,0.0,0.15,4600
0.48806875569275726,38.55,1.05,0.0,0.25,4800
0.521347242937423,39.65,1.1,0.0,0.25,5000
0.5128528441539068,39.75,1.05,0.0,0.35,5200
0.5202292734955496,37.65,0.95,0.0,0.45,5400
0.503243511107789,39.0,1.0,0.0,0.15,5600
0.48055825297964494,43.2,1.4,0.0,0.25,5800
0.5072905218455117,37.8,1.2,0.0,0.55,6000
0.4816500701288634,41.05,1.2,0.0,0.4,6200
0.5112247669028618,37.4,1.05,0.0,0.4,6400
0.5053931911339731,39.7,1.15,0.0,0.25,6600
0.5141189487317809,37.35,0.95,0.0,0.55,6800
0.5067644648453091,39.7,1.1,0.0,0.4,7000
0.512474192152559,39.0,1.2,0.0,0.5,7200
0.4988381427508881,37.4,1.05,0.0,0.45,7400
0.49479206062806574,35.7,0.7,0.0,0.25,7600
0.49265135623699124,34.75,0.6,0.0,0.4,7800
0.5029884155012738,36.9,0.9,0.0,0.45,8000
0.48469688417939505,35.35,0.5,0.0,0.25,8200
0.48216340088053744,38.1,0.95,0.0,0.4,8400
0.5058559072299254,40.05,1.15,0.0,0.4,8600
0.4940116231107483,39.4,1.0,0.0,0.35,8800
0.5189306232120909,37.7,0.9,0.0,0.4,9000
0.5047700228759596,38.7,0.75,0.0,0.05,9200
0.4969141334738314,36.4,0.9,0.0,0.5,9400
0.49484233460701255,36.4,0.7,0.0,0.35,9600
0.4886585441749773,37.95,0.85,0.0,0.3,9800
0.5042167376016862,36.4,0.9,0.0,0.35,10000
0.49925963737647405,39.7,1.05,0.0,0.3,200
0.5122822488226045,36.7,0.9,0.0,0.35,400
0.5114004177016385,45.25,1.7,0.0,0.25,600
0.5118820033386833,40.3,1.15,0.0,0.25,800
0.4983969820890605,34.2,0.6,0.0,0.35,1000
0.5296745487078044,37.25,1.05,0.0,0.4,1200
0.5227943921528369,37.05,0.9,0.0,0.2,1400
0.5214981707167887,37.75,1.05,0.0,0.4,1600
0.5160905790703971,37.4,0.8,0.0,0.2,1800
0.4912650967830148,42.35,1.45,0.0,0.35,2000
0.5068619630977785,34.4,0.6,0.0,0.35,2200
0.5014236130171779,41.3,1.35,0.0,0.4,2400
0.502527637011829,36.8,0.75,0.0,0.25,2600
0.5188482753224914,40.05,1.05,0.0,0.25,2800
0.4790146297446671,40.6,0.9,0.0,0.15,3000
0.5071341551536114,36.2,0.75,0.0,0.4,3200
0.5106556660454767,36.15,1.0,0.0,0.5,3400
0.48805149194150177,38.6,0.95,0.0,0.35,3600
0.5035598770273271,39.1,1.0,0.0,0.3,3800
0.5082106110701483,40.55,1.0,0.0,0.15,4000
0.5034588359188369,35.5,0.7,0.0,0.35,4200
0.512503288418958,36.65,0.85,0.0,0.35,4400
0.5161884776233031,39.35,1.15,0.0,0.3,4600
0.4926332334845778,42.3,1.4,0.0,0.25,4800
0.5045189375695565,36.1,0.75,0.0,0.35,5000
0.4997822136220629,40.15,1.1,0.0,0.3,5200
0.5064968410311906,34.4,0.55,0.0,0.3,5400
0.4945766697882556,39.2,0.9,0.0,0.2,5600
0.4862544761094213,37.05,1.1,0.0,0.55,5800
0.5254701708767857,38.45,1.0,0.0,0.4,6000
0.48056972223366473,34.15,0.7,0.0,0.45,6200
0.49097543433542123,35.15,0.55,0.0,0.3,6400
0.49721614550061666,35.0,0.75,0.0,0.45,6600
0.5115100883580241,35.6,0.8,0.0,0.35,6800
0.48908921765320174,39.95,1.1,0.0,0.25,7000
0.5224146930738347,35.75,0.8,0.0,0.45,7200
0.5228051759036971,40.25,1.15,0.0,0.25,7400
0.5212495483694707,38.8,1.0,0.0,0.25,7600
0.49473773730839543,37.0,0.8,0.0,0.3,7800
0.49095532771550837,33.0,0.6,0.0,0.5,8000
0.49391935208988835,38.0,0.9,0.0,0.3,8200
0.511353066935589,40.75,1.2,0.0,0.2,8400
0.5199424290319415,40.4,1.3,0.0,0.45,8600
0.5063291257294182,38.45,1.05,0.0,0.3,8800
0.5251408277998741,36.9,1.05,0.0,0.45,9000
0.5021037306119581,37.85,0.8,0.0,0.3,9200
0.5049161207373707,41.3,1.35,0.0,0.4,9400
0.5110932044727612,38.95,1.05,0.0,0.3,9600
0.5151241413934342,38.1,0.85,0.0,0.25,9800
0.5004207722605194,39.9,1.0,0.0,0.15,10000
0.5198019639489451,42.55,1.4,0.0,0.3,200
0.4932843873332753,35.3,0.6,0.0,0.3,400
0.5123058679177604,38.0,0.85,0.0,0.25,600
0.5326784759814476,39.45,1.1,0.0,0.3,800
0.4973297936541699,42.15,1.2,0.0,0.1,1000
0.4816504084731072,33.55,0.5,0.0,0.45,1200
0.4659885348403246,38.2,0.8,0.0,0.25,1400
0.5317101524533756,36.85,1.0,0.0,0.5,1600
0.5084653208836276,40.35,1.05,0.0,0.3,1800
0.4987014383033144,41.65,1.35,0.0,0.35,2000
0.5040089218314809,44.6,1.6,0.0,0.25,2200
0.4825449889137464,43.0,1.35,0.0,0.2,2400
0.49412718999066857,38.7,1.15,0.0,0.35,2600
0.47756272866446975,40.45,1.05,0.0,0.25,2800
0.4988596140135346,37.5,0.85,0.0,0.2,3000
0.5076124881323596,37.5,0.95,0.0,0.3,3200
0.5011371941058307,37.95,0.75,0.0,0.25,3400
0.48120013424726,39.05,1.1,0.0,0.4,3600
0.4947543846805146,39.2,1.05,0.0,0.4,3800
0.47732920177964056,36.5,0.65,0.0,0.2,4000
0.5148740317482658,37.2,0.75,0.0,0.3,4200
0.5250967990678558,38.15,1.2,0.0,0.45,4400
0.4886763709447357,33.0,0.5,0.0,0.35,4600
0.5212990219829006,40.0,1.15,0.0,0.3,4800
0.5089626295070614,41.35,1.2,0.0,0.2,5000
0.4921327944981024,36.85,0.9,0.0,0.45,5200
0.5082822931716044,40.25,1.15,0.0,0.4,5400
0.5029317868143546,36.95,0.85,0.0,0.3,5600
0.4891059619161734,38.8,0.95,0.0,0.25,5800
0.5158195354951465,36.95,0.9,0.0,0.35,6000
0.4975665416473964,36.75,0.8,0.0,0.4,6200
0.5263569005929042,43.5,1.35,0.0,0.2,6400
0.4912547401690944,37.8,0.9,0.0,0.35,6600
0.4921099578842608,37.4,0.85,0.0,0.4,6800
0.4804670860074241,38.85,1.0,0.0,0.3,7000
0.48987020406900406,34.8,0.5,0.0,0.2,7200
0.4895420707577265,35.95,0.75,0.0,0.35,7400
0.5112407152116729,40.7,1.3,0.0,0.25,7600
0.5278608128152146,33.5,0.6,0.0,0.5,7800
0.499796499202521,39.55,1.05,0.0,0.3,8000
0.5020251443852073,35.35,0.8,0.0,0.45,8200
0.5027807613382775,40.65,1.1,0.0,0.25,8400
0.5077141730387836,42.55,1.35,0.0,0.25,8600
0.5019128436308259,40.4,1.1,0.0,0.25,8800
0.4976133000185127,35.25,0.65,0.0,0.35,9000
0.4996192936235169,37.8,0.85,0.0,0.25,9200
0.4988704553188052,35.35,0.95,0.0,0.55,9400
0.5048381540886752,39.25,0.9,0.0,0.2,9600
0.5149703155121498,36.05,0.95,0.0,0.55,9800
0.516894077418758,37.4,0.8,0.0,0.1,10000
0.4934683849493425,43.8,1.45,0.0,0.2,200
0.4858747858960747,37.35,0.75,0.0,0.15,400
0.5087165512301459,38.95,0.85,0.0,0.2,600
0.49080607307673746,37.4,0.75,0.0,0.25,800
0.5038179520353623,42.45,1.25,0.0,0.2,1000
0.4832937533413724,37.2,0.95,0.0,0.4,1200
0.5033414664684028,33.05,0.5,0.0,0.4,1400
0.505738644656295,38.4,0.95,0.0,0.3,1600
0.47994912138591816,36.65,0.85,0.0,0.4,1800
0.4796734891676596,36.9,0.8,0.0,0.3,2000
0.5163072594643978,40.1,1.3,0.0,0.4,2200
0.5090767742391532,42.05,1.25,0.0,0.3,2400
0.4913368333397692,39.85,0.95,0.0,0.25,2600
0.522388113187479,39.85,1.15,0.0,0.25,2800
0.4558175425836269,37.4,0.95,0.0,0.45,3000
0.5248383341835455,37.85,1.05,0.0,0.4,3200
0.5064055411992443,35.8,0.8,0.0,0.35,3400
0.5187861853327621,39.55,1.15,0.0,0.5,3600
0.48839239591331324,36.1,0.9,0.0,0.65,3800
0.5006551243583163,37.5,0.75,0.0,0.15,4000
0.5039237188643347,36.2,0.85,0.0,0.5,4200
0.5083682570331726,40.95,1.25,0.0,0.2,4400
0.5024155265256515,38.65,1.15,0.0,0.4,4600
0.49792824407131286,41.1,1.1,0.0,0.2,4800
0.48253290733531395,32.65,0.6,0.0,0.7,5000
0.49933868241730056,40.8,1.0,0.0,0.15,5200
0.49206133687039005,40.75,1.2,0.0,0.35,5400
0.5194139381414173,42.6,1.45,0.0,0.3,5600
0.50768302548771,34.7,0.65,0.0,0.35,5800
0.5053472601891319,35.0,0.65,0.0,0.35,6000
0.5295664514244015,35.55,0.75,0.0,0.3,6200
0.511283527797457,38.3,1.2,0.0,0.5,6400
0.5189007755582392,38.9,1.05,0.0,0.4,6600
0.4883420504359159,37.2,0.9,0.0,0.4,6800
0.4929865932748788,38.45,1.05,0.0,0.35,7000
0.5059010825726651,38.2,0.95,0.0,0.3,7200
0.49370660896129365,37.95,0.85,0.0,0.3,7400
0.4917644322799274,40.65,1.2,0.0,0.3,7600
0.5042123690760635,38.5,0.95,0.0,0.3,7800
0.5032709769303514,38.8,0.95,0.0,0.3,8000
0.5180720900178846,41.0,1.35,0.0,0.3,8200
0.5149287304783426,39.35,1.2,0.0,0.45,8400
0.4937177595407919,39.75,1.15,0.0,0.4,8600
0.5054614813760254,42.2,1.25,0.0,0.15,8800
0.5046884128768624,39.2,1.1,0.0,0.45,9000
0.49740036768449053,38.4,0.95,0.0,0.3,9200
0.4995910496030976,37.7,0.9,0.0,0.25,9400
0.5138405057513087,45.55,1.75,0.0,0.3,9600
0.5042718069443379,39.1,1.2,0.0,0.3,9800
0.5123725670474777,39.15,1.0,0.0,0.2,10000
0.4844688072917035,36.9,0.9,0.0,0.4,200
0.4942379312458221,42.95,1.3,0.0,0.2,400
0.5144255811154228,39.2,1.15,0.0,0.45,600
0.5012238260558549,37.4,0.7,0.0,0.2,800
0.499362526817389,34.3,0.6,0.0,0.4,1000
0.5059801577135887,40.15,1.3,0.0,0.4,1200
0.5108593233114308,35.5,0.75,0.0,0.4,1400
0.4881880220917717,34.15,0.65,0.0,0.55,1600
0.505965839892158,36.75,0.8,0.0,0.25,1800
0.5080997169611162,35.55,0.85,0.0,0.55,2000
0.5065977324884496,42.85,1.3,0.0,0.2,2200
0.482003896707312,39.3,1.1,0.0,0.4,2400
0.5143151053303594,41.75,1.25,0.0,0.2,2600
0.495294382911131,40.05,1.1,0.0,0.2,2800
0.48660766447511294,36.45,0.8,0.0,0.4,3000
0.5084114196270186,40.4,1.15,0.0,0.3,3200
0.5017405820727803,42.65,1.55,0.0,0.25,3400
0.49230056134371214,44.15,1.4,0.0,0.15,3600
0.5199927370910385,40.5,1.1,0.0,0.2,3800
0.5382364646917543,36.5,1.05,0.0,0.4,4000
0.5092965162159232,38.55,0.85,0.0,0.3,4200
0.5129461234848003,40.3,1.1,0.0,0.2,4400
0.4949492285694956,38.5,0.85,0.0,0.15,4600
0.4773073562059332,37.35,0.8,0.0,0.3,4800
0.5136401925731199,41.15,1.4,0.0,0.4,5000
0.5015045763395106,35.55,0.7,0.0,0.35,5200
0.5053009004932058,37.8,1.0,0.0,0.25,5400
0.5250948833130702,39.05,1.1,0.0,0.4,5600
0.4960631026864243,40.55,1.2,0.0,0.3,5800
0.5000648542767143,38.8,1.15,0.0,0.4,6000
0.49260058397066864,39.2,1.05,0.0,0.4,6200
0.5120061732753899,35.35,0.75,0.0,0.4,6400
0.5135538445475477,38.1,1.0,0.0,0.35,6600
0.5047794180945753,38.6,1.1,0.0,0.35,6800
0.5022904828090943,37.7,0.7,0.0,0.1,7000
0.5097594911231773,38.9,1.15,0.0,0.35,7200
0.5007075803545629,34.85,0.65,0.0,0.4,7400
0.503138021514876,37.45,0.85,0.0,0.35,7600
0.5242568320268408,40.75,1.3,0.0,0.35,7800
0.5088066433203806,37.55,0.95,0.0,0.4,8000
0.5037880031079445,37.15,0.7,0.0,0.2,8200
0.5064493628091662,37.8,1.0,0.0,0.4,8400
0.504467576243549,38.85,0.9,0.0,0.2,8600
0.4987606261901667,38.05,0.95,0.0,0.4,8800
0.48992217795423826,35.2,0.7,0.0,0.45,9000
0.5085170260566805,40.1,1.25,0.0,0.3,9200
0.5097653058158669,36.75,1.05,0.0,0.65,9400
0.49575721999916417,36.85,1.0,0.0,0.5,9600
0.5022437333881087,36.9,0.75,0.0,0.3,9800
0.5101693640905725,37.35,0.95,0.0,0.45,10000
0.501950253681911,40.15,1.1,0.0,0.15,200
0.5137896312627852,41.55,1.15,0.0,0.2,400
0.5369661752211489,42.05,1.35,0.0,0.3,600
0.5108781107262007,36.6,0.9,0.0,0.45,800
0.5012884732745186,36.6,0.6,0.0,0.2,1000
0.5092659031454673,40.05,1.2,0.0,0.35,1200
0.518615276359684,31.35,0.55,0.0,0.65,1400
0.48455839889696894,34.4,0.6,0.0,0.35,1600
0.5143167829350548,43.8,1.5,0.0,0.2,1800
0.49693632923692305,41.35,1.1,0.0,0.15,2000
0.517742324957631,37.25,0.75,0.0,0.25,2200
0.5206440847351644,38.25,1.1,0.0,0.4,2400
0.5039764136700773,37.35,0.9,0.0,0.35,2600
0.500607648436296,36.85,0.9,0.0,0.4,2800
0.5045830989817979,40.25,1.1,0.0,0.25,3000
0.5168625139102538,38.1,1.0,0.0,0.35,3200
0.5036761546799584,36.6,0.7,0.0,0.35,3400
0.517520229630685,43.2,1.45,0.0,0.25,3600
0.4837907176248793,37.15,0.9,0.0,0.35,3800
0.486878742541903,35.6,0.85,0.0,0.4,4000
0.524950352924435,44.7,1.4,0.0,0.0,4200
0.5023132997163408,41.2,1.35,0.0,0.4,4400
0.48039317741540105,40.45,1.25,0.0,0.3,4600
0.517873184471543,38.0,1.05,0.0,0.35,4800
0.49937506458707503,38.95,1.0,0.0,0.3,5000
0.5118457496470852,36.65,0.9,0.0,0.3,5200
0.5023971331652035,37.1,0.85,0.0,0.3,5400
0.5047145093176317,41.85,1.2,0.0,0.2,5600
0.5224906498012996,41.3,1.4,0.0,0.5,5800
0.5201190231463524,37.55,0.95,0.0,0.25,6000
0.4940099799722792,39.85,1.05,0.0,0.25,6200
0.5021811304672337,38.75,0.9,0.0,0.15,6400
0.5163066110233251,40.65,1.05,0.0,0.15,6600
0.5027576408232444,36.4,0.95,0.0,0.4,6800
0.49982451338330797,37.9,1.15,0.0,0.55,7000
0.5165109572970387,37.9,0.95,0.0,0.3,7200
0.49618912594323217,34.95,0.65,0.0,0.35,7400
0.5051935128651303,37.05,0.65,0.0,0.25,7600
0.5286502524437566,36.9,1.0,0.0,0.35,7800
0.5033492378268407,38.9,0.9,0.0,0.3,8000
0.5172507041685727,36.05,0.85,0.0,0.5,8200
0.5011062385590532,34.65,0.9,0.0,0.6,8400
0.5107782546110015,35.35,0.65,0.0,0.4,8600
0.492490948783339,43.9,1.35,0.0,0.2,8800
0.5268470350094558,41.5,1.2,0.0,0.25,9000
0.49234988755210907,37.45,0.9,0.0,0.4,9200
0.4994174419111526,37.7,0.75,0.0,0.25,9400
0.4873049667899235,40.05,1.1,0.0,0.3,9600
0.48659241825916827,39.75,1.1,0.0,0.55,9800
0.5023854847805965,40.95,1.1,0.0,0.25,10000
0.48831146933171315,39.1,1.1,0.0,0.35,200
0.5088995276080099,34.35,0.7,0.0,0.5,400
0.4896065201520212,37.85,0.75,0.0,0.25,600
0.5036652184948808,40.6,1.1,0.0,0.35,800
0.4995421513015105,41.5,1.2,0.0,0.4,1000
0.5058418444423417,34.7,0.8,0.0,0.45,1200
0.5101321844276525,39.65,1.05,0.0,0.3,1400
0.5121232823537428,36.3,0.75,0.0,0.5,1600
0.5062280413709915,36.7,0.95,0.0,0.5,1800
0.5008528668235326,37.6,0.9,0.0,0.4,2000
0.4791306831781611,38.15,1.0,0.0,0.4,2200
0.4939281402874375,37.9,0.8,0.0,0.3,2400
0.5160836590441995,39.75,0.95,0.0,0.3,2600
0.49535088411406375,37.05,0.95,0.0,0.35,2800
0.49855209066259387,34.45,0.65,0.0,0.35,3000
0.49340553506706586,37.8,0.85,0.0,0.2,3200
0.5226368284986515,41.85,1.3,0.0,0.3,3400
0.506351033733477,35.75,0.75,0.0,0.3,3600
0.4763814402899623,35.4,0.7,0.0,0.35,3800
0.5193350314026881,36.3,0.75,0.0,0.4,4000
0.522338567153985,39.65,1.2,0.0,0.45,4200
0.5230664325315779,39.85,1.05,0.0,0.35,4400
0.48497049411898774,37.05,0.8,0.0,0.25,4600
0.5172222916662498,40.9,1.35,0.0,0.3,4800
0.5016226448415587,37.2,0.9,0.0,0.45,5000
0.49829796359822903,37.9,0.95,0.0,0.3,5200
0.5249945568451682,40.7,1.25,0.0,0.45,5400
0.4993318546713061,38.25,1.15,0.0,0.45,5600
0.5119628162854524,38.2,1.15,0.0,0.5,5800
0.5074023734539309,39.7,1.15,0.0,0.4,6000
0.49822238158093135,38.75,0.95,0.0,0.3,6200
0.5062130017946374,40.95,1.05,0.0,0.15,6400
0.505934974532546,38.4,1.0,0.0,0.4,6600
0.502200026592581,41.4,1.2,0.0,0.25,6800
0.5181267239723485,39.75,1.25,0.0,0.35,7000
0.5017049163451315,39.65,1.0,0.0,0.3,7200
0.5223870989188778,41.4,1.45,0.0,0.35,7400
0.4991798178516766,39.9,1.1,0.0,0.2,7600
0.4972441030815308,37.85,1.05,0.0,0.3,7800
0.5001733050111976,37.95,0.85,0.0,0.3,8000
0.5036109836471554,35.9,0.65,0.0,0.25,8200
0.5007352769163451,39.8,1.1,0.0,0.3,8400
0.5187537277592995,36.65,0.8,0.0,0.4,8600
0.5138491360340928,37.55,0.9,0.0,0.25,8800
0.5127483447573489,37.15,0.85,0.0,0.25,9000
0.4773477894322701,36.85,0.8,0.0,0.35,9200
0.4961342361418957,36.95,0.8,0.0,0.35,9400
0.4963292471983329,37.1,0.8,0.0,0.3,9600
0.49798656374967676,37.95,0.9,0.0,0.45,9800
0.5157671517129645,38.25,0.95,0.0,0.3,10000
0.4907123364189189,36.9,0.8,0.0,0.25,200
0.49508894936759623,41.2,1.15,0.0,0.1,400
0.4893732111452572,43.95,1.3,0.0,0.1,600
0.483144056770465,38.35,0.9,0.0,0.3,800
0.4979086076068103,37.55,1.05,0.0,0.45,1000
0.501487088938833,38.7,0.85,0.0,0.25,1200
0.5064697948018947,38.3,1.15,0.0,0.4,1400
0.5115994360283098,38.25,0.95,0.0,0.3,1600
0.503270767920456,36.6,1.0,0.0,0.45,1800
0.48992878562686065,36.85,0.9,0.0,0.45,2000
0.5025466153525524,37.65,1.0,0.0,0.35,2200
0.5168324335204534,37.85,0.95,0.0,0.35,2400
0.5139885409123377,38.15,0.8,0.0,0.25,2600
0.5011211997767633,36.2,1.0,0.0,0.55,2800
0.5003976723259786,40.7,1.2,0.0,0.35,3000
0.4956546377809616,37.0,0.9,0.0,0.5,3200
0.49253855865954244,38.5,1.0,0.0,0.2,3400
0.5129031132297704,38.55,1.2,0.0,0.45,3600
0.5003791981829971,38.0,0.95,0.0,0.3,3800
0.5329093789431771,41.1,1.2,0.0,0.25,4000
0.48866688392133273,37.15,0.9,0.0,0.35,4200
0.5188127829281373,40.3,1.15,0.0,0.25,4400
0.5044743808859378,37.7,1.0,0.0,0.5,4600
0.49428720156747286,38.55,1.1,0.0,0.2,4800
0.4995015750450816,39.4,1.15,0.0,0.4,5000
0.5188706687508313,39.25,1.05,0.0,0.25,5200
0.5144039615609313,37.25,0.9,0.0,0.35,5400
0.5122937700234061,36.3,0.75,0.0,0.25,5600
0.5266091537699624,40.35,1.15,0.0,0.3,5800
0.49715300039264976,35.75,0.65,0.0,0.25,6000
0.5167673886359666,39.35,1.15,0.0,0.35,6200
0.49441775927485604,43.2,1.3,0.0,0.15,6400
0.5398398460099695,39.0,0.95,0.0,0.25,6600
0.49882006846877325,36.8,0.8,0.0,0.3,6800
0.5033049708876156,37.95,0.85,0.0,0.25,7000
0.4991588802444745,40.75,1.0,0.0,0.15,7200
0.47907574500997335,41.1,1.1,0.0,0.2,7400
0.5135489557040551,38.2,0.9,0.0,0.3,7600
0.49566527128157656,40.35,1.2,0.0,0.35,7800
0.4996948713472472,37.7,0.8,0.0,0.15,8000
0.5020839366898071,38.65,1.0,0.0,0.2,8200
0.487195764897672,34.4,0.65,0.0,0.4,8400
0.48390253887449275,39.8,1.05,0.0,0.3,8600
0.5193342993501753,44.5,1.6,0.0,0.25,8800
0.49586924150468004,39.45,1.05,0.0,0.15,9000
0.48000606008932245,37.3,0.75,0.0,0.25,9200
0.49687319085512494,38.35,0.85,0.0,0.25,9400
0.5347511392116987,38.7,1.05,0.0,0.4,9600
0.49401930446653797,38.85,0.8,0.0,0.25,9800
0.5030767988613039,36.55,0.8,0.0,0.5,10000
0.506180511162832,41.6,1.2,0.0,0.25,200
0.5199260368662448,40.9,1.2,0.0,0.15,400
0.4874308019992948,37.5,0.9,0.0,0.3,600
0.5206776722485542,38.65,1.0,0.0,0.35,800
0.4787839786501623,33.45,0.65,0.0,0.6,1000
0.48596411401000916,33.6,0.4,0.0,0.25,1200
0.4979751713104852,39.0,0.85,0.0,0.25,1400
0.5020149342461532,41.75,1.3,0.0,0.35,1600
0.5090856877463649,41.0,1.25,0.0,0.3,1800
0.5065049597403236,38.45,1.05,0.0,0.3,2000
0.4945913240236729,37.8,0.7,0.0,0.15,2200
0.514649671142824,40.1,1.0,0.0,0.15,2400
0.5125823743509195,43.5,1.45,0.0,0.2,2600
0.5025760241118746,41.25,1.15,0.0,0.25,2800
0.5117339214764531,37.1,0.9,0.0,0.45,3000
0.5216742230109174,41.15,1.15,0.0,0.1,3200
0.526771802604502,42.2,1.4,0.0,0.3,3400
0.5074208584532967,37.55,0.85,0.0,0.4,3600
0.500836321203568,40.3,1.05,0.0,0.2,3800
0.47571926901772554,42.1,1.2,0.0,0.2,4000
0.5029919816092853,36.75,0.85,0.0,0.3,4200
0.5291307205908986,40.3,1.05,0.0,0.2,4400
0.5197196478183752,37.55,0.95,0.0,0.45,4600
0.4874997410240248,39.95,1.25,0.0,0.45,4800
0.4931435711617123,36.9,0.95,0.0,0.4,5000
0.4926969827253225,34.65,0.7,0.0,0.45,5200
0.5082615577235764,44.5,1.3,0.0,0.15,5400
0.4983231114570558,36.95,0.9,0.0,0.25,5600
0.4991000657605734,36.0,0.85,0.0,0.45,5800
0.518899115576618,39.7,1.1,0.0,0.4,6000
0.501151581512288,39.35,1.05,0.0,0.25,6200
0.49536498395570294,37.9,0.9,0.0,0.45,6400
0.4656787075514354,37.95,0.95,0.0,0.45,6600
0.5145686874101177,41.55,1.2,0.0,0.2,6800
0.4977978406045338,37.55,1.0,0.0,0.4,7000
0.512578724810177,41.05,1.1,0.0,0.25,7200
0.5048195683667116,40.8,0.95,0.0,0.1,7400
0.5141799180790556,42.1,1.4,0.0,0.4,7600
0.504400179585998,38.25,1.05,0.0,0.35,7800
0.5077096076709702,34.85,0.65,0.0,0.4,8000
0.4892957902547447,37.05,0.75,0.0,0.25,8200
0.5029623639203037,33.9,0.75,0.0,0.6,8400
0.4954102170556194,38.1,1.05,0.0,0.4,8600
0.5104610696494313,36.05,0.85,0.0,0.45,8800
0.5072022368822174,40.8,1.05,0.0,0.2,9000
0.4941433050456955,39.35,0.85,0.0,0.2,9200
0.4951370548568078,34.5,0.75,0.0,0.4,9400
0.5031349588896722,40.1,1.05,0.0,0.1,9600
0.5044997172349792,34.75,0.65,0.0,0.45,9800
0.4908047941525978,37.45,0.8,0.0,0.25,10000
0.5211982337114236,37.85,0.8,0.0,0.3,200
0.5183568812262769,37.65,0.85,0.0,0.5,400
0.5085438111535472,38.9,1.0,0.0,0.35,600
0.5116920210699343,39.0,0.95,0.0,0.2,800
0.4935048507128469,42.35,1.2,0.0,0.15,1000
0.49687954989025523,36.3,0.75,0.0,0.25,1200
0.48789201670814497,40.95,1.2,0.0,0.25,1400
0.5101599160212351,38.35,0.9,0.0,0.25,1600
0.4710649485753252,35.4,0.45,0.0,0.2,1800
0.4718234753126206,37.45,0.85,0.0,0.3,2000
0.4885134625001193,41.05,1.1,0.0,0.2,2200
0.5203536262702559,39.65,1.15,0.0,0.5,2400
0.5020423252778252,39.05,1.05,0.0,0.3,2600
0.5287217178267216,37.5,0.95,0.0,0.25,2800
0.517192028941847,40.45,1.15,0.0,0.2,3000
0.48843490232379044,41.8,1.1,0.0,0.15,3200
0.5205324145616328,44.0,1.55,0.0,0.25,3400
0.487670929990757,38.15,0.85,0.0,0.2,3600
0.5102813741756922,33.85,0.45,0.0,0.3,3800
0.5082413396902327,37.25,0.9,0.0,0.3,4000
0.5136594947298716,38.85,1.05,0.0,0.35,4200
0.4983748294958866,38.35,1.0,0.0,0.45,4400
0.5069093058648233,38.65,1.05,0.0,0.35,4600
0.4941851226109223,40.15,1.05,0.0,0.35,4800
0.49216128843302726,43.45,1.35,0.0,0.35,5000
0.4959070803293127,39.6,1.2,0.0,0.45,5200
0.506366812388096,36.75,0.9,0.0,0.45,5400
0.5046820653687351,39.9,1.0,0.0,0.25,5600
0.4847732914588222,41.15,1.25,0.0,0.3,5800
0.4818121629304997,38.95,1.0,0.0,0.35,6000
0.49741252746236125,37.2,0.9,0.0,0.35,6200
0.4979100334659652,35.85,0.75,0.0,0.3,6400
0.5115810352606848,35.7,0.7,0.0,0.35,6600
0.4959923974271577,35.55,0.7,0.0,0.4,6800
0.4876253545913574,42.8,1.55,0.0,0.4,7000
0.5086600299695063,37.85,1.05,0.0,0.5,7200
0.4972665492518882,38.05,0.95,0.0,0.35,7400
0.48623161878349,39.9,1.05,0.0,0.3,7600
0.5152328774358748,41.75,1.2,0.0,0.3,7800
0.5025185468496773,40.4,1.2,0.0,0.25,8000
0.5105528414838955,38.55,1.0,0.0,0.25,8200
0.5163390802619607,39.5,1.25,0.0,0.35,8400
0.5130896466101594,37.6,0.95,0.0,0.3,8600
0.5160726928586103,39.35,1.2,0.0,0.35,8800
0.5037369807640146,42.95,1.3,0.0,0.15,9000
0.5137593197562751,39.1,1.25,0.0,0.45,9200
0.5032620763521599,38.05,1.0,0.0,0.3,9400
0.5339188435056477,35.95,0.8,0.0,0.45,9600
0.5109171336653843,41.35,1.2,0.0,0.15,9800
0.5099300332194043,39.75,1.15,0.0,0.2,10000
0.5178564072931992,38.85,1.0,0.0,0.5,200
0.5025664863087173,40.4,1.1,0.0,0.35,400
0.5129454671052059,36.3,0.7,0.0,0.25,600
0.5068062024693551,37.9,0.85,0.0,0.35,800
0.5011188566945104,43.8,1.45,0.0,0.2,1000
0.5232179606717586,40.35,1.4,0.0,0.55,1200
0.49642896241485224,36.9,0.85,0.0,0.35,1400
0.4943103967381469,32.35,0.5,0.0,0.5,1600
0.520509618032109,38.9,1.1,0.0,0.3,1800
0.5062130909384732,35.5,0.85,0.0,0.5,2000
0.5193512781758914,39.5,1.15,0.0,0.3,2200
0.4889983514072741,40.0,1.1,0.0,0.25,2400
0.510557960664124,38.85,1.05,0.0,0.4,2600
0.49682454352390426,39.1,1.05,0.0,0.3,2800
0.4859817112343296,38.9,1.0,0.0,0.3,3000
0.4844800596543328,38.6,1.05,0.0,0.35,3200
0.4994764116993272,37.65,1.0,0.0,0.45,3400
0.48433039413122075,36.7,0.75,0.0,0.4,3600
0.505489063753027,36.85,0.9,0.0,0.35,3800
0.5203329300219596,34.15,0.55,0.0,0.35,4000
0.5043918237429351,41.8,1.3,0.0,0.35,4200
0.4712538648985071,35.0,0.6,0.0,0.45,4400
0.49089837433852007,36.3,0.9,0.0,0.45,4600
0.5390408434260785,40.75,1.15,0.0,0.3,4800
0.5121346806658876,37.9,0.95,0.0,0.3,5000
0.4907446276016801,35.4,0.65,0.0,0.45,5200
0.5132665434096191,35.9,0.95,0.0,0.35,5400
0.5172790253349753,39.45,1.0,0.0,0.35,5600
0.49329935505120537,37.8,0.95,0.0,0.45,5800
0.5093747769284352,36.6,0.95,0.0,0.3,6000
0.5259162763337144,43.35,1.4,0.0,0.25,6200
0.49420018520543624,41.5,1.2,0.0,0.15,6400
0.5201780140997393,37.8,0.85,0.0,0.25,6600
0.5083065869234236,38.15,0.8,0.0,0.25,6800
0.5042172692538088,40.2,1.3,0.0,0.45,7000
0.4723919676006633,35.3,0.55,0.0,0.2,7200
0.4997723986549281,41.3,1.05,0.0,0.1,7400
0.5005668325639974,33.95,0.6,0.0,0.35,7600
0.5261443472573768,35.6,0.75,0.0,0.45,7800
0.5199188763530525,41.05,1.3,0.0,0.35,8000
0.5181075283808042,40.75,1.3,0.0,0.4,8200
0.46515466295433117,34.8,0.65,0.0,0.35,8400
0.5025916844598504,39.5,1.05,0.0,0.35,8600
0.49870525274764754,37.75,0.8,0.0,0.3,8800
0.4946563710995694,37.85,1.05,0.0,0.4,9000
0.5305362674837739,41.55,1.4,0.0,0.4,9200
0.503147758671501,37.8,0.95,0.0,0.4,9400
0.5264649348351892,38.95,1.1,0.0,0.25,9600
0.4853185404724762,37.3,0.75,0.0,0.2,9800
0.5024836572635102,38.45,1.0,0.0,0.3,10000
0.5131487824420157,40.95,1.25,0.0,0.35,200
0.5171965762468633,36.95,0.85,0.0,0.35,400
0.5438489014835346,40.55,1.25,0.0,0.4,600
0.506173787148376,38.15,1.1,0.0,0.35,800
0.4929363095907301,38.2,0.95,0.0,0.25,1000
0.524153284352193,36.75,0.85,0.0,0.4,1200
0.5222578206579824,37.85,0.95,0.0,0.3,1400
0.5203292570521594,41.65,1.3,0.0,0.2,1600
0.5153326783361917,39.25,1.15,0.0,0.55,1800
0.4899763083406493,36.6,0.65,0.0,0.3,2000
0.520143062290056,42.15,1.45,0.0,0.3,2200
0.4727679279761733,36.4,0.8,0.0,0.35,2400
0.5035632749825123,38.0,0.85,0.0,0.2,2600
0.5329362925505494,40.5,1.2,0.0,0.4,2800
0.5314622819284812,38.05,0.95,0.0,0.25,3000
0.5033755900521157,34.95,0.8,0.0,0.35,3200
0.513828139970771,36.55,0.9,0.0,0.45,3400
0.5188170509050094,37.5,0.85,0.0,0.35,3600
0.522829325098485,35.8,0.65,0.0,0.35,3800
0.4984585941647214,42.4,1.3,0.0,0.2,4000
0.48475399530954205,34.45,0.5,0.0,0.5,4200
0.48434722871809355,35.2,0.75,0.0,0.4,4400
0.5269493498181179,39.15,1.05,0.0,0.3,4600
0.4781625236535868,34.95,0.6,0.0,0.45,4800
0.4858395606403313,39.75,1.2,0.0,0.4,5000
0.4933927951242462,33.7,0.8,0.0,0.55,5200
0.5185055261719763,38.55,0.85,0.0,0.15,5400
0.5009069387440284,37.85,0.9,0.0,0.3,5600
0.5247728746815425,43.15,1.5,0.0,0.3,5800
0.5103239401218171,43.8,1.45,0.0,0.2,6000
0.5127855799466177,43.25,1.4,0.0,0.25,6200
0.5223306495229563,39.2,1.15,0.0,0.3,6400
0.5103398048193385,34.5,0.7,0.0,0.45,6600
0.5070089981870227,37.25,0.95,0.0,0.25,6800
0.5108594188607919,41.45,1.25,0.0,0.3,7000
0.4993875673599784,40.05,1.2,0.0,0.2,7200
0.5119398076969459,41.75,1.15,0.0,0.25,7400
0.5103190770713351,36.7,0.9,0.0,0.35,7600
0.49134177429007686,36.2,0.65,0.0,0.25,7800
0.5046487770498981,42.6,1.25,0.0,0.25,8000
0.4829070516420571,41.15,1.05,0.0,0.15,8200
0.4981010513096855,38.35,0.95,0.0,0.25,8400
0.5028862737103184,39.85,0.95,0.0,0.25,8600
0.5019624850373832,38.85,0.95,0.0,0.2,8800
0.49604666863470087,41.1,1.05,0.0,0.2,9000
0.5016490030084119,41.75,1.15,0.0,0.25,9200
0.5002379441837095,39.15,1.0,0.0,0.35,9400
0.5131226393067541,40.55,1.3,0.0,0.3,9600
0.5222332060976639,36.5,0.8,0.0,0.4,9800
0.5446935638798597,36.45,1.0,0.0,0.45,10000
0.502130832065007,39.5,1.15,0.0,0.3,200
0.4917974673140114,39.75,1.0,0.0,0.3,400
0.5112215176289929,37.9,1.0,0.0,0.4,600
0.5055841858440189,36.4,0.75,0.0,0.25,800
0.49696808207968945,41.45,1.1,0.0,0.15,1000
0.49861301845695205,39.95,1.0,0.0,0.15,1200
0.5030061166927178,38.85,0.95,0.0,0.3,1400
0.4983206740189908,38.45,1.05,0.0,0.35,1600
0.4728385098383584,34.1,0.7,0.0,0.45,1800
0.4882216753818023,36.35,0.7,0.0,0.35,2000
0.5241998232349937,40.6,1.25,0.0,0.4,2200
0.5397417841745678,41.15,1.15,0.0,0.35,2400
0.49178970152818546,34.95,0.65,0.0,0.4,2600
0.5188582451263171,38.95,1.2,0.0,0.35,2800
0.5150640137245194,38.15,1.05,0.0,0.45,3000
0.5206404376024575,38.6,0.95,0.0,0.2,3200
0.47743234231575354,35.9,0.7,0.0,0.3,3400
0.5102592267302686,39.15,1.1,0.0,0.35,3600
0.5071616114873395,40.45,1.3,0.0,0.45,3800
0.5075168506496535,39.85,1.05,0.0,0.2,4000
0.5031674230852144,39.4,1.05,0.0,0.35,4200
0.5223378140160653,37.9,0.9,0.0,0.3,4400
0.4783533643157879,37.65,0.65,0.0,0.1,4600
0.511939004768924,38.45,1.15,0.0,0.35,4800
0.5315366372454371,37.2,1.0,0.0,0.3,5000
0.5049943357583344,38.6,0.95,0.0,0.15,5200
0.5186095185140152,39.8,1.05,0.0,0.3,5400
0.5150859998093442,40.55,1.35,0.0,0.35,5600
0.516933156052081,41.0,0.95,0.0,0.1,5800
0.5202629113710646,38.55,1.2,0.0,0.4,6000
0.49419161074497264,38.4,0.95,0.0,0.2,6200
0.4848107825823004,36.6,0.65,0.0,0.25,6400
0.4998361142194729,36.2,0.8,0.0,0.25,6600
0.4879273209043462,42.0,1.25,0.0,0.2,6800
0.5060631159581109,36.4,0.75,0.0,0.4,7000
0.5122456766400896,40.2,1.2,0.0,0.2,7200
0.4929488405472872,37.95,0.95,0.0,0.4,7400
0.5024126320631945,41.05,1.15,0.0,0.2,7600
0.49433819056773504,34.4,0.6,0.0,0.35,7800
0.5019695101638293,32.85,0.35,0.0,0.4,8000
0.5221567894985559,42.5,1.3,0.0,0.15,8200
0.4830833699705367,36.2,0.55,0.0,0.2,8400
0.5118697819570077,36.9,0.8,0.0,0.35,8600
0.5150050800267629,38.45,0.85,0.0,0.2,8800
0.5236356801913764,37.95,0.9,0.0,0.35,9000
0.5098461623396703,40.45,1.05,0.0,0.3,9200
0.5050629933902072,35.8,0.65,0.0,0.25,9400
0.506834451415579,38.4,0.8,0.0,0.2,9600
0.47959182187121785,38.35,0.8,0.0,0.25,9800
0.5248017513813241,37.3,0.9,0.0,0.35,10000
0.5029933729771293,42.9,1.4,0.0,0.2,200
0.4849686759671409,36.2,0.7,0.0,0.3,400
0.5045964980745336,40.55,1.2,0.0,0.25,600
0.4793856693537452,34.9,0.55,0.0,0.3,800
0.5020369388423994,36.9,1.05,0.0,0.55,1000
0.4918313106508642,39.4,1.05,0.0,0.3,1200
0.4824049152040228,41.95,1.1,0.0,0.15,1400
0.4986770635978358,40.7,1.25,0.0,0.4,1600
0.5068832510465504,37.45,0.75,0.0,0.3,1800
0.5026316991882899,44.6,1.55,0.0,0.15,2000
0.48012037273082464,37.75,0.9,0.0,0.3,2200
0.5040650274509944,41.4,1.1,0.0,0.05,2400
0.496498095675066,41.6,1.1,0.0,0.2,2600
0.4894967767329083,45.1,1.45,0.0,0.15,2800
0.49533232563964136,39.55,0.9,0.0,0.3,3000
0.49223406063004493,39.05,0.9,0.0,0.35,3200
0.509434580470238,35.3,0.7,0.0,0.45,3400
0.49833987641564886,36.7,0.7,0.0,0.4,3600
0.495893047366316,39.7,1.25,0.0,0.45,3800
0.5057725197457736,39.75,0.85,0.0,0.1,4000
0.49959024588026163,41.35,1.35,0.0,0.45,4200
0.504532130757896,37.9,0.9,0.0,0.3,4400
0.5139231823373632,42.35,1.25,0.0,0.1,4600
0.5039795748346889,37.5,1.1,0.0,0.6,4800
0.4763365424811026,39.85,1.1,0.0,0.3,5000
0.5170844280556424,38.35,1.05,0.0,0.2,5200
0.4896510208359822,37.95,0.85,0.0,0.35,5400
0.5240911997428365,37.25,1.25,0.0,0.6,5600
0.4733783404336977,37.3,0.9,0.0,0.45,5800
0.5191188402159145,37.0,0.9,0.0,0.3,6000
0.49033158839092944,37.05,0.75,0.0,0.2,6200
0.5122242651352211,39.65,0.95,0.0,0.25,6400
0.5109212699704669,34.65,0.75,0.0,0.45,6600
0.5035723041904149,34.9,0.7,0.0,0.5,6800
0.5061993532918991,37.1,0.85,0.0,0.35,7000
0.49959909858021134,36.55,0.95,0.0,0.45,7200
0.49922322185197443,41.4,1.15,0.0,0.25,7400
0.4989629214608698,35.1,0.65,0.0,0.35,7600
0.5088774035507553,40.55,1.0,0.0,0.2,7800
0.4769746679063435,35.3,0.75,0.0,0.35,8000
0.48816335591501775,40.7,0.95,0.0,0.1,8200
0.4964113544712626,34.65,0.65,0.0,0.4,8400
0.493815074652336,36.1,0.9,0.0,0.45,8600
0.5134212424724821,43.1,1.4,0.0,0.3,8800
0.5046304702561875,40.6,1.15,0.0,0.25,9000
0.5151163106485899,42.0,1.4,0.0,0.3,9200
0.5044835371459034,38.2,1.05,0.0,0.45,9400
0.5186847263320046,39.3,1.0,0.0,0.3,9600
0.5193768573579056,39.85,1.05,0.0,0.35,9800
0.48042929167249093,39.6,0.9,0.0,0.15,10000
0.5216786597867203,37.8,0.9,0.0,0.35,200
0.49242826560876896,39.5,1.05,0.0,0.2,400
0.5144500401749397,40.6,1.0,0.0,0.2,600
0.5031967440944413,38.5,1.0,0.0,0.35,800
0.5111075301398592,40.7,1.25,0.0,0.35,1000
0.4917452974797734,39.3,1.0,0.0,0.2,1200
0.5054169652373477,38.85,0.95,0.0,0.15,1400
0.5245599777906815,39.4,1.1,0.0,0.4,1600
0.49551465892481905,40.4,1.25,0.0,0.3,1800
0.48786944609726035,37.85,0.8,0.0,0.2,2000
0.5099677757185775,40.4,1.3,0.0,0.3,2200
0.5351913345259107,39.55,1.15,0.0,0.3,2400
0.5169823798571983,41.75,1.15,0.0,0.3,2600
0.49597225627852837,35.45,0.75,0.0,0.35,2800
0.5052306444834582,35.45,0.8,0.0,0.45,3000
0.5007575192565553,38.85,1.05,0.0,0.3,3200
0.49906807586529645,42.7,1.4,0.0,0.3,3400
0.5061299281132654,42.85,1.3,0.0,0.15,3600
0.4942085577440506,42.35,1.35,0.0,0.25,3800
0.507608673192834,40.8,1.1,0.0,0.15,4000
0.47446226438523753,39.35,0.9,0.0,0.25,4200
0.49208872837986767,37.85,0.8,0.0,0.15,4400
0.4856081055616105,33.9,0.65,0.0,0.5,4600
0.505374817873781,37.1,0.9,0.0,0.3,4800
0.4902652925168575,37.15,0.85,0.0,0.3,5000
0.48026610745550674,38.1,0.95,0.0,0.3,5200
0.5016626378082101,40.55,1.05,0.0,0.25,5400
0.5163395791142424,39.6,1.05,0.0,0.3,5600
0.5048627734587315,37.6,1.1,0.0,0.65,5800
0.4931732196756379,32.55,0.4,0.0,0.35,6000
0.5265024424876426,37.4,0.9,0.0,0.4,6200
0.4944410204757741,41.6,1.15,0.0,0.2,6400
0.505420244898785,38.15,1.05,0.0,0.25,6600
0.49076913310263104,39.55,1.0,0.0,0.4,6800
0.5117315837709133,39.2,1.0,0.0,0.35,7000
0.5004979425826571,37.45,0.9,0.0,0.35,7200
0.5230130977725427,39.6,1.2,0.0,0.45,7400
0.5051801248836584,38.25,1.05,0.0,0.4,7600
0.5044196089788845,38.25,1.0,0.0,0.3,7800
0.4839587243059393,34.05,0.55,0.0,0.4,8000
0.4962421239121867,39.2,0.75,0.0,0.1,8200
0.5054948739130978,35.65,0.6,0.0,0.3,8400
0.5139844623931411,39.6,1.2,0.0,0.45,8600
0.5308731462641086,43.55,1.45,0.0,0.2,8800
0.5046949347247882,34.6,0.8,0.0,0.6,9000
0.4932240833653406,38.5,1.0,0.0,0.4,9200
0.49604539660266944,38.4,0.9,0.0,0.15,9400
0.4929631533651436,32.0,0.45,0.0,0.55,9600
0.5135575823126363,42.25,1.15,0.0,0.25,9800
0.5016316515297363,36.6,0.75,0.0,0.35,10000
0.4723387235584811,40.95,1.05,0.0,0.2,200
0.5149677540438795,37.45,0.9,0.0,0.35,400
0.50652404497009,39.65,1.25,0.0,0.3,600
0.48995669158798033,39.95,0.9,0.0,0.2,800
0.5171422849116297,41.3,1.2,0.0,0.2,1000
0.502029562834732,34.8,0.6,0.0,0.45,1200
0.49141957788766594,36.0,0.75,0.0,0.3,1400
0.5019906110738759,39.2,1.0,0.0,0.15,1600
0.4799148980658445,37.3,0.85,0.0,0.45,1800
0.5000655413683333,38.85,1.1,0.0,0.35,2000
0.5027247128549147,40.1,1.15,0.0,0.4,2200
0.5102717170638174,34.55,0.65,0.0,0.45,2400
0.5138662988156624,36.5,1.0,0.0,0.4,2600
0.513372961093771,38.25,1.0,0.0,0.3,2800
0.5120571505214835,37.75,0.85,0.0,0.25,3000
0.5228454046143437,34.3,0.75,0.0,0.6,3200
0.49224316348514907,38.35,1.0,0.0,0.4,3400
0.5243307571363818,35.5,0.7,0.0,0.45,3600
0.49362142179695107,36.25,0.65,0.0,0.25,3800
0.5256907984516872,37.85,0.9,0.0,0.25,4000
0.4868496485880388,36.75,0.85,0.0,0.45,4200
0.517469317367869,40.6,1.15,0.0,0.4,4400
0.4848265137044135,40.8,1.35,0.0,0.55,4600
0.4998319947599839,36.6,0.7,0.0,0.4,4800
0.504423132548746,36.15,0.85,0.0,0.35,5000
0.525978009080103,39.45,1.2,0.0,0.4,5200
0.5195004346216889,39.35,1.0,0.0,0.3,5400
0.5079174664316985,38.35,0.9,0.0,0.2,5600
0.4982701080252908,38.65,0.9,0.0,0.3,5800
0.49476868181585204,35.9,0.85,0.0,0.4,6000
0.480561013228429,38.15,0.85,0.0,0.2,6200
0.5043636335255698,36.65,0.85,0.0,0.35,6400
0.5006135156106637,46.4,1.65,0.0,0.15,6600
0.5085863847909253,40.25,1.15,0.0,0.35,6800
0.49245881477144077,36.85,0.85,0.0,0.3,7000
0.490613927020134,37.25,0.8,0.0,0.3,7200
0.5196889382648606,40.7,1.35,0.0,0.4,7400
0.47775959066693224,39.15,1.0,0.0,0.3,7600
0.5140468841311965,37.0,0.9,0.0,0.45,7800
0.5217078461670669,41.65,1.35,0.0,0.25,8000
0.5008079476358531,38.6,0.8,0.0,0.2,8200
0.5068587249611898,38.65,1.15,0.0,0.4,8400
0.5012276972528789,35.4,0.7,0.0,0.35,8600
0.5051554751061605,35.65,0.75,0.0,0.4,8800
0.5193515330633938,37.65,0.85,0.0,0.25,9000
0.5041547725753349,37.85,0.95,0.0,0.3,9200
0.4929952238889984,35.85,0.9,0.0,0.5,9400
0.5041440024971648,38.15,1.15,0.0,0.45,9600
0.5088225218335307,41.6,1.2,0.0,0.15,9800
0.5184069822586492,39.25,1.25,0.0,0.25,10000
0.5261389811967155,36.85,1.0,0.0,0.5,200
0.4932166885207165,40.3,1.1,0.0,0.3,400
0.5127016163314926,37.5,0.9,0.0,0.25,600
0.51935631242051,39.05,1.1,0.0,0.4,800
0.5079112900007509,41.3,1.05,0.0,0.0,1000
0.5045741126018239,37.35,0.85,0.0,0.3,1200
0.5036561973112128,38.55,0.95,0.0,0.25,1400
0.4903165520884548,38.75,0.95,0.0,0.4,1600
0.5058456912668754,42.9,1.35,0.0,0.25,1800
0.5119673536574194,40.8,1.2,0.0,0.4,2000
0.5271544497798591,37.05,0.9,0.0,0.45,2200
0.5157915038076738,42.75,1.4,0.0,0.3,2400
0.5131632172712306,34.3,0.75,0.0,0.55,2600
0.4966816392885507,40.3,1.2,0.0,0.45,2800
0.49747956947413774,36.8,0.9,0.0,0.35,3000
0.513751929949092,40.15,1.1,0.0,0.35,3200
0.49961148298608277,38.05,0.95,0.0,0.35,3400
0.4998856761814565,38.4,0.75,0.0,0.25,3600
0.5006365063839217,35.75,0.95,0.0,0.45,3800
0.5048995286577087,34.05,0.5,0.0,0.45,4000
0.4987537703751187,42.35,1.2,0.0,0.1,4200
0.528491499942191,38.8,1.15,0.0,0.3,4400
0.5032155319834926,39.5,0.95,0.0,0.2,4600
0.4808587484830304,38.7,0.95,0.0,0.35,4800
0.5031835492315839,38.0,0.85,0.0,0.25,5000
0.4989744912216148,44.8,1.7,0.0,0.2,5200
0.5012871261650039,35.2,0.55,0.0,0.25,5400
0.5142807460757881,38.7,1.05,0.0,0.4,5600
0.503036108108594,37.3,0.8,0.0,0.3,5800
0.516359952629198,36.7,0.7,0.0,0.25,6000
0.4986853652885002,40.95,1.1,0.0,0.3,6200
0.5271219832686814,36.9,0.8,0.0,0.3,6400
0.5047647234361817,35.0,0.65,0.0,0.45,6600
0.5138395615727055,38.95,0.95,0.0,0.3,6800
0.4963943527281424,43.0,1.35,0.0,0.3,7000
0.5140061031187189,39.7,1.05,0.0,0.3,7200
0.5085188239041881,38.75,1.15,0.0,0.35,7400
0.5095180602518494,39.55,1.0,0.0,0.25,7600
0.5175121096246823,38.45,0.95,0.0,0.15,7800
0.5094640063234421,40.75,1.1,0.0,0.1,8000
0.49969899683402363,37.3,0.8,0.0,0.2,8200
0.48941472675373293,34.05,0.75,0.0,0.6,8400
0.49570725579141833,39.75,1.3,0.0,0.45,8600
0.5172742799861187,39.25,1.05,0.0,0.45,8800
0.5114106279350268,34.75,0.85,0.0,0.5,9000
0.524355660449926,43.7,1.35,0.0,0.2,9200
0.498910348486367,39.05,0.95,0.0,0.35,9400
0.5064123378574585,34.45,0.55,0.0,0.4,9600
0.5178203453876005,35.3,0.9,0.0,0.45,9800
0.5029776575361593,36.9,0.95,0.0,0.5,10000
0.5011270845812688,38.65,0.9,0.0,0.3,200
0.5133351085166077,38.0,0.95,0.0,0.35,400
0.5080643070205737,39.55,1.1,0.0,0.3,600
0.48829919813202566,38.7,1.0,0.0,0.35,800
0.5075883123367044,42.85,1.3,0.0,0.15,1000
0.5063897094591698,41.85,1.3,0.0,0.2,1200
0.5059219040524618,40.7,1.15,0.0,0.2,1400
0.49987799553821555,39.45,1.05,0.0,0.35,1600
0.47736888974928304,40.75,1.25,0.0,0.45,1800
0.5199828480244871,41.5,1.25,0.0,0.15,2000
0.5164859567751092,44.1,1.45,0.0,0.1,2200
0.5143189469019066,36.4,0.95,0.0,0.5,2400
0.49706856309723585,42.6,1.3,0.0,0.25,2600
0.49781027900791397,36.1,0.7,0.0,0.3,2800
0.4875517058219202,39.6,0.95,0.0,0.2,3000
0.522689644776872,37.8,1.0,0.0,0.45,3200
0.5002734564523695,36.35,0.65,0.0,0.35,3400
0.4885944136697993,40.05,0.95,0.0,0.25,3600
0.5380599489012893,46.0,1.75,0.0,0.35,3800
0.497462767053192,40.6,1.1,0.0,0.25,4000
0.5332632030442447,40.2,1.25,0.0,0.4,4200
0.5249849145187391,40.1,1.3,0.0,0.35,4400
0.5192595421991671,35.2,0.55,0.0,0.3,4600
0.4911645995833491,34.5,0.6,0.0,0.35,4800
0.5108391193896211,34.65,0.55,0.0,0.45,5000
0.5092367823203683,36.65,1.05,0.0,0.55,5200
0.4939448856402781,36.25,0.95,0.0,0.55,5400
0.5113561110346116,41.5,1.4,0.0,0.3,5600
0.5176090272636779,37.8,0.95,0.0,0.2,5800
0.5070368473527878,33.15,0.65,0.0,0.5,6000
0.4897760205128797,37.8,0.85,0.0,0.25,6200
0.5025858041125884,40.0,1.1,0.0,0.3,6400
0.5061171033223143,40.4,1.0,0.0,0.15,6600
0.482438784206101,35.55,0.95,0.0,0.6,6800
0.4951375913413468,32.55,0.4,0.0,0.5,7000
0.5118267512381796,40.35,1.1,0.0,0.25,7200
0.5228766311985631,36.95,0.95,0.0,0.6,7400
0.5172081996995933,39.45,1.05,0.0,0.25,7600
0.4966043796467704,37.5,1.0,0.0,0.45,7800
0.5066079784867392,37.0,0.9,0.0,0.4,8000
0.49817465204274197,35.3,0.7,0.0,0.4,8200
0.4995583736419379,40.75,1.1,0.0,0.05,8400
0.49331202388943546,39.15,1.05,0.0,0.35,8600
0.49256845098110613,35.1,0.6,0.0,0.35,8800
0.5037407669735932,39.4,1.0,0.0,0.2,9000
0.4752388804237936,35.85,0.75,0.0,0.35,9200
0.5050659522570602,39.5,1.2,0.0,0.4,9400
0.4880426226881788,38.5,0.9,0.0,0.2,9600
0.5038960545851802,39.6,1.1,0.0,0.3,9800
0.49461233386550313,36.1,0.65,0.0,0.15,10000
0.4780905230927527,39.85,0.95,0.0,0.3,200
0.5069526563876432,38.7,1.0,0.0,0.35,400
0.5134439897616085,36.45,0.95,0.0,0.5,600
0.47377689181079957,41.9,1.3,0.0,0.35,800
0.5057330805447073,40.65,1.05,0.0,0.3,1000
0.5077495470204472,42.55,1.3,0.0,0.3,1200
0.5070875657199949,36.05,0.8,0.0,0.3,1400
0.5097604338079179,35.55,0.85,0.0,0.4,1600
0.5176853882823955,37.2,0.9,0.0,0.3,1800
0.5036077536698674,36.2,0.6,0.0,0.15,2000
0.49723040374921573,41.05,1.3,0.0,0.4,2200
0.5257096369552265,38.2,1.05,0.0,0.3,2400
0.5352554406257475,38.6,1.1,0.0,0.4,2600
0.5163627502369451,38.8,0.95,0.0,0.1,2800
0.4924075663929456,36.75,0.85,0.0,0.35,3000
0.49329490904573287,35.7,0.75,0.0,0.35,3200
0.488812029274625,37.25,0.7,0.0,0.1,3400
0.4883521396023219,36.4,0.8,0.0,0.4,3600
0.5305221288264714,36.75,0.85,0.0,0.35,3800
0.5149625581247316,39.05,1.2,0.0,0.4,4000
0.5110967000140048,40.85,1.15,0.0,0.3,4200
0.49394841449282856,38.4,1.0,0.0,0.45,4400
0.5112243394648015,37.1,0.85,0.0,0.2,4600
0.4801923100098738,40.9,1.15,0.0,0.2,4800
0.5096117004514403,39.15,0.95,0.0,0.2,5000
0.5160939457429509,37.65,0.85,0.0,0.25,5200
0.527616082368416,37.15,1.0,0.0,0.4,5400
0.5095804395932808,37.1,0.8,0.0,0.35,5600
0.5025636108735662,43.1,1.55,0.0,0.35,5800
0.48999458007452734,41.5,1.2,0.0,0.2,6000
0.5033768064892595,42.35,1.45,0.0,0.4,6200
0.48121261211614436,31.6,0.3,0.0,0.4,6400
0.496691084206187,36.1,0.9,0.0,0.5,6600
0.5106833555532078,36.8,0.95,0.0,0.35,6800
0.5001509082805449,40.3,1.15,0.0,0.3,7000
0.5312734292731163,42.9,1.5,0.0,0.25,7200
0.5001506675706323,37.35,0.8,0.0,0.25,7400
0.4928046252492856,36.45,0.8,0.0,0.35,7600
0.4774092608864523,35.15,0.5,0.0,0.2,7800
0.49895545852462153,38.15,0.85,0.0,0.25,8000
0.47255844322835294,36.95,0.7,0.0,0.3,8200
0.5277296516443085,38.3,1.2,0.0,0.55,8400
0.5086857321870996,39.85,0.95,0.0,0.2,8600
0.4970502007046438,36.75,0.8,0.0,0.35,8800
0.49592031015306787,37.5,0.8,0.0,0.25,9000
0.5088798426068675,35.1,0.95,0.0,0.6,9200
0.5073635193073418,38.85,0.95,0.0,0.3,9400
0.453517289457365,35.8,0.75,0.0,0.4,9600
0.5025492208678355,33.4,0.55,0.0,0.45,9800
0.49583073088162877,37.65,0.8,0.0,0.35,10000
