Episode length,Green food,Need,Number of nodes,Red food,Trained episodes
37.85,1.15,0.5157544778002903,28.0,0.15,100
38.85,1.6,0.4903677622739034,28.0,0.6,200
41.45,1.65,0.5238325057048211,29.0,0.2,300
34.75,0.8,0.5039966913137419,32.0,0.0,400
44.75,2.5,0.5497359519253949,35.0,0.0,500
85.25,11.7,0.7003857569539501,43.0,0.0,600
100.0,30.35,0.9345550000000001,52.0,0.0,700
100.0,31.9,0.9402400000000002,52.0,0.0,800
100.0,31.55,0.9390750000000002,52.0,0.0,900
100.0,30.35,0.9367000000000001,52.0,0.0,1000
100.0,31.45,0.93955,52.0,0.0,1100
100.0,29.0,0.932925,78.0,0.0,1200
100.0,30.8,0.93903,97.0,0.0,1300
100.0,31.5,0.938315,102.0,0.0,1400
100.0,31.8,0.9395749999999999,118.0,0.0,1500
100.0,31.25,0.93865,147.0,0.0,1600
100.0,31.35,0.93818,158.0,0.0,1700
100.0,32.25,0.9414299999999999,170.0,0.0,1800
100.0,32.25,0.94076,172.0,0.0,1900
100.0,31.4,0.9386500000000002,176.0,0.0,2000
100.0,32.15,0.94123,178.0,0.0,2100
100.0,32.05,0.9414000000000001,181.0,0.0,2200
100.0,31.2,0.9391450000000001,188.0,0.0,2300
100.0,31.85,0.9402199999999998,189.0,0.0,2400
100.0,31.65,0.939465,190.0,0.0,2500
100.0,31.85,0.9402600000000001,190.0,0.0,2600
100.0,31.6,0.940095,192.0,0.0,2700
100.0,31.05,0.9378949999999999,192.0,0.0,2800
100.0,31.15,0.9390350000000002,192.0,0.0,2900
100.0,31.65,0.939335,192.0,0.0,3000
37.85,1.15,0.5157544778002903,28.0,0.15,100
39.85,1.45,0.53403567866167,28.0,0.25,200
33.75,1.25,0.513611909127985,30.0,0.2,300
37.85,1.25,0.5222264387951328,35.0,0.0,400
98.25,18.55,0.8350199322931997,40.0,0.0,500
38.9,1.85,0.5373964268283813,47.0,0.0,600
40.5,2.2,0.5374379848345572,52.0,0.0,700
100.0,28.5,0.92934,52.0,0.0,800
98.1,19.35,0.8331122988349426,52.0,0.0,900
93.75,16.85,0.7901722811592883,52.0,0.0,1000
99.45,23.9,0.8997614606741571,52.0,0.0,1100
100.0,30.95,0.937485,52.0,0.0,1200
100.0,27.45,0.9211499999999999,71.0,0.0,1300
100.0,27.55,0.9235749999999999,75.0,0.0,1400
100.0,26.9,0.919965,76.0,0.0,1500
100.0,25.05,0.9038600000000001,78.0,0.0,1600
100.0,23.75,0.8953999999999999,78.0,0.0,1700
100.0,24.55,0.905575,86.0,0.0,1800
98.15,23.3,0.8898492063492064,98.0,0.0,1900
100.0,28.15,0.9281599999999999,132.0,0.0,2000
100.0,29.9,0.9349900000000002,148.0,0.0,2100
100.0,30.55,0.935895,155.0,0.0,2200
100.0,30.3,0.9364100000000001,165.0,0.0,2300
100.0,31.05,0.93793,172.0,0.0,2400
100.0,31.45,0.9392799999999999,172.0,0.0,2500
100.0,31.05,0.9391000000000002,173.0,0.0,2600
100.0,31.8,0.9400800000000002,174.0,0.0,2700
100.0,31.35,0.9386700000000001,174.0,0.0,2800
100.0,31.65,0.93864,175.0,0.0,2900
100.0,32.1,0.9413800000000002,176.0,0.0,3000
30.3,0.3,0.4815047825446033,28.0,0.15,100
38.7,1.05,0.5103265325601036,28.0,0.1,200
33.7,0.95,0.5203488252747144,31.0,0.15,300
94.5,15.35,0.7549708475056686,32.0,1.45,400
37.6,1.65,0.5288921907894932,33.0,0.0,500
38.2,1.45,0.5248571884453775,36.0,0.0,600
51.15,3.0,0.5514545205428887,48.0,0.0,700
93.6,18.1,0.8209544709928999,50.0,0.0,800
100.0,29.0,0.93148,52.0,0.0,900
100.0,28.0,0.928695,52.0,0.0,1000
95.55,18.85,0.8315081384015593,52.0,0.0,1100
100.0,30.0,0.9347050000000001,52.0,0.0,1200
97.35,20.3,0.8680028723404256,52.0,0.0,1300
100.0,22.75,0.8891899999999999,64.0,0.0,1400
100.0,22.95,0.89137,73.0,0.0,1500
100.0,24.05,0.8927799999999999,78.0,0.0,1600
84.95,12.55,0.7250189469972131,78.0,0.0,1700
100.0,22.45,0.882985,78.0,0.0,1800
100.0,25.85,0.91374,78.0,0.0,1900
100.0,26.05,0.915205,97.0,0.0,2000
100.0,24.95,0.8950000000000001,102.0,0.0,2100
100.0,28.9,0.9297700000000001,146.0,0.0,2200
100.0,28.95,0.9297500000000001,155.0,0.0,2300
100.0,27.15,0.92233,163.0,0.0,2400
100.0,29.15,0.9318350000000001,166.0,0.0,2500
100.0,27.9,0.9295,167.0,0.0,2600
100.0,30.8,0.936045,168.0,0.0,2700
100.0,31.0,0.9387700000000001,168.0,0.0,2800
100.0,31.25,0.9397500000000003,169.0,0.0,2900
100.0,30.8,0.9376150000000001,169.0,0.0,3000
39.35,1.05,0.5170938225844279,28.0,0.0,100
36.95,0.95,0.5093055489268971,28.0,0.0,200
37.25,1.4,0.49305066757587496,30.0,0.35,300
98.3,18.35,0.837708409090909,33.0,0.05,400
42.6,2.15,0.5447883079986566,38.0,0.05,500
94.0,16.35,0.810901365500273,48.0,0.0,600
100.0,31.8,0.9407300000000003,52.0,0.0,700
100.0,31.2,0.93865,52.0,0.0,800
100.0,30.8,0.9375550000000002,52.0,0.0,900
100.0,31.95,0.9414049999999999,52.0,0.0,1000
100.0,31.3,0.937845,52.0,0.0,1100
100.0,31.45,0.9400499999999999,72.0,0.0,1200
100.0,31.75,0.9399899999999999,103.0,0.0,1300
100.0,31.4,0.938815,117.0,0.0,1400
100.0,31.65,0.9400350000000002,127.0,0.0,1500
100.0,31.55,0.9395700000000001,129.0,0.0,1600
100.0,31.55,0.9396550000000001,139.0,0.0,1700
100.0,30.7,0.938415,159.0,0.0,1800
100.0,32.45,0.9408799999999999,165.0,0.0,1900
100.0,31.4,0.93933,170.0,0.0,2000
100.0,31.65,0.9398350000000001,171.0,0.0,2100
100.0,31.35,0.9398550000000002,172.0,0.0,2200
100.0,31.2,0.9373350000000003,172.0,0.0,2300
100.0,30.95,0.9371450000000001,172.0,0.0,2400
100.0,31.35,0.9398949999999999,172.0,0.0,2500
100.0,32.2,0.9406300000000002,172.0,0.0,2600
100.0,31.95,0.938525,174.0,0.0,2700
100.0,31.2,0.9385199999999999,179.0,0.0,2800
100.0,31.7,0.939245,179.0,0.0,2900
100.0,30.9,0.9351,184.0,0.0,3000
37.85,1.15,0.5157544778002903,28.0,0.15,100
39.85,1.45,0.53403567866167,28.0,0.25,200
70.25,6.45,0.6063350618933464,32.0,0.4,300
41.8,1.9,0.5313488155561414,33.0,0.25,400
43.65,2.45,0.5508589816151457,36.0,0.05,500
100.0,23.1,0.879585,46.0,0.1,600
100.0,28.3,0.9272199999999999,50.0,0.05,700
86.8,13.6,0.7500429465859376,53.0,0.0,800
100.0,31.25,0.93862,53.0,0.0,900
100.0,30.75,0.9367300000000002,53.0,0.0,1000
100.0,28.15,0.9244450000000001,54.0,0.0,1100
100.0,30.2,0.935355,54.0,0.0,1200
100.0,30.4,0.9373600000000002,60.0,0.0,1300
100.0,30.0,0.93529,75.0,0.0,1400
100.0,31.8,0.93887,114.0,0.0,1500
100.0,31.5,0.93941,126.0,0.0,1600
100.0,31.05,0.938645,129.0,0.0,1700
100.0,31.95,0.940925,131.0,0.0,1800
100.0,31.7,0.9401950000000001,156.0,0.0,1900
100.0,31.95,0.94011,171.0,0.0,2000
100.0,32.25,0.940145,175.0,0.0,2100
100.0,31.25,0.9379500000000002,177.0,0.0,2200
100.0,31.95,0.9408400000000002,177.0,0.0,2300
100.0,32.1,0.9404400000000003,177.0,0.0,2400
100.0,31.75,0.9385200000000001,178.0,0.0,2500
100.0,32.0,0.9413500000000001,178.0,0.0,2600
100.0,30.95,0.93836,178.0,0.0,2700
100.0,32.4,0.9413600000000001,185.0,0.0,2800
100.0,31.4,0.939175,195.0,0.0,2900
100.0,30.95,0.9385350000000002,198.0,0.0,3000
36.95,0.9,0.5045444591089618,28.0,0.1,100
49.75,2.2,0.5342544329489525,28.0,0.05,200
42.3,1.75,0.5335816901374559,29.0,0.2,300
36.25,1.25,0.5254601695140007,36.0,0.3,400
100.0,25.2,0.9099225000000002,49.0,0.0,500
100.0,29.55,0.93136,51.0,0.0,600
100.0,31.35,0.9381550000000001,53.0,0.0,700
100.0,31.55,0.9391950000000001,53.0,0.0,800
100.0,31.55,0.939315,54.0,0.0,900
100.0,31.45,0.93841,54.0,0.0,1000
100.0,30.65,0.9382150000000001,54.0,0.0,1100
100.0,30.7,0.93729,77.0,0.0,1200
100.0,32.0,0.9408749999999999,117.0,0.0,1300
100.0,31.85,0.9411200000000001,133.0,0.0,1400
100.0,31.9,0.9398650000000002,139.0,0.0,1500
100.0,31.55,0.9399900000000001,141.0,0.0,1600
100.0,31.3,0.9389200000000001,141.0,0.0,1700
100.0,31.25,0.939465,153.0,0.0,1800
100.0,32.0,0.9407850000000002,171.0,0.0,1900
100.0,30.85,0.9370550000000002,174.0,0.0,2000
100.0,30.55,0.9363650000000001,179.0,0.0,2100
100.0,31.45,0.939845,181.0,0.0,2200
100.0,31.0,0.9387500000000003,188.0,0.0,2300
100.0,31.1,0.9389750000000003,191.0,0.0,2400
100.0,31.35,0.9391950000000001,196.0,0.0,2500
100.0,31.7,0.9400600000000001,201.0,0.0,2600
100.0,32.15,0.9412900000000001,203.0,0.0,2700
100.0,31.9,0.9414700000000001,209.0,0.0,2800
100.0,31.25,0.9376950000000001,209.0,0.0,2900
100.0,31.9,0.9406650000000001,211.0,0.0,3000
37.85,1.15,0.5157544778002903,28.0,0.15,100
39.85,1.45,0.53403567866167,28.0,0.25,200
100.0,22.6,0.8798049999999998,28.0,0.35,300
50.05,3.35,0.5596996302015774,35.0,0.2,400
37.7,1.45,0.5210696515179156,45.0,0.05,500
78.85,10.05,0.6760804374599872,48.0,0.0,600
100.0,25.8,0.9148275000000001,50.0,0.0,700
100.0,26.5,0.91623,52.0,0.0,800
100.0,28.1,0.92736,52.0,0.0,900
100.0,25.65,0.919135,52.0,0.0,1000
100.0,23.05,0.89803,52.0,0.0,1100
100.0,27.8,0.9251100000000001,52.0,0.0,1200
100.0,28.35,0.931065,71.0,0.0,1300
100.0,28.55,0.9281,76.0,0.0,1400
100.0,30.75,0.9373100000000001,81.0,0.0,1500
100.0,30.3,0.9368450000000001,93.0,0.0,1600
100.0,30.85,0.9373849999999999,116.0,0.0,1700
100.0,30.75,0.937985,124.0,0.0,1800
100.0,31.85,0.9406450000000002,140.0,0.0,1900
100.0,32.3,0.941215,158.0,0.0,2000
100.0,31.25,0.9381700000000002,168.0,0.0,2100
100.0,31.7,0.939465,171.0,0.0,2200
100.0,31.3,0.9393250000000002,174.0,0.0,2300
100.0,32.35,0.9406700000000002,174.0,0.0,2400
100.0,31.7,0.93969,174.0,0.0,2500
100.0,31.05,0.938485,175.0,0.0,2600
100.0,31.85,0.940565,175.0,0.0,2700
100.0,32.1,0.941065,175.0,0.0,2800
100.0,32.85,0.9432200000000002,175.0,0.0,2900
100.0,31.65,0.94044,175.0,0.0,3000
37.85,1.15,0.5157544778002903,28.0,0.15,100
39.85,1.45,0.53403567866167,28.0,0.25,200
34.55,1.35,0.5210011979126248,31.0,0.25,300
61.45,4.85,0.5846190580321043,34.0,0.7,400
38.65,1.5,0.5334532954755226,45.0,0.0,500
78.55,8.65,0.6638488994242292,48.0,0.0,600
82.6,11.65,0.7089729069881358,51.0,0.0,700
100.0,31.45,0.9402899999999998,52.0,0.0,800
100.0,29.9,0.9347199999999999,52.0,0.0,900
100.0,29.15,0.93201,52.0,0.0,1000
100.0,30.6,0.9368350000000001,52.0,0.0,1100
100.0,32.3,0.9414750000000002,66.0,0.0,1200
100.0,32.3,0.9423750000000002,78.0,0.0,1300
100.0,31.4,0.9375899999999998,115.0,0.0,1400
100.0,32.15,0.941085,129.0,0.0,1500
100.0,32.6,0.9423400000000003,132.0,0.0,1600
100.0,31.75,0.9403100000000002,133.0,0.0,1700
100.0,32.15,0.9399200000000002,152.0,0.0,1800
100.0,31.65,0.9400499999999999,161.0,0.0,1900
100.0,31.55,0.94026,168.0,0.0,2000
100.0,32.5,0.94192,173.0,0.0,2100
100.0,32.6,0.940625,174.0,0.0,2200
100.0,31.7,0.9412650000000001,176.0,0.0,2300
100.0,31.25,0.9394150000000001,176.0,0.0,2400
100.0,32.3,0.9407000000000002,177.0,0.0,2500
100.0,32.1,0.94051,177.0,0.0,2600
100.0,32.6,0.9415650000000001,177.0,0.0,2700
100.0,32.35,0.9413100000000002,187.0,0.0,2800
100.0,32.35,0.9412499999999999,192.0,0.0,2900
100.0,30.7,0.9360200000000001,196.0,0.0,3000
37.85,1.15,0.5157544778002903,28.0,0.15,100
39.85,1.45,0.53403567866167,28.0,0.25,200
74.05,7.3,0.640945992180623,29.0,0.45,300
76.15,9.0,0.6366111958535524,33.0,1.15,400
48.1,2.85,0.5617060587548948,37.0,0.1,500
40.95,2.4,0.5443529954188169,48.0,0.0,600
100.0,31.4,0.9392750000000001,52.0,0.0,700
80.6,13.65,0.7454564452987426,52.0,0.0,800
48.7,3.55,0.5592228921068545,52.0,0.0,900
100.0,25.2,0.9093100000000002,52.0,0.0,1000
100.0,27.55,0.9258649999999999,52.0,0.0,1100
100.0,26.9,0.9247650000000002,52.0,0.0,1200
100.0,28.6,0.93047,68.0,0.0,1300
100.0,26.75,0.9216099999999999,78.0,0.0,1400
100.0,24.95,0.9118049999999999,79.0,0.0,1500
100.0,27.05,0.92441,81.0,0.0,1600
100.0,27.6,0.9277900000000001,109.0,0.0,1700
100.0,30.0,0.9360250000000001,134.0,0.0,1800
100.0,30.15,0.9370850000000001,145.0,0.0,1900
100.0,30.75,0.9378850000000002,153.0,0.0,2000
100.0,30.95,0.93811,163.0,0.0,2100
100.0,31.8,0.9388249999999999,173.0,0.0,2200
100.0,32.15,0.93847,175.0,0.0,2300
100.0,31.85,0.9386800000000003,178.0,0.0,2400
100.0,30.9,0.9388099999999999,179.0,0.0,2500
100.0,30.8,0.93936,180.0,0.0,2600
100.0,31.2,0.939065,181.0,0.0,2700
100.0,31.4,0.9388900000000001,182.0,0.0,2800
100.0,32.85,0.9417500000000001,182.0,0.0,2900
100.0,32.2,0.94137,182.0,0.0,3000
37.85,1.15,0.5157544778002903,28.0,0.15,100
32.2,0.75,0.49880322315617576,29.0,0.3,200
40.25,1.35,0.519709932049139,32.0,0.05,300
86.4,10.45,0.6881223289391973,33.0,0.0,400
100.0,18.4,0.8351474999999999,47.0,0.0,500
57.7,4.85,0.6046333403735051,51.0,0.0,600
100.0,30.45,0.9357849999999999,52.0,0.0,700
100.0,30.3,0.93672,52.0,0.0,800
100.0,31.7,0.939775,52.0,0.0,900
100.0,30.4,0.93449,52.0,0.0,1000
100.0,32.0,0.9409250000000002,54.0,0.0,1100
100.0,29.75,0.9336250000000001,74.0,0.0,1200
100.0,26.85,0.920045,93.0,0.0,1300
100.0,23.9,0.88741,98.0,0.0,1400
100.0,23.75,0.89628,109.0,0.0,1500
100.0,32.0,0.9406100000000001,127.0,0.0,1600
100.0,31.25,0.9399900000000001,130.0,0.0,1700
100.0,30.9,0.9386150000000001,132.0,0.0,1800
100.0,32.15,0.94099,148.0,0.0,1900
100.0,31.05,0.9388299999999999,160.0,0.0,2000
100.0,31.55,0.939705,166.0,0.0,2100
100.0,30.85,0.9380600000000001,175.0,0.0,2200
100.0,31.15,0.9384300000000001,176.0,0.0,2300
100.0,31.0,0.9380850000000001,176.0,0.0,2400
100.0,31.55,0.9391300000000001,176.0,0.0,2500
100.0,32.15,0.9399850000000001,180.0,0.0,2600
100.0,31.45,0.9400400000000001,187.0,0.0,2700
100.0,32.2,0.9412500000000001,188.0,0.0,2800
100.0,31.8,0.9394450000000001,192.0,0.0,2900
100.0,32.75,0.9419500000000001,194.0,0.0,3000
37.85,1.15,0.5157544778002903,28.0,0.15,100
39.85,1.45,0.53403567866167,28.0,0.25,200
39.9,1.45,0.5133356563070262,29.0,0.1,300
46.7,2.85,0.5323764303605425,36.0,0.45,400
40.35,1.8,0.5417757921174642,47.0,0.0,500
80.0,9.75,0.6716413521284598,51.0,0.0,600
89.05,16.95,0.7833625241545892,52.0,0.0,700
100.0,29.7,0.9305,52.0,0.0,800
100.0,30.25,0.9345400000000001,52.0,0.0,900
100.0,31.4,0.9401149999999999,52.0,0.0,1000
100.0,31.85,0.94093,52.0,0.0,1100
100.0,31.6,0.9395300000000001,64.0,0.0,1200
100.0,32.2,0.9415550000000001,93.0,0.0,1300
100.0,31.6,0.9391700000000001,125.0,0.0,1400
100.0,31.6,0.9397650000000001,131.0,0.0,1500
100.0,31.45,0.938045,131.0,0.0,1600
100.0,31.9,0.93995,134.0,0.0,1700
100.0,32.3,0.9417,145.0,0.0,1800
100.0,31.25,0.938165,159.0,0.0,1900
100.0,31.45,0.9381150000000001,173.0,0.0,2000
100.0,32.3,0.9409699999999999,175.0,0.0,2100
100.0,32.1,0.941565,176.0,0.0,2200
100.0,31.0,0.9381850000000002,185.0,0.0,2300
100.0,31.2,0.938815,187.0,0.0,2400
100.0,32.95,0.9430800000000001,189.0,0.0,2500
100.0,32.6,0.9414450000000001,193.0,0.0,2600
100.0,31.15,0.9394200000000001,197.0,0.0,2700
100.0,31.85,0.94005,199.0,0.0,2800
100.0,32.4,0.941225,202.0,0.0,2900
100.0,32.2,0.9414100000000001,202.0,0.0,3000
37.85,1.15,0.5157544778002903,28.0,0.15,100
41.1,1.7,0.5261094327102155,28.0,0.15,200
63.25,7.9,0.6234845074741765,30.0,1.45,300
36.95,1.6,0.526067926600937,32.0,0.05,400
98.9,21.2,0.8574873432760363,45.0,0.0,500
85.05,11.8,0.7145718869985755,52.0,0.0,600
100.0,21.05,0.8479549999999998,52.0,0.0,700
100.0,27.65,0.9280700000000002,52.0,0.0,800
100.0,29.85,0.934895,52.0,0.0,900
100.0,26.5,0.92337,52.0,0.0,1000
100.0,27.6,0.9304300000000001,73.0,0.0,1100
100.0,31.4,0.9390400000000001,77.0,0.0,1200
100.0,30.85,0.9387350000000001,77.0,0.0,1300
100.0,31.05,0.9394800000000002,94.0,0.0,1400
100.0,31.35,0.9383950000000001,120.0,0.0,1500
100.0,31.65,0.9404450000000001,128.0,0.0,1600
100.0,32.3,0.941775,150.0,0.0,1700
100.0,32.65,0.9419250000000001,166.0,0.0,1800
100.0,31.65,0.93993,169.0,0.0,1900
100.0,32.1,0.940785,171.0,0.0,2000
100.0,31.95,0.9402000000000001,171.0,0.0,2100
100.0,32.15,0.94124,172.0,0.0,2200
100.0,31.7,0.9391200000000002,173.0,0.0,2300
100.0,30.75,0.9369100000000001,173.0,0.0,2400
100.0,31.85,0.94152,173.0,0.0,2500
100.0,32.0,0.9401500000000003,173.0,0.0,2600
100.0,30.75,0.9372100000000001,173.0,0.0,2700
100.0,31.1,0.9380750000000001,173.0,0.0,2800
100.0,31.65,0.9385900000000001,173.0,0.0,2900
100.0,31.0,0.9364750000000001,173.0,0.0,3000
37.85,1.15,0.5157544778002903,28.0,0.15,100
39.85,1.45,0.53403567866167,28.0,0.25,200
78.05,8.75,0.6007395221018117,29.0,2.1,300
47.9,4.0,0.5534770596780927,32.0,1.6,400
84.45,9.2,0.6686045705333037,39.0,0.0,500
83.85,11.95,0.7224483024106951,44.0,0.0,600
38.2,1.65,0.530275626737317,51.0,0.0,700
100.0,25.15,0.9042399999999999,52.0,0.0,800
98.25,19.65,0.8497388790740177,54.0,0.0,900
98.8,22.5,0.8869865789473683,54.0,0.0,1000
48.5,3.4,0.5665431553829274,54.0,0.0,1100
100.0,29.1,0.9312699999999999,54.0,0.0,1200
100.0,31.05,0.93893,54.0,0.0,1300
100.0,32.05,0.941355,54.0,0.0,1400
100.0,30.9,0.9380750000000001,54.0,0.0,1500
100.0,29.85,0.9344899999999999,62.0,0.0,1600
100.0,29.7,0.9355500000000001,96.0,0.0,1700
100.0,31.2,0.938125,106.0,0.0,1800
100.0,30.85,0.9383050000000001,108.0,0.0,1900
100.0,31.05,0.9383149999999999,108.0,0.0,2000
100.0,31.8,0.9394649999999999,108.0,0.0,2100
100.0,30.05,0.9374900000000002,137.0,0.0,2200
100.0,32.45,0.9410450000000001,147.0,0.0,2300
100.0,30.6,0.9382150000000001,159.0,0.0,2400
100.0,30.65,0.9376900000000001,162.0,0.0,2500
100.0,31.15,0.9386550000000001,164.0,0.0,2600
100.0,31.75,0.9401700000000002,170.0,0.0,2700
100.0,31.75,0.9405049999999999,173.0,0.0,2800
100.0,31.85,0.939395,175.0,0.0,2900
100.0,32.0,0.9385300000000001,175.0,0.0,3000
37.85,1.15,0.5157544778002903,28.0,0.15,100
39.85,1.45,0.53403567866167,28.0,0.25,200
99.6,18.45,0.847046413043478,29.0,0.4,300
100.0,23.9,0.9098049999999999,37.0,0.0,400
44.2,2.3,0.5476788489495896,49.0,0.0,500
100.0,26.85,0.9246999999999999,52.0,0.0,600
100.0,28.95,0.93043,52.0,0.0,700
100.0,29.1,0.93183,52.0,0.0,800
100.0,30.9,0.9381299999999999,52.0,0.0,900
100.0,30.85,0.9377700000000001,56.0,0.0,1000
100.0,31.7,0.9399850000000001,73.0,0.0,1100
100.0,31.75,0.9393350000000001,77.0,0.0,1200
100.0,26.5,0.9145749999999999,84.0,0.0,1300
100.0,23.9,0.8928949999999999,95.0,0.0,1400
100.0,30.7,0.9369350000000001,115.0,0.0,1500
100.0,31.6,0.938875,125.0,0.0,1600
100.0,30.4,0.9364799999999999,160.0,0.0,1700
100.0,30.9,0.936155,164.0,0.0,1800
100.0,31.7,0.936615,166.0,0.0,1900
100.0,32.05,0.9408800000000002,167.0,0.0,2000
100.0,31.7,0.9394399999999999,168.0,0.0,2100
100.0,31.95,0.9377250000000001,169.0,0.0,2200
100.0,32.2,0.94123,169.0,0.0,2300
100.0,33.4,0.9440649999999999,169.0,0.0,2400
100.0,32.65,0.9429350000000001,169.0,0.0,2500
100.0,31.8,0.9406749999999999,170.0,0.0,2600
100.0,31.8,0.9398050000000001,170.0,0.0,2700
100.0,31.45,0.9387149999999999,170.0,0.0,2800
100.0,31.1,0.9369249999999999,183.0,0.0,2900
100.0,32.2,0.9422250000000002,187.0,0.0,3000
35.15,0.9,0.5094774953380432,28.0,0.2,100
31.9,0.5,0.49928259694313065,29.0,0.15,200
47.45,2.75,0.54835035650136,31.0,0.25,300
39.55,2.0,0.5348652610601028,36.0,0.25,400
100.0,31.15,0.9373350000000003,48.0,0.0,500
100.0,26.45,0.9149399999999999,52.0,0.0,600
100.0,31.6,0.9387350000000001,52.0,0.0,700
100.0,31.3,0.939235,52.0,0.0,800
100.0,32.15,0.9408150000000001,52.0,0.0,900
100.0,30.65,0.9378,59.0,0.0,1000
100.0,30.85,0.9386099999999999,75.0,0.0,1100
100.0,31.0,0.9383900000000001,108.0,0.0,1200
100.0,31.3,0.9389049999999999,137.0,0.0,1300
100.0,32.65,0.9421650000000001,146.0,0.0,1400
100.0,31.35,0.9386500000000002,148.0,0.0,1500
100.0,31.35,0.9389900000000001,149.0,0.0,1600
100.0,32.7,0.9426350000000001,161.0,0.0,1700
100.0,31.65,0.94085,169.0,0.0,1800
100.0,31.55,0.9400450000000001,170.0,0.0,1900
100.0,31.95,0.9402500000000001,172.0,0.0,2000
100.0,31.3,0.9385800000000002,172.0,0.0,2100
100.0,32.35,0.94087,172.0,0.0,2200
100.0,31.15,0.936895,172.0,0.0,2300
100.0,31.8,0.9401549999999999,173.0,0.0,2400
100.0,31.4,0.9387550000000001,173.0,0.0,2500
100.0,32.1,0.9411450000000002,173.0,0.0,2600
100.0,31.25,0.9392300000000002,173.0,0.0,2700
100.0,31.65,0.9394200000000001,173.0,0.0,2800
100.0,31.85,0.9397500000000003,173.0,0.0,2900
100.0,31.1,0.93849,173.0,0.0,3000
37.85,1.15,0.5157544778002903,28.0,0.15,100
37.25,1.1,0.5171526213610885,28.0,0.15,200
65.1,7.8,0.6340077321438031,31.0,1.25,300
46.05,2.55,0.5647315893487045,46.0,0.0,400
40.05,1.95,0.5390509485692223,51.0,0.0,500
96.1,21.5,0.8547651127819547,52.0,0.0,600
100.0,25.95,0.912645,52.0,0.0,700
100.0,28.3,0.92971,52.0,0.0,800
100.0,27.85,0.9272150000000001,52.0,0.0,900
100.0,30.35,0.9369,52.0,0.0,1000
100.0,30.25,0.93667,57.0,0.0,1100
100.0,31.35,0.9392550000000002,72.0,0.0,1200
100.0,29.35,0.931705,87.0,0.0,1300
100.0,27.4,0.9228450000000002,94.0,0.0,1400
100.0,30.05,0.93567,134.0,0.0,1500
100.0,31.15,0.9383100000000001,142.0,0.0,1600
100.0,31.3,0.939485,152.0,0.0,1700
100.0,31.9,0.94033,162.0,0.0,1800
100.0,31.3,0.9382699999999999,169.0,0.0,1900
100.0,31.15,0.93788,169.0,0.0,2000
100.0,31.2,0.93812,169.0,0.0,2100
100.0,32.25,0.9414600000000002,170.0,0.0,2200
100.0,31.4,0.9394000000000002,171.0,0.0,2300
100.0,30.75,0.9378650000000002,171.0,0.0,2400
100.0,31.55,0.94019,171.0,0.0,2500
100.0,31.25,0.939245,171.0,0.0,2600
100.0,30.9,0.9372300000000001,171.0,0.0,2700
100.0,30.6,0.93869,171.0,0.0,2800
100.0,31.35,0.938495,171.0,0.0,2900
100.0,31.5,0.9394099999999999,171.0,0.0,3000
37.85,1.15,0.5157544778002903,28.0,0.15,100
43.1,1.8,0.5461041416862391,28.0,0.05,200
43.3,2.95,0.5377964801446387,30.0,0.9,300
97.8,19.4,0.8555712062304783,31.0,0.0,400
42.4,1.8,0.5310957005517456,37.0,0.0,500
86.5,11.65,0.7238606914727144,44.0,0.0,600
97.4,19.15,0.8322574999999997,46.0,0.0,700
100.0,23.1,0.9048900000000002,52.0,0.0,800
100.0,27.3,0.918535,52.0,0.0,900
100.0,30.55,0.9359700000000002,52.0,0.0,1000
100.0,28.25,0.92677,52.0,0.0,1100
100.0,28.85,0.929255,52.0,0.0,1200
100.0,31.15,0.939535,52.0,0.0,1300
100.0,31.55,0.9390850000000002,77.0,0.0,1400
100.0,31.65,0.941365,100.0,0.0,1500
100.0,31.45,0.93972,104.0,0.0,1600
100.0,30.95,0.9361050000000001,104.0,0.0,1700
100.0,31.35,0.93886,104.0,0.0,1800
100.0,32.55,0.9426350000000003,104.0,0.0,1900
100.0,31.65,0.9403100000000002,138.0,0.0,2000
100.0,32.3,0.9404250000000001,144.0,0.0,2100
100.0,31.4,0.9385000000000003,147.0,0.0,2200
100.0,31.65,0.9380649999999999,149.0,0.0,2300
100.0,32.4,0.9415749999999999,155.0,0.0,2400
100.0,32.0,0.9401999999999999,159.0,0.0,2500
100.0,32.75,0.9420850000000002,166.0,0.0,2600
100.0,30.65,0.9373650000000001,170.0,0.0,2700
100.0,31.15,0.9385150000000001,181.0,0.0,2800
100.0,31.7,0.93976,183.0,0.0,2900
100.0,31.4,0.939785,191.0,0.0,3000
37.85,1.15,0.5157544778002903,28.0,0.15,100
47.4,2.85,0.5279700641848513,28.0,0.7,200
43.1,1.8,0.5158899007900984,29.0,0.2,300
38.15,1.45,0.5191083318651486,31.0,0.05,400
37.35,1.45,0.5041414094308811,36.0,0.2,500
37.6,1.65,0.5353811497028406,42.0,0.05,600
100.0,24.65,0.9145000000000001,52.0,0.0,700
100.0,29.6,0.9337600000000001,52.0,0.0,800
100.0,26.0,0.9110699999999999,52.0,0.0,900
100.0,30.55,0.9374750000000003,52.0,0.0,1000
100.0,28.15,0.9249850000000001,52.0,0.0,1100
100.0,29.3,0.933235,54.0,0.0,1200
100.0,26.45,0.919435,73.0,0.0,1300
100.0,25.05,0.9065949999999999,77.0,0.0,1400
100.0,27.5,0.9253750000000002,78.0,0.0,1500
100.0,26.75,0.9181999999999999,83.0,0.0,1600
100.0,29.4,0.9335650000000001,122.0,0.0,1700
100.0,30.75,0.937585,148.0,0.0,1800
100.0,31.3,0.9391449999999999,161.0,0.0,1900
100.0,30.75,0.9376700000000001,178.0,0.0,2000
100.0,31.35,0.9381600000000001,181.0,0.0,2100
100.0,31.5,0.938665,182.0,0.0,2200
100.0,31.15,0.9392000000000001,185.0,0.0,2300
100.0,31.9,0.93854,185.0,0.0,2400
100.0,32.35,0.9422350000000002,185.0,0.0,2500
100.0,30.9,0.9377899999999999,185.0,0.0,2600
100.0,31.3,0.93991,185.0,0.0,2700
100.0,31.45,0.939775,185.0,0.0,2800
100.0,31.05,0.9376650000000002,185.0,0.0,2900
100.0,31.35,0.9398950000000001,189.0,0.0,3000
37.85,1.15,0.5157544778002903,28.0,0.15,100
42.1,1.35,0.5037220049048219,28.0,0.0,200
51.25,3.2,0.5295674102014055,30.0,0.6,300
43.0,2.45,0.5210384781541105,34.0,0.6,400
55.7,3.6,0.5629403328409024,45.0,0.0,500
77.85,9.2,0.683395657388638,51.0,0.0,600
70.3,7.75,0.6311765685408763,51.0,0.0,700
100.0,29.65,0.9354549999999999,52.0,0.0,800
100.0,31.6,0.940475,52.0,0.0,900
100.0,32.25,0.9419150000000002,52.0,0.0,1000
100.0,30.55,0.9381600000000001,52.0,0.0,1100
100.0,32.25,0.9410700000000002,69.0,0.0,1200
100.0,31.35,0.9398500000000001,78.0,0.0,1300
100.0,31.65,0.9405000000000003,96.0,0.0,1400
100.0,32.05,0.940165,123.0,0.0,1500
100.0,32.1,0.9403600000000001,128.0,0.0,1600
100.0,30.95,0.9383999999999999,133.0,0.0,1700
100.0,32.5,0.9420750000000002,156.0,0.0,1800
100.0,32.25,0.9413800000000002,170.0,0.0,1900
100.0,32.35,0.941995,175.0,0.0,2000
100.0,32.8,0.9418850000000001,176.0,0.0,2100
100.0,32.45,0.94214,177.0,0.0,2200
100.0,32.45,0.9414850000000001,178.0,0.0,2300
100.0,31.8,0.9395499999999999,178.0,0.0,2400
100.0,31.25,0.9387050000000002,178.0,0.0,2500
100.0,32.35,0.941165,178.0,0.0,2600
100.0,32.3,0.9419250000000001,185.0,0.0,2700
100.0,31.0,0.9388449999999999,189.0,0.0,2800
100.0,32.15,0.94063,194.0,0.0,2900
100.0,31.05,0.9366000000000001,197.0,0.0,3000
37.85,1.15,0.5157544778002903,28.0,0.15,100
34.85,0.9,0.47811408405286493,28.0,0.45,200
51.75,3.55,0.566001156517098,31.0,0.45,300
46.7,2.55,0.5328493588453718,32.0,0.35,400
50.8,4.4,0.5572625753034979,34.0,0.9,500
79.55,11.0,0.717240267281517,47.0,0.0,600
39.75,1.75,0.5386163612251123,51.0,0.0,700
100.0,29.1,0.9298100000000001,52.0,0.0,800
100.0,31.5,0.93929,52.0,0.0,900
100.0,29.9,0.93743,52.0,0.0,1000
100.0,30.65,0.9367000000000001,52.0,0.0,1100
100.0,31.6,0.937985,52.0,0.0,1200
100.0,31.3,0.9379899999999999,69.0,0.0,1300
100.0,30.6,0.9386250000000003,105.0,0.0,1400
100.0,32.15,0.9407350000000001,123.0,0.0,1500
100.0,32.05,0.9409649999999999,127.0,0.0,1600
100.0,31.75,0.9397850000000002,128.0,0.0,1700
100.0,31.5,0.9383099999999999,129.0,0.0,1800
100.0,32.15,0.94115,134.0,0.0,1900
100.0,30.95,0.9388099999999999,155.0,0.0,2000
100.0,31.45,0.9381450000000001,169.0,0.0,2100
100.0,31.25,0.938525,171.0,0.0,2200
100.0,31.8,0.9406950000000002,173.0,0.0,2300
100.0,31.85,0.941065,173.0,0.0,2400
100.0,30.95,0.9382750000000002,173.0,0.0,2500
100.0,31.9,0.9396250000000002,173.0,0.0,2600
100.0,31.0,0.937725,182.0,0.0,2700
100.0,31.25,0.9363699999999999,183.0,0.0,2800
100.0,31.7,0.9399500000000002,188.0,0.0,2900
100.0,30.95,0.9391349999999999,192.0,0.0,3000
