Episode length,Green food,Need,Number of nodes,Red food,Trained time steps
32.9,0.0,0.47684719601733605,27.0,0.0,100
32.75,0.0,0.47774643960956775,27.0,0.0,200
33.05,0.0,0.47786937388591755,27.0,0.0,300
32.95,0.1,0.4846231579912019,27.0,0.0,400
32.75,0.3,0.49219390246759165,27.0,0.1,500
38.4,0.8,0.4899568798186248,27.0,0.05,600
31.6,0.65,0.48770062339501796,30.0,0.25,700
61.3,4.4,0.6081007983350719,30.0,0.0,800
56.45,3.95,0.5573845294096307,31.0,0.3,900
37.05,1.5,0.5127714994797319,37.0,0.25,1000
39.85,1.95,0.5439581762342116,42.0,0.15,1100
48.5,3.05,0.5597590962214757,46.0,0.0,1200
90.7,13.6,0.7475920092488024,51.0,0.0,1300
98.55,18.1,0.8306712637362637,54.0,0.0,1400
100.0,24.3,0.887035,54.0,0.0,1500
100.0,28.3,0.93334,54.0,0.0,1600
100.0,31.45,0.9388350000000001,54.0,0.0,1700
100.0,30.9,0.9382150000000001,54.0,0.0,1800
100.0,29.0,0.93294,54.0,0.0,1900
100.0,28.6,0.930625,54.0,0.0,2000
100.0,30.35,0.93632,69.0,0.0,2100
100.0,30.35,0.936265,81.0,0.0,2200
100.0,30.45,0.9362550000000001,93.0,0.0,2300
100.0,29.85,0.9342149999999998,128.0,0.0,2400
100.0,30.25,0.9343449999999999,212.0,0.0,2500
100.0,31.7,0.940395,239.0,0.0,2600
100.0,31.45,0.9397200000000001,281.0,0.0,2700
100.0,32.25,0.9410700000000001,289.0,0.0,2800
100.0,30.95,0.9385999999999999,301.0,0.0,2900
100.0,30.35,0.9364699999999999,313.0,0.0,3000
33.9,0.0,0.47458422459893007,27.0,0.0,100
32.75,0.0,0.47756744373885873,27.0,0.0,200
33.8,0.0,0.4761541889483062,27.0,0.0,300
44.0,1.7,0.5261510377048145,27.0,0.1,400
37.05,0.5,0.492022733556822,27.0,0.0,500
37.0,1.55,0.5230387763501995,28.0,0.1,600
40.8,1.3,0.535258917292126,30.0,0.0,700
41.65,1.7,0.5368744616307511,32.0,0.0,800
88.2,11.55,0.711898276246021,36.0,0.45,900
39.25,1.5,0.5128343505249725,43.0,0.0,1000
48.0,3.1,0.5722487776343211,51.0,0.0,1100
74.35,9.6,0.6651413621016504,52.0,0.0,1200
53.45,4.25,0.5841243946263067,52.0,0.0,1300
95.35,18.4,0.8015552640663847,52.0,0.0,1400
100.0,31.6,0.9396150000000002,52.0,0.0,1500
100.0,26.4,0.917465,52.0,0.0,1600
100.0,23.75,0.9033599999999999,52.0,0.0,1700
100.0,19.7,0.8363799999999998,52.0,0.0,1800
100.0,28.5,0.92997,78.0,0.0,1900
100.0,29.05,0.9309249999999999,89.0,0.0,2000
100.0,27.6,0.928365,90.0,0.0,2100
100.0,25.2,0.9080349999999999,92.0,0.0,2200
100.0,22.25,0.8675749999999999,113.0,0.0,2300
100.0,23.45,0.8962899999999999,123.0,0.0,2400
100.0,20.75,0.8611949999999998,189.0,0.0,2500
100.0,28.25,0.92479,242.0,0.0,2600
100.0,30.15,0.9354000000000001,284.0,0.0,2700
100.0,30.35,0.9364799999999999,300.0,0.0,2800
100.0,31.45,0.938625,310.0,0.0,2900
100.0,31.05,0.9378650000000001,319.0,0.0,3000
32.9,0.0,0.47684719601733605,27.0,0.0,100
31.85,0.0,0.4793179863147601,27.0,0.0,200
33.45,0.0,0.4756254456327982,27.0,0.0,300
33.4,0.0,0.47636255013368933,27.0,0.0,400
35.0,0.2,0.4852604594072968,27.0,0.0,500
32.7,0.45,0.471823601397017,27.0,0.05,600
45.5,2.1,0.5202768779394532,28.0,0.3,700
58.4,4.0,0.5445811167067482,28.0,0.2,800
54.8,4.9,0.6057674809721725,32.0,0.45,900
93.05,17.5,0.8046593627261792,34.0,1.05,1000
41.5,2.0,0.5446665255427647,50.0,0.0,1100
100.0,30.25,0.9340474999999999,52.0,0.0,1200
100.0,29.25,0.9323599999999999,52.0,0.0,1300
100.0,31.85,0.9401800000000001,52.0,0.0,1400
100.0,30.95,0.9360850000000001,52.0,0.0,1500
100.0,32.6,0.9416500000000001,52.0,0.0,1600
100.0,31.65,0.939315,52.0,0.0,1700
100.0,29.65,0.9339349999999997,74.0,0.0,1800
100.0,30.5,0.9362250000000001,106.0,0.0,1900
100.0,32.1,0.9415600000000002,151.0,0.0,2000
100.0,31.6,0.9395100000000001,187.0,0.0,2100
100.0,32.4,0.9410950000000001,208.0,0.0,2200
100.0,32.05,0.9410399999999999,215.0,0.0,2300
100.0,31.5,0.9397650000000001,275.0,0.0,2400
100.0,31.5,0.94092,313.0,0.0,2500
100.0,31.85,0.9404400000000003,342.0,0.0,2600
100.0,31.75,0.9390600000000002,357.0,0.0,2700
100.0,31.6,0.9389100000000002,369.0,0.0,2800
100.0,32.55,0.9420500000000003,371.0,0.0,2900
100.0,32.5,0.94191,374.0,0.0,3000
34.45,0.5,0.49716958072772394,27.0,0.0,100
33.45,0.8,0.46729867325493624,28.0,0.5,200
40.45,2.4,0.5351936987847286,30.0,0.8,300
90.4,13.05,0.7499281474502538,34.0,0.15,400
81.25,11.45,0.7368400441498927,47.0,0.0,500
100.0,21.75,0.8803174999999998,50.0,0.0,600
40.2,1.85,0.5286358845770153,51.0,0.0,700
96.35,17.65,0.7977252702702701,51.0,0.0,800
85.15,12.9,0.7331187511619379,51.0,0.0,900
64.45,6.65,0.6166516070243464,52.0,0.0,1000
100.0,22.05,0.8677349999999999,52.0,0.0,1100
100.0,24.25,0.8937299999999999,52.0,0.0,1200
100.0,28.6,0.9284799999999999,52.0,0.0,1300
100.0,31.45,0.9389100000000001,52.0,0.0,1400
100.0,31.75,0.9398100000000001,52.0,0.0,1500
100.0,31.1,0.938665,103.0,0.0,1600
100.0,31.75,0.93941,147.0,0.0,1700
100.0,32.15,0.9406000000000002,172.0,0.0,1800
100.0,32.0,0.940925,207.0,0.0,1900
100.0,31.4,0.93983,216.0,0.0,2000
100.0,31.5,0.9386300000000001,251.0,0.0,2100
100.0,32.2,0.941765,313.0,0.0,2200
100.0,31.5,0.9405349999999999,335.0,0.0,2300
100.0,31.75,0.9396550000000001,344.0,0.0,2400
100.0,32.15,0.9411750000000001,348.0,0.0,2500
100.0,32.4,0.941155,353.0,0.0,2600
100.0,30.65,0.937405,365.0,0.0,2700
100.0,31.35,0.9389799999999999,370.0,0.0,2800
100.0,32.2,0.941225,377.0,0.0,2900
100.0,31.4,0.94032,382.0,0.0,3000
32.45,0.0,0.4799269916911041,27.0,0.0,100
33.95,0.0,0.4748460338680923,27.0,0.0,200
32.3,0.0,0.47960664100684225,27.0,0.0,300
33.25,0.0,0.4799227384135468,27.0,0.0,400
33.3,0.0,0.48016622103386764,27.0,0.0,500
33.0,0.0,0.47903946635472333,27.0,0.0,600
33.25,0.0,0.4782585227272723,27.0,0.0,700
33.2,0.0,0.4777243761140816,27.0,0.0,800
33.35,0.0,0.47865354835115825,27.0,0.0,900
33.2,0.0,0.47790010862299415,27.0,0.0,1000
33.05,0.0,0.4769281277852045,27.0,0.0,1100
30.5,0.2,0.4882650948511733,27.0,0.05,1200
36.55,1.8,0.4806277780608682,28.0,0.7,1300
47.7,4.3,0.575735397006907,28.0,1.45,1400
67.25,6.3,0.636023899087259,31.0,0.1,1500
83.7,11.3,0.7062008866817281,42.0,0.15,1600
100.0,22.85,0.8799874999999998,43.0,0.0,1700
100.0,31.2,0.9383900000000001,52.0,0.0,1800
100.0,31.55,0.9385749999999999,52.0,0.0,1900
100.0,31.2,0.9389,52.0,0.0,2000
100.0,31.8,0.9397649999999999,52.0,0.0,2100
100.0,30.4,0.935895,52.0,0.0,2200
100.0,31.05,0.9377350000000002,70.0,0.0,2300
100.0,31.25,0.9388099999999999,143.0,0.0,2400
100.0,32.1,0.9412800000000001,184.0,0.0,2500
100.0,31.5,0.93894,202.0,0.0,2600
100.0,32.1,0.9416150000000002,209.0,0.0,2700
100.0,31.8,0.9403499999999999,213.0,0.0,2800
100.0,31.5,0.9382149999999999,216.0,0.0,2900
100.0,31.45,0.93983,285.0,0.0,3000
32.35,0.0,0.47512622881447253,27.0,0.0,100
33.4,0.0,0.4764330575980388,27.0,0.0,200
32.35,0.1,0.47733275233118205,27.0,0.0,300
33.4,0.0,0.4787165775401065,27.0,0.0,400
33.2,0.0,0.4775200674019603,27.0,0.0,500
33.4,0.0,0.4769186720142599,27.0,0.0,600
33.5,0.0,0.4756561942958998,27.0,0.0,700
31.8,0.35,0.4901637809718835,27.0,0.05,800
31.85,0.5,0.49946019067575886,28.0,0.15,900
45.75,3.05,0.5725602134908832,28.0,0.25,1000
35.15,1.25,0.5073152884565596,31.0,0.4,1100
40.9,1.8,0.547385799152338,36.0,0.0,1200
51.85,3.3,0.5589494152270447,41.0,0.0,1300
100.0,30.75,0.9378625000000002,48.0,0.0,1400
63.85,6.4,0.605230420158699,52.0,0.0,1500
100.0,26.35,0.91719,52.0,0.0,1600
93.35,17.15,0.8228167498514555,52.0,0.0,1700
100.0,28.0,0.925975,52.0,0.0,1800
100.0,29.1,0.933355,62.0,0.0,1900
100.0,29.7,0.9336350000000001,79.0,0.0,2000
100.0,29.3,0.933645,92.0,0.0,2100
100.0,25.2,0.9118650000000003,93.0,0.0,2200
100.0,23.75,0.88582,94.0,0.0,2300
100.0,26.0,0.9116150000000001,95.0,0.0,2400
100.0,27.6,0.9245950000000001,111.0,0.0,2500
100.0,29.5,0.9344300000000001,206.0,0.0,2600
100.0,30.3,0.9369250000000002,256.0,0.0,2700
100.0,30.35,0.9355450000000001,273.0,0.0,2800
100.0,31.35,0.9396300000000002,292.0,0.0,2900
100.0,32.35,0.9405899999999999,300.0,0.0,3000
32.9,0.0,0.47684719601733605,27.0,0.0,100
32.75,0.0,0.4774187668010749,27.0,0.0,200
33.2,0.0,0.4799924242424239,27.0,0.0,300
33.55,0.0,0.47811720142602454,27.0,0.0,400
32.95,0.15,0.490693379290238,27.0,0.2,500
33.1,0.0,0.4769681372549016,27.0,0.0,600
32.55,0.0,0.47851562499999944,27.0,0.0,700
33.1,0.75,0.4912779303376317,27.0,0.25,800
46.15,1.95,0.510758546211424,28.0,0.05,900
45.7,2.45,0.5622524999367513,28.0,0.0,1000
36.2,1.35,0.5241885857600769,35.0,0.25,1100
34.1,0.7,0.5078808059171056,37.0,0.1,1200
89.3,16.0,0.7786922611345297,40.0,0.25,1300
100.0,29.45,0.9342900000000001,52.0,0.0,1400
100.0,29.0,0.9326150000000002,52.0,0.0,1500
98.6,22.1,0.8681797916666666,52.0,0.0,1600
100.0,28.5,0.9294549999999999,52.0,0.0,1700
100.0,26.4,0.9185650000000001,52.0,0.0,1800
100.0,26.75,0.9219050000000001,52.0,0.0,1900
100.0,28.9,0.93116,87.0,0.0,2000
100.0,27.0,0.9229600000000001,91.0,0.0,2100
100.0,24.0,0.894075,105.0,0.0,2200
98.8,21.75,0.8714702631578947,125.0,0.0,2300
100.0,29.0,0.9308,207.0,0.0,2400
100.0,30.6,0.937955,238.0,0.0,2500
100.0,31.15,0.9389649999999999,266.0,0.0,2600
100.0,30.75,0.9371799999999999,286.0,0.0,2700
100.0,31.6,0.9390550000000003,307.0,0.0,2800
100.0,32.15,0.9385600000000002,319.0,0.0,2900
100.0,32.2,0.9413599999999999,321.0,0.0,3000
33.45,0.0,0.4787680481283417,27.0,0.0,100
31.65,0.0,0.4754355632942322,27.0,0.0,200
32.7,0.0,0.478317061896239,27.0,0.0,300
33.95,0.2,0.49197263018870485,27.0,0.0,400
39.65,0.75,0.4910022754605962,27.0,0.0,500
44.0,1.4,0.5187037484223778,28.0,0.0,600
50.1,3.0,0.5401856707312345,30.0,0.25,700
38.35,1.35,0.5023857830493659,39.0,0.25,800
87.4,11.75,0.7056770734184122,43.0,0.0,900
100.0,22.6,0.8819174999999999,51.0,0.0,1000
100.0,32.55,0.9413899999999998,51.0,0.0,1100
100.0,31.7,0.9402800000000001,52.0,0.0,1200
100.0,32.65,0.9415549999999999,52.0,0.0,1300
100.0,31.25,0.9399999999999998,52.0,0.0,1400
100.0,31.85,0.9394,52.0,0.0,1500
100.0,31.2,0.9386300000000001,90.0,0.0,1600
100.0,31.65,0.9385899999999999,165.0,0.0,1700
100.0,33.0,0.9422100000000002,198.0,0.0,1800
100.0,32.0,0.9403250000000002,209.0,0.0,1900
100.0,31.55,0.93934,218.0,0.0,2000
100.0,31.9,0.9410000000000002,222.0,0.0,2100
100.0,31.75,0.9392849999999999,276.0,0.0,2200
100.0,31.95,0.9391550000000001,316.0,0.0,2300
100.0,31.45,0.9397300000000002,342.0,0.0,2400
100.0,31.7,0.9389050000000003,357.0,0.0,2500
100.0,32.1,0.9406850000000002,366.0,0.0,2600
100.0,32.5,0.9421399999999999,370.0,0.0,2700
100.0,32.75,0.9422400000000002,376.0,0.0,2800
100.0,32.05,0.9410850000000002,382.0,0.0,2900
100.0,31.15,0.938025,387.0,0.0,3000
32.9,0.0,0.47684719601733605,27.0,0.0,100
31.5,0.0,0.47815105235825967,27.0,0.0,200
33.2,0.0,0.47589391154188904,27.0,0.0,300
33.7,0.0,0.47492914438502637,27.0,0.0,400
37.4,0.7,0.5012201632911875,27.0,0.1,500
35.15,0.2,0.4926527075523651,27.0,0.0,600
32.4,0.65,0.49982391364639067,27.0,0.05,700
35.2,1.4,0.5118959897567585,28.0,0.7,800
52.2,3.5,0.5143853668936675,29.0,0.3,900
89.95,13.55,0.7592412288397262,37.0,0.3,1000
86.8,13.8,0.7644827684965046,42.0,0.0,1100
100.0,25.45,0.9155850000000001,51.0,0.0,1200
100.0,30.3,0.9365,52.0,0.0,1300
100.0,30.75,0.9359,52.0,0.0,1400
100.0,27.7,0.924425,52.0,0.0,1500
100.0,26.95,0.92351,52.0,0.0,1600
96.95,21.2,0.8510694871794872,68.0,0.0,1700
100.0,27.4,0.9233499999999999,82.0,0.0,1800
100.0,29.05,0.9308150000000002,87.0,0.0,1900
100.0,30.25,0.9366200000000001,119.0,0.0,2000
100.0,29.35,0.9334800000000001,128.0,0.0,2100
100.0,31.8,0.938845,156.0,0.0,2200
100.0,32.55,0.9418950000000003,169.0,0.0,2300
100.0,31.85,0.9384,174.0,0.0,2400
100.0,29.2,0.9308500000000001,236.0,0.0,2500
100.0,30.6,0.93707,286.0,0.0,2600
100.0,29.2,0.9316600000000002,304.0,0.0,2700
100.0,30.5,0.935585,323.0,0.0,2800
100.0,31.5,0.9380200000000002,330.0,0.0,2900
100.0,31.05,0.9372149999999999,335.0,0.0,3000
32.9,0.0,0.47684719601733605,27.0,0.0,100
31.85,0.0,0.4793179863147601,27.0,0.0,200
33.45,0.0,0.4756254456327982,27.0,0.0,300
34.15,0.1,0.47942107922714505,27.0,0.0,400
29.9,0.15,0.47934350630527434,27.0,0.05,500
43.2,1.45,0.5111081092008696,28.0,0.15,600
41.2,1.5,0.5168344526609782,28.0,0.0,700
40.05,2.2,0.5321870625611776,29.0,0.45,800
63.3,5.85,0.6208044177148072,38.0,0.2,900
82.65,8.3,0.6421220398561278,43.0,0.0,1000
99.0,17.5,0.8141876211029684,48.0,0.0,1100
73.1,8.05,0.6215256186888799,50.0,0.0,1200
94.5,19.7,0.840925,51.0,0.0,1300
40.95,1.75,0.5383347139652073,52.0,0.0,1400
45.9,2.7,0.5479828087937079,52.0,0.0,1500
61.5,5.8,0.6091473373674605,52.0,0.0,1600
100.0,31.9,0.9411850000000003,52.0,0.0,1700
100.0,32.7,0.9428449999999999,52.0,0.0,1800
100.0,31.4,0.940065,52.0,0.0,1900
100.0,32.1,0.942225,52.0,0.0,2000
100.0,32.3,0.9422050000000002,82.0,0.0,2100
100.0,31.15,0.9370899999999999,118.0,0.0,2200
100.0,32.2,0.9403300000000001,143.0,0.0,2300
100.0,31.35,0.9372900000000002,169.0,0.0,2400
100.0,32.2,0.9400800000000002,174.0,0.0,2500
100.0,31.8,0.9408700000000001,178.0,0.0,2600
100.0,32.1,0.939565,245.0,0.0,2700
100.0,32.45,0.9413000000000002,290.0,0.0,2800
100.0,32.5,0.9423050000000002,317.0,0.0,2900
100.0,31.4,0.939855,324.0,0.0,3000
33.25,0.0,0.475467329545454,27.0,0.0,100
32.2,0.0,0.47619995570625573,27.0,0.0,200
33.05,0.0,0.47636156138591773,27.0,0.0,300
33.6,0.0,0.4768048128342242,27.0,0.0,400
31.2,0.35,0.48670812384745527,27.0,0.15,500
40.65,1.3,0.5222186639561632,28.0,0.05,600
41.25,1.45,0.5324751250260741,28.0,0.0,700
45.55,2.55,0.5591124428231944,32.0,0.0,800
57.85,4.05,0.5630538189064995,34.0,0.0,900
43.0,1.95,0.5487881050794355,42.0,0.0,1000
100.0,26.0,0.9168700000000001,51.0,0.0,1100
95.8,17.55,0.8305311558743963,53.0,0.0,1200
40.75,1.65,0.5289734330009045,54.0,0.0,1300
39.6,1.8,0.5354257033424868,54.0,0.0,1400
83.35,11.25,0.7175470794061503,54.0,0.0,1500
100.0,26.05,0.9156525,54.0,0.0,1600
100.0,24.7,0.902505,54.0,0.0,1700
100.0,28.15,0.9274950000000001,54.0,0.0,1800
100.0,28.5,0.92953,54.0,0.0,1900
100.0,31.3,0.9390450000000001,54.0,0.0,2000
100.0,27.5,0.92842,54.0,0.0,2100
100.0,29.7,0.93466,54.0,0.0,2200
100.0,29.2,0.9330900000000002,54.0,0.0,2300
100.0,29.75,0.9355000000000002,93.0,0.0,2400
100.0,30.0,0.9364800000000001,126.0,0.0,2500
100.0,30.5,0.9368300000000002,155.0,0.0,2600
100.0,31.45,0.938705,168.0,0.0,2700
100.0,32.1,0.9414,179.0,0.0,2800
100.0,32.4,0.94184,181.0,0.0,2900
100.0,32.85,0.942445,258.0,0.0,3000
32.9,0.0,0.47684719601733605,27.0,0.0,100
31.85,0.0,0.4793179863147601,27.0,0.0,200
32.2,0.05,0.4809470475928636,27.0,0.0,300
33.2,0.05,0.48252728621352814,27.0,0.0,400
30.2,0.2,0.47564591593751027,27.0,0.15,500
38.65,1.75,0.5026737416420615,28.0,0.6,600
38.6,1.3,0.5129016479760218,28.0,0.05,700
35.8,0.95,0.5110781700627138,30.0,0.0,800
87.45,11.3,0.6816148020747972,36.0,0.25,900
99.9,21.15,0.8733979591836734,40.0,0.0,1000
80.95,10.4,0.6868115676036304,46.0,0.0,1100
89.1,13.65,0.7397531124118845,48.0,0.0,1200
71.75,9.35,0.6705905364553569,51.0,0.0,1300
100.0,24.0,0.8929199999999999,52.0,0.0,1400
100.0,29.35,0.93125,52.0,0.0,1500
100.0,29.25,0.932715,52.0,0.0,1600
100.0,25.6,0.9049799999999999,52.0,0.0,1700
100.0,31.6,0.939955,72.0,0.0,1800
100.0,31.4,0.9379850000000001,81.0,0.0,1900
100.0,31.05,0.9383000000000001,108.0,0.0,2000
100.0,31.5,0.93893,125.0,0.0,2100
100.0,31.6,0.9396849999999999,130.0,0.0,2200
100.0,31.15,0.938555,164.0,0.0,2300
100.0,31.8,0.941095,171.0,0.0,2400
100.0,31.65,0.9400450000000001,243.0,0.0,2500
100.0,31.25,0.9402249999999999,278.0,0.0,2600
100.0,32.7,0.94237,301.0,0.0,2700
100.0,32.0,0.9405150000000001,308.0,0.0,2800
100.0,31.8,0.940605,315.0,0.0,2900
100.0,32.35,0.941165,322.0,0.0,3000
32.6,0.0,0.4801487097313261,27.0,0.0,100
33.35,0.0,0.478341452205882,27.0,0.0,200
33.35,0.0,0.47712479110962525,27.0,0.0,300
33.9,0.0,0.4755650623885915,27.0,0.0,400
34.0,0.0,0.47499999999999964,27.0,0.0,500
32.55,0.0,0.47985445686705724,27.0,0.0,600
33.0,0.0,0.47742963179589976,27.0,0.0,700
33.35,0.0,0.47679195911319033,27.0,0.0,800
33.2,0.0,0.4786265597147946,27.0,0.0,900
29.5,0.15,0.48278608737753437,27.0,0.15,1000
35.7,0.35,0.495515979075089,27.0,0.0,1100
32.95,0.45,0.4902602940924523,28.0,0.15,1200
47.4,2.25,0.5297555386367196,28.0,0.05,1300
74.4,8.65,0.6584145426655507,28.0,0.3,1400
43.8,2.3,0.5575432431549244,32.0,0.2,1500
49.8,3.2,0.5783025586004592,41.0,0.0,1600
62.95,5.75,0.6027277282515979,48.0,0.0,1700
100.0,25.6,0.9134,52.0,0.0,1800
100.0,23.1,0.888035,54.0,0.0,1900
100.0,22.9,0.8794649999999999,54.0,0.0,2000
49.75,3.75,0.5739988134090834,54.0,0.0,2100
97.3,21.05,0.8623263043478261,54.0,0.0,2200
100.0,30.4,0.936355,54.0,0.0,2300
100.0,27.9,0.929875,54.0,0.0,2400
100.0,29.05,0.930785,54.0,0.0,2500
100.0,27.95,0.9284850000000002,71.0,0.0,2600
100.0,28.55,0.9306000000000001,79.0,0.0,2700
100.0,27.45,0.9243799999999999,86.0,0.0,2800
100.0,29.15,0.933605,121.0,0.0,2900
100.0,31.75,0.9377450000000002,207.0,0.0,3000
31.65,0.4,0.4855616222895369,29.0,0.2,100
70.15,8.35,0.6425230494610744,29.0,0.55,200
68.1,7.6,0.6429410287885174,30.0,0.35,300
77.9,8.55,0.64435655990521,44.0,0.4,400
62.95,6.1,0.6142337839200895,51.0,0.0,500
100.0,28.75,0.9282400000000001,52.0,0.0,600
100.0,28.3,0.9266250000000001,53.0,0.0,700
100.0,29.15,0.93201,53.0,0.0,800
100.0,31.1,0.9364399999999999,53.0,0.0,900
100.0,31.6,0.9395399999999998,53.0,0.0,1000
100.0,31.45,0.9402699999999999,53.0,0.0,1100
100.0,33.0,0.9415000000000001,106.0,0.0,1200
100.0,31.6,0.9398950000000001,165.0,0.0,1300
100.0,32.5,0.94167,192.0,0.0,1400
100.0,31.35,0.938525,205.0,0.0,1500
100.0,32.8,0.9420800000000001,212.0,0.0,1600
100.0,31.6,0.940235,219.0,0.0,1700
100.0,31.1,0.9381000000000002,253.0,0.0,1800
100.0,32.1,0.9402100000000001,310.0,0.0,1900
100.0,32.35,0.9412600000000001,346.0,0.0,2000
100.0,32.35,0.94056,355.0,0.0,2100
100.0,33.05,0.9438549999999999,371.0,0.0,2200
100.0,31.05,0.9372950000000001,376.0,0.0,2300
100.0,32.15,0.94163,383.0,0.0,2400
100.0,32.1,0.9413500000000001,385.0,0.0,2500
100.0,31.2,0.9393750000000003,391.0,0.0,2600
100.0,32.05,0.9416100000000001,399.0,0.0,2700
100.0,31.8,0.9407350000000001,400.0,0.0,2800
100.0,32.25,0.9417350000000001,400.0,0.0,2900
100.0,31.3,0.93842,401.0,0.0,3000
32.1,0.0,0.4754851050830885,27.0,0.0,100
30.8,0.0,0.47749178427419314,27.0,0.0,200
33.25,0.0,0.47736942959001744,27.0,0.0,300
33.4,0.0,0.4765356506238856,27.0,0.0,400
35.15,0.2,0.48579568781290405,27.0,0.0,500
30.15,0.15,0.48110707874500946,27.0,0.05,600
37.3,1.3,0.5138584252432719,28.0,0.3,700
100.0,17.85,0.8302049999999997,32.0,0.25,800
100.0,21.05,0.8835024999999999,43.0,0.0,900
100.0,31.8,0.9400025000000001,51.0,0.0,1000
100.0,30.75,0.9377650000000001,52.0,0.0,1100
100.0,32.25,0.9407300000000001,52.0,0.0,1200
100.0,30.05,0.9363750000000002,52.0,0.0,1300
100.0,30.55,0.937955,52.0,0.0,1400
100.0,29.9,0.9345400000000001,52.0,0.0,1500
100.0,30.85,0.9379200000000001,81.0,0.0,1600
100.0,32.1,0.9399450000000001,159.0,0.0,1700
100.0,31.55,0.939065,192.0,0.0,1800
100.0,32.2,0.94155,208.0,0.0,1900
100.0,30.75,0.9378200000000001,214.0,0.0,2000
100.0,32.3,0.9407450000000003,214.0,0.0,2100
100.0,31.9,0.9412199999999998,291.0,0.0,2200
100.0,32.7,0.9422450000000001,325.0,0.0,2300
100.0,31.9,0.9412750000000003,346.0,0.0,2400
100.0,32.55,0.9419350000000002,361.0,0.0,2500
100.0,31.05,0.937625,367.0,0.0,2600
100.0,31.2,0.9383950000000001,373.0,0.0,2700
100.0,31.3,0.9389100000000001,376.0,0.0,2800
100.0,32.85,0.9421499999999998,376.0,0.0,2900
100.0,31.5,0.9383900000000001,378.0,0.0,3000
32.25,0.0,0.47645317082111394,27.0,0.0,100
33.9,0.0,0.475847370766488,27.0,0.0,200
31.6,0.0,0.4761090282869008,27.0,0.0,300
33.65,0.0,0.47540040106951825,27.0,0.0,400
40.8,1.8,0.5165200305470317,27.0,0.55,500
35.0,1.3,0.4972156847661554,28.0,0.55,600
57.85,3.45,0.5342179847541503,31.0,0.15,700
89.6,11.65,0.7255794162210336,32.0,0.3,800
57.65,4.5,0.5989788721055663,34.0,0.0,900
75.45,7.4,0.6367481192299533,47.0,0.0,1000
100.0,28.0,0.923855,52.0,0.0,1100
73.35,10.9,0.6998442638148583,52.0,0.0,1200
100.0,31.5,0.9401149999999999,52.0,0.0,1300
100.0,31.6,0.9385850000000001,52.0,0.0,1400
100.0,32.4,0.94093,52.0,0.0,1500
100.0,30.6,0.93747,52.0,0.0,1600
100.0,30.4,0.935215,86.0,0.0,1700
100.0,28.65,0.9309149999999999,112.0,0.0,1800
100.0,22.95,0.8870100000000001,124.0,0.0,1900
92.0,14.95,0.761374501237643,128.0,0.0,2000
100.0,24.5,0.8891999999999998,128.0,0.0,2100
100.0,31.25,0.9384750000000001,170.0,0.0,2200
100.0,31.45,0.9391599999999999,178.0,0.0,2300
100.0,31.3,0.9368950000000001,224.0,0.0,2400
100.0,31.35,0.937335,273.0,0.0,2500
100.0,30.95,0.937495,295.0,0.0,2600
100.0,30.85,0.9383899999999998,305.0,0.0,2700
100.0,31.15,0.9388350000000001,314.0,0.0,2800
100.0,31.75,0.9392500000000001,320.0,0.0,2900
100.0,31.25,0.9385950000000001,324.0,0.0,3000
34.0,0.0,0.47451470588235256,27.0,0.0,100
33.35,0.0,0.4779419424019604,27.0,0.0,200
32.85,0.0,0.47889263034759316,27.0,0.0,300
33.45,0.0,0.4770432542335111,27.0,0.0,400
37.25,0.65,0.48004071278827254,27.0,0.1,500
32.95,0.0,0.47894241588680886,27.0,0.0,600
33.65,0.55,0.5021207600731381,27.0,0.05,700
36.9,1.4,0.5065201071878246,28.0,0.5,800
61.75,3.85,0.5514674459373927,28.0,0.0,900
36.95,1.1,0.5239616907148632,30.0,0.1,1000
93.1,12.55,0.748483729395094,33.0,0.05,1100
100.0,19.1,0.85381,45.0,0.0,1200
98.3,21.65,0.8631626515151514,50.0,0.0,1300
85.75,12.1,0.7258174607976746,52.0,0.0,1400
100.0,29.4,0.9353499999999999,53.0,0.0,1500
100.0,26.4,0.9192949999999998,54.0,0.0,1600
100.0,23.4,0.9030699999999999,54.0,0.0,1700
100.0,27.9,0.9277799999999999,54.0,0.0,1800
100.0,29.5,0.9313500000000001,76.0,0.0,1900
100.0,32.15,0.9395900000000001,89.0,0.0,2000
100.0,31.65,0.938995,92.0,0.0,2100
100.0,31.75,0.9408650000000002,122.0,0.0,2200
100.0,31.55,0.9399100000000002,164.0,0.0,2300
100.0,31.8,0.9406950000000002,176.0,0.0,2400
100.0,30.6,0.9369500000000002,179.0,0.0,2500
100.0,31.75,0.9401500000000003,205.0,0.0,2600
100.0,32.25,0.9412650000000001,274.0,0.0,2700
100.0,31.75,0.9401999999999999,303.0,0.0,2800
100.0,31.05,0.938845,311.0,0.0,2900
100.0,32.25,0.94145,320.0,0.0,3000
32.65,0.0,0.47848096132697904,27.0,0.0,100
32.8,0.0,0.4786244465528144,27.0,0.0,200
33.25,0.0,0.479245808266488,27.0,0.0,300
33.5,0.0,0.47458650846702277,27.0,0.0,400
33.9,0.0,0.4748542780748659,27.0,0.0,500
32.9,0.0,0.4789467751818465,27.0,0.0,600
32.75,0.0,0.47755468749999963,27.0,0.0,700
41.35,1.45,0.511812411733245,27.0,0.15,800
35.35,1.2,0.5362632821634542,28.0,0.5,900
39.55,1.1,0.5110704987236054,28.0,0.0,1000
76.75,8.8,0.6792197973780656,28.0,0.0,1100
91.9,12.9,0.7372341027317637,37.0,1.0,1200
61.45,4.85,0.5795357533698631,48.0,0.0,1300
100.0,27.95,0.92943,52.0,0.0,1400
92.95,17.85,0.8121423015873015,52.0,0.0,1500
69.9,7.3,0.6284294352004884,52.0,0.0,1600
100.0,31.15,0.9388050000000001,52.0,0.0,1700
100.0,30.35,0.9356650000000002,52.0,0.0,1800
100.0,29.85,0.935965,52.0,0.0,1900
100.0,30.55,0.9379,56.0,0.0,2000
100.0,30.7,0.9370100000000001,81.0,0.0,2100
100.0,29.1,0.931525,87.0,0.0,2200
100.0,29.4,0.9324250000000001,100.0,0.0,2300
100.0,31.45,0.9381700000000001,147.0,0.0,2400
100.0,31.45,0.939625,165.0,0.0,2500
100.0,32.5,0.9424300000000001,168.0,0.0,2600
100.0,32.55,0.9412650000000002,244.0,0.0,2700
100.0,30.7,0.9382050000000002,285.0,0.0,2800
100.0,31.3,0.9387000000000001,312.0,0.0,2900
100.0,30.9,0.9386300000000001,322.0,0.0,3000
32.9,0.0,0.47684719601733605,27.0,0.0,100
34.75,0.9,0.5221630656211425,28.0,0.3,200
38.55,1.15,0.5170683403482719,28.0,0.05,300
58.8,3.95,0.5532705773972459,33.0,0.05,400
54.45,4.35,0.583782261370456,35.0,0.35,500
62.15,5.6,0.5977127951359926,47.0,0.05,600
40.5,2.05,0.5463547579301988,53.0,0.0,700
97.45,20.3,0.8600094897959183,53.0,0.0,800
100.0,29.05,0.9303699999999999,54.0,0.0,900
100.0,24.25,0.9018999999999998,54.0,0.0,1000
100.0,29.45,0.934655,54.0,0.0,1100
100.0,21.9,0.882235,54.0,0.0,1200
100.0,27.55,0.9268100000000002,54.0,0.0,1300
100.0,28.9,0.9331250000000001,84.0,0.0,1400
100.0,26.9,0.918535,142.0,0.0,1500
100.0,28.75,0.932035,173.0,0.0,1600
100.0,30.0,0.9340900000000001,214.0,0.0,1700
100.0,32.15,0.940535,255.0,0.0,1800
100.0,30.95,0.9383750000000001,278.0,0.0,1900
100.0,31.45,0.93994,291.0,0.0,2000
100.0,31.9,0.9389549999999998,295.0,0.0,2100
100.0,31.7,0.9392650000000001,307.0,0.0,2200
100.0,31.1,0.9391250000000001,317.0,0.0,2300
100.0,31.95,0.9393400000000003,322.0,0.0,2400
100.0,32.05,0.9401200000000001,330.0,0.0,2500
100.0,30.75,0.93704,339.0,0.0,2600
100.0,30.7,0.9383850000000002,344.0,0.0,2700
100.0,31.25,0.9378350000000001,344.0,0.0,2800
100.0,31.2,0.939015,344.0,0.0,2900
100.0,31.2,0.939125,344.0,0.0,3000
32.9,0.0,0.47684719601733605,27.0,0.0,100
32.6,0.0,0.4766315945568106,27.0,0.0,200
33.25,0.0,0.4745062388591796,27.0,0.0,300
29.55,0.05,0.47683343920145155,27.0,0.0,400
37.15,1.1,0.5048332052423653,28.0,0.1,500
39.4,1.45,0.5190060900302974,29.0,0.15,600
84.2,9.2,0.6575042929944999,31.0,0.35,700
66.05,6.65,0.6235078478442344,34.0,0.0,800
68.25,7.55,0.626711826231294,41.0,0.0,900
100.0,28.0,0.9261050000000001,48.0,0.0,1000
100.0,19.95,0.8785049999999999,52.0,0.0,1100
100.0,30.1,0.9350250000000001,52.0,0.0,1200
100.0,29.6,0.9308600000000002,52.0,0.0,1300
100.0,30.25,0.9335000000000001,52.0,0.0,1400
100.0,29.15,0.9319250000000002,52.0,0.0,1500
100.0,29.25,0.9311750000000002,74.0,0.0,1600
100.0,31.6,0.9385,113.0,0.0,1700
100.0,30.85,0.9369150000000002,206.0,0.0,1800
100.0,30.5,0.9372750000000002,237.0,0.0,1900
100.0,31.55,0.9391650000000002,266.0,0.0,2000
100.0,32.4,0.94213,287.0,0.0,2100
100.0,31.9,0.940165,300.0,0.0,2200
100.0,32.2,0.9411750000000001,302.0,0.0,2300
100.0,31.45,0.9386050000000001,311.0,0.0,2400
100.0,32.35,0.9418450000000002,317.0,0.0,2500
100.0,32.35,0.9424500000000002,322.0,0.0,2600
100.0,32.0,0.9403850000000002,325.0,0.0,2700
100.0,31.8,0.9393550000000002,330.0,0.0,2800
100.0,31.55,0.9379450000000003,333.0,0.0,2900
100.0,31.9,0.9400850000000001,359.0,0.0,3000
