Episode length,Green food,Need,Number of nodes,Red food,Trained time steps
32.95,0.0,0.4766695075757572,31.0,0.0,100
33.55,0.0,0.47687455436720094,39.0,0.0,200
32.25,0.0,0.47677194714579346,39.0,0.0,300
33.5,0.0,0.4764380570409978,44.0,0.0,400
33.75,0.0,0.4758119429590013,48.0,0.0,500
33.4,0.8,0.49280178651385764,58.0,0.3,600
33.3,0.85,0.4736136232088411,69.0,0.3,700
36.05,1.05,0.5187723888489731,75.0,0.3,800
36.15,1.3,0.5013324759509012,82.0,0.3,900
49.55,3.5,0.5276660265316846,88.0,0.8,1000
38.75,2.35,0.5264062574662763,93.0,1.1,1100
44.5,2.95,0.550914746300111,107.0,0.85,1200
50.35,2.95,0.5149336699073321,115.0,0.45,1300
52.35,3.5,0.5397525979326325,121.0,0.6,1400
49.6,3.1,0.5250532490815137,125.0,0.65,1500
59.15,5.0,0.5835860311816866,136.0,0.75,1600
73.0,7.8,0.6014243943494918,142.0,0.8,1700
61.35,4.65,0.5746215104960972,152.0,0.3,1800
65.1,4.9,0.5732546865503377,163.0,0.35,1900
72.2,6.95,0.5937837199316743,170.0,0.65,2000
74.9,7.45,0.6004309875554859,179.0,0.6,2100
72.0,5.95,0.5833379370305163,188.0,0.35,2200
75.9,7.35,0.6125892398877302,194.0,0.8,2300
74.0,7.3,0.6069672918057553,198.0,0.55,2400
66.7,6.2,0.589542296265036,202.0,0.6,2500
81.6,9.25,0.6686952739530978,204.0,0.4,2600
82.0,8.7,0.6344452441473358,213.0,0.55,2700
85.45,9.6,0.6386447462375693,216.0,0.5,2800
74.9,7.5,0.634689340909156,219.0,0.35,2900
79.55,9.5,0.6908854937293512,223.0,0.35,3000
31.85,0.0,0.475004730266373,30.0,0.0,100
36.8,0.95,0.5042030179428398,37.0,0.1,200
35.05,0.75,0.47712260792570615,50.0,0.2,300
37.45,1.45,0.5408942916967374,53.0,0.3,400
37.25,1.9,0.5206710810955685,64.0,0.95,500
44.05,2.7,0.5531026643019412,75.0,0.85,600
67.85,6.2,0.6073508973944712,88.0,0.95,700
65.45,6.75,0.6063844418893258,98.0,1.25,800
62.3,5.7,0.596814844610593,108.0,0.95,900
79.15,8.5,0.596376962845047,112.0,0.95,1000
73.65,7.55,0.6043240143379363,118.0,0.85,1100
75.2,7.65,0.6103686934795998,125.0,0.8,1200
69.45,6.15,0.5850681366268201,127.0,0.65,1300
66.05,7.05,0.6242651929400486,128.0,0.9,1400
79.2,8.65,0.6328691501259894,132.0,0.55,1500
76.05,7.8,0.5785671808064666,132.0,0.85,1600
68.35,6.15,0.5852338063773507,136.0,0.7,1700
71.25,7.15,0.5958610645188797,136.0,0.75,1800
71.45,6.75,0.5968529051880436,137.0,0.55,1900
68.0,6.45,0.6374853296111841,142.0,0.65,2000
69.35,6.3,0.5927368798386887,148.0,0.6,2100
75.55,8.15,0.655945822681939,150.0,0.8,2200
63.05,6.3,0.5886274292168264,152.0,0.65,2300
74.3,7.55,0.6330015247985857,153.0,0.45,2400
61.7,5.8,0.5788273992325398,157.0,1.0,2500
70.65,6.8,0.6165959544588354,159.0,0.45,2600
74.55,7.45,0.6027491630307429,161.0,0.75,2700
63.9,6.5,0.6143339753099182,163.0,1.0,2800
76.9,7.8,0.6189347458150517,164.0,0.5,2900
78.35,8.15,0.6239366977405785,169.0,0.85,3000
36.75,0.85,0.4985990242618875,32.0,0.05,100
36.25,0.7,0.4840442453931487,48.0,0.0,200
43.1,1.75,0.5068781237506681,61.0,0.05,300
51.3,2.55,0.5198028509185539,75.0,0.1,400
38.95,1.4,0.5207334681689926,86.0,0.1,500
52.85,3.25,0.5503775309202612,89.0,0.0,600
56.35,3.3,0.5020347833880751,101.0,0.1,700
64.4,5.15,0.5944759920970999,115.0,0.05,800
68.2,5.85,0.6130268733978188,126.0,0.0,900
61.35,4.95,0.6016967369448336,136.0,0.1,1000
60.35,4.4,0.5820868403122139,147.0,0.15,1100
51.75,3.2,0.5554640374924146,159.0,0.05,1200
69.8,6.55,0.6283597388220152,165.0,0.15,1300
73.95,7.1,0.6206343372390858,177.0,0.25,1400
88.4,9.45,0.6513571190247845,187.0,0.55,1500
79.25,8.55,0.6523868863824696,196.0,0.25,1600
75.2,7.55,0.6401091198089812,201.0,0.15,1700
77.9,9.3,0.6616202506991951,205.0,0.4,1800
80.15,8.05,0.6106860014338378,211.0,0.35,1900
86.45,9.35,0.6682540137412756,217.0,0.3,2000
82.15,8.3,0.6260245327018226,220.0,0.25,2100
79.0,7.8,0.6068373686651525,223.0,0.35,2200
76.25,7.5,0.6190984668972022,228.0,0.45,2300
82.1,8.45,0.6514521959254076,232.0,0.3,2400
80.9,8.55,0.6498417526081297,237.0,0.35,2500
83.75,8.5,0.6268448337594564,241.0,0.35,2600
84.8,8.5,0.6054332019976176,243.0,0.35,2700
73.1,6.95,0.6097944176201883,243.0,0.2,2800
74.2,6.8,0.584535820527605,245.0,0.25,2900
80.4,7.55,0.5918619607678368,247.0,0.2,3000
32.65,0.0,0.47550383145376884,30.0,0.0,100
32.75,0.0,0.47916697528534835,36.0,0.0,200
32.85,0.05,0.48225740864527583,39.0,0.0,300
34.45,0.45,0.49982881367702375,47.0,0.0,400
33.15,0.7,0.49124762913189024,55.0,0.2,500
33.25,0.25,0.48149808303775155,56.0,0.05,600
33.45,0.0,0.4759493371212117,60.0,0.0,700
33.55,0.0,0.47690017825311903,61.0,0.0,800
33.25,0.0,0.47804413336998974,62.0,0.0,900
37.5,0.95,0.5033407986345265,65.0,0.2,1000
34.85,1.1,0.49095711812020404,69.0,0.45,1100
39.4,1.45,0.5090029269114227,74.0,0.3,1200
46.05,2.85,0.5395688791834528,78.0,0.65,1300
81.6,10.15,0.6789924205514637,78.0,0.65,1400
85.15,12.05,0.6785931503510034,83.0,1.7,1500
49.85,3.65,0.5582100733892357,92.0,0.6,1600
54.05,4.1,0.5385743106517096,103.0,0.65,1700
49.5,3.25,0.5436687814578554,113.0,0.5,1800
59.1,4.3,0.5456741072707401,122.0,0.7,1900
47.8,3.3,0.5647979571490744,128.0,0.55,2000
59.1,5.0,0.5747004803673256,132.0,0.6,2100
70.8,6.45,0.5871483230285361,139.0,0.65,2200
72.2,6.65,0.584894770172734,149.0,0.55,2300
78.7,8.65,0.6461606407010028,152.0,1.0,2400
66.6,6.55,0.6091200464771374,157.0,0.6,2500
81.35,9.2,0.6641571234862693,166.0,0.7,2600
68.8,6.25,0.5896451211506577,168.0,0.65,2700
75.55,8.05,0.6282617467215743,174.0,0.4,2800
69.65,6.8,0.6048736495924116,182.0,0.7,2900
74.9,8.1,0.6243797051041573,190.0,0.5,3000
33.35,0.0,0.4771613190730834,29.0,0.0,100
33.0,0.0,0.48044935104723663,36.0,0.0,200
33.35,0.0,0.4768741087344025,37.0,0.0,300
33.15,0.0,0.47726817705637936,41.0,0.0,400
35.05,1.0,0.522758365158243,44.0,0.15,500
44.0,1.45,0.5195794371022631,51.0,0.0,600
40.15,1.75,0.5159869407832516,57.0,0.5,700
39.75,1.9,0.5331835917696157,61.0,0.65,800
32.65,1.0,0.5028624462254225,70.0,0.55,900
44.55,2.95,0.5449047678354972,78.0,1.0,1000
37.75,2.05,0.5155849844329146,87.0,1.15,1100
42.1,2.8,0.5433360092957413,92.0,1.05,1200
57.95,6.35,0.5752910788746288,107.0,2.2,1300
70.95,8.3,0.6485785179164838,121.0,1.4,1400
69.2,9.3,0.665325930216144,127.0,1.65,1500
80.2,12.1,0.7207882172175647,136.0,1.9,1600
59.1,6.3,0.5927430596129624,146.0,1.6,1700
69.45,8.55,0.6523280850503118,159.0,1.25,1800
89.55,11.55,0.6678693697443193,175.0,1.45,1900
87.0,13.8,0.7306794202448446,181.0,1.85,2000
84.9,13.3,0.7331561922190044,190.0,1.5,2100
94.05,16.55,0.7949847727272725,196.0,1.4,2200
96.8,18.5,0.8227334049409236,201.0,1.1,2300
97.5,17.55,0.7968634090909088,210.0,1.25,2400
95.65,18.0,0.8204448076923075,220.0,1.05,2500
100.0,18.75,0.8483149999999998,229.0,0.85,2600
95.15,17.6,0.8275113880986249,233.0,1.25,2700
97.6,17.65,0.8087869230769227,236.0,1.3,2800
97.4,17.75,0.8260689583333332,239.0,0.9,2900
100.0,19.2,0.8341024999999999,245.0,0.8,3000
31.4,0.0,0.4779017366202341,31.0,0.0,100
33.45,0.0,0.47691113803475893,36.0,0.0,200
33.75,0.0,0.47719362745097993,39.0,0.0,300
33.9,0.0,0.47550935828876967,44.0,0.0,400
33.75,0.05,0.4768053497958376,45.0,0.0,500
36.85,1.1,0.5187122314405432,46.0,0.25,600
41.4,1.75,0.5294953900507355,51.0,0.35,700
40.15,1.45,0.5253061305649327,54.0,0.15,800
35.85,1.3,0.5108118995335671,61.0,0.55,900
38.95,1.6,0.5181075392527947,67.0,0.5,1000
48.9,4.05,0.5749167658526846,75.0,1.25,1100
71.35,9.1,0.6593250041200854,90.0,1.85,1200
66.4,7.15,0.6283908760789337,104.0,0.95,1300
84.5,12.3,0.7171313189439146,115.0,1.0,1400
89.35,14.6,0.7320034252671065,125.0,1.6,1500
93.75,15.7,0.7574848544907703,138.0,2.1,1600
90.75,15.75,0.7779308303101337,146.0,1.3,1700
92.95,15.75,0.7853599084249082,148.0,1.35,1800
94.45,15.1,0.7253625246305415,155.0,1.15,1900
96.3,15.35,0.7863728846153845,163.0,0.9,2000
97.45,15.3,0.7851767855842735,168.0,0.65,2100
100.0,18.2,0.8345799999999997,171.0,0.4,2200
99.75,17.8,0.8259878947368419,175.0,0.65,2300
97.15,16.35,0.8320086046511627,179.0,0.25,2400
100.0,17.5,0.8274374999999997,185.0,0.5,2500
96.75,16.15,0.7906901167618058,187.0,1.05,2600
94.6,16.8,0.8006138793087393,192.0,1.15,2700
100.0,15.95,0.7853799999999997,196.0,0.85,2800
99.45,16.25,0.806636853932584,200.0,0.6,2900
92.05,14.4,0.7666200387306343,205.0,0.65,3000
32.0,0.0,0.4764123885019546,32.0,0.0,100
31.9,0.05,0.4780343102728623,36.0,0.0,200
33.3,0.05,0.4825035232843133,48.0,0.0,300
33.05,0.0,0.4814900568181814,51.0,0.0,400
31.8,0.0,0.4800164085410554,53.0,0.0,500
33.05,0.0,0.4797846758021387,53.0,0.0,600
40.4,1.4,0.5188205837987093,56.0,0.0,700
53.95,3.25,0.5320135342008054,60.0,0.25,800
40.25,1.25,0.5318799107698018,63.0,0.0,900
43.6,1.85,0.5187644980501795,68.0,0.0,1000
71.75,5.9,0.5485981721493685,73.0,0.25,1100
60.65,5.35,0.5751650435068323,79.0,0.2,1200
47.1,2.8,0.5506206975401563,89.0,0.15,1300
66.95,6.95,0.5973430554252565,101.0,0.8,1400
67.6,7.05,0.6146931609066929,112.0,0.65,1500
87.5,10.85,0.6980199649692409,125.0,0.3,1600
88.25,12.5,0.7478761500222474,128.0,0.45,1700
78.05,7.85,0.6342063820268439,139.0,0.05,1800
87.2,10.45,0.7005859902006859,148.0,0.25,1900
88.65,10.6,0.6876998948740336,157.0,0.2,2000
76.1,8.9,0.6546182822180034,163.0,0.75,2100
72.9,7.4,0.6272616470476918,168.0,0.45,2200
84.8,10.9,0.6995561020639527,169.0,0.6,2300
76.35,8.15,0.6275357788279663,172.0,0.6,2400
76.05,8.75,0.6353276297657042,178.0,0.45,2500
80.9,8.9,0.6520805099475295,182.0,1.0,2600
85.7,10.6,0.6800148176042106,186.0,0.6,2700
78.1,9.5,0.6694281351328693,188.0,0.9,2800
81.25,9.8,0.6546148912688871,191.0,0.5,2900
82.6,8.9,0.637592960117656,195.0,0.75,3000
33.95,0.0,0.4752716131907305,33.0,0.0,100
33.9,0.0,0.47510093582887664,37.0,0.0,200
32.9,0.0,0.4777338040329764,41.0,0.0,300
33.55,0.0,0.4776091800356503,44.0,0.0,400
33.15,0.0,0.4767466204682016,46.0,0.0,500
33.8,0.35,0.49411503100523435,49.0,0.1,600
36.7,0.4,0.48836209010877046,50.0,0.0,700
35.65,0.9,0.523220698863129,51.0,0.05,800
52.7,3.15,0.5341197195772497,52.0,0.1,900
37.45,1.2,0.5180676217427269,56.0,0.1,1000
34.95,0.9,0.5042194503223529,58.0,0.2,1100
62.8,5.65,0.572083306073487,63.0,0.9,1200
74.0,8.35,0.645578723470808,65.0,1.1,1300
41.45,1.5,0.5246844757331754,70.0,0.0,1400
45.0,2.25,0.5338672697406671,71.0,0.15,1500
38.7,1.35,0.5360144283502001,78.0,0.15,1600
40.05,1.55,0.5359901256503836,86.0,0.0,1700
57.25,4.65,0.5821128983954196,94.0,0.5,1800
59.25,4.45,0.5697139223317154,103.0,0.2,1900
68.75,6.3,0.604816626523965,111.0,0.35,2000
53.7,3.55,0.5491962229928895,123.0,0.3,2100
61.3,5.1,0.5759887251504268,127.0,0.45,2200
69.95,6.25,0.6263039650917254,138.0,0.1,2300
79.9,8.75,0.6592617464464501,145.0,0.3,2400
89.95,10.65,0.6600208929079261,153.0,0.35,2500
82.1,9.55,0.668997150706591,159.0,0.45,2600
75.5,8.3,0.6576700719834639,161.0,0.8,2700
88.7,9.55,0.6131634103008137,165.0,0.65,2800
77.9,7.8,0.6065205003251368,167.0,0.45,2900
88.3,10.5,0.685571073839873,167.0,0.8,3000
34.0,0.0,0.47464705882352903,32.0,0.0,100
32.2,0.0,0.47750821500704355,35.0,0.0,200
33.65,0.6,0.48947607936181675,50.0,0.1,300
48.95,2.45,0.5318522279957056,59.0,0.0,400
64.6,4.75,0.5746314769007543,69.0,0.0,500
52.85,3.25,0.5695132529181157,79.0,0.25,600
41.8,1.95,0.5337850788981668,82.0,0.15,700
42.55,2.05,0.5335494034919283,87.0,0.0,800
57.05,3.35,0.5522664167153731,97.0,0.0,900
51.0,3.35,0.550068306888463,107.0,0.0,1000
77.1,7.4,0.6281709741048626,121.0,0.0,1100
55.75,3.65,0.5804051117876472,130.0,0.0,1200
63.95,5.2,0.599510834574617,137.0,0.05,1300
68.75,5.85,0.617889013305142,143.0,0.1,1400
74.05,6.85,0.6032713764715958,145.0,0.25,1500
87.3,11.1,0.6940051742108995,152.0,0.1,1600
93.6,11.6,0.7044788282820686,157.0,0.25,1700
88.15,10.15,0.6750635962721687,162.0,0.5,1800
82.15,8.35,0.6496457890561144,166.0,0.25,1900
71.8,7.4,0.6248451154385197,169.0,0.55,2000
81.95,8.7,0.6298530647401799,174.0,0.15,2100
89.5,10.5,0.6653590289616667,178.0,0.05,2200
91.7,10.75,0.695910055017092,182.0,0.1,2300
80.75,8.65,0.643704909652725,185.0,0.25,2400
76.3,7.9,0.6471568848047633,187.0,0.15,2500
79.5,8.05,0.6154514087195592,187.0,0.15,2600
79.85,7.85,0.60817323270975,192.0,0.1,2700
78.25,8.05,0.6341447480973806,194.0,0.35,2800
86.8,8.5,0.6216270812663434,195.0,0.05,2900
72.6,7.4,0.6343942579395633,198.0,0.35,3000
32.7,0.0,0.47351799781496134,29.0,0.0,100
33.45,0.0,0.47595765095811016,35.0,0.0,200
33.75,0.0,0.4764779411764703,43.0,0.0,300
34.05,0.65,0.4873000126654162,50.0,0.1,400
35.65,0.85,0.5071733759320388,56.0,0.15,500
39.95,2.0,0.5410483250190835,64.0,0.6,600
50.75,3.7,0.5619438758887523,71.0,0.55,700
96.9,14.6,0.774767236842105,76.0,0.3,800
49.65,2.9,0.5457982930424201,86.0,0.2,900
53.4,3.6,0.5608409885328849,95.0,0.25,1000
41.85,1.95,0.5432858049709439,107.0,0.2,1100
54.2,3.6,0.5484152283353165,116.0,0.25,1200
86.3,11.35,0.7028529897854869,124.0,0.85,1300
87.9,10.95,0.6855595620722548,131.0,0.25,1400
51.05,3.65,0.5730943693107545,140.0,0.6,1500
73.0,7.55,0.6159443068326784,148.0,1.05,1600
54.25,4.55,0.6027089936426412,157.0,0.65,1700
70.4,7.35,0.6116337159859537,162.0,0.8,1800
70.4,7.25,0.6003256658309829,167.0,0.85,1900
63.9,6.3,0.6447429169718403,167.0,0.75,2000
79.3,8.8,0.6327844635964729,172.0,0.6,2100
65.55,5.45,0.5703160979061372,174.0,0.55,2200
59.1,5.1,0.5485408510916849,176.0,0.75,2300
61.9,5.25,0.5599529019195808,179.0,0.8,2400
65.15,5.45,0.5499742512677064,187.0,0.85,2500
79.85,8.8,0.6082797237843944,193.0,0.55,2600
86.0,9.55,0.6486002169990706,195.0,1.05,2700
72.65,6.55,0.5852152922186165,197.0,0.35,2800
51.3,3.2,0.5419283895166617,205.0,0.05,2900
67.45,6.75,0.5988258776707849,207.0,0.7,3000
33.0,0.0,0.4785304840686271,30.0,0.0,100
33.15,0.0,0.47648888119213917,37.0,0.0,200
33.25,0.0,0.4781713458110513,49.0,0.0,300
33.35,0.0,0.4770845727495539,59.0,0.0,400
33.45,0.2,0.4784227665145225,63.0,0.05,500
33.9,0.0,0.47434336007130085,64.0,0.0,600
40.5,0.95,0.5030045937816869,67.0,0.0,700
37.75,1.05,0.5073718701612836,68.0,0.15,800
34.55,0.95,0.4925466301690114,73.0,0.25,900
38.95,1.65,0.4959506868400136,80.0,0.5,1000
36.95,1.05,0.5110610495195426,87.0,0.1,1100
43.55,2.2,0.5629638035222946,88.0,0.3,1200
41.75,1.95,0.5406489993481943,97.0,0.25,1300
35.8,0.85,0.5132839848145483,100.0,0.05,1400
51.85,3.25,0.54627490269584,107.0,0.3,1500
46.25,2.55,0.5487116145346684,114.0,0.2,1600
73.2,7.85,0.6115036922085981,117.0,0.75,1700
74.2,7.3,0.6155991436782443,124.0,0.4,1800
77.6,7.7,0.5743172022684908,128.0,0.65,1900
79.4,8.4,0.5993990372811366,136.0,0.4,2000
89.3,10.3,0.6679369313046248,142.0,0.65,2100
69.4,6.2,0.5829842398636804,154.0,0.45,2200
67.4,5.65,0.5800591466136149,161.0,0.4,2300
43.7,2.05,0.5033578190889346,162.0,0.3,2400
68.95,5.95,0.5608453589229505,165.0,0.35,2500
65.6,5.95,0.5771179089299338,167.0,0.4,2600
70.85,5.85,0.5644236408792515,172.0,0.1,2700
75.0,7.35,0.5985108445756472,173.0,0.6,2800
68.75,6.05,0.5922376196033078,177.0,0.7,2900
65.35,5.4,0.567799878667231,185.0,0.55,3000
34.0,0.0,0.4747058823529408,30.0,0.0,100
33.45,0.0,0.4782651515151512,38.0,0.0,200
32.65,0.15,0.4897803708673004,41.0,0.0,300
32.95,0.0,0.47981415719696924,48.0,0.0,400
33.1,0.0,0.47751984458556107,49.0,0.0,500
43.6,1.5,0.4831919173322105,51.0,0.1,600
52.05,3.25,0.5880328307339665,58.0,0.05,700
41.5,1.6,0.5271162534785296,63.0,0.0,800
44.45,2.4,0.5360848123875376,68.0,0.15,900
46.4,3.05,0.5708582518126835,74.0,0.25,1000
64.2,5.3,0.5972539379898726,84.0,0.5,1100
41.65,1.75,0.5473189514957475,92.0,0.05,1200
83.05,11.75,0.6879698446823443,105.0,0.9,1300
67.6,7.0,0.629604209817252,115.0,0.6,1400
71.3,7.15,0.6248772366942663,126.0,0.5,1500
87.15,10.05,0.6896416970906684,137.0,0.85,1600
78.35,9.0,0.6514104710126262,148.0,0.65,1700
83.1,9.7,0.6781306651648273,165.0,0.35,1800
75.25,7.55,0.6234332254638111,171.0,0.55,1900
65.35,6.8,0.603324939868527,174.0,1.15,2000
81.65,9.3,0.629433131795198,184.0,0.7,2100
74.5,7.1,0.6199519026028041,186.0,0.4,2200
71.0,7.2,0.6224027435238072,188.0,0.6,2300
66.2,5.95,0.5914082575315187,190.0,0.6,2400
81.35,8.15,0.6169975897181808,193.0,0.4,2500
72.05,6.8,0.587006346019819,195.0,0.5,2600
75.8,7.55,0.6300489425216601,201.0,0.65,2700
70.2,6.3,0.589163578590129,205.0,0.45,2800
69.85,5.75,0.5350849380624195,208.0,0.5,2900
66.65,6.95,0.5920214592223575,213.0,1.3,3000
31.6,0.0,0.47936037668549786,30.0,0.0,100
33.45,0.0,0.4745400207003619,34.0,0.0,200
33.15,0.0,0.47829166666666617,40.0,0.0,300
35.3,0.2,0.4801534463598413,45.0,0.0,400
37.8,0.5,0.4893845955994783,46.0,0.05,500
49.45,2.2,0.5386301647235678,47.0,0.05,600
34.65,0.95,0.5005510363081893,49.0,0.4,700
38.5,1.55,0.5203469925565571,57.0,0.3,800
44.6,2.25,0.5189436243790323,66.0,0.3,900
37.3,1.75,0.5265584618360732,77.0,0.2,1000
49.65,3.0,0.5517886751632468,85.0,0.4,1100
45.15,2.75,0.5336752529065324,88.0,0.4,1200
64.25,6.55,0.6289552128120138,92.0,1.45,1300
75.65,9.15,0.6789232206686172,108.0,1.2,1400
74.45,8.35,0.6166088656704034,118.0,1.3,1500
94.35,13.0,0.7631269077172335,127.0,0.2,1600
91.2,12.45,0.7013348301801733,134.0,0.6,1700
87.5,11.85,0.6806118637870927,141.0,1.3,1800
79.4,10.45,0.6616243686122508,147.0,1.55,1900
79.65,11.7,0.7344937167058794,151.0,1.2,2000
88.4,12.6,0.7045387409088377,156.0,1.15,2100
93.5,13.2,0.6742328431265282,162.0,1.3,2200
85.6,11.25,0.6937657205804031,168.0,0.95,2300
77.95,9.15,0.6811377552353456,173.0,0.85,2400
81.4,9.75,0.6704896582810513,177.0,0.85,2500
76.2,8.9,0.6312028692926829,178.0,1.05,2600
78.45,8.7,0.6473470861527016,179.0,1.0,2700
68.7,6.75,0.5966569617539003,182.0,1.3,2800
84.25,10.65,0.6965004977858591,186.0,1.0,2900
78.1,9.55,0.6821064220449102,189.0,0.75,3000
31.95,0.0,0.47736610306695954,29.0,0.0,100
31.65,0.0,0.4772541697214073,37.0,0.0,200
32.95,0.55,0.4862181195727701,47.0,0.1,300
48.1,3.05,0.5247765442383868,55.0,0.9,400
33.6,1.25,0.5037273292706379,71.0,0.55,500
48.2,2.6,0.570119526829119,88.0,0.15,600
52.0,4.35,0.5570257668532036,95.0,1.15,700
63.35,5.1,0.5847106470639571,101.0,0.3,800
41.85,2.0,0.5404597467895335,112.0,0.4,900
73.3,7.85,0.6343539516161457,121.0,0.7,1000
62.5,5.5,0.6125848573636155,125.0,0.65,1100
67.5,6.05,0.5777083061056303,130.0,0.5,1200
71.8,7.0,0.6005880979984906,138.0,0.6,1300
81.5,10.15,0.6679577818790925,144.0,1.05,1400
74.9,8.35,0.6695357110454003,154.0,0.75,1500
90.2,12.05,0.7223604168803668,160.0,0.95,1600
78.85,9.95,0.6808630801501653,161.0,1.35,1700
64.2,7.0,0.588305120422495,164.0,1.35,1800
82.75,10.7,0.6771559793725095,167.0,1.5,1900
88.3,11.2,0.6866895560581139,172.0,1.05,2000
73.2,7.95,0.6305969479464693,178.0,1.0,2100
83.35,10.2,0.6392582885899467,183.0,1.05,2200
85.15,10.55,0.699352732467232,185.0,1.2,2300
87.25,12.05,0.7269223347706844,187.0,0.95,2400
91.95,11.95,0.6804662982324073,193.0,1.05,2500
80.1,10.0,0.6731845200396712,195.0,1.35,2600
84.45,10.55,0.6875418518655657,197.0,1.0,2700
82.65,10.15,0.6582024609547326,199.0,0.9,2800
77.6,9.7,0.6679818616849962,202.0,1.3,2900
77.95,10.1,0.6678437241871659,206.0,0.95,3000
32.7,0.0,0.476892357936576,32.0,0.0,100
32.6,0.0,0.4792210913690986,40.0,0.0,200
32.7,0.0,0.4775135275609507,51.0,0.0,300
36.9,1.2,0.5160115882592422,58.0,0.25,400
34.05,0.75,0.4838858723479646,69.0,0.15,500
43.3,2.25,0.5281003516928529,75.0,0.2,600
57.8,4.4,0.5397197444634024,86.0,0.25,700
48.05,2.95,0.5405045787876093,99.0,0.3,800
57.85,3.85,0.5454845031361532,115.0,0.3,900
60.35,5.85,0.6031175316421041,122.0,0.45,1000
61.85,5.35,0.5830848735314237,132.0,0.45,1100
80.15,8.7,0.659534690393756,148.0,0.35,1200
80.1,8.1,0.6151357340749638,154.0,0.3,1300
82.15,8.25,0.610594534639612,159.0,0.2,1400
84.35,8.35,0.647252855446993,166.0,0.15,1500
71.15,6.4,0.6293318308099127,169.0,0.3,1600
73.05,6.7,0.5959983429760338,172.0,0.3,1700
72.25,6.4,0.5709145006972762,176.0,0.2,1800
75.7,7.25,0.6171862670563957,181.0,0.2,1900
66.0,5.6,0.5873902421927643,182.0,0.35,2000
72.2,6.4,0.575828530200374,185.0,0.3,2100
74.85,7.35,0.6282669375295926,185.0,0.4,2200
87.6,9.9,0.6826910482989133,189.0,0.3,2300
84.3,9.8,0.6759140503450957,193.0,0.5,2400
79.15,7.65,0.5812062565376637,200.0,0.25,2500
79.55,7.7,0.5938587444623232,204.0,0.25,2600
84.1,8.85,0.6351050932837363,209.0,0.15,2700
78.85,7.7,0.5862766359081308,211.0,0.25,2800
80.9,7.8,0.6158127765843898,212.0,0.15,2900
76.95,8.15,0.6509873975257968,214.0,0.2,3000
33.85,0.0,0.47575913547237036,30.0,0.0,100
33.3,0.0,0.47881475601604234,33.0,0.0,200
33.05,0.0,0.47830506350267343,38.0,0.0,300
33.05,0.0,0.47805858678698715,49.0,0.0,400
35.55,0.5,0.4913906352835579,52.0,0.05,500
35.95,1.15,0.5085407774281248,53.0,0.4,600
37.7,1.2,0.5092372570359933,57.0,0.2,700
36.9,1.35,0.5109447753936931,62.0,0.35,800
43.9,2.55,0.5694914128944218,67.0,0.5,900
44.8,2.6,0.5575876540942217,73.0,0.65,1000
51.0,4.0,0.5724380917456895,77.0,1.1,1100
61.55,7.5,0.6415581230149725,87.0,1.7,1200
58.7,5.15,0.5739963430133304,99.0,0.8,1300
89.25,10.45,0.7040696978969135,107.0,0.25,1400
93.0,13.75,0.7625311118619562,114.0,0.8,1500
95.65,15.3,0.8091690047021942,126.0,0.25,1600
67.0,6.2,0.6340187229710365,137.0,0.2,1700
46.65,2.9,0.5402008506232538,142.0,0.25,1800
93.6,11.35,0.7126734844834137,148.0,0.3,1900
82.85,9.7,0.6732144300579717,154.0,0.55,2000
91.45,10.85,0.6975012180846291,161.0,0.3,2100
86.0,9.55,0.6690591552851017,165.0,0.3,2200
72.9,7.3,0.6117321728122208,168.0,0.25,2300
82.5,9.5,0.6724881537212382,171.0,0.35,2400
79.65,8.15,0.648707621480149,176.0,0.3,2500
71.4,7.2,0.619200638753052,180.0,0.25,2600
86.55,8.85,0.6378056351158177,182.0,0.2,2700
89.15,9.7,0.662804383944551,186.0,0.4,2800
84.45,9.35,0.6721558855194677,189.0,0.4,2900
78.5,8.9,0.6768623802632799,191.0,0.35,3000
35.1,0.65,0.493635096969533,30.0,0.0,100
34.5,0.6,0.498247573775825,47.0,0.0,200
51.05,2.8,0.555390922998036,59.0,0.0,300
55.5,3.7,0.565659405374791,66.0,0.05,400
41.05,1.4,0.48936933538043254,80.0,0.1,500
48.1,2.55,0.5602121990717042,91.0,0.0,600
56.7,3.6,0.564896674288285,100.0,0.0,700
84.05,8.3,0.6265639196612751,106.0,0.0,800
91.8,10.8,0.7121097783800403,113.0,0.0,900
75.75,7.35,0.6110953238668105,116.0,0.3,1000
77.4,7.65,0.6035059247736361,121.0,0.4,1100
71.9,5.9,0.5672653844397592,127.0,0.1,1200
76.95,7.95,0.6313902490904616,136.0,0.55,1300
72.25,7.0,0.5904591521795393,139.0,0.2,1400
71.85,6.2,0.5865497130867011,143.0,0.35,1500
64.85,5.3,0.5841594156094353,147.0,0.25,1600
73.35,6.25,0.5731160423622776,150.0,0.05,1700
76.4,6.7,0.59231778828116,151.0,0.2,1800
73.2,6.85,0.6143531169469815,154.0,0.2,1900
78.7,7.05,0.6028419419824655,155.0,0.1,2000
67.85,5.95,0.5819606282758711,157.0,0.45,2100
74.4,7.45,0.6250817333185117,160.0,0.15,2200
68.55,5.9,0.5775592570562487,163.0,0.3,2300
68.35,5.9,0.6005574353528212,166.0,0.35,2400
73.3,6.35,0.5982983861946688,166.0,0.0,2500
71.65,6.15,0.5896923979759425,167.0,0.15,2600
68.3,5.35,0.5861608793088968,171.0,0.15,2700
64.75,5.35,0.5931222985794814,173.0,0.25,2800
72.6,6.05,0.5682504425641554,176.0,0.35,2900
79.4,7.3,0.6179742564990685,177.0,0.35,3000
32.65,0.0,0.47550383145376884,30.0,0.0,100
32.95,0.0,0.4766076764741817,38.0,0.0,200
33.25,0.0,0.4784229194518712,44.0,0.0,300
33.75,0.0,0.47521368092691574,47.0,0.0,400
39.6,0.95,0.5045440490605368,47.0,0.05,500
36.55,1.0,0.4941852211751712,55.0,0.25,600
32.95,0.85,0.48437587149210337,62.0,0.25,700
44.2,2.5,0.546999650071849,68.0,0.9,800
33.4,1.3,0.507626112881207,75.0,0.5,900
42.35,2.7,0.5006019232589793,83.0,0.85,1000
45.75,4.65,0.5877745543747126,88.0,1.75,1100
76.7,9.9,0.638842554078997,94.0,1.45,1200
73.05,9.4,0.6693144428831468,99.0,1.15,1300
68.15,7.85,0.6417719014141497,112.0,0.9,1400
88.1,14.25,0.7402058815123429,122.0,1.6,1500
87.9,12.7,0.7299092294313151,130.0,1.4,1600
84.0,12.05,0.7047281448880859,138.0,1.85,1700
88.3,12.6,0.6769393262047066,145.0,1.5,1800
86.1,12.55,0.7038921379857597,155.0,1.55,1900
93.75,14.6,0.755999934763685,164.0,1.45,2000
87.8,12.6,0.6976273409363742,170.0,1.65,2100
80.0,11.8,0.6901127263678347,171.0,1.2,2200
89.6,12.3,0.6989494635491544,179.0,1.1,2300
89.6,12.75,0.7311728550347633,182.0,0.9,2400
86.8,11.75,0.6975770865247386,186.0,1.25,2500
88.55,11.65,0.7093170404684095,190.0,0.75,2600
79.95,10.35,0.6607782387542133,194.0,1.4,2700
88.4,12.0,0.7213018955113032,201.0,1.05,2800
80.25,10.5,0.6973735501816536,201.0,1.25,2900
76.05,9.55,0.6566811046345274,207.0,1.15,3000
31.55,0.0,0.47791394641984325,31.0,0.0,100
36.25,0.95,0.5128523121764055,44.0,0.1,200
34.95,0.65,0.496115863457153,50.0,0.2,300
36.05,1.65,0.5271032196617419,59.0,0.3,400
55.0,4.35,0.5395080128282583,71.0,1.25,500
42.35,2.75,0.522102255348692,87.0,0.8,600
56.9,5.35,0.5658317106964923,103.0,1.2,700
60.7,6.9,0.5957563922982401,119.0,1.4,800
56.3,5.3,0.5628699147793609,133.0,1.3,900
82.2,8.8,0.6469607455121928,145.0,0.75,1000
71.45,7.85,0.615565812943918,153.0,1.2,1100
74.1,8.7,0.652858309102153,160.0,1.2,1200
57.25,4.65,0.5746073444511357,162.0,0.85,1300
83.4,9.1,0.630219688383747,169.0,0.55,1400
74.3,7.9,0.6242894908232961,172.0,0.65,1500
61.95,5.2,0.5412402062310646,176.0,0.85,1600
67.55,5.9,0.6029540910231083,178.0,0.65,1700
63.4,5.5,0.5736836877052094,180.0,0.55,1800
74.15,6.65,0.5845610598407909,181.0,0.4,1900
75.85,8.45,0.630503619631737,184.0,0.8,2000
82.55,9.15,0.6368923326254345,188.0,0.6,2100
78.9,7.9,0.6301232287412167,189.0,0.35,2200
68.85,6.7,0.6070204890597075,190.0,0.65,2300
72.55,6.75,0.6169346560442998,194.0,0.45,2400
78.85,8.2,0.6102031361645255,195.0,0.65,2500
74.5,7.6,0.5991903437452618,195.0,0.55,2600
74.9,7.85,0.6214987004533903,198.0,0.85,2700
78.7,8.75,0.6070550334570395,201.0,0.5,2800
80.8,9.2,0.6714697333369928,203.0,0.3,2900
90.6,10.35,0.660827945246921,206.0,0.5,3000
34.6,0.85,0.4895620739598875,34.0,0.1,100
46.1,1.95,0.5276345355259122,44.0,0.0,200
40.15,1.3,0.5069462192179103,67.0,0.0,300
42.9,1.95,0.5446437186590474,79.0,0.0,400
42.55,1.85,0.5146868669556217,89.0,0.15,500
53.1,3.5,0.5908710427923742,99.0,0.05,600
79.9,8.65,0.6291689748914568,109.0,0.3,700
61.05,5.05,0.5723023537980707,114.0,0.4,800
69.4,7.0,0.611251207059345,123.0,0.65,900
77.95,7.95,0.6229784487216783,125.0,0.5,1000
80.9,8.35,0.6381229658232928,128.0,0.4,1100
76.5,8.25,0.6426977065107162,132.0,0.6,1200
80.05,8.05,0.6256051567862569,136.0,0.5,1300
67.25,6.2,0.5595314257677741,139.0,0.4,1400
71.6,7.35,0.6559971727304513,143.0,0.35,1500
76.4,7.2,0.6158402588831949,148.0,0.3,1600
78.5,8.35,0.662874185164235,152.0,0.3,1700
83.9,10.35,0.675707228927318,154.0,0.1,1800
86.55,10.15,0.6804446328342489,157.0,0.2,1900
80.1,8.75,0.6510800884738669,159.0,0.45,2000
81.35,9.3,0.6588787507429494,159.0,0.4,2100
93.9,11.25,0.7134657816032368,163.0,0.4,2200
90.25,9.65,0.6677406905221048,167.0,0.3,2300
85.85,9.75,0.6568916279707129,170.0,0.3,2400
74.65,7.1,0.5849794865145739,171.0,0.55,2500
69.65,6.65,0.5852289233760859,172.0,0.45,2600
80.2,8.85,0.6713167971380466,174.0,0.55,2700
80.55,8.2,0.645696083697189,176.0,0.3,2800
78.8,7.8,0.6241222552848067,178.0,0.3,2900
75.4,7.1,0.58714465524416,182.0,0.3,3000
