Episode length,Green food,Need,Number of nodes,Red food,Trained time steps
33.8,0.0,0.4764400623885914,27.0,0.0,100
32.7,0.0,0.47853009054611545,27.0,0.0,200
33.6,0.0,0.47541666666666627,27.0,0.0,300
33.0,0.55,0.482547633738197,27.0,0.15,400
38.5,1.9,0.5122890093499101,28.0,0.85,500
47.4,2.1,0.5386679464317379,28.0,0.1,600
52.75,3.25,0.5588004578525293,30.0,0.05,700
95.2,14.5,0.7631981249999997,33.0,0.05,800
100.0,22.65,0.8975975,48.0,0.0,900
100.0,25.8,0.9201400000000002,54.0,0.0,1000
100.0,26.95,0.9246450000000002,54.0,0.0,1100
100.0,28.8,0.9317199999999998,54.0,0.0,1200
100.0,25.15,0.91206,54.0,0.0,1300
100.0,23.0,0.887645,54.0,0.0,1400
100.0,28.2,0.92669,54.0,0.0,1500
100.0,29.05,0.9311750000000002,77.0,0.0,1600
100.0,29.25,0.9313950000000002,85.0,0.0,1700
100.0,22.9,0.8779999999999999,113.0,0.0,1800
99.35,20.5,0.8532423563218389,121.0,0.0,1900
100.0,22.85,0.879205,125.0,0.0,2000
100.0,23.5,0.8916649999999999,126.0,0.0,2100
100.0,29.05,0.931605,192.0,0.0,2200
100.0,31.0,0.938425,237.0,0.0,2300
100.0,30.3,0.9360800000000001,267.0,0.0,2400
100.0,32.05,0.939245,285.0,0.0,2500
100.0,31.8,0.9403,299.0,0.0,2600
100.0,32.9,0.943575,311.0,0.0,2700
100.0,30.7,0.934835,317.0,0.0,2800
100.0,31.95,0.94001,319.0,0.0,2900
100.0,32.3,0.9402649999999999,326.0,0.0,3000
34.95,0.9,0.491573148533946,28.0,0.2,100
60.6,5.05,0.5716625572718343,30.0,0.3,200
96.7,15.75,0.7858443032329988,36.0,0.4,300
66.15,6.75,0.6299131219061425,45.0,0.1,400
100.0,30.15,0.93452,51.0,0.0,500
98.75,21.55,0.8668016666666667,52.0,0.0,600
100.0,32.05,0.9398,52.0,0.0,700
100.0,32.35,0.9416450000000001,52.0,0.0,800
100.0,31.75,0.9393100000000001,52.0,0.0,900
100.0,31.55,0.93933,52.0,0.0,1000
100.0,31.55,0.9384100000000002,87.0,0.0,1100
100.0,31.2,0.9373000000000001,145.0,0.0,1200
100.0,30.55,0.9365,185.0,0.0,1300
100.0,30.95,0.9386050000000001,203.0,0.0,1400
100.0,31.5,0.9366800000000002,214.0,0.0,1500
100.0,31.3,0.9388150000000002,221.0,0.0,1600
100.0,32.1,0.940925,255.0,0.0,1700
100.0,31.2,0.9371650000000002,305.0,0.0,1800
100.0,32.25,0.9413,332.0,0.0,1900
100.0,33.1,0.9434500000000001,349.0,0.0,2000
100.0,32.1,0.9409150000000001,366.0,0.0,2100
100.0,31.65,0.9412350000000002,371.0,0.0,2200
100.0,32.35,0.9408450000000002,382.0,0.0,2300
100.0,31.65,0.9408050000000001,385.0,0.0,2400
100.0,32.9,0.9424100000000001,386.0,0.0,2500
100.0,31.65,0.9395850000000001,389.0,0.0,2600
100.0,31.15,0.937555,390.0,0.0,2700
100.0,31.5,0.9401400000000001,391.0,0.0,2800
100.0,31.85,0.9399600000000004,393.0,0.0,2900
100.0,32.7,0.9425950000000001,394.0,0.0,3000
36.55,0.95,0.500591736150712,28.0,0.2,100
34.1,0.65,0.49631100461043526,28.0,0.2,200
76.65,7.9,0.6470016444518001,29.0,0.0,300
36.7,1.15,0.5165630331554993,31.0,0.1,400
46.4,3.05,0.5625899146599842,32.0,0.3,500
90.15,12.9,0.7264663998520737,44.0,0.2,600
80.8,11.45,0.7136334729790463,51.0,0.0,700
77.75,10.35,0.6886446916472028,52.0,0.0,800
100.0,28.3,0.9289750000000001,52.0,0.0,900
100.0,26.05,0.9131199999999999,52.0,0.0,1000
100.0,29.3,0.9315650000000002,52.0,0.0,1100
100.0,30.95,0.9385300000000001,52.0,0.0,1200
100.0,31.5,0.9390499999999999,74.0,0.0,1300
100.0,31.55,0.9390400000000001,106.0,0.0,1400
100.0,31.15,0.9385750000000002,140.0,0.0,1500
100.0,31.7,0.9390300000000001,167.0,0.0,1600
100.0,31.8,0.9403750000000001,173.0,0.0,1700
100.0,32.65,0.942115,178.0,0.0,1800
100.0,33.0,0.9438000000000001,220.0,0.0,1900
100.0,32.1,0.940385,275.0,0.0,2000
100.0,32.4,0.9424400000000002,297.0,0.0,2100
100.0,31.2,0.93789,307.0,0.0,2200
100.0,31.5,0.93864,323.0,0.0,2300
100.0,31.9,0.9392700000000002,326.0,0.0,2400
100.0,30.8,0.9382050000000002,328.0,0.0,2500
100.0,31.5,0.9397800000000001,331.0,0.0,2600
100.0,31.4,0.9391300000000001,335.0,0.0,2700
100.0,31.25,0.9385200000000001,339.0,0.0,2800
100.0,30.95,0.9391400000000001,340.0,0.0,2900
100.0,31.85,0.94138,342.0,0.0,3000
33.25,0.5,0.49492980492096306,28.0,0.2,100
34.05,0.65,0.49794893596217216,28.0,0.15,200
68.15,6.0,0.619963235756937,30.0,0.1,300
51.7,3.5,0.549040732477273,32.0,0.15,400
59.4,6.3,0.5942896939239197,33.0,0.0,500
100.0,29.7,0.9328974999999999,50.0,0.05,600
100.0,17.9,0.8366649999999998,52.0,0.0,700
100.0,23.2,0.9020550000000002,52.0,0.0,800
100.0,26.25,0.9179,52.0,0.0,900
100.0,23.1,0.88561,52.0,0.0,1000
100.0,29.25,0.9316600000000002,52.0,0.0,1100
100.0,28.85,0.93226,52.0,0.0,1200
100.0,32.6,0.9411999999999999,90.0,0.0,1300
100.0,32.0,0.9406950000000001,133.0,0.0,1400
100.0,31.55,0.9378700000000002,173.0,0.0,1500
100.0,31.45,0.937485,196.0,0.0,1600
100.0,32.15,0.9414999999999999,208.0,0.0,1700
100.0,30.9,0.93857,217.0,0.0,1800
100.0,32.2,0.9402350000000002,289.0,0.0,1900
100.0,32.5,0.940535,326.0,0.0,2000
100.0,31.65,0.9391700000000001,337.0,0.0,2100
100.0,32.2,0.941995,355.0,0.0,2200
100.0,31.75,0.9401849999999999,362.0,0.0,2300
100.0,31.9,0.941245,374.0,0.0,2400
100.0,31.2,0.938345,377.0,0.0,2500
100.0,31.45,0.9383649999999999,381.0,0.0,2600
100.0,31.85,0.93971,383.0,0.0,2700
100.0,31.95,0.94086,388.0,0.0,2800
100.0,31.5,0.939745,395.0,0.0,2900
100.0,30.6,0.935475,399.0,0.0,3000
35.85,1.15,0.4792445911101397,27.0,0.4,100
42.4,2.15,0.5140390895963824,30.0,0.35,200
32.55,0.65,0.4927574858973494,32.0,0.15,300
55.35,4.65,0.5914370998445546,34.0,0.5,400
64.5,7.3,0.614399968064098,41.0,0.8,500
60.9,5.6,0.583985473346608,49.0,0.05,600
100.0,25.65,0.91719,51.0,0.0,700
100.0,28.8,0.9320450000000001,52.0,0.0,800
88.35,16.6,0.7690269912077486,52.0,0.0,900
88.15,15.75,0.784190451918535,52.0,0.0,1000
100.0,28.85,0.931175,52.0,0.0,1100
100.0,25.7,0.9122700000000001,52.0,0.0,1200
100.0,30.1,0.9348450000000001,82.0,0.0,1300
100.0,27.2,0.9241449999999999,88.0,0.0,1400
100.0,23.35,0.9003899999999998,92.0,0.0,1500
100.0,25.65,0.9125250000000001,105.0,0.0,1600
100.0,28.1,0.9273850000000001,151.0,0.0,1700
100.0,30.65,0.9358200000000002,162.0,0.0,1800
100.0,30.8,0.93771,169.0,0.0,1900
100.0,28.35,0.9269149999999999,250.0,0.0,2000
100.0,28.45,0.92499,282.0,0.0,2100
100.0,27.7,0.92623,309.0,0.0,2200
100.0,29.9,0.9335850000000001,316.0,0.0,2300
100.0,29.0,0.9318050000000001,320.0,0.0,2400
100.0,29.5,0.9331250000000001,328.0,0.0,2500
100.0,29.6,0.933545,330.0,0.0,2600
100.0,30.4,0.9366749999999999,334.0,0.0,2700
100.0,29.85,0.9340950000000001,334.0,0.0,2800
100.0,31.35,0.93869,335.0,0.0,2900
100.0,31.05,0.9387650000000001,338.0,0.0,3000
36.55,0.95,0.500591736150712,28.0,0.2,100
40.5,1.45,0.5156613033798244,28.0,0.0,200
37.3,1.2,0.49910449636145404,30.0,0.05,300
40.05,1.65,0.5307218317386776,33.0,0.0,400
100.0,18.15,0.8477024999999998,44.0,0.05,500
85.85,13.35,0.7347737759505696,49.0,0.0,600
100.0,28.65,0.92753,52.0,0.0,700
100.0,30.05,0.9341000000000003,52.0,0.0,800
100.0,27.0,0.9252,52.0,0.0,900
100.0,28.85,0.9319200000000001,52.0,0.0,1000
100.0,30.0,0.9360550000000002,52.0,0.0,1100
100.0,21.95,0.8680049999999999,92.0,0.0,1200
100.0,27.85,0.926375,125.0,0.0,1300
100.0,29.45,0.9326550000000001,147.0,0.0,1400
100.0,31.5,0.93958,163.0,0.0,1500
100.0,31.65,0.9400650000000003,197.0,0.0,1600
100.0,31.85,0.9409850000000002,206.0,0.0,1700
100.0,31.45,0.939715,257.0,0.0,1800
100.0,30.95,0.9379550000000002,314.0,0.0,1900
100.0,32.2,0.9416250000000002,346.0,0.0,2000
100.0,31.8,0.9401450000000002,360.0,0.0,2100
100.0,32.1,0.9400299999999999,366.0,0.0,2200
100.0,31.6,0.93793,372.0,0.0,2300
100.0,31.5,0.9389700000000001,375.0,0.0,2400
100.0,31.35,0.9388,380.0,0.0,2500
100.0,31.55,0.9392349999999998,386.0,0.0,2600
100.0,31.65,0.9380750000000001,389.0,0.0,2700
100.0,31.45,0.9389000000000001,392.0,0.0,2800
100.0,32.25,0.941075,392.0,0.0,2900
100.0,31.8,0.9405000000000003,398.0,0.0,3000
31.75,0.0,0.4810088667450113,27.0,0.0,100
32.3,0.0,0.47635489153872645,27.0,0.0,200
32.95,0.0,0.4794037711675575,27.0,0.0,300
33.7,0.0,0.4763030303030299,27.0,0.0,400
33.2,0.05,0.48137445367132836,27.0,0.05,500
35.15,0.3,0.4965814162938119,27.0,0.0,600
32.1,0.55,0.49778247164576167,28.0,0.0,700
34.2,0.8,0.4977794976605681,28.0,0.3,800
40.2,1.55,0.5280703165503632,31.0,0.05,900
44.3,2.85,0.5313744930519878,32.0,0.4,1000
100.0,24.05,0.90066,47.0,0.0,1100
100.0,30.3,0.9352950000000002,50.0,0.0,1200
100.0,30.05,0.934575,52.0,0.0,1300
100.0,30.4,0.9353500000000002,52.0,0.0,1400
100.0,31.3,0.93826,52.0,0.0,1500
100.0,30.05,0.9357349999999999,52.0,0.0,1600
100.0,30.65,0.9369050000000001,78.0,0.0,1700
100.0,30.1,0.9369999999999999,87.0,0.0,1800
100.0,31.7,0.9385650000000002,138.0,0.0,1900
100.0,30.95,0.9373900000000001,158.0,0.0,2000
100.0,33.05,0.9420300000000001,167.0,0.0,2100
100.0,32.15,0.9385350000000001,170.0,0.0,2200
100.0,32.35,0.941565,177.0,0.0,2300
100.0,32.5,0.9425250000000002,236.0,0.0,2400
100.0,31.85,0.9406149999999999,273.0,0.0,2500
100.0,31.85,0.940925,292.0,0.0,2600
100.0,32.45,0.9404450000000002,302.0,0.0,2700
100.0,31.1,0.93918,311.0,0.0,2800
100.0,31.8,0.93894,317.0,0.0,2900
100.0,31.05,0.936125,318.0,0.0,3000
33.55,0.55,0.49093398015014167,28.0,0.15,100
35.45,1.15,0.5029604370817868,30.0,0.45,200
36.25,1.2,0.5106310985627832,31.0,0.25,300
80.05,11.8,0.7063917936979938,31.0,1.7,400
69.5,7.85,0.6527395659480186,48.0,0.0,500
100.0,24.95,0.8950025,51.0,0.0,600
100.0,30.05,0.9344300000000001,52.0,0.0,700
100.0,28.6,0.930085,52.0,0.0,800
100.0,31.05,0.9385700000000001,52.0,0.0,900
100.0,31.45,0.939025,52.0,0.0,1000
100.0,31.55,0.9392099999999999,67.0,0.0,1100
100.0,30.15,0.9362550000000001,87.0,0.0,1200
100.0,32.55,0.9414050000000002,125.0,0.0,1300
100.0,31.05,0.9391150000000001,181.0,0.0,1400
100.0,32.45,0.941365,202.0,0.0,1500
100.0,31.4,0.937795,211.0,0.0,1600
100.0,31.95,0.9402200000000003,242.0,0.0,1700
100.0,31.45,0.93954,291.0,0.0,1800
100.0,31.3,0.9388150000000002,336.0,0.0,1900
100.0,32.5,0.9414299999999999,358.0,0.0,2000
100.0,31.6,0.93963,372.0,0.0,2100
100.0,32.15,0.9399650000000002,383.0,0.0,2200
100.0,32.3,0.94087,386.0,0.0,2300
100.0,32.25,0.9397650000000001,391.0,0.0,2400
100.0,31.15,0.9382000000000001,395.0,0.0,2500
100.0,32.35,0.9422200000000002,398.0,0.0,2600
100.0,31.4,0.9393549999999999,399.0,0.0,2700
100.0,31.65,0.9400200000000002,400.0,0.0,2800
100.0,31.65,0.94001,401.0,0.0,2900
100.0,31.1,0.9385900000000001,405.0,0.0,3000
36.9,1.25,0.5108185499100283,28.0,0.15,100
39.1,1.0,0.5011274895573985,29.0,0.0,200
38.45,1.05,0.5166458520303019,29.0,0.0,300
64.6,5.4,0.5907266174196912,33.0,0.0,400
86.7,9.85,0.6855477331337532,36.0,0.0,500
42.2,2.15,0.5549987300869936,44.0,0.0,600
39.75,1.85,0.535013052101727,49.0,0.0,700
98.0,20.2,0.8663366666666665,51.0,0.0,800
90.5,14.25,0.7543016015850976,52.0,0.0,900
97.0,20.8,0.8571099999999998,52.0,0.0,1000
99.5,22.1,0.8741677777777778,52.0,0.0,1100
100.0,31.05,0.9383549999999999,52.0,0.0,1200
100.0,29.55,0.935465,52.0,0.0,1300
100.0,29.9,0.93381,56.0,0.0,1400
100.0,29.2,0.93205,83.0,0.0,1500
100.0,30.4,0.9358700000000001,89.0,0.0,1600
100.0,29.55,0.9341950000000001,114.0,0.0,1700
100.0,31.55,0.9393300000000002,143.0,0.0,1800
100.0,31.85,0.9404199999999999,159.0,0.0,1900
100.0,30.9,0.9378,169.0,0.0,2000
100.0,31.5,0.9389200000000001,246.0,0.0,2100
100.0,31.8,0.9414049999999999,282.0,0.0,2200
100.0,31.15,0.9393550000000002,312.0,0.0,2300
100.0,31.1,0.9378550000000001,317.0,0.0,2400
100.0,31.15,0.9376700000000001,321.0,0.0,2500
100.0,31.05,0.93869,330.0,0.0,2600
100.0,31.6,0.9396150000000001,335.0,0.0,2700
100.0,33.2,0.9424849999999999,338.0,0.0,2800
100.0,31.7,0.94055,339.0,0.0,2900
100.0,31.55,0.9399150000000001,339.0,0.0,3000
36.55,0.95,0.500591736150712,28.0,0.2,100
40.5,1.45,0.5156613033798244,28.0,0.0,200
36.35,0.7,0.5009803614574571,30.0,0.0,300
95.15,16.9,0.789668504016064,32.0,1.55,400
72.4,8.45,0.6419146124645921,39.0,0.2,500
61.75,5.65,0.599563822774215,50.0,0.0,600
75.0,11.55,0.703024139670963,52.0,0.0,700
100.0,31.6,0.9401300000000001,52.0,0.0,800
100.0,30.5,0.937835,52.0,0.0,900
100.0,31.9,0.9405150000000001,52.0,0.0,1000
100.0,31.85,0.94047,52.0,0.0,1100
100.0,31.65,0.9397700000000002,52.0,0.0,1200
100.0,32.25,0.941695,128.0,0.0,1300
100.0,30.5,0.9362500000000002,184.0,0.0,1400
100.0,32.3,0.9417150000000003,198.0,0.0,1500
100.0,32.0,0.94116,207.0,0.0,1600
100.0,32.6,0.94202,214.0,0.0,1700
100.0,30.95,0.9385700000000001,217.0,0.0,1800
100.0,32.5,0.9417300000000003,292.0,0.0,1900
100.0,31.85,0.9400050000000002,327.0,0.0,2000
100.0,32.7,0.94195,344.0,0.0,2100
100.0,31.5,0.9395000000000001,358.0,0.0,2200
100.0,32.75,0.942465,370.0,0.0,2300
100.0,32.55,0.94162,378.0,0.0,2400
100.0,32.15,0.9405050000000001,382.0,0.0,2500
100.0,31.9,0.9399700000000001,389.0,0.0,2600
100.0,31.6,0.9404900000000002,392.0,0.0,2700
100.0,32.3,0.93969,396.0,0.0,2800
100.0,30.95,0.9380200000000001,400.0,0.0,2900
100.0,32.25,0.942285,400.0,0.0,3000
36.55,0.95,0.500591736150712,28.0,0.2,100
44.15,2.4,0.5469752303822417,28.0,0.05,200
72.7,8.0,0.6382781109785645,31.0,0.45,300
46.75,2.3,0.5549092173390231,31.0,0.0,400
62.1,4.85,0.5962857488728133,44.0,0.0,500
100.0,19.45,0.852225,51.0,0.0,600
100.0,28.95,0.9329799999999999,51.0,0.0,700
100.0,25.65,0.908955,52.0,0.0,800
100.0,27.25,0.9255450000000002,52.0,0.0,900
100.0,32.3,0.9418199999999999,52.0,0.0,1000
100.0,31.4,0.9393150000000002,52.0,0.0,1100
100.0,31.75,0.9402650000000001,81.0,0.0,1200
100.0,30.4,0.9367699999999999,90.0,0.0,1300
100.0,31.75,0.93818,99.0,0.0,1400
100.0,27.85,0.925315,129.0,0.0,1500
100.0,31.85,0.9390500000000002,162.0,0.0,1600
100.0,31.45,0.9384350000000001,206.0,0.0,1700
100.0,31.75,0.9402700000000002,268.0,0.0,1800
100.0,32.7,0.94202,286.0,0.0,1900
100.0,31.65,0.9397800000000002,304.0,0.0,2000
100.0,32.8,0.9422650000000001,309.0,0.0,2100
100.0,31.65,0.937705,314.0,0.0,2200
100.0,31.85,0.9406000000000001,322.0,0.0,2300
100.0,31.6,0.9397400000000001,325.0,0.0,2400
100.0,31.5,0.940245,328.0,0.0,2500
100.0,31.05,0.9388400000000001,329.0,0.0,2600
100.0,31.5,0.9394800000000002,333.0,0.0,2700
100.0,31.4,0.9361200000000001,347.0,0.0,2800
100.0,31.15,0.9383050000000001,379.0,0.0,2900
100.0,31.1,0.9384749999999998,396.0,0.0,3000
34.2,0.7,0.4981261130013924,28.0,0.05,100
44.8,2.85,0.5659977192894906,29.0,0.3,200
39.6,1.8,0.5507593652101209,35.0,0.05,300
100.0,25.45,0.911875,48.0,0.35,400
99.7,17.7,0.7895114893617018,50.0,0.0,500
100.0,30.6,0.9367050000000001,51.0,0.0,600
100.0,31.55,0.939665,52.0,0.0,700
100.0,30.9,0.9361,52.0,0.0,800
100.0,30.35,0.9346549999999999,52.0,0.0,900
100.0,29.0,0.9309749999999999,52.0,0.0,1000
100.0,28.1,0.9282749999999999,74.0,0.0,1100
100.0,28.65,0.928505,111.0,0.0,1200
100.0,30.3,0.93636,126.0,0.0,1300
100.0,32.0,0.939935,157.0,0.0,1400
100.0,31.9,0.9399900000000001,169.0,0.0,1500
100.0,31.75,0.9408800000000002,178.0,0.0,1600
100.0,32.15,0.9404200000000001,179.0,0.0,1700
100.0,31.4,0.9393800000000001,226.0,0.0,1800
100.0,31.3,0.9380450000000001,272.0,0.0,1900
100.0,31.4,0.9404199999999999,292.0,0.0,2000
100.0,31.3,0.936225,305.0,0.0,2100
100.0,31.55,0.938625,311.0,0.0,2200
100.0,32.3,0.9409800000000003,315.0,0.0,2300
100.0,31.35,0.9402050000000001,320.0,0.0,2400
100.0,32.15,0.9395749999999999,324.0,0.0,2500
100.0,32.05,0.9404300000000003,353.0,0.0,2600
100.0,31.75,0.93955,374.0,0.0,2700
100.0,31.55,0.939845,388.0,0.0,2800
100.0,32.25,0.9416100000000001,397.0,0.0,2900
100.0,31.55,0.9391200000000002,399.0,0.0,3000
36.55,0.95,0.500591736150712,28.0,0.2,100
40.5,1.45,0.5156613033798244,28.0,0.0,200
50.15,2.55,0.5319490846673391,28.0,0.0,300
36.3,1.05,0.5009728542986626,32.0,0.1,400
89.9,12.65,0.7355554310015892,33.0,0.65,500
100.0,25.2,0.8948924999999999,45.0,0.8,600
100.0,27.55,0.9249575,50.0,0.0,700
100.0,29.35,0.9335600000000003,52.0,0.0,800
100.0,29.85,0.93415,52.0,0.0,900
100.0,29.65,0.93421,52.0,0.0,1000
100.0,28.25,0.92933,52.0,0.0,1100
100.0,27.2,0.9235000000000001,69.0,0.0,1200
100.0,25.55,0.91275,88.0,0.0,1300
100.0,26.9,0.9206199999999999,89.0,0.0,1400
100.0,27.85,0.9272900000000002,93.0,0.0,1500
100.0,26.4,0.9145199999999999,119.0,0.0,1600
100.0,29.75,0.93546,206.0,0.0,1700
100.0,30.65,0.936835,253.0,0.0,1800
100.0,32.35,0.9413350000000003,279.0,0.0,1900
100.0,32.75,0.9428400000000001,290.0,0.0,2000
100.0,32.25,0.94093,301.0,0.0,2100
100.0,31.4,0.939455,306.0,0.0,2200
100.0,32.1,0.93962,317.0,0.0,2300
100.0,31.2,0.939705,323.0,0.0,2400
100.0,32.1,0.9397900000000001,327.0,0.0,2500
100.0,30.85,0.93742,328.0,0.0,2600
100.0,31.95,0.9405050000000001,329.0,0.0,2700
100.0,31.6,0.9402950000000001,334.0,0.0,2800
100.0,31.8,0.93948,377.0,0.0,2900
100.0,31.8,0.9400649999999999,394.0,0.0,3000
35.05,0.8,0.49765203828178317,28.0,0.25,100
40.8,2.25,0.5198822390383391,29.0,0.65,200
93.25,12.25,0.7218208919923483,33.0,0.05,300
48.65,2.9,0.5721102590847245,43.0,0.1,400
90.3,14.35,0.7535689873407143,50.0,0.0,500
98.45,23.25,0.8817878260869566,52.0,0.0,600
100.0,30.9,0.9387525,52.0,0.0,700
100.0,30.85,0.9375300000000001,52.0,0.0,800
100.0,32.05,0.9406900000000002,52.0,0.0,900
100.0,32.75,0.9423250000000001,52.0,0.0,1000
100.0,31.85,0.9402600000000001,52.0,0.0,1100
100.0,31.6,0.938815,96.0,0.0,1200
100.0,31.2,0.938775,139.0,0.0,1300
100.0,32.1,0.9411250000000001,159.0,0.0,1400
100.0,31.8,0.93979,170.0,0.0,1500
100.0,31.8,0.9395000000000001,177.0,0.0,1600
100.0,32.6,0.941085,177.0,0.0,1700
100.0,31.4,0.9401250000000001,227.0,0.0,1800
100.0,32.35,0.9418599999999999,279.0,0.0,1900
100.0,32.25,0.9404350000000002,298.0,0.0,2000
100.0,30.85,0.9373850000000001,314.0,0.0,2100
100.0,32.2,0.9405000000000001,324.0,0.0,2200
100.0,31.35,0.93955,334.0,0.0,2300
100.0,32.45,0.9425000000000001,337.0,0.0,2400
100.0,32.65,0.9413400000000001,340.0,0.0,2500
100.0,31.4,0.9389750000000003,341.0,0.0,2600
100.0,31.7,0.9405650000000001,368.0,0.0,2700
100.0,32.45,0.9414049999999999,394.0,0.0,2800
100.0,32.05,0.94145,400.0,0.0,2900
100.0,31.9,0.9418500000000002,408.0,0.0,3000
32.0,0.65,0.4870559254569392,28.0,0.3,100
42.05,2.25,0.4943375631160295,29.0,0.55,200
54.2,4.4,0.5767586999549916,30.0,0.3,300
53.2,3.35,0.5648150108332967,31.0,0.2,400
38.8,1.55,0.5192191877503926,49.0,0.05,500
86.5,10.15,0.703716829253462,51.0,0.0,600
97.25,17.35,0.7903424428104573,52.0,0.0,700
96.15,19.5,0.8231005230758524,52.0,0.0,800
100.0,29.05,0.9329400000000001,52.0,0.0,900
100.0,22.85,0.8833449999999999,52.0,0.0,1000
100.0,28.95,0.93191,52.0,0.0,1100
100.0,31.95,0.940095,52.0,0.0,1200
100.0,31.2,0.9382700000000002,64.0,0.0,1300
100.0,30.85,0.9385800000000002,89.0,0.0,1400
100.0,31.85,0.9408600000000001,93.0,0.0,1500
100.0,30.8,0.9342900000000001,111.0,0.0,1600
100.0,32.6,0.9414950000000001,148.0,0.0,1700
100.0,32.15,0.94031,165.0,0.0,1800
100.0,32.45,0.940995,176.0,0.0,1900
100.0,32.1,0.9399700000000001,247.0,0.0,2000
100.0,31.65,0.9404300000000001,303.0,0.0,2100
100.0,31.45,0.9389800000000001,340.0,0.0,2200
100.0,31.4,0.9394950000000002,367.0,0.0,2300
100.0,31.35,0.9381850000000002,385.0,0.0,2400
100.0,30.65,0.936275,394.0,0.0,2500
100.0,33.35,0.9423450000000002,400.0,0.0,2600
100.0,32.4,0.9420000000000002,407.0,0.0,2700
100.0,31.05,0.938485,413.0,0.0,2800
100.0,32.5,0.9411700000000002,414.0,0.0,2900
100.0,31.7,0.9395100000000001,416.0,0.0,3000
36.55,0.95,0.500591736150712,28.0,0.2,100
40.5,1.45,0.5156613033798244,28.0,0.0,200
37.3,1.2,0.49910449636145404,30.0,0.05,300
41.2,1.35,0.5113480909577748,32.0,0.0,400
86.0,11.35,0.7221254807686217,32.0,0.0,500
88.6,13.45,0.7453808461340422,48.0,0.0,600
100.0,31.25,0.9403900000000001,51.0,0.0,700
100.0,31.2,0.93876,52.0,0.0,800
100.0,30.7,0.9373850000000001,52.0,0.0,900
100.0,32.1,0.940965,52.0,0.0,1000
100.0,30.85,0.9389049999999999,52.0,0.0,1100
100.0,31.4,0.9392250000000001,61.0,0.0,1200
100.0,31.5,0.939465,121.0,0.0,1300
100.0,31.8,0.9403350000000004,154.0,0.0,1400
100.0,31.85,0.9411250000000001,163.0,0.0,1500
100.0,30.25,0.9358050000000002,169.0,0.0,1600
100.0,32.05,0.941075,174.0,0.0,1700
100.0,32.25,0.94008,175.0,0.0,1800
100.0,32.6,0.9411099999999999,236.0,0.0,1900
100.0,32.6,0.9417700000000002,284.0,0.0,2000
100.0,31.8,0.940175,308.0,0.0,2100
100.0,32.5,0.9428149999999998,315.0,0.0,2200
100.0,31.25,0.9389000000000001,318.0,0.0,2300
100.0,32.6,0.94215,321.0,0.0,2400
100.0,31.85,0.9407400000000001,325.0,0.0,2500
100.0,31.05,0.9390600000000001,329.0,0.0,2600
100.0,31.0,0.9385150000000001,365.0,0.0,2700
100.0,32.0,0.9414999999999999,379.0,0.0,2800
100.0,32.5,0.9411750000000001,391.0,0.0,2900
100.0,32.9,0.9418049999999999,400.0,0.0,3000
36.55,0.95,0.500591736150712,28.0,0.2,100
40.5,1.45,0.5156613033798244,28.0,0.0,200
37.3,1.2,0.49910449636145404,30.0,0.05,300
75.25,6.35,0.5965873259036847,32.0,0.0,400
44.7,2.1,0.5453436380683468,37.0,0.0,500
96.9,19.8,0.8497880263157892,50.0,0.0,600
100.0,30.6,0.9362250000000003,52.0,0.0,700
100.0,29.35,0.9347300000000001,52.0,0.0,800
100.0,29.7,0.9352250000000002,52.0,0.0,900
100.0,28.95,0.927755,52.0,0.0,1000
100.0,28.6,0.92612,52.0,0.0,1100
100.0,29.55,0.9350099999999999,71.0,0.0,1200
100.0,31.6,0.940775,94.0,0.0,1300
100.0,32.3,0.9423,119.0,0.0,1400
100.0,30.45,0.93797,152.0,0.0,1500
100.0,31.6,0.93995,166.0,0.0,1600
100.0,31.2,0.939105,174.0,0.0,1700
100.0,31.7,0.9397800000000002,179.0,0.0,1800
100.0,32.15,0.9404500000000002,229.0,0.0,1900
100.0,32.3,0.9405650000000001,278.0,0.0,2000
100.0,31.65,0.9400950000000001,295.0,0.0,2100
100.0,31.35,0.9414,307.0,0.0,2200
100.0,32.35,0.94101,311.0,0.0,2300
100.0,31.95,0.9409449999999999,323.0,0.0,2400
100.0,31.6,0.9401200000000001,324.0,0.0,2500
100.0,32.0,0.9410950000000001,326.0,0.0,2600
100.0,31.6,0.9399100000000002,327.0,0.0,2700
100.0,32.7,0.9426800000000002,331.0,0.0,2800
100.0,31.25,0.9386200000000002,338.0,0.0,2900
100.0,32.1,0.941365,342.0,0.0,3000
36.55,0.95,0.500591736150712,28.0,0.2,100
40.5,1.45,0.5156613033798244,28.0,0.0,200
37.3,1.2,0.49910449636145404,30.0,0.05,300
100.0,18.75,0.8446274999999999,33.0,0.05,400
53.25,3.85,0.5752342941600304,43.0,0.05,500
71.7,7.55,0.6588757901326894,49.0,0.0,600
95.65,17.8,0.8132519178082191,52.0,0.0,700
39.7,1.75,0.5349243526365816,52.0,0.0,800
44.85,2.55,0.544085485462332,52.0,0.0,900
84.7,11.65,0.6936902885616996,52.0,0.0,1000
100.0,26.7,0.9130999999999998,52.0,0.0,1100
100.0,20.5,0.868765,52.0,0.0,1200
100.0,31.1,0.9375950000000002,52.0,0.0,1300
100.0,31.25,0.93819,72.0,0.0,1400
100.0,31.85,0.9400950000000001,84.0,0.0,1500
100.0,31.85,0.939775,88.0,0.0,1600
100.0,28.8,0.930405,112.0,0.0,1700
100.0,28.5,0.929,127.0,0.0,1800
100.0,29.95,0.93653,129.0,0.0,1900
100.0,31.5,0.9399050000000001,163.0,0.0,2000
100.0,31.7,0.93918,222.0,0.0,2100
100.0,32.45,0.9411300000000002,275.0,0.0,2200
100.0,31.95,0.9406000000000001,305.0,0.0,2300
100.0,31.4,0.9397649999999999,312.0,0.0,2400
100.0,32.2,0.94156,319.0,0.0,2500
100.0,30.9,0.9385050000000001,322.0,0.0,2600
100.0,31.3,0.93894,324.0,0.0,2700
100.0,31.95,0.9405949999999998,332.0,0.0,2800
100.0,31.75,0.940345,335.0,0.0,2900
100.0,31.35,0.9391150000000001,338.0,0.0,3000
36.55,0.95,0.500591736150712,28.0,0.2,100
40.5,1.45,0.5156613033798244,28.0,0.0,200
63.7,4.8,0.5932423287482369,29.0,0.3,300
37.35,1.4,0.5388564481025565,36.0,0.2,400
41.8,1.9,0.5100070134509457,41.0,0.4,500
48.0,3.4,0.5392364868615582,47.0,0.25,600
43.8,2.7,0.5535367809965566,49.0,0.0,700
49.9,3.55,0.5595948177267095,51.0,0.05,800
100.0,30.1,0.9351199999999998,52.0,0.0,900
100.0,32.1,0.9402399999999999,52.0,0.0,1000
100.0,29.95,0.934605,52.0,0.0,1100
100.0,31.25,0.9377250000000001,52.0,0.0,1200
100.0,31.25,0.9392400000000002,52.0,0.0,1300
100.0,31.15,0.9376650000000002,52.0,0.0,1400
100.0,31.25,0.938165,111.0,0.0,1500
100.0,30.3,0.936965,142.0,0.0,1600
100.0,31.5,0.9392800000000001,164.0,0.0,1700
100.0,31.7,0.9396200000000002,173.0,0.0,1800
100.0,31.05,0.93911,177.0,0.0,1900
100.0,32.9,0.9415450000000002,178.0,0.0,2000
100.0,30.6,0.93696,239.0,0.0,2100
100.0,32.0,0.940845,275.0,0.0,2200
100.0,32.6,0.9416150000000002,298.0,0.0,2300
100.0,31.8,0.9408400000000002,306.0,0.0,2400
100.0,31.9,0.940285,315.0,0.0,2500
100.0,31.75,0.93979,326.0,0.0,2600
100.0,30.7,0.9369500000000001,328.0,0.0,2700
100.0,31.2,0.9377599999999999,340.0,0.0,2800
100.0,31.65,0.9391149999999999,367.0,0.0,2900
100.0,31.65,0.9377800000000001,382.0,0.0,3000
36.55,0.95,0.500591736150712,28.0,0.2,100
32.0,0.9,0.47512265858938585,28.0,0.3,200
32.55,0.3,0.48643677724121226,30.0,0.05,300
65.6,5.85,0.6055957925689772,30.0,0.45,400
68.1,7.4,0.625406197728455,32.0,0.55,500
73.9,8.95,0.6681323134402752,42.0,0.0,600
97.1,19.65,0.8448104761904762,46.0,0.0,700
78.7,9.65,0.6756558061396436,52.0,0.0,800
100.0,25.05,0.90812,52.0,0.0,900
100.0,31.55,0.9394250000000002,52.0,0.0,1000
100.0,31.4,0.9373250000000002,52.0,0.0,1100
100.0,30.75,0.9365900000000001,52.0,0.0,1200
100.0,30.5,0.9373049999999999,52.0,0.0,1300
100.0,31.0,0.93879,79.0,0.0,1400
100.0,32.25,0.940605,113.0,0.0,1500
100.0,31.2,0.9370900000000001,145.0,0.0,1600
100.0,32.6,0.9417099999999999,162.0,0.0,1700
100.0,32.4,0.9412700000000003,171.0,0.0,1800
100.0,31.3,0.9374350000000001,177.0,0.0,1900
100.0,31.25,0.9391700000000001,237.0,0.0,2000
100.0,32.45,0.9420600000000002,272.0,0.0,2100
100.0,32.55,0.9414300000000001,297.0,0.0,2200
100.0,31.45,0.939645,332.0,0.0,2300
100.0,31.85,0.94062,356.0,0.0,2400
100.0,32.05,0.9402250000000001,381.0,0.0,2500
100.0,31.45,0.940165,390.0,0.0,2600
100.0,31.85,0.9404250000000001,398.0,0.0,2700
100.0,32.1,0.9402500000000001,407.0,0.0,2800
100.0,32.45,0.941475,411.0,0.0,2900
100.0,32.0,0.9404050000000002,416.0,0.0,3000
