Episode length,Green food,Need,Number of nodes,Red food,Trained time steps
35.45,1.1,0.4872095054391579,39.0,0.55,100
35.6,1.25,0.4995607168326134,54.0,0.35,200
40.9,3.25,0.5638578923809479,74.0,1.6,300
71.5,8.35,0.6405164621075935,93.0,0.9,400
70.35,7.2,0.6185329489537237,112.0,1.1,500
75.8,7.95,0.6362493265329408,124.0,0.95,600
90.9,12.95,0.7223280685305941,134.0,0.95,700
97.5,15.05,0.7571557408674181,145.0,1.25,800
84.75,12.15,0.7234884365186679,153.0,0.75,900
90.25,12.05,0.7431673394241414,163.0,1.05,1000
90.45,12.2,0.7107197134019982,168.0,0.7,1100
80.25,8.7,0.6545801901417572,173.0,0.65,1200
86.1,9.7,0.6826170874984843,177.0,0.6,1300
87.45,10.5,0.6596788959149033,179.0,1.1,1400
75.65,9.2,0.663308596159182,180.0,1.0,1500
83.65,9.5,0.6428179051616906,183.0,0.8,1600
83.15,10.05,0.6399292495835551,187.0,1.0,1700
71.65,7.35,0.6159713909595629,189.0,0.7,1800
70.25,7.95,0.6224607635505378,189.0,0.65,1900
78.95,9.25,0.6641372301377613,191.0,0.8,2000
85.5,9.85,0.6373978367928362,193.0,0.6,2100
86.75,10.45,0.6503836116903846,195.0,1.25,2200
91.85,10.65,0.6843137285046075,195.0,0.55,2300
78.55,8.35,0.6253001555175102,198.0,0.55,2400
87.3,10.85,0.6894132324883966,200.0,0.55,2500
80.8,8.9,0.6528674719397238,202.0,0.4,2600
86.35,10.55,0.6922421001848643,205.0,0.45,2700
87.7,10.55,0.6798614216217543,209.0,0.75,2800
85.1,9.0,0.6255652321290363,212.0,0.25,2900
81.7,8.6,0.6239909050955175,214.0,0.5,3000
36.75,0.9,0.5037374785413857,35.0,0.0,100
32.95,0.95,0.5024187030884927,51.0,0.45,200
31.1,0.5,0.4640169950430632,70.0,0.35,300
52.5,4.15,0.5368755235392092,82.0,1.2,400
49.8,4.0,0.5509380676260996,93.0,1.3,500
61.0,5.4,0.6100096583443821,111.0,0.8,600
57.6,5.05,0.5862612308276324,124.0,1.0,700
62.4,5.7,0.5945011279091623,129.0,0.85,800
53.35,4.2,0.5813452502771739,137.0,0.8,900
66.45,6.6,0.6313574580641597,147.0,1.1,1000
65.45,7.2,0.5947658448070062,155.0,1.15,1100
82.45,10.25,0.6730783928309102,160.0,1.0,1200
91.1,12.05,0.6765215202738498,164.0,1.0,1300
76.95,9.0,0.6809536365212214,167.0,0.85,1400
92.0,13.0,0.732024992954071,172.0,0.95,1500
82.25,9.7,0.659210838339092,178.0,1.1,1600
89.25,11.0,0.6788905029789113,182.0,0.9,1700
79.35,9.25,0.6566750524960799,187.0,0.95,1800
87.25,11.3,0.7073080471989398,193.0,0.85,1900
90.6,11.65,0.6831569166259819,195.0,0.6,2000
90.3,13.0,0.7363555695974295,198.0,0.8,2100
86.9,10.45,0.6542381231209845,199.0,0.95,2200
74.95,9.25,0.6664105526807684,205.0,1.25,2300
88.75,11.25,0.6752231643555497,205.0,0.75,2400
83.2,10.2,0.6713863590114924,207.0,0.9,2500
83.05,10.15,0.6629913832263283,208.0,0.85,2600
85.15,11.05,0.6804415474935479,209.0,0.95,2700
88.2,10.95,0.7088159100482222,213.0,0.55,2800
96.7,12.9,0.7493618633855977,217.0,0.4,2900
80.5,10.0,0.6716012289050898,221.0,0.8,3000
42.2,1.15,0.5037801823664086,37.0,0.0,100
36.2,1.35,0.4995810085964575,50.0,0.55,200
38.9,3.1,0.5471170404104093,68.0,1.4,300
57.65,3.85,0.558187475740622,82.0,0.05,400
58.05,4.05,0.5718451001057321,103.0,0.05,500
47.15,2.4,0.5488746840441115,121.0,0.15,600
69.75,6.15,0.6141558138602314,130.0,0.2,700
87.45,10.8,0.6684717883525029,139.0,0.55,800
84.8,10.35,0.6892023092990629,146.0,0.8,900
78.6,8.55,0.646165821848877,156.0,0.6,1000
65.35,5.15,0.5794796706073101,160.0,0.2,1100
51.85,3.7,0.5705407439002408,166.0,0.45,1200
61.15,5.05,0.6051240591376614,168.0,0.5,1300
59.15,5.2,0.5950160063100787,169.0,0.65,1400
65.8,6.05,0.5963301268623507,170.0,0.3,1500
70.75,6.6,0.5675740342892708,173.0,0.6,1600
77.4,8.4,0.6129584965347623,177.0,0.45,1700
68.65,6.65,0.6055229307401843,180.0,0.55,1800
81.25,8.9,0.6397037337999743,184.0,0.6,1900
75.55,7.6,0.604134352895612,188.0,0.85,2000
71.55,6.8,0.6029863063584456,192.0,0.5,2100
71.45,6.55,0.6043746950251829,197.0,0.35,2200
77.0,8.1,0.6172395557868391,198.0,0.8,2300
71.55,7.35,0.6272415560349442,201.0,0.75,2400
88.75,8.95,0.6362419079244211,203.0,0.35,2500
69.65,6.45,0.6045146322633171,206.0,0.65,2600
79.3,8.6,0.6096600630885101,209.0,0.65,2700
79.35,8.0,0.6127589947371505,212.0,0.6,2800
76.75,8.1,0.5666331675981482,213.0,0.85,2900
73.6,7.55,0.6153550112190393,217.0,0.55,3000
39.0,1.65,0.4934267817762409,32.0,0.65,100
43.4,1.9,0.5137304263472633,45.0,0.2,200
38.75,1.4,0.5090991379499908,67.0,0.1,300
50.6,2.95,0.5627273039420075,77.0,0.1,400
75.75,7.35,0.6536890849037666,89.0,0.2,500
58.55,4.25,0.563062533156851,106.0,0.1,600
79.35,8.05,0.6026573243578506,111.0,0.15,700
78.9,7.4,0.6185983457043864,121.0,0.1,800
77.35,6.75,0.592639860707113,133.0,0.2,900
78.7,7.6,0.5888122870442865,138.0,0.35,1000
80.35,8.3,0.6506130245733297,138.0,0.25,1100
79.4,7.9,0.6162294781909252,142.0,0.45,1200
84.8,9.05,0.6515905251877695,147.0,0.1,1300
81.95,8.35,0.6538435960133636,150.0,0.2,1400
82.75,9.0,0.6764027883436314,154.0,0.25,1500
83.4,9.05,0.6683194719391258,155.0,0.3,1600
71.95,6.6,0.6298601429624721,158.0,0.3,1700
76.35,7.1,0.6060451828088508,159.0,0.2,1800
61.75,4.75,0.5812526294492091,164.0,0.05,1900
87.0,8.85,0.6663589070135499,168.0,0.15,2000
83.15,8.25,0.6344086318812733,170.0,0.3,2100
82.95,8.25,0.6556821927831088,172.0,0.1,2200
77.45,7.95,0.6089488518435511,177.0,0.05,2300
80.35,7.85,0.6247960386527773,178.0,0.1,2400
71.0,6.2,0.5783681816941281,181.0,0.4,2500
77.65,7.65,0.6069977589792231,182.0,0.15,2600
77.9,7.4,0.6118498294664284,184.0,0.1,2700
68.8,5.8,0.5665856065642193,187.0,0.35,2800
82.9,8.25,0.6176405630574375,189.0,0.5,2900
73.85,7.65,0.6475116591325799,192.0,0.55,3000
33.25,0.0,0.47786096256684446,33.0,0.0,100
32.85,0.0,0.47846592211848044,35.0,0.0,200
33.15,0.05,0.47658558042752625,40.0,0.0,300
33.4,0.0,0.47621256684491947,44.0,0.0,400
33.35,0.0,0.4765487967914435,49.0,0.0,500
33.7,0.0,0.4773487076648837,51.0,0.0,600
35.4,0.8,0.48603050651470764,52.0,0.15,700
33.15,0.7,0.4946878632342159,54.0,0.25,800
36.65,1.3,0.5209199930223406,63.0,0.4,900
41.55,2.2,0.5113940796760799,69.0,0.85,1000
48.65,3.95,0.5292478203078589,80.0,1.0,1100
65.05,7.2,0.6295525956407296,85.0,1.7,1200
77.4,11.35,0.6761863648356233,95.0,1.85,1300
78.15,12.55,0.728014436118982,108.0,2.05,1400
73.8,10.8,0.6625380922070366,116.0,1.9,1500
77.55,11.7,0.6986614733902303,124.0,1.7,1600
87.0,13.7,0.7438457307277133,138.0,0.9,1700
82.15,12.15,0.6897705594282459,151.0,1.25,1800
78.3,11.05,0.6817538181334348,159.0,1.35,1900
95.2,14.0,0.7073276644278745,162.0,1.3,2000
85.3,11.55,0.6885792880693645,169.0,1.0,2100
87.95,13.5,0.7435677208902206,174.0,1.25,2200
92.45,14.1,0.7239175813298849,178.0,0.9,2300
86.8,12.55,0.7273654091160284,189.0,1.4,2400
83.8,12.4,0.6954010230700295,195.0,1.2,2500
86.2,13.45,0.7256653406544669,199.0,1.4,2600
93.2,14.7,0.7581876556776553,206.0,1.1,2700
91.05,13.25,0.7313345597154622,209.0,1.2,2800
82.45,11.55,0.6672733342581643,213.0,1.8,2900
81.75,12.45,0.7288802674257634,218.0,1.3,3000
37.2,1.2,0.5088063061772119,35.0,0.15,100
38.2,1.5,0.5122930664157359,54.0,0.5,200
38.6,1.75,0.5212575195511767,75.0,0.6,300
40.9,2.15,0.5292592530919101,86.0,0.65,400
41.7,2.9,0.5069144172801897,98.0,1.35,500
73.5,9.8,0.6852486711909711,104.0,1.2,600
74.1,8.35,0.6339725751330508,122.0,1.25,700
86.2,9.45,0.7021323828014668,132.0,0.35,800
80.95,8.45,0.6497686976811504,141.0,0.25,900
87.15,9.25,0.6108792779432068,147.0,0.3,1000
83.65,9.1,0.6544312517250253,158.0,0.4,1100
88.95,11.0,0.7022107547239989,167.0,0.15,1200
80.05,9.3,0.6780948128854523,169.0,0.6,1300
81.85,8.4,0.653817178958788,173.0,0.8,1400
80.2,8.5,0.6095896634092361,179.0,0.65,1500
87.0,9.75,0.661006826783611,182.0,0.55,1600
80.1,8.8,0.6499091972559985,186.0,0.4,1700
75.0,7.45,0.6293572196383098,189.0,0.4,1800
87.15,9.15,0.6525497547092114,195.0,0.15,1900
84.75,9.7,0.679495326827455,196.0,0.4,2000
86.6,10.3,0.6763755090319366,200.0,0.45,2100
92.0,10.6,0.6837676837413296,204.0,0.35,2200
89.8,10.25,0.6760496831188831,204.0,0.4,2300
79.7,9.05,0.6763081460368502,207.0,0.3,2400
91.9,10.9,0.7084333567821062,210.0,0.15,2500
86.6,8.85,0.6706802765013338,211.0,0.1,2600
92.35,10.95,0.696830309939777,214.0,0.2,2700
91.7,10.5,0.6822310816918484,215.0,0.3,2800
91.25,11.1,0.7040981717601896,216.0,0.25,2900
90.25,10.0,0.654942225936801,217.0,0.3,3000
40.15,1.1,0.518315073901382,33.0,0.0,100
41.7,1.55,0.5307135045749034,56.0,0.1,200
40.2,1.65,0.5234939873316675,74.0,0.1,300
49.15,2.3,0.5418898938361464,93.0,0.1,400
48.3,2.65,0.5670209112135935,104.0,0.2,500
55.95,4.2,0.5788419093517041,121.0,0.6,600
57.5,4.35,0.5401818949671048,136.0,0.7,700
70.75,6.8,0.5831006024618024,142.0,0.85,800
77.1,8.1,0.5929731392930472,150.0,0.75,900
75.35,7.4,0.6522698745659347,158.0,0.65,1000
79.5,8.8,0.6702022810418458,166.0,0.45,1100
74.25,7.15,0.613404398838558,168.0,0.15,1200
81.3,8.5,0.6352961387545069,174.0,0.4,1300
71.55,6.4,0.5982374142123538,178.0,0.35,1400
71.0,6.85,0.6133881684736486,182.0,0.3,1500
74.1,7.15,0.6302176461516215,185.0,0.3,1600
87.3,9.45,0.6661944170621876,193.0,0.2,1700
82.1,9.5,0.6949131059997949,196.0,0.25,1800
82.7,8.9,0.633655587754695,197.0,0.35,1900
91.05,11.5,0.7055544475154868,201.0,0.3,2000
82.3,9.65,0.6609521978359167,202.0,0.15,2100
82.25,8.35,0.6039652985261312,205.0,0.35,2200
86.0,10.15,0.6786520490380241,209.0,0.3,2300
92.65,10.8,0.7090166391885987,210.0,0.25,2400
85.7,10.05,0.6722890522641606,211.0,0.25,2500
86.6,9.75,0.6930565511128212,215.0,0.15,2600
88.75,10.1,0.6899876730325639,216.0,0.15,2700
80.65,9.15,0.6566384392416836,217.0,0.35,2800
89.75,10.05,0.6678988566941014,218.0,0.3,2900
76.15,8.25,0.6440660358941214,220.0,0.25,3000
37.2,0.95,0.4821302927687251,35.0,0.2,100
41.8,2.3,0.5540536562040477,49.0,0.6,200
56.15,4.15,0.5679204124131815,64.0,0.5,300
50.85,3.0,0.565578203701395,74.0,0.1,400
52.5,3.75,0.5796267055610184,88.0,0.15,500
83.75,9.15,0.6489566008637411,100.0,0.0,600
90.0,12.0,0.7287147413603996,115.0,0.55,700
94.25,13.2,0.7697616715153046,126.0,0.1,800
97.1,14.75,0.7666784374999998,136.0,0.4,900
98.85,14.15,0.7704304545454542,142.0,0.05,1000
90.3,11.8,0.7212064680759049,147.0,0.2,1100
97.55,14.35,0.798692744494214,152.0,0.2,1200
93.85,13.65,0.7679951080084295,155.0,0.2,1300
98.55,14.9,0.7932355985915491,156.0,0.3,1400
98.5,13.5,0.7462682017543856,157.0,0.35,1500
98.15,13.85,0.7746644429181926,162.0,0.05,1600
94.8,12.75,0.758084473512809,166.0,0.15,1700
97.95,13.2,0.7677227901563016,168.0,0.35,1800
97.65,12.05,0.7178385130718948,171.0,0.35,1900
92.15,11.25,0.6556715818878758,178.0,0.55,2000
91.85,11.9,0.720955819119904,179.0,0.55,2100
87.85,10.7,0.7062852598417699,183.0,0.4,2200
92.4,11.55,0.7072681924315617,185.0,0.4,2300
82.5,10.35,0.707707409003012,185.0,0.6,2400
92.35,11.8,0.7075885443733524,189.0,0.5,2500
94.8,12.65,0.73061550630765,193.0,0.55,2600
95.2,11.0,0.6860540196078426,195.0,0.15,2700
94.05,11.8,0.710209617918313,198.0,0.4,2800
91.7,12.3,0.7306813556618815,198.0,0.35,2900
93.2,12.35,0.7165364055431199,201.0,0.65,3000
35.6,1.2,0.506965857226645,37.0,0.4,100
39.0,1.5,0.49375710947666435,57.0,0.4,200
36.7,1.5,0.5072874527129049,70.0,0.65,300
52.35,6.05,0.6015712913688716,83.0,2.05,400
56.1,5.3,0.6053227529769518,97.0,1.2,500
56.1,5.65,0.6088936709239385,107.0,1.65,600
61.7,5.7,0.5852740250683769,119.0,1.1,700
62.65,6.0,0.6109734841549787,127.0,0.85,800
64.35,5.8,0.5803215400731826,133.0,0.95,900
62.75,5.05,0.552111845880433,137.0,0.75,1000
71.75,7.1,0.5917965082260072,144.0,0.75,1100
71.0,6.65,0.6214933074405402,149.0,0.55,1200
79.5,8.05,0.6403954684506281,152.0,0.3,1300
84.4,9.4,0.6778005824471811,154.0,0.35,1400
81.6,8.9,0.633179852519166,155.0,0.8,1500
82.1,9.4,0.6331886551909461,158.0,0.4,1600
77.05,7.6,0.6427660674986192,162.0,0.45,1700
68.6,6.3,0.6067983332693553,164.0,0.25,1800
73.35,7.15,0.6060403060817781,165.0,0.3,1900
78.95,8.0,0.6209840314593598,168.0,0.2,2000
71.3,7.05,0.6178594998149309,169.0,0.35,2100
83.65,8.85,0.6328084850063723,171.0,0.55,2200
72.4,7.0,0.5824367665268746,172.0,0.55,2300
75.15,7.1,0.5907442437217756,174.0,0.35,2400
79.65,7.8,0.6051635966199357,177.0,0.4,2500
63.15,4.8,0.5669012947779775,180.0,0.35,2600
75.15,7.25,0.6085649620030986,181.0,0.55,2700
70.4,6.65,0.58808712759915,185.0,0.35,2800
77.55,8.75,0.6607382082029711,188.0,0.45,2900
76.65,7.5,0.622487717077657,189.0,0.3,3000
50.8,2.55,0.546192078137772,42.0,0.05,100
35.2,0.8,0.5118026698345275,61.0,0.25,200
55.75,3.5,0.546079148286161,80.0,0.35,300
60.2,4.65,0.578074093928968,88.0,0.55,400
57.9,5.35,0.6018905569932445,102.0,1.15,500
36.95,1.3,0.5306455411249431,112.0,0.15,600
46.85,2.65,0.5365264091451196,127.0,0.1,700
88.65,10.45,0.6729302282848497,135.0,0.8,800
73.85,8.85,0.6384344837754804,140.0,1.35,900
64.6,6.45,0.6158861533730249,144.0,0.95,1000
58.0,5.75,0.5526672811076803,148.0,0.95,1100
62.6,5.7,0.5727780385935402,151.0,0.8,1200
64.15,6.1,0.5875467229799601,155.0,0.95,1300
70.85,6.9,0.5861338031666655,160.0,0.85,1400
66.05,6.2,0.5954513923089574,166.0,1.15,1500
70.9,6.8,0.600012094856135,167.0,0.5,1600
63.8,6.1,0.5933825730971709,171.0,0.75,1700
61.3,5.5,0.5858075507639063,173.0,1.0,1800
69.25,7.05,0.6339248286725792,179.0,0.7,1900
75.2,8.1,0.6307219268032751,181.0,0.8,2000
54.55,4.75,0.5858908123092093,182.0,0.95,2100
64.3,6.9,0.5996495511900172,184.0,1.1,2200
72.0,6.85,0.610098520601987,184.0,0.7,2300
80.25,8.6,0.6121785278419039,186.0,0.7,2400
74.2,7.3,0.5609174373903285,189.0,0.8,2500
60.9,5.4,0.6067919189131354,192.0,0.65,2600
76.9,8.1,0.6325739071115268,195.0,0.65,2700
62.55,5.8,0.5677386338585614,198.0,0.75,2800
75.45,7.55,0.6077371964432917,199.0,0.6,2900
74.75,7.65,0.6252989106564366,201.0,0.45,3000
36.4,0.85,0.5173020599207836,34.0,0.0,100
40.65,1.35,0.519831931988746,50.0,0.0,200
45.55,2.6,0.5427797388054374,61.0,0.5,300
43.7,2.35,0.5409490540383285,77.0,0.4,400
66.85,5.3,0.5907215289257549,91.0,0.1,500
73.75,7.5,0.6232593160249975,103.0,0.1,600
53.25,3.55,0.5606404983496329,111.0,0.1,700
62.95,4.75,0.5760095703578924,117.0,0.15,800
68.7,5.65,0.5853970740595521,122.0,0.35,900
66.55,5.8,0.6030100690741158,127.0,0.5,1000
67.05,6.0,0.6012993987502615,133.0,0.4,1100
63.95,5.9,0.6106173870084237,138.0,0.3,1200
70.35,6.9,0.620911682848701,140.0,0.45,1300
55.95,4.1,0.5462775651169886,143.0,0.2,1400
65.85,5.6,0.6032804553954807,145.0,0.2,1500
74.1,7.55,0.6305911090669007,149.0,0.4,1600
93.55,10.7,0.6692684796418562,153.0,0.3,1700
86.25,9.25,0.6604410167200362,158.0,0.2,1800
77.5,7.75,0.6114715131763944,158.0,0.25,1900
70.15,6.95,0.5894807108252733,161.0,0.35,2000
82.5,8.2,0.6413609502933549,162.0,0.4,2100
74.3,6.9,0.6311644938860628,165.0,0.35,2200
81.85,8.25,0.6217823036277561,169.0,0.3,2300
62.1,5.2,0.5842601717069699,173.0,0.4,2400
85.4,9.3,0.6323291503184512,177.0,0.35,2500
67.85,5.9,0.603180657464242,180.0,0.2,2600
78.65,8.05,0.6548289061535564,181.0,0.25,2700
76.4,7.6,0.5941632241946622,183.0,0.25,2800
86.1,9.7,0.670851788608849,185.0,0.5,2900
82.4,9.35,0.6578679092050863,186.0,0.3,3000
34.35,0.75,0.5100314782811827,42.0,0.35,100
39.3,1.75,0.5000515901737338,64.0,0.55,200
42.1,2.4,0.5161180400840115,83.0,0.7,300
45.95,3.3,0.5256287985664654,99.0,1.1,400
44.8,2.9,0.5582639464402158,107.0,0.6,500
50.5,2.95,0.5313489261732479,120.0,0.3,600
69.15,6.65,0.6232322670416044,134.0,0.6,700
59.2,4.45,0.5711609355271369,145.0,0.25,800
74.0,7.25,0.612247053044795,150.0,0.35,900
79.15,8.65,0.6514705893051056,153.0,0.7,1000
91.05,10.3,0.6479272276694867,158.0,0.55,1100
86.35,10.2,0.6960161080259115,161.0,0.35,1200
90.6,10.5,0.6995797375492032,165.0,0.25,1300
83.9,9.9,0.6955191817009372,167.0,0.25,1400
86.0,9.9,0.6623725769820401,168.0,0.2,1500
79.4,8.6,0.6524420046496803,170.0,0.45,1600
90.8,10.65,0.6783739069456043,173.0,0.15,1700
79.95,8.7,0.6484165992590553,180.0,0.2,1800
84.6,9.95,0.662791646917838,185.0,0.35,1900
82.45,8.9,0.6264075085450254,189.0,0.3,2000
88.2,9.75,0.6623781527856087,193.0,0.4,2100
78.65,8.5,0.6700624964227597,196.0,0.55,2200
74.65,7.85,0.6189131563464969,197.0,0.25,2300
75.95,7.95,0.6240569108234343,198.0,0.4,2400
95.3,12.25,0.7255906084356816,201.0,0.35,2500
81.85,8.4,0.6465529810436337,201.0,0.15,2600
84.1,9.2,0.6686017972212406,207.0,0.3,2700
95.95,11.15,0.7066474755296813,210.0,0.2,2800
83.05,8.8,0.6296736793822874,211.0,0.15,2900
84.0,8.75,0.6428827209909874,212.0,0.2,3000
37.95,1.15,0.49234813089614676,34.0,0.25,100
48.3,3.85,0.5267634125786123,52.0,1.25,200
38.9,1.3,0.49042183689012864,75.0,0.2,300
50.85,2.75,0.5355725275059056,83.0,0.15,400
42.6,1.9,0.5414057494694582,96.0,0.0,500
41.6,1.65,0.5192699108561795,99.0,0.05,600
45.6,2.2,0.5557703602076672,111.0,0.05,700
42.45,2.0,0.5222261839778389,124.0,0.05,800
41.35,1.8,0.5398822778238037,136.0,0.0,900
42.65,2.4,0.5570083247844653,147.0,0.05,1000
78.9,7.5,0.6204971673437287,155.0,0.2,1100
71.45,7.2,0.6329828250728091,161.0,0.3,1200
81.4,8.45,0.638648002556476,169.0,0.4,1300
80.45,8.2,0.6358975335757833,173.0,0.05,1400
63.7,6.2,0.5929798388332261,180.0,0.3,1500
83.7,10.05,0.6893748899733222,189.0,0.3,1600
81.7,9.9,0.6745301030888585,192.0,0.5,1700
83.4,9.0,0.6492705244915972,195.0,0.55,1800
90.75,10.3,0.6596666839974407,199.0,0.4,1900
76.75,8.4,0.6635867652394769,200.0,0.35,2000
77.8,7.9,0.639733476185648,205.0,0.5,2100
69.9,6.8,0.6060546119417161,209.0,0.55,2200
78.55,7.75,0.6092255387608505,211.0,0.45,2300
89.55,10.5,0.6887530262946924,213.0,0.25,2400
93.4,10.85,0.6623179411704577,216.0,0.4,2500
77.85,9.05,0.6797646749352847,219.0,0.4,2600
88.5,10.45,0.683055091361386,224.0,0.45,2700
84.8,9.3,0.6305556579515985,226.0,0.15,2800
81.65,8.55,0.6412794521240668,226.0,0.35,2900
79.45,8.45,0.6336906634666895,228.0,0.35,3000
40.7,1.5,0.5344599652139154,34.0,0.1,100
39.95,1.25,0.5127725316433137,50.0,0.15,200
50.55,3.45,0.5808718869859847,64.0,0.65,300
59.75,4.15,0.5652370396925258,77.0,0.25,400
43.35,1.65,0.5232282788116727,86.0,0.0,500
43.65,1.9,0.5454165163104386,95.0,0.0,600
59.4,4.4,0.5523606561366605,113.0,0.15,700
70.3,6.3,0.5867533597289667,127.0,0.3,800
84.75,9.35,0.6390020518656987,142.0,0.4,900
77.6,8.25,0.6272560501038978,149.0,0.4,1000
75.95,7.55,0.6064471153846149,158.0,0.15,1100
78.05,8.1,0.6300007860337284,160.0,0.0,1200
82.55,8.85,0.6411588292800179,168.0,0.1,1300
94.1,11.6,0.6836326736239667,174.0,0.4,1400
85.1,8.8,0.6659276711948856,178.0,0.25,1500
78.8,8.25,0.635282471769007,181.0,0.3,1600
90.1,11.2,0.700613084882332,186.0,0.4,1700
81.15,8.75,0.6462399258149496,188.0,0.45,1800
76.15,8.1,0.6393409435125312,192.0,0.35,1900
83.7,8.65,0.6543471869403567,195.0,0.2,2000
69.4,6.4,0.5847158316529171,198.0,0.25,2100
66.3,5.35,0.5862937098047706,200.0,0.2,2200
85.25,9.35,0.6681359170077756,202.0,0.3,2300
85.85,9.25,0.6478839358533778,204.0,0.25,2400
77.0,7.65,0.6440731523946783,208.0,0.15,2500
78.9,8.1,0.6223808795334181,208.0,0.2,2600
81.05,7.7,0.6002492080071423,211.0,0.2,2700
86.1,8.55,0.6172816088413223,214.0,0.25,2800
69.6,5.7,0.5682607056839384,219.0,0.05,2900
73.95,7.4,0.6041114332474916,223.0,0.25,3000
40.45,1.25,0.5336019560763733,37.0,0.0,100
38.7,1.15,0.5130875701424664,49.0,0.2,200
32.4,0.9,0.49608915475262616,62.0,0.4,300
43.25,2.9,0.562084761694251,74.0,1.15,400
40.75,2.8,0.508562471397034,89.0,1.35,500
50.3,3.5,0.5520281613256335,101.0,0.75,600
65.0,6.65,0.5795125740881121,114.0,1.55,700
45.0,4.2,0.5774224236791422,123.0,1.8,800
45.6,4.15,0.6011959108856297,134.0,1.75,900
61.85,7.3,0.5689141216279586,141.0,2.25,1000
85.1,10.0,0.6640425543440485,147.0,0.8,1100
78.0,8.15,0.6333184106863927,154.0,0.65,1200
82.95,9.2,0.6548912047127362,162.0,0.4,1300
72.8,7.25,0.6023019002654175,164.0,0.45,1400
69.35,6.2,0.6212483657208616,168.0,0.1,1500
81.35,8.0,0.636641880245733,175.0,0.65,1600
83.3,10.45,0.7116397905204448,178.0,0.45,1700
87.3,8.85,0.649036638513227,183.0,0.2,1800
76.5,7.3,0.6120890325412531,185.0,0.15,1900
81.35,8.85,0.6613106302593479,186.0,0.3,2000
65.5,6.2,0.5974820957256111,189.0,0.5,2100
87.15,9.55,0.6642031654880978,195.0,0.6,2200
77.3,8.25,0.6535350097115383,198.0,0.3,2300
77.9,8.35,0.647347188529794,200.0,0.45,2400
79.95,8.05,0.6302091119266863,200.0,0.3,2500
73.5,7.3,0.6211533566504873,204.0,0.6,2600
80.4,8.3,0.6135834088209252,206.0,0.5,2700
82.9,9.6,0.6820366316788644,208.0,0.3,2800
79.2,8.35,0.6522026006830749,212.0,0.5,2900
86.0,9.6,0.6647512667645316,216.0,0.3,3000
35.6,0.75,0.48752844537105017,37.0,0.2,100
38.8,1.7,0.5088549144619622,54.0,0.5,200
71.6,6.05,0.6128162032058636,75.0,0.35,300
52.2,3.15,0.5625868160267165,91.0,0.0,400
51.85,3.3,0.557167900699602,108.0,0.05,500
78.05,7.5,0.6153085359044614,126.0,0.1,600
78.1,7.75,0.6294457945230256,130.0,0.2,700
45.55,2.45,0.5563672923401441,135.0,0.1,800
60.5,4.35,0.5712030565943182,139.0,0.1,900
52.65,3.5,0.5559883969036121,142.0,0.2,1000
50.55,3.3,0.5787129664853847,145.0,0.2,1100
57.3,4.1,0.5715828001490624,149.0,0.25,1200
57.3,3.65,0.5602371462120626,155.0,0.1,1300
59.25,4.2,0.5697050894541419,158.0,0.2,1400
56.95,4.2,0.5648838711295466,163.0,0.2,1500
60.9,4.65,0.5779048204404033,165.0,0.15,1600
73.95,6.5,0.6010378317165144,167.0,0.05,1700
65.6,5.55,0.5905477547796472,171.0,0.2,1800
75.45,6.3,0.5818830379730693,181.0,0.25,1900
68.2,6.05,0.613683010616603,185.0,0.0,2000
71.8,6.4,0.5804615958238883,189.0,0.1,2100
72.85,6.35,0.5839043700234885,191.0,0.15,2200
75.9,7.15,0.6070231269444748,194.0,0.25,2300
75.2,6.4,0.5700224819618871,197.0,0.1,2400
76.9,7.35,0.6117122714018907,198.0,0.0,2500
66.9,5.7,0.5864409634132512,202.0,0.0,2600
73.95,6.4,0.5644582329918808,207.0,0.2,2700
78.75,7.5,0.6222867263172394,211.0,0.1,2800
63.95,5.1,0.5840962006645859,212.0,0.3,2900
67.05,5.5,0.5620698502567729,213.0,0.15,3000
36.95,0.65,0.4973799741947632,35.0,0.0,100
42.7,1.9,0.5214291890577372,48.0,0.4,200
40.65,1.2,0.5226034360871502,57.0,0.05,300
39.05,1.95,0.5387100853528796,69.0,0.7,400
48.45,3.6,0.5422703346720124,81.0,1.05,500
43.05,2.8,0.5522729579230281,101.0,1.05,600
48.15,3.85,0.5414024032006692,114.0,1.2,700
58.4,6.3,0.568747185658086,126.0,2.05,800
77.65,9.25,0.6588824715839019,141.0,0.85,900
72.45,8.2,0.6453204046968575,147.0,0.95,1000
80.9,9.3,0.6819701635935831,155.0,0.8,1100
77.6,9.15,0.6691387039888047,164.0,1.15,1200
78.5,8.75,0.6275211886772142,172.0,0.9,1300
79.45,7.95,0.5953284113375865,176.0,0.75,1400
77.15,7.85,0.6286890765785242,177.0,0.75,1500
71.55,6.75,0.6039717411891783,183.0,0.2,1600
69.55,6.7,0.6239915714539818,184.0,0.4,1700
69.4,6.65,0.6055117865158959,187.0,0.5,1800
74.5,7.3,0.6316467059461803,191.0,0.4,1900
77.45,7.65,0.6243472140036459,193.0,0.45,2000
70.65,6.45,0.5907973846678685,201.0,0.4,2100
67.9,6.8,0.6457957105648411,204.0,0.5,2200
78.8,8.05,0.6339172975808302,208.0,0.65,2300
72.1,7.3,0.6475727305183286,212.0,0.45,2400
81.3,8.5,0.6337371687333883,215.0,0.45,2500
85.4,9.1,0.6045919788501213,217.0,0.4,2600
71.65,6.75,0.5971766144057122,219.0,0.45,2700
77.85,7.3,0.5891714317977735,222.0,0.35,2800
72.0,7.4,0.6279706960855359,222.0,0.8,2900
79.3,7.7,0.6118853194783715,225.0,0.3,3000
40.95,1.7,0.5310349975993016,35.0,0.4,100
40.4,1.3,0.5015684900292932,55.0,0.0,200
37.25,1.0,0.4959123275975779,74.0,0.1,300
48.45,2.8,0.5553385999422339,99.0,0.2,400
72.75,8.2,0.637004665072755,113.0,0.95,500
65.0,7.0,0.6204100240412063,122.0,1.1,600
63.05,5.4,0.5963332338253069,130.0,0.45,700
65.25,5.6,0.5763913731711201,137.0,0.35,800
64.55,5.9,0.6096867551281215,143.0,0.85,900
69.35,6.3,0.5979474145305768,149.0,0.3,1000
74.65,7.95,0.6358925029270079,155.0,0.3,1100
66.6,6.85,0.6378747308867603,156.0,0.9,1200
69.8,6.9,0.6046965250454738,162.0,0.7,1300
80.1,9.45,0.6550289543188134,167.0,0.5,1400
79.9,9.1,0.6778955639277232,172.0,0.4,1500
83.35,9.4,0.6901458122647386,174.0,0.4,1600
64.25,5.7,0.5917393130508091,176.0,0.45,1700
77.85,8.0,0.6297452972277103,179.0,0.15,1800
80.0,8.45,0.6331926273110888,184.0,0.45,1900
74.1,7.4,0.5996742309380543,185.0,0.45,2000
80.0,8.5,0.6408336412070866,188.0,0.45,2100
88.1,9.9,0.6472501386818676,191.0,0.4,2200
77.15,9.05,0.6570864904785665,193.0,0.55,2300
85.9,9.5,0.6425767098410147,195.0,0.55,2400
80.8,9.2,0.6361321133630891,196.0,0.4,2500
82.75,9.0,0.6764887000442852,198.0,0.2,2600
89.5,9.85,0.6565863804680784,199.0,0.4,2700
76.7,7.95,0.6374029798461985,202.0,0.55,2800
77.85,8.85,0.655238051401882,202.0,0.55,2900
73.6,7.05,0.6025463590023592,203.0,0.55,3000
36.25,1.1,0.49859212771901185,37.0,0.3,100
38.4,1.45,0.5295572402537707,56.0,0.1,200
50.6,2.65,0.5414580055326897,78.0,0.1,300
59.0,4.45,0.5726664980843152,94.0,0.15,400
51.4,3.4,0.5601721033661814,110.0,0.15,500
70.5,7.1,0.6528405794475161,123.0,0.9,600
81.2,8.9,0.6613410872166388,137.0,0.45,700
72.05,7.7,0.6033042561141344,149.0,0.7,800
86.0,10.55,0.6841856844176808,156.0,1.1,900
83.9,10.15,0.6729770686950574,164.0,0.85,1000
87.0,11.25,0.6997144720653855,166.0,0.7,1100
76.1,8.3,0.6321229220123269,170.0,0.6,1200
82.9,10.6,0.6997968031435615,175.0,0.6,1300
84.6,10.95,0.687308484541711,177.0,0.5,1400
92.35,13.25,0.7392396358543413,180.0,0.55,1500
87.75,12.5,0.7306020195676244,185.0,0.75,1600
98.25,13.4,0.7220545633054679,188.0,0.85,1700
94.2,13.7,0.7522816914805621,193.0,0.95,1800
91.05,13.25,0.7273686009254405,196.0,0.65,1900
87.2,12.0,0.7218775337600458,196.0,0.35,2000
85.75,11.9,0.6996780007239186,199.0,0.7,2100
82.8,11.45,0.7451410510236782,203.0,1.0,2200
84.85,11.25,0.6985181178022934,208.0,0.4,2300
91.9,12.35,0.7196457455097132,210.0,0.5,2400
89.15,11.15,0.7120322272896182,212.0,0.65,2500
92.8,12.0,0.7135624956763661,213.0,0.6,2600
87.35,10.4,0.7034219777131216,216.0,0.65,2700
98.0,13.8,0.7255566666666662,219.0,0.25,2800
97.75,14.45,0.7785524999999998,223.0,0.35,2900
92.2,11.9,0.6912692079767075,226.0,0.75,3000
33.75,0.95,0.5046508766782094,38.0,0.2,100
48.1,3.05,0.5514065997153257,60.0,0.7,200
42.3,2.2,0.5492449098036751,71.0,0.2,300
65.8,5.45,0.6109412601100452,92.0,0.35,400
47.95,3.35,0.580122644693073,103.0,0.2,500
71.3,5.65,0.5501980044031147,112.0,0.2,600
48.9,2.65,0.5318092935340377,121.0,0.15,700
55.7,3.45,0.5388077840853421,128.0,0.2,800
47.65,2.65,0.5583088949187479,133.0,0.1,900
73.65,6.95,0.5967279064895885,142.0,0.15,1000
67.65,5.5,0.5798644536081845,148.0,0.2,1100
77.8,8.9,0.657443702882299,154.0,0.3,1200
71.25,6.3,0.6166727829145416,158.0,0.15,1300
75.85,6.9,0.5797725036511622,163.0,0.25,1400
75.0,7.15,0.6379475735679968,165.0,0.15,1500
74.35,7.85,0.6508293436806485,168.0,0.3,1600
62.1,5.7,0.5921890502296345,175.0,0.05,1700
81.55,9.0,0.648533412932856,178.0,0.35,1800
75.55,7.65,0.638470562403116,182.0,0.5,1900
66.95,6.5,0.6264851457107184,185.0,0.5,2000
86.6,11.35,0.7077874261444077,195.0,0.6,2100
84.6,10.25,0.6952403064643855,198.0,0.7,2200
83.7,9.6,0.6871380772199674,200.0,0.55,2300
82.05,10.15,0.687800074199522,203.0,0.5,2400
76.15,8.15,0.6500615684315679,208.0,0.55,2500
73.45,6.75,0.5924126185707432,211.0,0.4,2600
75.7,7.25,0.5716745411943733,215.0,0.5,2700
83.45,7.9,0.5928298170110302,220.0,0.35,2800
69.0,6.0,0.6077743165135675,224.0,0.25,2900
67.65,6.65,0.6168457278348665,226.0,0.35,3000
