,Trained episodes,Episode length (mean),Episode length (std),Energy level (mean),Energy level (std),Need (mean),Need (std),Food consumed (mean),Food consumed (std),Poison consumed (mean),Poison consumed (std),Number of nodes (mean),Number of nodes (std)
0,1000,14.488,6.712961790446896,53.058979937912405,2.7322209805560327,0.8831045106361637,0.044296976904066226,0.45,0.7971825386948713,0.202,0.41616823521263613,5969.564,311.4305763793915
1,2000,15.963,8.23903095029992,53.79270896948474,2.4824268102674285,0.8955024755045542,0.04059373777604067,0.875,1.1624865590620823,0.156,0.3842707378919191,7064.671,81.00728830790474
2,3000,19.524,11.64669154738804,54.092149540093075,2.595759743874183,0.9003769543115303,0.04241322537508596,1.564,2.067825911434519,0.116,0.32946016451158405,7676.698,67.7550942439017
3,4000,28.326,18.822054191825078,54.95976979142856,2.1037619792333646,0.9145595804676889,0.03417531088351534,3.33,3.632781303629493,0.012,0.1088852607105296,8076.563,32.64120143315806
4,5000,41.354,35.37143881721522,56.04938879944109,1.9561905285888488,0.931628789549208,0.03129697428565251,6.397,7.039416950287857,0.014,0.12571396103854177,8280.968,19.196952258105973
5,6000,89.323,86.70819264060346,57.264802961617434,1.6205881962047823,0.9506049930302446,0.025919810660101232,16.37,17.431898921230584,0.006,0.0772269383052313,8463.053,16.319809772175656
6,7000,243.959,244.6499894114038,58.66854629771833,0.32958463945029526,0.9728560913271925,0.004691230802177424,48.5,48.932116242811325,0.007,0.08337265738837883,8605.751,1.1202673787984723
7,8000,276.733,271.11954874372304,58.75458558186582,0.42771560507459455,0.9738943572401966,0.0064042467060391375,55.123,54.2375688153516,0.003,0.054690035655501276,8649.285,0.7346938137755075
8,9000,303.127,286.20734943568453,58.824111473379325,0.15795794316282002,0.9749487710764667,0.0018387635015956988,60.465,57.2255080798764,0.001,0.03160696125855822,8690.813,0.38991152842664195
9,10000,278.982,266.3159132984734,58.8211062198814,0.23030129663026155,0.9748858606512051,0.003188009020399102,55.656,53.26931259177276,0.0,0.0,8717.256,3.1267337590527284
10,11000,295.917,305.77096348574366,58.831140255317706,0.16549062057541308,0.9750692062197232,0.001963399479995624,59.059,61.143728370128045,0.0,0.0,8766.0,0.0
11,12000,275.445,272.90863851296467,58.83375461636376,0.14972587332831555,0.9750763585048746,0.0016767427489594107,54.949,54.58972796231907,0.0,0.0,8783.0,0.0
12,13000,289.047,297.55378470286684,58.790000130834365,0.7087415934975954,0.9743759678596908,0.011364976724199331,57.675,59.525686682305476,0.009,0.09444045743218316,8809.538,0.4985539088203
13,14000,284.979,272.9867223126428,58.8314256194639,0.1542264799437968,0.9750528702529379,0.0017338101264432742,56.85,54.61422433762105,0.0,0.0,8823.0,0.0
14,15000,286.808,276.69845886090513,58.84882796618099,0.13079447368406427,0.9752534408029985,0.0012957856197233022,57.227,55.37350874741459,0.0,0.0,8835.0,0.0
15,16000,287.605,281.4736417055778,58.840650580100714,0.1350488456065897,0.9751500785467672,0.0013111701323217663,57.375,56.28030183820979,0.0,0.0,8868.0,0.0
16,17000,293.393,283.71103353764727,58.845324082663616,0.12442593609657082,0.9752114686520963,0.001202121853133974,58.55,56.73055173361176,0.0,0.0,8890.0,0.0
17,18000,299.878,291.6997242302433,58.83772011185549,0.1355223651533194,0.9751232528495432,0.0014217035788218772,59.844,58.35621358518731,0.0,0.0,8911.0,0.0
18,19000,287.017,284.8679566237663,58.83925393757443,0.14314580671996438,0.9751455836157495,0.0014780465678924095,57.281,56.98673564084891,0.0,0.0,8933.0,0.0
19,20000,290.649,282.3749454165507,58.842999310076046,0.13165661510706678,0.9752055096108172,0.0013535386741836885,57.985,56.4872974658905,0.0,0.0,8958.0,0.0
20,21000,300.848,301.18457280544766,58.84364596593361,0.14439691196508153,0.9751994736618557,0.0015233470230202454,60.039,60.24526105014402,0.0,0.0,8975.0,0.0
21,22000,291.898,285.28118689461456,58.84208375574554,0.15262702570442488,0.9751771191897685,0.0016380087170758395,58.231,57.04674959189174,0.0,0.0,8993.0,0.0
22,23000,294.924,295.4987008837772,58.84212222953104,0.1304028434535712,0.9751794222131518,0.001248925296935323,58.867,59.10104323106319,0.0,0.0,9014.0,0.0
23,24000,290.237,279.188410989783,58.84485812509233,0.12445993682343498,0.9752166995952679,0.0012395197640686845,57.904,55.8489998478039,0.0,0.0,9027.0,0.0
24,25000,301.941,292.22425552818163,58.834884524604774,0.13769646353442772,0.9751334149034604,0.0013236723780546708,60.262,58.438628970912724,0.0,0.0,9044.0,0.0
25,26000,297.296,295.4536315295515,58.84100563133407,0.13722372762321294,0.9751777223824788,0.0013372399247306539,59.323,59.084064442115015,0.0,0.0,9068.549,0.8829490359018464
26,27000,291.172,281.80111854994476,58.844681397722496,0.12870212371926615,0.9752110325079145,0.0012512559204659536,58.093,56.37368491592509,0.0,0.0,9082.0,0.0
27,28000,295.498,305.05401816071856,58.84287989919797,0.131465852770215,0.975184092107384,0.0013178240690385969,58.975,61.01173964902164,0.0,0.0,9106.0,0.0
28,29000,287.301,289.6903560683372,58.84138356638694,0.137748119346438,0.9751864028561338,0.0013380039863175764,57.304,57.934234991065516,0.0,0.0,9113.0,0.0
29,30000,281.64,269.3281351808607,58.83481975308591,0.12941371636279383,0.9751251200138179,0.001263605993209942,56.184,53.88272584047693,0.0,0.0,9125.0,0.0
30,31000,302.921,322.2752313768466,58.842034375084474,0.13048431918676068,0.9751948542820575,0.0012236332035336238,60.456,64.45274287413997,0.0,0.0,9134.0,0.0
31,32000,301.494,304.75721806710334,58.8385559825297,0.12970489685750689,0.9751332531273121,0.0012695784614604967,60.164,60.93679597747161,0.0,0.0,9156.0,0.0
32,33000,312.143,318.2872359222091,58.83078271194502,0.14550591594072934,0.9750751451623071,0.0014223841638698854,62.295,63.67082514778648,0.0,0.0,9169.0,0.0
33,34000,300.723,296.8911791734473,58.84129600038375,0.12450408831759789,0.9751823394855382,0.001211916090318005,60.02,59.379942741636256,0.0,0.0,9178.0,0.0
34,35000,291.765,289.86713124291964,58.84058037003028,0.13163814271587937,0.9751890829162999,0.0013050575884386883,58.219,57.98662810510713,0.0,0.0,9187.0,0.0
35,36000,293.485,293.83796516958114,58.846722546537976,0.12833388937637222,0.9752343243042704,0.001318197424842588,58.583,58.75506030122001,0.0,0.0,9191.0,0.0
36,37000,303.401,301.5012872261079,58.84218341510114,0.1289556815198428,0.9751862251199811,0.0012618781017795094,60.55,60.30783945723806,0.0,0.0,9200.0,0.0
37,38000,301.753,308.2321787078695,58.83686285411265,0.13520444679126095,0.9751495956802692,0.0013738015565076403,60.229,61.66231068489082,0.0,0.0,9215.0,0.0
38,39000,280.294,269.5444704756527,58.84171401708113,0.1243681686954309,0.975191924524961,0.0012015224360439512,55.922,53.90426621335273,0.0,0.0,9223.0,0.0
39,40000,288.665,259.738751007623,58.83940424781642,0.13146995944090611,0.9751373800878452,0.0012759569631258006,57.585,51.92127478211604,0.0,0.0,9230.0,0.0
40,41000,289.184,276.1911297344649,58.836537275068856,0.13615042887944892,0.9751149700975223,0.0013388154367809848,57.689,55.2354078377267,0.0,0.0,9234.0,0.0
41,42000,295.444,275.9569764727828,58.83769063910483,0.13130147500565278,0.9751252353298734,0.00125077901260785,58.946,55.19196575589603,0.0,0.0,9249.0,0.0
42,43000,288.797,281.93886179631215,58.83797032232774,0.1296263647407828,0.9751455040713961,0.0012908637344664635,57.634,56.4037945886622,0.0,0.0,9250.0,0.0
43,44000,277.956,280.9819746247079,58.82964806066954,0.1403433736834557,0.9750643283764702,0.001384180893026875,55.437,56.182613244668495,0.0,0.0,9255.0,0.0
44,45000,299.727,308.27384006918265,58.81855202738721,0.1329848204413972,0.9749623324363972,0.0013626007374004676,59.785,61.648623463950926,0.0,0.0,9265.0,0.0
45,46000,273.804,273.0432229226721,58.83425500570636,0.12756580944799892,0.9751077188274637,0.0012330675493996614,54.611,54.571106631623294,0.0,0.0,9284.0,0.0
46,47000,279.211,272.83888740243754,58.82751490904705,0.12775356726424542,0.9750421443891598,0.0012222607496775605,55.702,54.564963080716915,0.0,0.0,9291.0,0.0
47,48000,297.026,285.45520721121903,58.82842921722374,0.13713413433546792,0.9750615133887522,0.0013717763200041294,59.261,57.09356250051314,0.0,0.0,9300.0,0.0
48,49000,292.535,280.28590898402297,58.82386215982834,0.12563043080301364,0.97499932566201,0.0012546077621222336,58.369,56.0677700555319,0.0,0.0,9308.0,0.0
49,50000,290.853,301.9134203559027,58.82374675830744,0.1370653982935134,0.9749998940240157,0.001301184376029967,58.037,60.37078458161696,0.0,0.0,9317.646,0.4782091592598369
