,Trained episodes,Episode length (mean),Episode length (std),Energy level (mean),Energy level (std),Need (mean),Need (std),Food consumed (mean),Food consumed (std),Poison consumed (mean),Poison consumed (std),Number of nodes (mean),Number of nodes (std)
0,50,13.64,6.552739884964152,53.07895955026156,2.757194236361523,0.8825574856666835,0.042689524466581495,0.238,0.6044468545703584,0.228,0.4427369422128676,2365.81,919.1558855275856
1,100,13.396,6.365153886592217,53.02579838079708,2.685531629806827,0.8821972416829865,0.042578711754011345,0.256,0.5886119264846745,0.24,0.44542114902640173,4800.742,406.4428809021017
2,150,13.832,6.0948975381051325,53.093284843066705,2.638622532650494,0.8832085380129515,0.04211317176928148,0.276,0.5725591672482416,0.222,0.43441454855932266,5860.342,192.81902664415668
3,200,13.66,6.313509325248518,53.05831327087739,2.690206872140639,0.8830415610159218,0.04322048687755439,0.26,0.5624944444170094,0.224,0.43107307965123504,6435.418,110.67682357205595
4,250,13.64,6.416728138233689,53.00135496937828,2.8005854632550085,0.8816482442023894,0.044406202138594884,0.266,0.5685455126900572,0.24,0.44542114902640173,6782.312,77.7193583092398
5,300,13.98,5.95681122749412,53.20394583748459,2.887015219430758,0.8844459008007741,0.045078059257691046,0.296,0.5589132311906742,0.226,0.43694850955232706,7056.87,76.25022688490834
6,350,13.932,6.578098205408613,52.9839979017243,2.657026482425402,0.8816098229811321,0.04258010619822728,0.31,0.6433506042586733,0.252,0.4477677969662401,7309.24,54.042079900758814
7,400,13.944,6.005735924930432,53.120525677040135,2.631293235659206,0.8840189014250297,0.04265498195144171,0.256,0.5352233178776874,0.196,0.4166341320631328,7511.94,48.19149717533167
8,450,13.854,6.5042051013171465,53.058179956165944,2.7774924329020694,0.8827978117910311,0.04427563490485344,0.326,0.7264461439088241,0.242,0.4465825791497022,7691.716,39.540047344432956
9,500,13.71,6.522415196842347,53.21762408112039,2.5670949128727183,0.8857476297186269,0.041513136928310594,0.294,0.6289387887545178,0.222,0.42978599325710937,7819.804,34.222705679124786
10,550,14.142,6.543533907606806,53.288245084055376,2.708549308729558,0.885690951807653,0.041085630693501414,0.37,0.73287106642301,0.202,0.40644310794993194,7957.012,33.568256672040626
11,600,14.682,7.210608573483933,53.16475578476714,2.748097680438076,0.883861737857541,0.04280859840743558,0.422,0.7482753503891466,0.248,0.46313712872107327,8085.026,36.83603295687526
12,650,14.092,6.637133116037376,53.26488900660752,2.58433182983382,0.8860823541658578,0.041381568959366566,0.38,0.6925315877272313,0.242,0.4420814404609178,8231.736,38.01481690078224
13,700,14.272,6.51413969761165,53.195760945240416,2.8027431535165586,0.8845687779522009,0.04448697698283864,0.376,0.6712853342655417,0.224,0.4447740999653645,8347.798,30.32842224712654
14,750,14.16,6.9672376161574965,53.24906543859836,2.714612914215524,0.8859245452024723,0.042936523960151164,0.4,0.7823042886243179,0.24,0.463033476111609,8443.274,19.064808522510788
15,800,15.05,7.222153418475684,53.217556036606894,2.7900171892032306,0.8851713240358339,0.04387893869433155,0.446,0.7765848311678513,0.192,0.4232446101251615,8538.012,26.520027450966186
16,850,14.266,6.771945363040078,53.1058528752037,2.730301427041548,0.8836518137839892,0.043938640851083344,0.396,0.7610413917783972,0.246,0.4443917190947644,8621.236,24.152273267748523
17,900,14.254,6.541367135393029,53.14898419868234,2.763559536716908,0.884780525931797,0.04526606335631627,0.36,0.6799999999999999,0.192,0.41368587116313266,8691.404,10.018821487580263
18,950,14.8,7.147027354082255,53.248012999192916,2.674077548543592,0.8856485656383474,0.042317989803392464,0.416,0.7395566239308522,0.18,0.39446165846632036,8757.3,24.754433946265063
19,1000,15.14,7.1883516886696635,53.199923600124485,2.632905109075942,0.8849752754523785,0.04171494185558388,0.476,0.7933624644511486,0.21,0.42178193417926285,8834.652,20.815064160362322
