Episode length,Green food,Need,Number of nodes,Red food,Trained episodes
39.65,0.95,0.49179443309284404,90.0,0.25,100
39.75,1.15,0.5019247412455778,746.0,0.45,200
37.8,1.05,0.49544325514233156,1313.0,0.5,300
43.7,1.4,0.508512019527852,1785.0,0.2,400
39.65,1.1,0.5115676068186077,2249.0,0.25,500
44.85,1.7,0.5086725964470438,2685.0,0.2,600
42.85,1.45,0.5183652000729158,3162.0,0.2,700
41.6,1.5,0.5080265481791841,3567.0,0.4,800
41.5,1.35,0.5078213272396008,3944.0,0.15,900
45.95,1.75,0.5337062875910712,4324.0,0.25,1000
39.65,1.25,0.5057621181952665,4694.0,0.4,1100
38.6,1.35,0.4952063024473052,5016.0,0.55,1200
42.55,1.25,0.5076931663738454,5331.0,0.1,1300
49.05,2.15,0.5137554794335436,5664.0,0.35,1400
41.75,1.7,0.5303712050847333,6053.0,0.35,1500
53.45,2.4,0.5413445246223748,6356.0,0.1,1600
37.05,1.0,0.5196081796070381,6732.0,0.45,1700
44.55,1.8,0.51695155973344,7028.0,0.35,1800
43.7,1.55,0.5322631216448991,7349.0,0.3,1900
48.2,2.2,0.515026131769545,7621.0,0.4,2000
46.2,1.85,0.5133757917763659,7945.0,0.3,2100
38.15,1.05,0.5225638368348287,8260.0,0.4,2200
44.35,1.9,0.5262487843940347,8515.0,0.25,2300
42.85,1.7,0.5470847230445501,8789.0,0.35,2400
41.2,1.5,0.5106130821064563,9073.0,0.35,2500
49.7,2.0,0.5223092450212208,9349.0,0.1,2600
42.4,1.7,0.5229316635550137,9644.0,0.45,2700
43.65,1.6,0.4989882251551159,9884.0,0.4,2800
40.75,1.2,0.5168420544484916,10146.0,0.25,2900
46.25,1.85,0.5127406582575265,10401.0,0.3,3000
35.9,0.8,0.48561209961899177,94.0,0.4,100
35.25,0.8,0.5089353717760386,712.0,0.45,200
42.7,1.4,0.5316190314644474,1200.0,0.25,300
40.3,1.35,0.5031076683210235,1747.0,0.4,400
39.0,0.85,0.5088021463839716,2222.0,0.3,500
41.75,1.2,0.4891486457995418,2637.0,0.25,600
42.95,1.4,0.49678600975646015,3055.0,0.25,700
37.95,0.8,0.5149712300841767,3481.0,0.25,800
41.6,1.35,0.5199526345999476,3830.0,0.3,900
42.95,1.5,0.5139225924516417,4219.0,0.4,1000
40.35,1.4,0.4951941109198918,4588.0,0.45,1100
40.05,1.3,0.49481348509219,4921.0,0.45,1200
39.3,1.55,0.5046099329727745,5248.0,0.7,1300
38.4,1.45,0.5221893739560253,5557.0,0.65,1400
46.7,1.9,0.5230055074519966,5876.0,0.3,1500
43.2,1.65,0.5310610667499984,6227.0,0.35,1600
40.5,1.25,0.5266485233165427,6538.0,0.2,1700
45.65,1.85,0.514063312185216,6811.0,0.4,1800
42.35,1.55,0.5120060812301548,7121.0,0.35,1900
45.45,2.0,0.5178337668907279,7415.0,0.35,2000
45.2,1.8,0.5086226993098404,7697.0,0.3,2100
43.85,1.55,0.5153255598242146,8003.0,0.25,2200
46.35,1.85,0.5238675198047542,8285.0,0.25,2300
42.75,1.6,0.5194087488740499,8592.0,0.3,2400
46.4,1.95,0.533345706725526,8871.0,0.3,2500
41.4,1.55,0.4969287321953044,9157.0,0.55,2600
46.3,2.05,0.5337184648009294,9440.0,0.2,2700
50.3,2.35,0.542537667315568,9715.0,0.35,2800
45.05,2.0,0.5379628642366551,10033.0,0.45,2900
43.25,1.65,0.5084711665033751,10304.0,0.35,3000
39.35,1.35,0.5386933756905966,94.0,0.5,100
39.25,1.25,0.5031564615842623,764.0,0.4,200
43.7,1.55,0.5127940378696139,1305.0,0.3,300
38.95,1.15,0.5324333835146313,1828.0,0.25,400
38.8,1.05,0.4960019084086433,2271.0,0.3,500
44.4,1.55,0.5123199495397442,2718.0,0.35,600
38.6,0.9,0.5068147133511229,3181.0,0.3,700
39.1,1.1,0.5405598611910921,3577.0,0.45,800
40.25,1.2,0.49966884870334843,3950.0,0.4,900
39.65,1.15,0.49276899707232025,4299.0,0.3,1000
40.2,1.3,0.5203356134599659,4613.0,0.25,1100
37.9,1.05,0.5166346425584963,4947.0,0.35,1200
40.45,1.35,0.504445200059654,5259.0,0.55,1300
40.3,1.1,0.5138394246024587,5583.0,0.3,1400
40.7,1.3,0.49138289269700675,5904.0,0.5,1500
45.3,1.65,0.5013821618258392,6220.0,0.2,1600
44.95,1.75,0.5089083032927734,6553.0,0.25,1700
42.6,1.55,0.533067767462936,6892.0,0.25,1800
46.65,1.95,0.4874208971349228,7184.0,0.2,1900
47.9,2.15,0.5188796095017684,7478.0,0.35,2000
39.15,1.05,0.493982175742613,7785.0,0.25,2100
44.85,1.7,0.5153125355438704,8038.0,0.3,2200
43.35,1.65,0.5305720359573977,8323.0,0.3,2300
45.0,2.2,0.5583225378075707,8631.0,0.35,2400
48.7,2.05,0.5207035433817031,8939.0,0.2,2500
45.2,1.7,0.5251856874948029,9259.0,0.2,2600
42.6,1.7,0.5414723282099336,9532.0,0.45,2700
49.15,2.2,0.5036739771623266,9808.0,0.4,2800
46.55,1.95,0.5219352722010304,10088.0,0.35,2900
46.25,1.85,0.5179845197520057,10380.0,0.3,3000
35.9,0.8,0.48561209961899177,94.0,0.4,100
35.25,0.8,0.5089353717760386,712.0,0.45,200
40.3,1.2,0.49477200697830603,1200.0,0.35,300
38.7,1.1,0.5089612306724246,1717.0,0.4,400
38.1,0.8,0.4964907952502352,2172.0,0.2,500
42.7,1.3,0.49338831753438217,2579.0,0.2,600
37.4,0.9,0.4961757453071633,3026.0,0.35,700
38.65,0.9,0.4975751130441807,3373.0,0.4,800
36.1,0.65,0.48267475567927065,3754.0,0.2,900
38.55,0.9,0.50665808686728,4074.0,0.25,1000
43.65,1.35,0.49080342396351756,4403.0,0.2,1100
43.55,1.55,0.5047041549077781,4787.0,0.25,1200
46.4,1.7,0.4973552470201973,5112.0,0.2,1300
42.6,1.5,0.5064830534343081,5476.0,0.4,1400
43.05,1.85,0.5151294918569697,5808.0,0.3,1500
42.15,1.4,0.4736787533321487,6100.0,0.4,1600
42.65,1.5,0.5261170943784941,6401.0,0.25,1700
47.7,1.8,0.5217480470519343,6695.0,0.2,1800
46.65,2.15,0.5074246048270796,7044.0,0.5,1900
42.95,1.55,0.53327413232714,7377.0,0.45,2000
37.35,1.05,0.5156034973470055,7675.0,0.35,2100
42.25,1.3,0.5147268533081764,7936.0,0.3,2200
36.55,1.0,0.5042775594302211,8206.0,0.45,2300
44.05,1.5,0.5053524784277019,8464.0,0.2,2400
41.35,1.35,0.4996969193881779,8725.0,0.4,2500
44.7,1.75,0.5420655267052156,9020.0,0.25,2600
40.65,1.25,0.48917619166728843,9310.0,0.3,2700
37.6,1.05,0.5024889798058971,9567.0,0.35,2800
42.8,1.75,0.5345979695853045,9805.0,0.45,2900
41.15,1.45,0.5221713644097312,10063.0,0.4,3000
35.9,0.8,0.48561209961899177,94.0,0.4,100
43.25,1.35,0.5164434207716301,712.0,0.15,200
38.1,0.95,0.4927663503761104,1308.0,0.3,300
39.2,1.05,0.5209127814813304,1776.0,0.4,400
39.6,1.1,0.5203833828426876,2220.0,0.35,500
37.25,0.85,0.49380880017699474,2658.0,0.15,600
44.15,1.6,0.5287550371450008,3064.0,0.3,700
34.8,0.9,0.5175719748850014,3491.0,0.55,800
42.25,1.45,0.5290931957221339,3802.0,0.15,900
45.6,1.7,0.53192715072433,4182.0,0.3,1000
47.75,1.85,0.5203346918821652,4550.0,0.15,1100
43.95,1.5,0.508299660628155,4920.0,0.3,1200
40.35,1.35,0.5201636872994558,5256.0,0.4,1300
43.9,1.65,0.5077033699040949,5604.0,0.35,1400
39.2,1.1,0.49533841601348716,5937.0,0.35,1500
37.2,0.9,0.5001090012270764,6211.0,0.3,1600
39.05,1.2,0.4984269735417336,6471.0,0.45,1700
40.5,1.45,0.5026390614204456,6752.0,0.55,1800
41.05,1.35,0.48570584851553295,7068.0,0.35,1900
41.6,1.4,0.5321859157916912,7330.0,0.35,2000
47.0,1.75,0.5204815162161638,7600.0,0.15,2100
50.5,2.3,0.5315475580429545,7877.0,0.25,2200
39.65,1.3,0.5127942448767736,8213.0,0.4,2300
45.95,1.7,0.5130848566570863,8492.0,0.15,2400
51.35,2.2,0.5235353914311691,8783.0,0.35,2500
42.5,1.5,0.4973013320724813,9129.0,0.4,2600
44.35,1.75,0.5058029480835466,9405.0,0.3,2700
45.5,1.95,0.5481068613455864,9673.0,0.25,2800
49.55,2.25,0.529117788102405,9960.0,0.2,2900
41.1,1.45,0.5164065335869072,10283.0,0.55,3000
35.9,0.8,0.48561209961899177,94.0,0.4,100
36.7,0.8,0.5144826312255586,711.0,0.35,200
37.5,1.0,0.4826463092999055,1231.0,0.5,300
43.05,1.5,0.5169469508705349,1725.0,0.25,400
37.25,1.0,0.49576250963092566,2225.0,0.55,500
42.25,1.35,0.4972467824518033,2649.0,0.3,600
44.45,1.5,0.5069358057299014,3099.0,0.15,700
38.05,0.85,0.4944545556470514,3511.0,0.3,800
42.2,1.45,0.5135158847446595,3845.0,0.25,900
40.4,1.3,0.527335943224986,4207.0,0.25,1000
49.15,2.0,0.5327510516378782,4549.0,0.2,1100
37.65,0.8,0.48548472038803014,4936.0,0.25,1200
42.3,1.25,0.4930991435633462,5239.0,0.15,1300
44.5,1.75,0.5108012810895276,5546.0,0.35,1400
42.7,1.65,0.5027942767612891,5895.0,0.3,1500
47.05,1.75,0.5147566324745854,6208.0,0.15,1600
40.85,1.35,0.51991204115905,6544.0,0.4,1700
41.55,1.65,0.5083610100278808,6841.0,0.4,1800
48.55,1.95,0.513140058302235,7158.0,0.15,1900
41.25,1.4,0.5210926976317032,7487.0,0.3,2000
37.1,1.1,0.5095268105062003,7769.0,0.25,2100
40.5,1.4,0.5189251539220742,8018.0,0.4,2200
42.0,1.35,0.5091246292366014,8260.0,0.3,2300
44.0,1.65,0.5141084752458425,8542.0,0.2,2400
45.8,2.1,0.5553838071432875,8811.0,0.45,2500
45.5,1.75,0.5243461556350251,9109.0,0.35,2600
41.95,1.5,0.5194524251892018,9380.0,0.35,2700
49.9,2.15,0.5269836648670805,9638.0,0.15,2800
36.8,1.05,0.5214785732659242,9913.0,0.4,2900
43.1,1.55,0.5113451166108083,10166.0,0.35,3000
38.3,0.85,0.5169604318872371,89.0,0.2,100
39.45,1.1,0.4937490238776066,723.0,0.25,200
41.95,1.2,0.5063376625242333,1255.0,0.2,300
38.3,1.1,0.502816128358736,1772.0,0.25,400
41.45,1.5,0.5031196739605017,2216.0,0.55,500
37.55,1.0,0.4653448718512795,2685.0,0.55,600
40.4,1.35,0.5125716407434,3088.0,0.35,700
40.05,1.15,0.5193415714495723,3485.0,0.25,800
42.05,1.3,0.49367209381983274,3859.0,0.15,900
41.6,1.55,0.5219170234559839,4256.0,0.6,1000
36.85,0.95,0.47874905330881196,4590.0,0.45,1100
38.6,1.0,0.4928281117773564,4906.0,0.35,1200
46.15,2.1,0.5232027691479295,5225.0,0.45,1300
37.4,1.05,0.5259433302489753,5582.0,0.45,1400
38.9,1.15,0.5106878528375869,5889.0,0.45,1500
39.6,1.2,0.5127035415480602,6159.0,0.3,1600
37.1,0.95,0.4872058949794516,6436.0,0.55,1700
41.4,1.5,0.49825285465530333,6709.0,0.35,1800
41.9,1.3,0.5118173031634653,7012.0,0.35,1900
42.2,1.45,0.5063922316943245,7326.0,0.35,2000
45.55,1.75,0.5231093662436805,7611.0,0.25,2100
43.8,1.75,0.5262332746640832,7919.0,0.55,2200
46.3,2.05,0.5244628923850819,8229.0,0.35,2300
49.0,2.05,0.5219042243554577,8518.0,0.1,2400
44.2,1.6,0.5251908743125557,8832.0,0.35,2500
40.0,1.5,0.5447299264472524,9123.0,0.45,2600
43.0,1.45,0.5150124558695456,9391.0,0.3,2700
51.75,2.3,0.5109237722937793,9634.0,0.35,2800
43.8,1.65,0.4958699713355477,9959.0,0.35,2900
45.35,1.6,0.5059749789950767,10221.0,0.05,3000
40.4,1.15,0.5121237310838895,94.0,0.4,100
42.25,1.3,0.514914661147224,764.0,0.25,200
43.0,1.6,0.5249167463569842,1316.0,0.45,300
43.4,1.45,0.5274584671824558,1856.0,0.25,400
37.1,0.95,0.4910057669361899,2351.0,0.5,500
45.1,1.6,0.513366255000584,2743.0,0.3,600
40.6,1.2,0.499977506632238,3184.0,0.35,700
39.8,1.3,0.5137308345391822,3595.0,0.3,800
41.5,1.15,0.49020154662521787,3955.0,0.25,900
38.75,1.1,0.51170576841277,4321.0,0.35,1000
40.7,1.1,0.5055453803811921,4648.0,0.2,1100
42.25,1.4,0.5108397668120065,4991.0,0.25,1200
51.75,2.7,0.5347357908116869,5330.0,0.35,1300
42.55,1.4,0.5126055026295255,5735.0,0.25,1400
47.45,2.05,0.4957265589187996,6054.0,0.15,1500
42.2,1.3,0.4631464483356168,6386.0,0.25,1600
49.5,2.3,0.5267808274869681,6692.0,0.5,1700
40.4,1.25,0.5100456251727353,7039.0,0.4,1800
48.75,2.1,0.5242082083103332,7309.0,0.25,1900
40.8,1.5,0.5234875645492421,7616.0,0.35,2000
42.85,1.8,0.5220732076354172,7874.0,0.65,2100
47.85,2.05,0.5194567340841648,8197.0,0.05,2200
43.9,1.7,0.4995289152061713,8508.0,0.4,2300
47.15,1.85,0.488721104154783,8777.0,0.3,2400
43.05,1.9,0.5318295286907206,9102.0,0.6,2500
46.5,1.95,0.543164673425603,9394.0,0.5,2600
40.65,1.3,0.5067565297492723,9669.0,0.45,2700
41.65,1.6,0.5156239989118617,9912.0,0.5,2800
48.65,2.05,0.5192558275502612,10178.0,0.3,2900
42.0,1.35,0.520272503925699,10472.0,0.2,3000
41.1,1.1,0.5187755797376422,97.0,0.15,100
40.75,1.1,0.5120607484583386,777.0,0.15,200
38.5,1.3,0.49507556935376495,1304.0,0.45,300
39.95,0.9,0.49925742389008654,1792.0,0.15,400
41.7,1.55,0.5320939651700807,2234.0,0.4,500
35.8,0.85,0.500734624618968,2696.0,0.45,600
39.55,1.15,0.5140341396945416,3076.0,0.3,700
38.0,0.75,0.49304613766827077,3488.0,0.15,800
45.1,1.95,0.5044981772774926,3806.0,0.4,900
45.75,1.8,0.5339112860059128,4223.0,0.25,1000
44.45,1.65,0.5290423140790683,4583.0,0.2,1100
43.35,1.4,0.5058337481568774,4948.0,0.1,1200
45.15,1.4,0.49409599154112077,5289.0,0.05,1300
41.15,1.7,0.532731469201832,5627.0,0.4,1400
45.1,1.8,0.5172260747907212,5941.0,0.35,1500
44.65,1.5,0.5039240886289326,6254.0,0.25,1600
43.9,1.5,0.5433011911168091,6561.0,0.3,1700
43.3,1.7,0.5048172605582404,6878.0,0.35,1800
39.45,0.95,0.48720070196943654,7195.0,0.2,1900
44.8,1.8,0.5312834573573733,7473.0,0.35,2000
43.35,1.25,0.5065201834033403,7758.0,0.1,2100
42.15,1.35,0.5094234498047047,8056.0,0.3,2200
39.45,1.2,0.4932265708239291,8342.0,0.3,2300
44.35,1.65,0.5137081976055919,8620.0,0.35,2400
43.25,1.55,0.527367663525434,8914.0,0.3,2500
45.05,1.75,0.5346476756691356,9214.0,0.3,2600
39.7,1.3,0.520222053268031,9515.0,0.4,2700
44.75,1.55,0.5327850090089605,9766.0,0.2,2800
42.7,1.85,0.5357380585372067,10029.0,0.5,2900
41.5,1.4,0.5168483646915121,10301.0,0.4,3000
35.9,0.8,0.48561209961899177,94.0,0.4,100
35.25,0.8,0.5089353717760386,712.0,0.45,200
40.3,1.2,0.49477200697830603,1200.0,0.35,300
39.2,1.0,0.5026424665766436,1731.0,0.35,400
45.4,1.65,0.519001781374236,2204.0,0.2,500
38.5,1.1,0.5248719670728735,2691.0,0.25,600
34.85,1.05,0.5185226099050937,3091.0,0.6,700
43.05,1.35,0.5095035028444549,3425.0,0.25,800
36.15,0.85,0.5015524752426604,3824.0,0.45,900
42.65,1.45,0.5331118452012151,4166.0,0.25,1000
41.15,1.35,0.513724659561624,4527.0,0.3,1100
40.75,1.1,0.506156319803104,4872.0,0.25,1200
40.55,1.35,0.5111942734235954,5204.0,0.4,1300
35.7,0.55,0.4939434997289972,5522.0,0.2,1400
44.3,1.7,0.5009644235640062,5793.0,0.3,1500
44.45,1.4,0.5176797507722797,6104.0,0.2,1600
45.7,1.7,0.51063500342403,6437.0,0.2,1700
41.85,1.25,0.5114335776520014,6745.0,0.35,1800
45.55,1.8,0.4919830179064366,7021.0,0.25,1900
43.35,1.4,0.5220404172773284,7340.0,0.1,2000
47.65,2.2,0.5311329923747452,7619.0,0.45,2100
47.7,2.0,0.5329873754897679,7942.0,0.15,2200
42.0,1.3,0.49884841984798545,8270.0,0.15,2300
40.35,1.1,0.5050393522307484,8532.0,0.1,2400
44.15,1.55,0.5235350291880483,8777.0,0.2,2500
47.1,2.05,0.5359812866549577,9053.0,0.4,2600
41.55,1.55,0.5031672448927752,9368.0,0.35,2700
42.9,1.75,0.5076016829962856,9604.0,0.65,2800
45.5,1.85,0.5260688755957711,9861.0,0.4,2900
40.15,1.1,0.5007475025273789,10137.0,0.3,3000
39.75,0.95,0.4972006460100763,96.0,0.3,100
39.65,1.1,0.5033218879216564,762.0,0.4,200
38.5,0.75,0.5015501685420383,1304.0,0.2,300
36.0,0.7,0.49292275311645223,1735.0,0.3,400
35.65,0.75,0.48866943005335334,2171.0,0.55,500
40.55,1.1,0.5168636374351967,2569.0,0.25,600
41.1,1.15,0.5225766897115613,3013.0,0.15,700
36.85,0.9,0.49756669504416695,3409.0,0.45,800
35.15,0.85,0.501124101373792,3746.0,0.45,900
39.4,1.1,0.5025712541825709,4076.0,0.3,1000
41.35,1.4,0.5297409842060745,4404.0,0.3,1100
42.35,1.5,0.5011559363881591,4752.0,0.4,1200
46.85,1.75,0.4954872974249748,5095.0,0.25,1300
46.8,2.0,0.5239242457937849,5453.0,0.45,1400
47.8,2.1,0.5335602837624843,5834.0,0.3,1500
40.8,1.4,0.5296478079306146,6174.0,0.4,1600
40.25,1.1,0.5038375921599596,6478.0,0.3,1700
43.7,1.6,0.5104435180676088,6799.0,0.4,1800
35.45,0.9,0.4943331532176007,7090.0,0.45,1900
43.35,1.8,0.5316129137291973,7337.0,0.3,2000
41.3,1.35,0.5055931328970222,7631.0,0.35,2100
42.2,1.35,0.49393725779908115,7886.0,0.35,2200
38.35,1.05,0.48587575333493466,8175.0,0.35,2300
49.65,2.2,0.5233779085162428,8451.0,0.3,2400
48.5,2.2,0.5340329777472409,8756.0,0.3,2500
47.65,2.0,0.5133614385862787,9082.0,0.3,2600
47.05,2.25,0.5335059613187446,9370.0,0.35,2700
47.1,1.9,0.5211968820077069,9657.0,0.15,2800
42.5,1.4,0.5032378291500264,9906.0,0.25,2900
46.05,1.85,0.5253511703991448,10187.0,0.3,3000
35.9,0.8,0.48561209961899177,94.0,0.4,100
35.25,0.8,0.5089353717760386,712.0,0.45,200
36.25,0.75,0.5042249132995357,1195.0,0.35,300
40.8,1.05,0.5069297855043524,1670.0,0.1,400
37.75,0.85,0.49813566261168624,2124.0,0.2,500
44.55,1.45,0.5265461535059522,2524.0,0.1,600
43.65,1.5,0.516697963146828,2978.0,0.1,700
40.2,1.25,0.4983618029572612,3400.0,0.4,800
37.3,0.75,0.5201524513707404,3761.0,0.25,900
39.15,0.95,0.5178381994747918,4089.0,0.3,1000
43.1,1.3,0.49159375028204294,4420.0,0.1,1100
42.6,1.35,0.5261334542366386,4780.0,0.2,1200
42.35,1.3,0.516710124240545,5128.0,0.15,1300
50.55,2.05,0.5115156849794587,5458.0,0.1,1400
41.5,1.25,0.48873821406594314,5837.0,0.25,1500
38.1,0.8,0.5152381674288824,6145.0,0.1,1600
42.35,1.5,0.5173513981275647,6422.0,0.35,1700
41.4,1.65,0.5109231908047713,6732.0,0.6,1800
44.2,1.7,0.5165625389144216,7053.0,0.25,1900
46.7,2.05,0.5290720352733144,7361.0,0.45,2000
43.15,1.75,0.5097705382577804,7678.0,0.45,2100
38.65,1.15,0.49798263802832504,7970.0,0.4,2200
48.05,1.95,0.494460006964598,8227.0,0.25,2300
45.5,1.75,0.5340359769026025,8528.0,0.35,2400
38.45,1.0,0.49033475080352673,8804.0,0.35,2500
43.0,1.5,0.5227087476962964,9036.0,0.3,2600
52.1,2.55,0.5223310628246913,9307.0,0.2,2700
48.8,2.2,0.508863366829212,9620.0,0.4,2800
44.55,1.7,0.5140575097540513,9908.0,0.35,2900
48.5,2.2,0.5483395623083556,10178.0,0.2,3000
42.7,1.35,0.5134298408254911,92.0,0.4,100
37.0,0.8,0.5147723452404267,775.0,0.45,200
39.85,1.15,0.5058857254965556,1302.0,0.1,300
37.45,0.9,0.5021952633406428,1754.0,0.25,400
40.15,1.2,0.5251081055622906,2189.0,0.3,500
37.6,1.15,0.5106514491738123,2621.0,0.6,600
39.2,0.95,0.5103249284406537,3041.0,0.2,700
37.9,0.95,0.5201152568545533,3389.0,0.5,800
40.15,1.1,0.49398589090538636,3715.0,0.3,900
40.9,1.15,0.5148325502461744,4078.0,0.35,1000
39.2,0.95,0.5173989404430049,4427.0,0.35,1100
42.9,1.4,0.49982573086680065,4770.0,0.15,1200
44.05,1.55,0.5223925078547429,5101.0,0.2,1300
41.85,1.2,0.5056727824716634,5441.0,0.05,1400
41.1,1.3,0.5342974616434104,5793.0,0.45,1500
43.55,1.45,0.5101437694683978,6076.0,0.2,1600
41.9,1.4,0.5084737713465897,6370.0,0.4,1700
43.95,1.45,0.488781568361361,6681.0,0.2,1800
40.85,1.2,0.5264193384455109,6983.0,0.25,1900
39.25,1.1,0.5039587545253543,7258.0,0.35,2000
43.65,1.6,0.5161642510379343,7517.0,0.25,2100
41.1,1.3,0.4831315960644419,7784.0,0.25,2200
46.15,1.85,0.5177455855687351,8069.0,0.25,2300
46.7,1.8,0.49354569366452344,8367.0,0.3,2400
43.45,1.55,0.5178397168531709,8659.0,0.3,2500
45.05,1.65,0.5231587989853166,8964.0,0.2,2600
44.15,1.55,0.5262064965247576,9262.0,0.2,2700
41.25,1.6,0.5179077007765371,9531.0,0.55,2800
41.4,1.5,0.5183341693397964,9775.0,0.35,2900
43.9,1.55,0.5278233481191617,10048.0,0.25,3000
37.2,0.85,0.5135583343233904,92.0,0.4,100
42.85,1.3,0.4988916395774218,732.0,0.15,200
40.3,1.2,0.46879652576076347,1304.0,0.5,300
38.95,1.1,0.49969128524964723,1809.0,0.35,400
38.7,0.95,0.49168684844994015,2256.0,0.2,500
43.9,1.5,0.5239925158388198,2673.0,0.25,600
44.4,1.5,0.5300727513460154,3126.0,0.15,700
50.3,2.25,0.5309276747668941,3557.0,0.15,800
41.5,1.35,0.5053236698244985,4002.0,0.25,900
45.4,1.85,0.523235381880444,4376.0,0.25,1000
44.05,1.5,0.5413121700877449,4720.0,0.35,1100
41.2,1.2,0.5209118820036702,5078.0,0.2,1200
42.1,1.4,0.5227442332610848,5406.0,0.3,1300
42.05,1.55,0.5177630425111339,5748.0,0.35,1400
43.45,1.55,0.544996536648412,6063.0,0.2,1500
40.75,1.2,0.5040746004853711,6371.0,0.4,1600
40.15,1.1,0.5178152107950538,6678.0,0.4,1700
41.3,1.2,0.4906161489372627,6986.0,0.3,1800
43.15,1.35,0.5135743327441082,7255.0,0.25,1900
46.05,1.65,0.5125417806106868,7516.0,0.25,2000
40.15,1.2,0.49982436758376203,7796.0,0.3,2100
46.25,2.0,0.5221196293402098,8063.0,0.4,2200
40.1,1.4,0.5235036161263098,8390.0,0.5,2300
45.7,1.85,0.5111601048951762,8649.0,0.3,2400
37.45,1.1,0.5095351522446643,8957.0,0.35,2500
47.8,2.35,0.5364347228211609,9193.0,0.45,2600
41.7,1.3,0.5011933165410353,9497.0,0.25,2700
48.75,1.9,0.5059856067769891,9766.0,0.3,2800
47.75,1.95,0.4990411485047604,10063.0,0.2,2900
43.0,1.45,0.518124320756628,10368.0,0.25,3000
40.6,1.3,0.5142405695932986,96.0,0.45,100
40.0,1.1,0.514454357352083,754.0,0.35,200
36.1,0.85,0.5342296719359692,1310.0,0.35,300
40.5,1.15,0.5176645336991756,1744.0,0.3,400
35.55,0.65,0.4872273758865601,2210.0,0.3,500
40.55,1.25,0.5146810151303509,2594.0,0.2,600
42.45,1.4,0.5050875387806532,3028.0,0.3,700
38.9,1.1,0.4810793714368769,3462.0,0.5,800
42.8,1.85,0.5021510847925209,3821.0,0.6,900
43.8,1.55,0.5054414736526799,4216.0,0.3,1000
43.05,1.6,0.5135950097182211,4555.0,0.5,1100
39.65,1.15,0.5072222102631592,4899.0,0.3,1200
40.55,1.2,0.49551054113264764,5214.0,0.3,1300
41.05,1.45,0.5109558707914105,5527.0,0.4,1400
47.65,2.0,0.5209707358626623,5872.0,0.35,1500
42.6,1.6,0.5200398933006907,6231.0,0.25,1600
44.35,1.55,0.5069824687821142,6550.0,0.2,1700
43.5,1.3,0.49003257993138244,6880.0,0.15,1800
40.0,1.2,0.4993773934752637,7193.0,0.25,1900
45.2,1.8,0.5157530366489789,7496.0,0.4,2000
42.0,1.4,0.4976513086887146,7808.0,0.3,2100
41.2,1.25,0.499292603415324,8103.0,0.25,2200
45.2,1.5,0.4994435105251175,8394.0,0.1,2300
48.05,2.05,0.495852607944944,8675.0,0.25,2400
42.8,1.2,0.5159677832681839,8978.0,0.1,2500
41.7,1.1,0.5121972612490481,9255.0,0.2,2600
44.0,1.85,0.5107339756705757,9520.0,0.5,2700
47.7,2.05,0.5227615878161853,9784.0,0.35,2800
46.85,2.2,0.5203947618263558,10076.0,0.5,2900
43.45,1.65,0.5232889535262867,10393.0,0.4,3000
40.45,1.1,0.5211200004802732,96.0,0.25,100
41.9,1.2,0.5001734475934356,783.0,0.05,200
34.4,0.65,0.5009590692294729,1346.0,0.3,300
37.45,0.85,0.5194277073443212,1780.0,0.35,400
38.2,1.15,0.4982855460996364,2220.0,0.5,500
40.5,1.15,0.5082529835058993,2627.0,0.25,600
40.0,1.1,0.5159246069668642,3030.0,0.2,700
38.35,1.25,0.5224660705272756,3420.0,0.65,800
43.25,1.55,0.5455074711478172,3758.0,0.2,900
38.7,1.4,0.4984268995416796,4171.0,0.55,1000
41.75,1.5,0.5186539232730737,4502.0,0.4,1100
45.05,1.95,0.513921044616166,4840.0,0.4,1200
41.2,1.2,0.49757445936986516,5197.0,0.35,1300
43.05,1.7,0.5306840982342806,5527.0,0.45,1400
47.75,2.05,0.5100024090993913,5855.0,0.35,1500
46.9,1.95,0.5264665694844368,6181.0,0.25,1600
40.5,1.15,0.49742708923083867,6498.0,0.35,1700
49.05,2.4,0.5187668784705972,6791.0,0.25,1800
41.15,1.5,0.49478997872425234,7114.0,0.45,1900
43.0,1.6,0.5195319866831928,7370.0,0.25,2000
44.35,1.45,0.5161500397214331,7649.0,0.15,2100
38.95,1.15,0.5109883603116667,7948.0,0.45,2200
51.45,2.7,0.5454287181842629,8201.0,0.35,2300
43.5,1.7,0.5251482798770601,8536.0,0.2,2400
45.15,1.8,0.5164578353028816,8811.0,0.3,2500
42.6,1.55,0.5061097660385917,9110.0,0.3,2600
41.35,1.5,0.5064383037865491,9386.0,0.35,2700
43.55,1.65,0.529815829485432,9655.0,0.5,2800
40.6,1.4,0.5340782265050538,9901.0,0.45,2900
40.6,1.4,0.50168794121987,10145.0,0.45,3000
31.45,0.5,0.48925763937871897,97.0,0.55,100
35.05,0.65,0.4921498900504987,651.0,0.4,200
41.2,1.25,0.48586108741787337,1147.0,0.3,300
39.8,0.95,0.5026543746206145,1654.0,0.25,400
37.75,0.95,0.5386763812501212,2100.0,0.3,500
37.9,1.0,0.5025367943826502,2506.0,0.4,600
36.95,0.75,0.5089724923561894,2936.0,0.25,700
40.3,1.2,0.5175953589923443,3323.0,0.4,800
39.1,1.0,0.5047915602295778,3695.0,0.35,900
37.0,1.2,0.49906962023503815,4077.0,0.55,1000
38.45,1.25,0.5247178840081441,4402.0,0.55,1100
39.9,1.15,0.4992735478892012,4744.0,0.25,1200
40.9,1.45,0.5031387309516339,5097.0,0.55,1300
43.95,1.6,0.4892102023384452,5414.0,0.3,1400
45.3,2.05,0.5138345388744935,5754.0,0.5,1500
38.5,1.25,0.5289000399867965,6113.0,0.5,1600
42.4,1.6,0.5361116771287867,6381.0,0.35,1700
41.75,1.5,0.5018105909624715,6708.0,0.5,1800
41.7,1.45,0.5016353645803262,7012.0,0.5,1900
43.85,1.9,0.5297165753171649,7312.0,0.45,2000
42.1,1.55,0.5342128867504856,7600.0,0.35,2100
43.2,1.6,0.4887402653601282,7869.0,0.45,2200
34.3,0.7,0.5182516074729376,8167.0,0.5,2300
43.15,1.6,0.5400957301729502,8387.0,0.25,2400
42.1,1.3,0.521338960921561,8685.0,0.2,2500
44.4,1.45,0.5187032838424831,8965.0,0.2,2600
46.85,1.9,0.5268317540806118,9258.0,0.3,2700
40.05,1.45,0.5161245481549782,9573.0,0.65,2800
38.8,1.2,0.48970083253575425,9815.0,0.4,2900
40.4,1.55,0.5043280405955385,10058.0,0.45,3000
35.9,0.8,0.48561209961899177,95.0,0.4,100
35.25,0.8,0.5087956658936857,712.0,0.45,200
40.95,1.15,0.4942201822822379,1196.0,0.35,300
35.3,0.65,0.48348346837493994,1710.0,0.45,400
41.15,1.3,0.5228516014007358,2126.0,0.45,500
39.9,1.15,0.5052501721918455,2563.0,0.25,600
41.5,1.4,0.5214268491022583,3003.0,0.35,700
36.45,0.7,0.49115729135006314,3411.0,0.3,800
38.35,1.1,0.5120662302934675,3759.0,0.45,900
39.35,1.0,0.5160121151767888,4149.0,0.1,1000
44.3,1.7,0.5255441468928245,4498.0,0.3,1100
38.6,1.05,0.5080316211017916,4864.0,0.15,1200
38.7,1.15,0.5141745991133297,5176.0,0.35,1300
42.65,1.45,0.5038174038059716,5481.0,0.4,1400
43.4,1.65,0.5449225235703845,5831.0,0.45,1500
41.1,1.45,0.529903861218746,6170.0,0.45,1600
43.55,1.6,0.518568996743591,6470.0,0.4,1700
42.3,1.5,0.52530992687646,6782.0,0.3,1800
45.35,1.75,0.5169136401281411,7067.0,0.3,1900
42.4,1.55,0.5008507176861569,7384.0,0.4,2000
53.25,2.7,0.5403300671191001,7653.0,0.3,2100
37.55,1.0,0.4886083657301241,7983.0,0.35,2200
41.6,1.35,0.49953009169383844,8225.0,0.25,2300
41.4,1.5,0.5224159301871516,8492.0,0.45,2400
46.0,1.9,0.5180012410556569,8761.0,0.15,2500
47.0,2.05,0.5369862516234494,9065.0,0.25,2600
44.6,1.85,0.548613543124298,9366.0,0.25,2700
51.1,2.9,0.530301229915972,9635.0,0.4,2800
47.1,2.35,0.5232493581760584,9948.0,0.5,2900
42.85,1.35,0.5119903300407018,10254.0,0.2,3000
39.4,0.9,0.48258302009736986,96.0,0.2,100
42.95,1.4,0.489082218760046,761.0,0.25,200
42.3,1.3,0.5120535466036947,1335.0,0.2,300
40.45,1.25,0.4954822284662673,1823.0,0.45,400
39.75,1.0,0.4903761080883178,2301.0,0.15,500
36.85,0.9,0.49990956846825074,2732.0,0.4,600
44.1,1.5,0.5090037427363902,3139.0,0.15,700
40.5,1.1,0.5086118755341011,3575.0,0.2,800
39.95,1.1,0.49937692312391696,3920.0,0.35,900
42.9,1.2,0.49866342612889375,4276.0,0.15,1000
40.05,0.9,0.47485417031459864,4632.0,0.15,1100
42.7,1.25,0.5046842567603722,4954.0,0.1,1200
39.65,1.15,0.5138955564214337,5278.0,0.2,1300
35.95,0.8,0.5246074189228583,5577.0,0.4,1400
47.5,1.85,0.5077765213209576,5867.0,0.25,1500
40.75,1.25,0.518173821650409,6219.0,0.4,1600
42.55,1.4,0.5154755834227999,6502.0,0.2,1700
37.95,1.0,0.5098169636026174,6800.0,0.55,1800
43.65,1.6,0.5282763659947377,7058.0,0.25,1900
39.0,1.05,0.5073232880422175,7357.0,0.25,2000
39.05,1.05,0.49142842058229447,7607.0,0.25,2100
42.6,1.55,0.5181353294732499,7851.0,0.25,2200
42.5,1.6,0.4863645160930008,8150.0,0.3,2300
37.7,1.2,0.5314537006221678,8455.0,0.4,2400
40.35,1.35,0.511840345712921,8687.0,0.4,2500
42.2,1.65,0.5411746460090484,8971.0,0.35,2600
45.55,1.55,0.4855606894088016,9261.0,0.15,2700
45.75,1.55,0.5054506592345136,9529.0,0.25,2800
49.8,2.25,0.5155081749400502,9801.0,0.3,2900
38.5,1.25,0.5089607418315147,10129.0,0.3,3000
35.55,0.8,0.478964784206606,94.0,0.45,100
38.25,1.1,0.5086468929961303,712.0,0.35,200
36.25,0.75,0.4798419912830386,1241.0,0.35,300
41.5,1.25,0.5139585028437075,1698.0,0.25,400
42.8,1.45,0.5186010807490558,2152.0,0.25,500
35.45,0.6,0.47599559176143524,2620.0,0.4,600
38.8,1.05,0.47419695309099613,2993.0,0.4,700
43.85,1.5,0.5166903410167667,3380.0,0.2,800
43.85,1.45,0.5107318254578523,3778.0,0.2,900
42.4,1.4,0.5090820129881006,4175.0,0.25,1000
41.8,1.4,0.4796199820373122,4526.0,0.35,1100
36.35,1.1,0.49182753067224205,4869.0,0.6,1200
44.8,1.45,0.4999885344074914,5183.0,0.15,1300
41.55,1.7,0.5251803499193122,5536.0,0.7,1400
42.6,1.65,0.4868744651823661,5852.0,0.45,1500
49.15,2.2,0.5164960746681694,6150.0,0.3,1600
43.1,1.45,0.5361657092386818,6505.0,0.3,1700
49.6,2.35,0.5010978623376781,6819.0,0.2,1800
41.5,1.3,0.5074562868116682,7167.0,0.4,1900
41.5,1.55,0.5255645436167204,7469.0,0.45,2000
45.75,1.9,0.517586290797657,7709.0,0.35,2100
47.65,2.25,0.5259549716003815,8020.0,0.4,2200
43.65,1.35,0.5098416477760236,8334.0,0.25,2300
45.9,1.75,0.5058756020896522,8636.0,0.25,2400
43.3,1.75,0.4995171525936234,8932.0,0.4,2500
43.4,1.4,0.5049039588297435,9211.0,0.35,2600
42.95,1.8,0.5015542290000932,9476.0,0.6,2700
44.9,1.7,0.5134287696577357,9746.0,0.25,2800
43.55,1.75,0.4976778077780989,10023.0,0.45,2900
39.8,1.45,0.470446853536417,10294.0,0.45,3000
