Episode length,Green food,Need,Number of nodes,Red food,Trained episodes
30.9,0.35,0.4939574432431214,40.0,0.0,100
38.0,1.75,0.5079013709003751,54.0,0.65,200
42.6,3.05,0.5434634358083671,63.0,1.35,300
40.75,2.0,0.5186880808231833,78.0,0.4,400
53.2,3.6,0.5519379692281989,89.0,0.4,500
47.3,2.7,0.5435048753808418,95.0,0.25,600
75.65,8.3,0.653651267614268,105.0,0.25,700
60.0,4.65,0.5885067772592236,113.0,0.4,800
67.95,6.9,0.6178349875477074,122.0,0.35,900
74.3,8.8,0.6597164953308268,129.0,0.65,1000
68.35,7.05,0.6096232131749459,132.0,0.65,1100
76.15,7.7,0.614217469992566,133.0,0.55,1200
72.45,6.55,0.6337184079473985,137.0,0.1,1300
75.75,7.8,0.6297511814162225,141.0,0.55,1400
65.85,5.9,0.594479606322678,145.0,0.45,1500
75.2,7.85,0.6432913249744817,149.0,0.4,1600
51.7,3.35,0.5612091133501743,154.0,0.1,1700
77.1,7.4,0.6419082097769668,159.0,0.2,1800
57.4,4.65,0.594251809088916,160.0,0.15,1900
65.3,6.25,0.5943823229774077,163.0,0.25,2000
76.6,7.6,0.6199098584082441,166.0,0.3,2100
73.1,7.3,0.6356481619468929,167.0,0.35,2200
72.2,6.65,0.6021876018518303,167.0,0.35,2300
64.95,5.3,0.5799746621676282,171.0,0.1,2400
77.55,7.75,0.6244384800332167,171.0,0.15,2500
71.3,6.6,0.5960165703929842,172.0,0.1,2600
84.55,9.0,0.6419763334063991,174.0,0.25,2700
86.9,9.55,0.6602576107771094,174.0,0.15,2800
75.8,8.0,0.6228752956268601,175.0,0.25,2900
79.5,8.55,0.6527759633601675,177.0,0.35,3000
34.8,0.9,0.4848674413722696,35.0,0.3,100
36.35,1.0,0.4805372043470106,54.0,0.4,200
45.25,3.1,0.5548983957944469,72.0,0.75,300
49.1,4.25,0.568285631029215,90.0,1.4,400
89.95,11.3,0.7108855562530945,108.0,0.4,500
73.85,6.5,0.6136113892341626,118.0,0.3,600
64.25,5.2,0.5776381288143071,125.0,0.5,700
82.05,9.25,0.6727123587396828,131.0,0.35,800
89.15,9.95,0.6462870977060632,135.0,0.2,900
73.0,7.5,0.6305718526764507,140.0,0.45,1000
84.6,9.6,0.6732835372847064,142.0,0.4,1100
88.05,9.65,0.6641322440347744,147.0,0.55,1200
62.6,6.5,0.6185525864763972,150.0,0.55,1300
80.6,8.7,0.6170648160072351,154.0,0.7,1400
89.6,9.9,0.666154777094435,161.0,0.3,1500
84.35,9.05,0.6617107994683785,165.0,0.5,1600
83.95,9.1,0.6536114654082033,165.0,0.35,1700
84.85,10.1,0.6623418302701654,167.0,0.55,1800
89.95,10.05,0.6796911744630901,167.0,0.35,1900
79.9,7.9,0.6167344736545732,170.0,0.3,2000
78.05,7.4,0.5744665853838654,172.0,0.2,2100
84.4,8.45,0.6446709611009447,172.0,0.45,2200
79.05,7.6,0.6230132955815904,175.0,0.3,2300
85.7,9.3,0.6699593502014084,176.0,0.2,2400
70.8,6.85,0.6429399504829926,179.0,0.3,2500
69.4,6.25,0.576577388463608,183.0,0.5,2600
79.2,7.75,0.62649106284976,188.0,0.3,2700
87.05,9.25,0.6360320049048169,189.0,0.2,2800
68.55,6.65,0.6123867045093172,191.0,0.4,2900
81.35,8.45,0.6360238140694732,191.0,0.4,3000
29.2,0.25,0.48335387582442096,39.0,0.35,100
42.5,1.95,0.5234770028548192,59.0,0.6,200
42.0,2.4,0.545702236206306,77.0,0.9,300
53.5,3.3,0.5489376650812428,93.0,0.05,400
59.1,4.35,0.5714647853463652,115.0,0.0,500
63.25,4.75,0.5565027980008048,126.0,0.1,600
61.1,4.45,0.5893505309965598,137.0,0.0,700
61.1,4.65,0.5610345673776045,143.0,0.25,800
84.3,9.7,0.6545964503809085,152.0,0.35,900
90.85,11.1,0.711844328090811,165.0,0.25,1000
91.2,13.2,0.7506601597476956,171.0,0.4,1100
98.2,13.65,0.7510804519647387,176.0,0.4,1200
84.85,9.4,0.6681761973767557,179.0,0.5,1300
85.8,11.05,0.7229227317951079,185.0,0.25,1400
83.0,10.75,0.6945627122010494,187.0,0.6,1500
81.4,10.3,0.6762844120680506,188.0,0.6,1600
84.7,10.65,0.6929809066024095,189.0,0.45,1700
78.85,9.35,0.6724765939660884,193.0,0.55,1800
92.35,11.9,0.6861474909437498,193.0,0.65,1900
83.45,8.75,0.6240912340837176,194.0,0.4,2000
76.75,8.15,0.6541297006384409,200.0,0.5,2100
87.55,10.3,0.6779205996463485,203.0,0.3,2200
94.85,12.55,0.7334205892618086,206.0,0.4,2300
82.2,8.3,0.639864468120005,209.0,0.25,2400
85.1,10.9,0.7019067825651598,212.0,0.35,2500
93.95,11.8,0.7109296990265692,213.0,0.2,2600
91.4,12.4,0.7507114399270213,214.0,0.4,2700
82.0,9.35,0.6692097735689451,215.0,0.45,2800
72.9,7.95,0.6567757419852558,216.0,0.4,2900
81.3,8.8,0.6654812576073124,216.0,0.3,3000
42.65,2.05,0.5086760878386505,40.0,0.4,100
49.15,3.05,0.5474288568640657,55.0,0.45,200
57.75,3.85,0.5605152948665553,67.0,0.2,300
54.85,3.15,0.530874666425873,82.0,0.0,400
79.5,7.2,0.5981797416769206,93.0,0.0,500
94.7,11.45,0.7048165233237247,109.0,0.05,600
78.9,7.4,0.5806951212208724,112.0,0.3,700
79.3,8.55,0.6582336511318626,120.0,0.1,800
77.1,8.6,0.6653828915849493,129.0,0.55,900
70.2,6.95,0.645813810382222,136.0,0.45,1000
91.35,11.0,0.6846543015679967,139.0,0.15,1100
80.2,8.8,0.6589581087873639,143.0,0.05,1200
95.05,10.7,0.6749918440328333,144.0,0.1,1300
81.6,8.35,0.6366305732668215,152.0,0.05,1400
88.8,9.7,0.6716194660305431,155.0,0.05,1500
84.0,8.8,0.6421375877963615,160.0,0.05,1600
90.35,9.85,0.6500916699560532,164.0,0.45,1700
76.55,7.45,0.6402402513235347,164.0,0.4,1800
73.05,6.8,0.602922032010375,165.0,0.25,1900
83.7,9.15,0.6671772344832496,166.0,0.35,2000
83.65,9.2,0.6628480540890698,169.0,0.15,2100
86.25,9.3,0.6449433401267881,171.0,0.0,2200
84.7,8.85,0.6415620976531515,174.0,0.2,2300
89.5,9.9,0.6698896533472043,177.0,0.15,2400
86.65,9.3,0.6491478070997613,180.0,0.2,2500
75.85,7.7,0.6456003610509962,184.0,0.2,2600
84.75,8.7,0.6336453618653681,186.0,0.35,2700
80.05,8.0,0.6055988081008014,187.0,0.3,2800
83.65,8.1,0.6221345273265382,187.0,0.15,2900
74.2,6.6,0.5968956482676491,192.0,0.35,3000
37.6,1.1,0.5068621434969747,38.0,0.2,100
35.0,0.95,0.48497114690890486,53.0,0.15,200
45.4,2.75,0.5486709583071703,73.0,0.45,300
39.65,1.65,0.5330619624247772,89.0,0.2,400
60.15,4.1,0.539934889968759,97.0,0.1,500
73.5,6.65,0.6179577544848125,102.0,0.2,600
80.15,7.9,0.6183810201339719,112.0,0.0,700
91.15,9.1,0.638753933098367,118.0,0.0,800
74.25,6.1,0.5692845792592092,123.0,0.0,900
84.4,8.55,0.6388749942245202,127.0,0.0,1000
69.7,6.4,0.6052953044422966,131.0,0.1,1100
76.15,6.95,0.6376760363052671,133.0,0.0,1200
66.75,4.95,0.5583477285108718,135.0,0.1,1300
71.3,6.1,0.5843122703550492,138.0,0.15,1400
64.55,4.65,0.5491987182968241,139.0,0.05,1500
66.2,5.45,0.5730403766627578,141.0,0.1,1600
65.45,5.25,0.593174364264662,143.0,0.1,1700
59.7,4.05,0.5345926466922624,146.0,0.05,1800
78.9,7.05,0.6004755421972707,147.0,0.05,1900
64.2,5.05,0.55843281503838,147.0,0.1,2000
71.6,6.2,0.5598796482915647,150.0,0.05,2100
68.3,5.2,0.5623375302213078,151.0,0.05,2200
75.55,6.6,0.6017300617616475,152.0,0.1,2300
83.95,8.0,0.6003034689727123,156.0,0.0,2400
71.15,5.7,0.5678008254496074,157.0,0.0,2500
77.7,7.45,0.6370596436427864,157.0,0.0,2600
87.7,7.85,0.619052226932354,160.0,0.0,2700
75.95,6.7,0.577042159293613,163.0,0.0,2800
80.15,7.2,0.5709280238922073,168.0,0.0,2900
74.6,6.2,0.5545300020643622,170.0,0.05,3000
39.25,1.3,0.5141991616841219,40.0,0.15,100
42.3,1.8,0.5241781580606457,61.0,0.1,200
42.25,1.85,0.504445929388144,80.0,0.1,300
62.2,4.15,0.537420437997237,94.0,0.0,400
56.85,4.1,0.5633474772697786,103.0,0.25,500
73.7,7.25,0.6058451882707482,114.0,0.15,600
87.65,10.3,0.7030588328098222,130.0,0.15,700
92.45,11.8,0.7275568262987009,142.0,0.05,800
93.9,11.55,0.7024041544077583,148.0,0.15,900
90.45,13.0,0.7286374999999996,156.0,0.45,1000
83.55,9.4,0.6814376363571226,157.0,0.55,1100
88.55,11.1,0.7047162046796462,160.0,0.6,1200
78.45,8.15,0.6254760776690528,161.0,0.6,1300
87.85,10.0,0.627541294908012,165.0,0.55,1400
70.15,6.65,0.6310575100406595,170.0,0.15,1500
68.85,6.6,0.6204454879350665,170.0,0.3,1600
83.2,8.95,0.6735662497560102,176.0,0.15,1700
83.7,8.05,0.6055993676655532,180.0,0.05,1800
83.65,8.55,0.6396503216604189,182.0,0.05,1900
81.35,8.5,0.6660369273530435,184.0,0.05,2000
78.8,7.8,0.6099858206918993,185.0,0.0,2100
83.3,8.75,0.6262552381322802,187.0,0.15,2200
83.55,9.7,0.6784841205516179,191.0,0.1,2300
75.75,6.65,0.60272963622796,193.0,0.2,2400
84.15,8.45,0.6080519914889801,196.0,0.15,2500
68.4,5.7,0.5955431829525357,197.0,0.1,2600
85.3,8.85,0.6193590577182776,199.0,0.15,2700
94.85,11.1,0.6940011683870836,202.0,0.25,2800
85.2,9.15,0.6569726782033806,203.0,0.1,2900
83.35,9.05,0.6367765804303327,206.0,0.25,3000
32.95,0.7,0.48793948394029546,37.0,0.25,100
32.95,0.95,0.49116018474028345,49.0,0.5,200
35.15,0.75,0.5038423149438354,66.0,0.0,300
41.3,1.55,0.5175629082654968,86.0,0.0,400
62.35,4.7,0.5771085995855487,97.0,0.0,500
47.1,2.45,0.5444932165435442,104.0,0.05,600
66.25,4.95,0.574599179056224,113.0,0.1,700
85.4,9.1,0.6631832484477146,124.0,0.0,800
84.65,8.5,0.6104145164808609,132.0,0.05,900
82.8,8.1,0.6155569711764677,139.0,0.15,1000
86.0,9.1,0.6319351221839784,143.0,0.1,1100
85.9,9.25,0.65579077861684,150.0,0.2,1200
83.1,9.45,0.6571658749212876,154.0,0.2,1300
88.75,9.8,0.6734822359371526,158.0,0.2,1400
71.65,6.9,0.633687257639369,160.0,0.4,1500
82.6,8.3,0.6443087521175749,162.0,0.35,1600
83.7,9.2,0.6888838654561643,166.0,0.15,1700
81.7,7.85,0.6276017563650113,170.0,0.15,1800
67.85,6.45,0.6039792271486844,173.0,0.1,1900
79.7,7.2,0.6180354632861607,173.0,0.15,2000
70.85,5.9,0.5880029154036079,176.0,0.2,2100
86.85,9.0,0.6172984797495685,178.0,0.25,2200
69.65,6.0,0.5669502118656627,179.0,0.3,2300
73.85,6.6,0.5919368213597191,180.0,0.2,2400
81.3,7.5,0.6025805355398357,185.0,0.1,2500
71.9,6.7,0.6115108974890235,186.0,0.3,2600
81.75,8.2,0.6228224706505578,188.0,0.1,2700
78.65,7.8,0.6276164441722505,188.0,0.4,2800
72.95,7.05,0.6013622893020703,191.0,0.45,2900
67.85,5.95,0.6046734391092078,194.0,0.45,3000
43.6,1.55,0.5081187717266663,40.0,0.1,100
42.9,2.25,0.548705154758022,54.0,0.5,200
39.85,1.7,0.5184756716216461,71.0,0.25,300
57.4,4.7,0.568734740985218,88.0,0.35,400
41.5,1.8,0.5380512414863534,101.0,0.15,500
76.8,8.1,0.6486542006009859,108.0,0.6,600
78.25,9.05,0.6364068216526609,120.0,1.05,700
90.95,11.2,0.6851060629477249,139.0,0.45,800
98.8,16.2,0.8063892105263155,148.0,0.4,900
98.4,15.05,0.7736792647058821,156.0,0.5,1000
98.65,15.0,0.7785584589041092,162.0,0.65,1100
86.0,12.4,0.7641799267399264,167.0,0.4,1200
91.95,13.65,0.7538370902991215,174.0,0.7,1300
94.3,15.25,0.782228946759259,178.0,0.65,1400
95.8,14.4,0.7610299155241653,181.0,0.7,1500
85.7,13.3,0.7502613378903112,188.0,0.8,1600
95.25,15.05,0.7887701560232219,190.0,0.7,1700
92.55,14.5,0.7647263536553859,195.0,1.05,1800
94.6,15.4,0.761814022079615,201.0,1.6,1900
94.15,14.65,0.7601133792653536,204.0,1.55,2000
81.7,12.45,0.7415849963924962,209.0,1.05,2100
94.2,15.35,0.7675985078909611,214.0,1.1,2200
88.95,12.8,0.7430401575877208,217.0,1.2,2300
96.75,15.7,0.7863553289473681,219.0,0.8,2400
86.8,12.45,0.7185396481374805,223.0,0.8,2500
91.9,14.5,0.7837430324370463,225.0,0.7,2600
92.2,14.25,0.7465295673076922,230.0,0.95,2700
96.25,14.35,0.7734078591747557,230.0,1.0,2800
94.55,15.45,0.7832964726064955,231.0,0.8,2900
98.15,15.7,0.7984895238095235,235.0,0.9,3000
35.65,1.0,0.5133579788314762,37.0,0.3,100
42.95,2.4,0.5388541341934613,53.0,0.6,200
61.0,4.25,0.5710938437705619,67.0,0.2,300
61.0,4.65,0.5658271997417674,78.0,0.05,400
58.45,3.95,0.5573246448136351,94.0,0.0,500
56.35,3.85,0.5674313190248816,101.0,0.0,600
73.9,6.35,0.5925245975849347,104.0,0.1,700
69.6,6.0,0.5810196732923472,108.0,0.05,800
71.4,6.0,0.5733577193314576,114.0,0.05,900
75.55,7.0,0.620642822626744,116.0,0.05,1000
60.85,4.3,0.5402914678444999,119.0,0.1,1100
60.45,4.3,0.5538566572659295,121.0,0.15,1200
51.8,3.5,0.5389715105989686,124.0,0.05,1300
78.35,6.6,0.565807214868739,128.0,0.35,1400
77.2,7.35,0.6023134998281782,130.0,0.1,1500
63.05,5.65,0.592402878239078,131.0,0.25,1600
65.25,5.35,0.5876731235268758,132.0,0.1,1700
75.55,6.5,0.5799513369116319,135.0,0.05,1800
73.9,6.4,0.5717598647629036,136.0,0.1,1900
61.4,4.9,0.5655423380106369,137.0,0.15,2000
71.05,6.4,0.5909841066884255,140.0,0.15,2100
74.95,6.7,0.5720592911779467,142.0,0.2,2200
80.5,8.0,0.626374186973969,143.0,0.15,2300
67.65,6.2,0.5855964226233488,144.0,0.5,2400
90.45,10.0,0.6486150062447179,147.0,0.4,2500
64.4,4.8,0.5451745413010582,149.0,0.4,2600
55.7,3.95,0.5437435891158849,152.0,0.15,2700
58.1,3.7,0.5349489589505945,154.0,0.15,2800
81.15,7.9,0.6094859177296742,159.0,0.1,2900
73.65,6.75,0.5912641798598525,161.0,0.3,3000
34.9,0.85,0.48633399019303153,41.0,0.3,100
54.15,4.3,0.5757939153218664,57.0,0.4,200
63.25,4.85,0.5842622012400491,77.0,0.1,300
55.25,4.1,0.554638642412873,92.0,0.55,400
49.25,2.95,0.5389401900724999,99.0,0.15,500
52.7,3.25,0.5439673800112673,106.0,0.25,600
48.6,2.95,0.5473636695728634,110.0,0.3,700
77.45,7.1,0.5989673545464478,115.0,0.05,800
68.6,5.6,0.5866115551341583,117.0,0.15,900
66.35,4.85,0.5521860530280056,117.0,0.1,1000
66.0,5.0,0.5577958170516575,119.0,0.05,1100
63.45,4.8,0.5714195291706508,120.0,0.05,1200
73.25,6.35,0.5899484988981272,121.0,0.15,1300
66.9,5.6,0.5742424372269882,122.0,0.0,1400
73.6,6.2,0.5718440966520298,122.0,0.05,1500
56.85,3.5,0.5434838642764207,126.0,0.0,1600
47.65,2.35,0.5249579032235123,132.0,0.05,1700
58.6,4.15,0.5586168783309569,137.0,0.1,1800
69.9,5.65,0.5701245603834594,140.0,0.1,1900
88.75,9.65,0.6780195243875975,145.0,0.1,2000
61.1,4.35,0.5561305141696634,145.0,0.1,2100
75.65,6.95,0.6020911881774641,146.0,0.15,2200
78.4,7.5,0.6115396984321817,148.0,0.2,2300
65.2,4.7,0.56798022260555,150.0,0.05,2400
71.7,6.2,0.589669066909024,152.0,0.1,2500
78.9,8.05,0.6071567413389655,156.0,0.3,2600
68.45,5.3,0.5492269029304431,160.0,0.15,2700
71.35,6.4,0.5727894086997173,163.0,0.35,2800
73.45,6.35,0.6066514261171914,165.0,0.35,2900
66.6,5.3,0.5713632186539526,166.0,0.1,3000
33.1,0.85,0.5073553301912388,39.0,0.0,100
39.4,1.5,0.5234965171221017,51.0,0.45,200
33.1,1.4,0.5294476486041197,70.0,0.4,300
46.05,3.15,0.5157189896445262,92.0,0.9,400
62.8,5.8,0.5694546427697198,110.0,1.15,500
47.55,3.3,0.5356347001521946,125.0,1.0,600
71.5,9.25,0.6792099110555997,128.0,1.55,700
81.4,11.4,0.6718826989510746,132.0,1.85,800
84.45,10.75,0.6751944284980758,139.0,1.25,900
83.6,10.55,0.6716508605446636,149.0,0.95,1000
79.0,9.95,0.6406408226277509,152.0,1.15,1100
77.35,9.7,0.6852728950659507,155.0,0.9,1200
84.9,10.5,0.6342835641535357,157.0,1.65,1300
89.0,10.75,0.6380311931888971,163.0,0.9,1400
79.7,10.25,0.7028507291083586,167.0,0.85,1500
80.75,9.55,0.68178952252585,175.0,0.8,1600
78.75,9.7,0.6683907500222891,180.0,0.6,1700
86.8,11.0,0.7236303401646749,186.0,0.55,1800
76.15,8.3,0.6557354896620792,190.0,0.45,1900
91.75,11.4,0.6793315623235456,195.0,0.75,2000
83.15,9.65,0.6559071036003867,199.0,0.7,2100
90.15,10.7,0.699328363082618,202.0,0.4,2200
75.75,8.35,0.6425028268984052,206.0,0.85,2300
76.6,8.3,0.6311473276840575,212.0,0.7,2400
93.75,11.4,0.698915686470061,215.0,0.4,2500
88.0,9.45,0.661397145254781,219.0,0.35,2600
89.85,11.45,0.6934877883704308,222.0,0.45,2700
85.8,10.0,0.6516208556323273,227.0,0.5,2800
79.3,8.55,0.655317809112616,230.0,0.6,2900
88.0,10.75,0.7031368397395735,232.0,0.5,3000
29.85,0.5,0.4877634225585126,43.0,0.3,100
36.05,1.2,0.5116386726727946,55.0,0.45,200
39.1,2.2,0.5324011272647468,72.0,0.6,300
34.85,1.35,0.5245602931530375,82.0,0.3,400
55.55,5.35,0.5910231817602168,99.0,1.3,500
47.05,3.35,0.53398462828676,116.0,0.9,600
44.95,2.85,0.5558573029372976,128.0,0.6,700
71.3,6.15,0.587692175279016,138.0,0.05,800
62.75,5.35,0.60087903594972,149.0,0.1,900
61.25,4.9,0.5886697190705308,159.0,0.1,1000
72.4,7.2,0.6463741699841479,167.0,0.1,1100
82.15,9.45,0.677168260075311,170.0,0.25,1200
77.75,8.1,0.6358380790133774,175.0,0.25,1300
93.05,10.7,0.6843892745185843,176.0,0.3,1400
84.35,8.55,0.6415565189584491,179.0,0.1,1500
80.75,9.45,0.6629592641988873,179.0,0.25,1600
76.05,7.15,0.6052244729603923,183.0,0.25,1700
86.65,8.2,0.6134974966509847,185.0,0.2,1800
74.45,7.25,0.6056689419267132,185.0,0.25,1900
77.9,8.0,0.6327296062341373,187.0,0.2,2000
87.0,9.1,0.6245059022265067,190.0,0.2,2100
76.6,7.45,0.6324036015378717,194.0,0.25,2200
76.65,7.6,0.5730042264871104,196.0,0.45,2300
81.5,7.9,0.6278955102165508,201.0,0.3,2400
80.8,8.1,0.6224106793461093,205.0,0.4,2500
75.7,6.8,0.597066894546022,207.0,0.3,2600
82.6,8.55,0.6245076955022628,208.0,0.35,2700
82.85,8.65,0.6163178660774139,209.0,0.3,2800
76.95,7.1,0.6374363566162529,210.0,0.25,2900
76.8,7.15,0.5981629539436566,211.0,0.3,3000
30.75,0.3,0.4956139141212432,43.0,0.05,100
42.85,2.25,0.5178419709476555,54.0,0.75,200
66.65,8.85,0.6526674478490972,67.0,1.7,300
93.6,12.2,0.714775132030375,85.0,0.85,400
62.2,5.45,0.615636013919243,91.0,0.35,500
66.0,6.35,0.5995048237853109,97.0,0.6,600
69.5,6.0,0.5734805787409856,108.0,0.35,700
61.6,5.3,0.5741136427918996,111.0,0.55,800
52.45,3.65,0.552930141863264,118.0,0.45,900
47.7,3.2,0.52663196104032,121.0,0.65,1000
56.5,4.35,0.5580615672185398,125.0,0.5,1100
68.95,6.05,0.573797969383844,127.0,0.25,1200
62.45,5.1,0.5842180419787428,131.0,0.35,1300
62.65,5.45,0.5967931553519877,132.0,0.25,1400
67.2,6.4,0.5945093424339507,134.0,0.45,1500
66.95,5.7,0.6065480830625647,139.0,0.35,1600
69.1,6.4,0.5949753061527863,146.0,0.4,1700
64.45,5.85,0.5932105648855515,149.0,0.55,1800
78.15,7.6,0.6124698053368876,151.0,0.5,1900
78.2,8.25,0.6423812528852906,153.0,0.45,2000
72.0,6.3,0.5857593037796132,154.0,0.35,2100
76.25,7.2,0.6201024772741346,156.0,0.35,2200
79.5,8.05,0.6402013588480626,159.0,0.3,2300
78.1,7.8,0.6269491681376803,163.0,0.7,2400
69.6,6.7,0.5985572455144272,165.0,0.65,2500
77.25,7.9,0.6220009337024984,166.0,0.5,2600
77.65,8.35,0.6717823400137292,171.0,0.35,2700
78.6,7.85,0.6044690640290318,173.0,0.7,2800
83.9,9.55,0.6389725636726553,175.0,0.5,2900
76.05,7.55,0.633695588764742,178.0,0.4,3000
33.35,0.45,0.49426716010109983,40.0,0.05,100
47.8,2.55,0.5075757348412533,54.0,0.35,200
38.4,1.2,0.5028107993097638,62.0,0.05,300
42.3,1.7,0.5007539297874655,72.0,0.1,400
39.85,1.65,0.5317648167817495,81.0,0.25,500
49.0,3.0,0.548469119355975,89.0,0.1,600
46.8,2.2,0.5165199133619267,93.0,0.1,700
73.3,6.45,0.5788242171619294,102.0,0.3,800
87.55,9.8,0.6474419848696321,107.0,0.35,900
76.55,7.65,0.6037623673758994,115.0,0.65,1000
82.7,8.7,0.6279758880794862,119.0,0.25,1100
66.05,6.55,0.6454039041953885,128.0,0.7,1200
63.15,5.55,0.5978295960362835,129.0,0.2,1300
81.65,9.55,0.6664549122088694,133.0,0.4,1400
65.8,6.15,0.6053367069374785,139.0,0.3,1500
88.25,10.15,0.6796482422268906,141.0,0.2,1600
66.55,5.5,0.5846839769989023,145.0,0.25,1700
76.55,8.6,0.6666468147635102,148.0,0.55,1800
91.15,9.9,0.6647373743354896,152.0,0.25,1900
85.35,9.4,0.6701820708458204,155.0,0.25,2000
87.1,10.25,0.6716781533653406,160.0,0.35,2100
87.15,11.35,0.7137274736391639,162.0,0.35,2200
80.85,9.0,0.6662662593102493,163.0,0.25,2300
86.75,11.05,0.7042394484930609,167.0,0.45,2400
86.55,10.05,0.7026918172008132,169.0,0.4,2500
87.1,10.75,0.7041009148716073,172.0,0.5,2600
91.25,11.55,0.720116269268775,176.0,0.35,2700
89.05,10.15,0.6499562987012981,177.0,0.4,2800
77.1,8.1,0.6412704215823622,177.0,0.25,2900
84.1,8.25,0.6262310529629033,181.0,0.4,3000
37.15,1.85,0.5062738140709393,40.0,0.8,100
36.9,1.45,0.4999421427250512,53.0,0.6,200
41.1,2.4,0.5451059511130185,67.0,0.5,300
47.95,4.0,0.5404755841892014,88.0,1.05,400
67.15,5.95,0.622149264035386,100.0,0.25,500
47.7,2.8,0.546006157218722,109.0,0.1,600
66.2,4.95,0.5713611300500359,119.0,0.2,700
74.15,7.55,0.6413803825738582,128.0,0.35,800
70.45,6.5,0.6176654630333734,139.0,0.3,900
76.3,7.6,0.6389171929138014,148.0,0.3,1000
84.95,10.2,0.6711277125209817,156.0,0.5,1100
87.55,10.25,0.6665123850774292,161.0,0.45,1200
76.05,7.25,0.6234214739792161,165.0,0.45,1300
81.75,8.5,0.6455213779012241,169.0,0.25,1400
89.7,10.5,0.6592718207522978,172.0,0.2,1500
89.0,10.35,0.6930283676431476,177.0,0.35,1600
81.85,8.65,0.6506305955086868,183.0,0.7,1700
85.25,10.05,0.6566535169709966,187.0,0.55,1800
86.4,10.35,0.6635730573162465,191.0,0.5,1900
83.5,9.65,0.6911563066740645,194.0,0.45,2000
60.05,4.7,0.5989817885792321,196.0,0.2,2100
69.05,6.8,0.5994835544027719,197.0,0.4,2200
65.55,5.6,0.5838069454263414,200.0,0.2,2300
58.8,4.75,0.5709942746005257,206.0,0.3,2400
61.85,4.65,0.5775093476985802,213.0,0.2,2500
72.55,6.5,0.6149915709602326,220.0,0.25,2600
76.6,6.95,0.6137177119940453,222.0,0.1,2700
87.75,10.5,0.6876674414657552,225.0,0.6,2800
75.5,7.5,0.6526437183844983,230.0,0.45,2900
91.8,10.75,0.6444555728516932,230.0,0.75,3000
34.9,0.75,0.5172404529279225,43.0,0.25,100
49.7,4.4,0.5963667220907726,62.0,1.4,200
46.05,2.25,0.5334999438284723,77.0,0.15,300
65.25,5.9,0.6080056993669063,97.0,0.45,400
49.0,3.1,0.5488448526216804,114.0,0.45,500
60.8,5.15,0.5812845595268228,121.0,0.5,600
80.8,8.0,0.6255689513168847,131.0,0.45,700
93.8,13.2,0.7515262581331328,144.0,1.0,800
86.35,11.65,0.7247577796968286,153.0,0.5,900
88.1,10.65,0.6870100618720798,159.0,0.45,1000
94.85,11.8,0.6903052052955987,164.0,0.45,1100
76.5,8.85,0.6398718546847058,172.0,0.6,1200
93.25,11.6,0.6823222377957687,176.0,0.4,1300
84.9,10.75,0.6714625655200651,182.0,0.3,1400
80.0,9.45,0.6840226374523595,186.0,0.75,1500
78.05,8.25,0.6335899272268859,187.0,0.65,1600
65.35,5.9,0.5953250160010854,190.0,0.5,1700
86.55,9.65,0.6495872897142533,190.0,0.25,1800
87.9,10.8,0.6737015977541985,190.0,0.35,1900
83.45,10.15,0.6821428236789779,196.0,0.45,2000
92.05,11.6,0.7117428772961539,199.0,0.6,2100
77.55,9.05,0.6363200175665802,201.0,0.8,2200
83.45,10.2,0.6486792399738567,204.0,0.95,2300
86.1,10.0,0.6364494790021802,208.0,0.5,2400
88.4,10.05,0.6605851397610257,212.0,0.5,2500
81.9,10.5,0.6437524223915122,215.0,0.7,2600
88.45,10.45,0.6987656394494237,217.0,0.5,2700
81.5,9.45,0.6687467491257657,218.0,0.45,2800
85.55,10.95,0.6828249146429879,219.0,0.65,2900
80.6,9.35,0.6634826069695403,224.0,0.9,3000
32.3,0.6,0.48464927404340036,39.0,0.4,100
40.65,2.25,0.5255190253153632,51.0,0.8,200
33.2,1.1,0.4986174988179187,69.0,0.4,300
43.25,2.95,0.4937264209602786,80.0,1.15,400
47.8,3.4,0.5346197687839263,91.0,0.8,500
50.05,3.5,0.5638779596397913,104.0,0.65,600
64.6,5.65,0.595418812749569,124.0,0.45,700
74.85,6.95,0.6168058190287699,133.0,0.25,800
78.15,7.45,0.6206746727544827,143.0,0.4,900
67.3,5.95,0.5893327432168706,147.0,0.6,1000
64.5,5.5,0.5757578716619982,153.0,0.45,1100
75.3,6.3,0.5729700882121305,157.0,0.3,1200
75.85,6.85,0.6126267305152375,161.0,0.2,1300
83.65,8.15,0.6491908452262479,164.0,0.25,1400
73.45,6.45,0.5892327800060335,165.0,0.2,1500
72.9,6.75,0.6021024766795582,168.0,0.25,1600
74.4,7.0,0.6041627332172717,172.0,0.4,1700
73.65,7.4,0.6185201953795356,176.0,0.4,1800
86.75,8.5,0.588406334897531,179.0,0.3,1900
60.05,5.15,0.5965112294287163,180.0,0.3,2000
77.3,7.55,0.6126301783707472,184.0,0.35,2100
66.4,5.6,0.5950885410535328,187.0,0.0,2200
53.3,3.25,0.545995818157585,189.0,0.1,2300
65.95,5.4,0.5731468707980405,189.0,0.15,2400
69.0,5.8,0.5614435893789766,191.0,0.3,2500
75.3,6.65,0.6055126408476947,193.0,0.05,2600
73.6,6.8,0.6108726626089676,195.0,0.2,2700
63.4,5.15,0.593869784596225,199.0,0.25,2800
66.6,5.75,0.6103121517890389,202.0,0.1,2900
64.75,5.6,0.5891449197187362,206.0,0.35,3000
35.8,1.0,0.48286738980856647,42.0,0.35,100
29.1,0.65,0.4893110842114871,58.0,0.5,200
85.25,11.8,0.7155164906305519,79.0,1.05,300
64.4,5.25,0.5849561923852867,96.0,0.4,400
94.5,13.1,0.7453122058823526,107.0,0.55,500
88.8,10.9,0.7209747686859549,118.0,0.4,600
65.15,5.0,0.5651913439320304,126.0,0.4,700
74.2,6.35,0.5497875598670574,129.0,0.4,800
60.25,4.15,0.5554692916908583,134.0,0.25,900
49.85,2.95,0.5483873656488356,140.0,0.2,1000
77.9,7.45,0.6293498263439985,142.0,0.1,1100
59.25,4.25,0.5717348065062825,145.0,0.05,1200
61.2,4.7,0.5567266129406738,149.0,0.15,1300
65.4,5.25,0.5740752136215013,152.0,0.2,1400
72.2,5.7,0.5704057079583358,155.0,0.0,1500
79.0,8.55,0.6688278701150348,159.0,0.1,1600
67.4,5.9,0.600194600794302,160.0,0.15,1700
69.8,6.3,0.6144577972826892,164.0,0.15,1800
80.6,8.0,0.6338767366961806,166.0,0.1,1900
79.05,7.4,0.5958171295195874,166.0,0.1,2000
85.0,8.25,0.6215173039386803,168.0,0.15,2100
82.3,8.35,0.6370612585535986,172.0,0.35,2200
66.4,5.75,0.5944497833824733,175.0,0.3,2300
73.1,7.1,0.6163893092926924,176.0,0.55,2400
70.6,6.2,0.611120098323221,178.0,0.15,2500
81.4,7.45,0.5765762951148757,179.0,0.25,2600
81.95,8.2,0.6184868404266733,182.0,0.2,2700
74.35,6.95,0.5700492197120205,186.0,0.35,2800
76.6,7.15,0.6229591640056631,187.0,0.4,2900
72.1,5.95,0.545014788601824,188.0,0.35,3000
32.65,0.7,0.4960755418339865,43.0,0.2,100
34.8,1.1,0.5020615484376193,62.0,0.6,200
35.6,1.2,0.5098890274705383,73.0,0.55,300
47.05,2.85,0.535652388006018,86.0,0.45,400
54.15,4.75,0.5239396633014948,96.0,1.35,500
49.65,3.75,0.5326707634017055,106.0,1.1,600
66.45,6.1,0.5788850943591192,117.0,0.8,700
69.05,6.5,0.6243983012717017,124.0,0.5,800
61.55,4.95,0.5826681303033945,129.0,0.55,900
70.7,6.8,0.5954552850972986,132.0,0.5,1000
64.15,5.6,0.6153414473984943,138.0,0.25,1100
65.9,5.55,0.5874121446612748,141.0,0.35,1200
68.25,5.8,0.5853202702990232,143.0,0.25,1300
68.75,6.75,0.6470923431453326,147.0,0.65,1400
69.35,6.25,0.5978617927593193,152.0,0.5,1500
58.55,5.65,0.596269592146412,153.0,0.55,1600
58.95,5.05,0.5978351224935066,158.0,0.5,1700
60.95,4.8,0.5620353254062833,158.0,0.5,1800
66.35,5.45,0.5846906188312291,163.0,0.35,1900
52.3,4.3,0.5927267479069142,164.0,0.7,2000
69.85,6.6,0.6029048040531555,165.0,0.55,2100
69.0,6.45,0.5876599956136516,171.0,0.45,2200
73.15,6.3,0.6002421348364867,175.0,0.15,2300
57.75,4.2,0.5757108631478747,179.0,0.35,2400
75.5,7.45,0.6204344796399914,181.0,0.35,2500
74.5,6.55,0.5717570274183512,183.0,0.35,2600
82.25,8.5,0.6470871247224095,186.0,0.15,2700
72.25,7.25,0.6346981472994373,186.0,0.6,2800
76.1,7.25,0.6191124541001283,189.0,0.25,2900
75.1,6.25,0.5845698990350698,190.0,0.2,3000
37.8,2.0,0.5371722735944799,43.0,0.9,100
77.0,7.3,0.621835326829627,64.0,0.3,200
97.5,14.05,0.7859774521531098,80.0,0.0,300
72.2,6.6,0.5960390250742178,94.0,0.25,400
48.05,2.75,0.5591972109524345,109.0,0.05,500
45.35,2.0,0.5032092215803977,116.0,0.1,600
49.35,3.0,0.5530435038920787,121.0,0.25,700
75.7,7.9,0.638696309802648,129.0,0.15,800
86.5,10.15,0.6591316297225904,140.0,1.05,900
74.6,9.15,0.6598322631911759,142.0,1.0,1000
76.5,9.55,0.622296753400911,148.0,1.75,1100
70.95,7.95,0.645949745880721,152.0,0.6,1200
75.75,8.85,0.6625790460867222,156.0,0.85,1300
75.4,8.35,0.6603723111968977,160.0,0.45,1400
70.65,7.15,0.622630200592321,163.0,0.55,1500
75.7,7.95,0.6318825247258817,166.0,0.6,1600
85.0,10.15,0.6824250337709064,168.0,0.3,1700
83.1,8.95,0.663266910343871,170.0,0.45,1800
90.4,11.45,0.7247629680029412,178.0,0.25,1900
85.8,10.8,0.6950988365278952,180.0,0.7,2000
83.85,10.75,0.7045988692008753,182.0,0.55,2100
94.0,12.35,0.7417599160976139,185.0,0.7,2200
94.75,12.5,0.7087964280572298,187.0,0.65,2300
81.5,10.45,0.7183793224427897,187.0,0.45,2400
83.0,9.45,0.6697931859424009,192.0,0.4,2500
91.35,10.25,0.685597578887201,198.0,0.15,2600
82.25,9.4,0.6493094201496383,201.0,0.25,2700
94.35,11.7,0.7005671347852033,203.0,0.45,2800
96.75,12.3,0.737909320728291,206.0,0.3,2900
90.9,11.05,0.676506206394829,209.0,0.6,3000
