Energy,Episode length,Green food,Number of nodes,Red food,Trained time steps
0.5032582921774366,32.8,0.6,47.0,0.1,100
0.5019592945047398,34.3,0.9,57.0,0.25,200
0.5298589197537764,44.5,2.25,69.0,0.6,300
0.5148214223441825,38.5,1.25,86.0,0.0,400
0.5072134607780401,38.55,1.55,96.0,0.55,500
0.5417572067798813,44.05,2.5,107.0,0.45,600
0.5466622646134282,48.25,2.85,122.0,0.4,700
0.542501237621767,44.4,3.0,136.0,0.6,800
0.5262188834107729,41.25,1.85,148.0,0.35,900
0.5322035535988884,56.75,4.4,156.0,0.55,1000
0.5691653530872662,54.55,4.55,165.0,0.35,1100
0.576527778186091,62.3,5.3,180.0,0.45,1200
0.574276006451548,67.2,5.75,186.0,0.4,1300
0.6533754791993749,82.6,8.35,192.0,0.15,1400
0.6563151334789932,76.3,9.05,201.0,0.35,1500
0.6058173656173905,73.05,6.9,208.0,0.25,1600
0.6704841327227407,83.9,10.3,217.0,0.6,1700
0.6704807746000037,88.7,10.1,225.0,0.45,1800
0.6193666430684841,77.85,7.35,233.0,0.4,1900
0.5853097592457053,70.4,6.05,241.0,0.2,2000
0.6646324319998458,73.65,7.5,253.0,0.55,2100
0.5531810127127366,73.75,6.7,257.0,0.55,2200
0.6250804115638208,70.1,6.85,262.0,0.3,2300
0.5934638215081957,66.1,6.05,265.0,0.45,2400
0.5469394709630673,61.85,5.1,270.0,0.45,2500
0.6110001100761809,65.45,6.4,274.0,0.5,2600
0.5430622896371544,64.6,4.95,279.0,0.25,2700
0.5888240100939318,67.3,5.5,280.0,0.5,2800
0.613408677313613,75.35,7.3,285.0,0.6,2900
0.5780859886263077,73.5,6.45,287.0,0.45,3000
0.604320868571091,73.9,6.65,291.0,0.45,3100
0.5857285130585327,59.85,4.9,296.0,0.3,3200
0.5794062094987361,66.95,5.5,300.0,0.4,3300
0.5946181625442117,69.5,6.3,303.0,0.45,3400
0.6371020807312585,84.7,8.85,303.0,0.35,3500
0.5908348343248297,78.0,7.0,305.0,0.15,3600
0.6156611669612746,82.3,8.4,307.0,0.55,3700
0.5529251923229916,65.35,5.05,310.0,0.4,3800
0.5590973192216782,75.85,7.5,314.0,0.35,3900
0.56128994576616,69.45,5.8,317.0,0.2,4000
0.5758798763638069,69.55,6.45,318.0,0.45,4100
0.6084581214424403,79.3,7.8,322.0,0.45,4200
0.6274924956760106,81.95,8.25,327.0,0.45,4300
0.6175029923454904,83.2,8.15,329.0,0.35,4400
0.6240672096871123,78.5,7.85,336.0,0.35,4500
0.620476458386084,74.05,7.55,336.0,0.5,4600
0.601525783399561,68.15,6.15,337.0,0.5,4700
0.5787522733208321,68.65,6.45,339.0,0.55,4800
0.6744756260320878,72.65,7.2,341.0,0.4,4900
0.5717335787020925,78.35,7.45,343.0,0.7,5000
0.5007035756354052,38.15,1.15,47.0,0.3,100
0.45949871541501935,31.15,0.35,51.0,0.45,200
0.4895093597931329,34.55,1.0,57.0,0.55,300
0.48104669104885023,31.6,1.05,61.0,0.65,400
0.516892843988168,36.65,1.5,69.0,0.4,500
0.5054458555360639,34.6,1.0,79.0,0.3,600
0.5189932530354381,43.4,2.25,88.0,0.55,700
0.5299703696005498,39.3,1.75,100.0,0.65,800
0.5055658492717079,35.65,1.25,114.0,0.25,900
0.5059701520474964,38.05,1.95,117.0,0.75,1000
0.5571004131788977,51.9,4.15,123.0,1.05,1100
0.5553852786054538,47.15,3.3,135.0,0.9,1200
0.5458136575993902,38.1,2.15,143.0,0.45,1300
0.6802153295373128,88.9,11.6,154.0,1.5,1400
0.6184113292528642,78.4,8.6,163.0,1.1,1500
0.6121055066794213,77.6,8.65,174.0,0.85,1600
0.6760654673409305,86.15,9.4,184.0,0.4,1700
0.6482174931743311,79.3,9.3,190.0,0.5,1800
0.6822472663488159,92.65,10.65,195.0,0.3,1900
0.6158753911035773,83.85,8.35,199.0,0.2,2000
0.6496500108655932,82.35,8.6,206.0,0.45,2100
0.6387023928321706,82.15,8.4,211.0,0.25,2200
0.6141692618994234,77.65,7.55,218.0,0.2,2300
0.6477126529236485,88.4,9.1,221.0,0.15,2400
0.6257869881926797,75.45,7.45,225.0,0.3,2500
0.590571667291244,75.2,7.1,229.0,0.4,2600
0.5657029374349982,72.85,6.3,235.0,0.25,2700
0.6006268190459201,75.15,7.15,240.0,0.3,2800
0.5752216369419614,68.0,5.7,245.0,0.3,2900
0.6083173030421063,77.2,7.45,250.0,0.2,3000
0.6092660431739206,71.55,6.55,255.0,0.4,3100
0.6406750345027092,78.55,8.5,258.0,0.55,3200
0.5841406472752649,73.05,7.05,260.0,0.3,3300
0.6075271958385985,82.5,8.85,263.0,0.15,3400
0.6434961531291117,79.05,8.0,267.0,0.25,3500
0.6528650452444722,87.25,8.8,268.0,0.3,3600
0.6556951006066438,88.4,9.55,273.0,0.25,3700
0.6332603391036189,84.9,9.25,275.0,0.2,3800
0.5974757194474355,75.8,7.15,277.0,0.15,3900
0.6124906760015527,95.8,10.15,282.0,0.2,4000
0.6081511451374226,64.0,6.05,284.0,0.4,4100
0.5950228690580577,79.45,7.65,287.0,0.2,4200
0.6384144642277065,89.85,9.6,288.0,0.2,4300
0.5897422927372208,71.95,6.55,290.0,0.15,4400
0.675982958784479,82.85,9.1,291.0,0.15,4500
0.5730250732360931,68.65,5.75,293.0,0.15,4600
0.571266685479382,72.6,6.25,295.0,0.4,4700
0.6322664888187025,85.4,8.85,296.0,0.2,4800
0.6070877245006321,72.9,6.7,300.0,0.25,4900
0.5884131921391864,82.6,8.3,306.0,0.2,5000
0.5344245966681958,36.45,1.05,45.0,0.2,100
0.5034271877192055,44.6,1.75,56.0,0.15,200
0.50261658761921,45.45,1.95,68.0,0.25,300
0.5532789832061986,45.95,2.15,84.0,0.1,400
0.5205602657505463,35.55,1.15,97.0,0.3,500
0.5754945981711935,60.75,4.45,108.0,0.05,600
0.5633500519131391,55.15,3.8,120.0,0.5,700
0.569984300503146,60.65,4.3,125.0,0.1,800
0.5118570589004577,54.85,3.75,135.0,0.15,900
0.5617832494915611,59.8,4.3,139.0,0.1,1000
0.5335597956848215,64.25,4.6,145.0,0.1,1100
0.5283780134148708,59.05,4.05,153.0,0.25,1200
0.5333729748182519,52.2,3.0,159.0,0.15,1300
0.5136824414871001,48.25,2.5,162.0,0.15,1400
0.49605992468472443,49.05,2.4,164.0,0.05,1500
0.5586468984429415,51.3,3.1,166.0,0.1,1600
0.5471157918437565,56.85,3.9,171.0,0.15,1700
0.5298837011956533,56.0,3.65,173.0,0.2,1800
0.5523695716621694,73.0,5.8,175.0,0.2,1900
0.5327169020677894,61.95,4.25,178.0,0.1,2000
0.5743443959321191,69.3,5.7,181.0,0.3,2100
0.5476701703793649,54.55,3.35,183.0,0.05,2200
0.5318105480057781,56.1,3.4,185.0,0.1,2300
0.5345017606611802,55.15,3.4,187.0,0.0,2400
0.5490316608313733,69.1,5.25,190.0,0.1,2500
0.5723195477702646,62.8,4.7,191.0,0.1,2600
0.538056642741456,60.0,4.0,195.0,0.15,2700
0.5382433008419343,61.0,4.3,199.0,0.05,2800
0.5397063600459786,58.6,4.1,201.0,0.2,2900
0.4975032189106505,54.85,3.3,203.0,0.1,3000
0.5493034917451742,50.2,3.1,205.0,0.1,3100
0.5436416734780342,60.55,4.2,206.0,0.2,3200
0.533812934054018,56.4,3.5,210.0,0.1,3300
0.5283548302449517,55.6,3.25,212.0,0.05,3400
0.5108893753940198,52.0,2.85,213.0,0.05,3500
0.5269215273492376,46.7,2.6,214.0,0.0,3600
0.5049528670452983,51.5,2.75,216.0,0.1,3700
0.5110254150142758,48.45,2.6,219.0,0.1,3800
0.5531751441360921,55.8,3.55,221.0,0.15,3900
0.5513774864643565,49.8,2.9,223.0,0.0,4000
0.5236331782990978,57.45,3.7,225.0,0.05,4100
0.5501651595316368,63.35,4.45,226.0,0.05,4200
0.5178581189781648,54.2,3.25,229.0,0.05,4300
0.5512604160427951,51.55,2.95,229.0,0.15,4400
0.5541836412945101,55.05,3.75,229.0,0.2,4500
0.5348104838371268,54.35,3.45,229.0,0.25,4600
0.5351431177797774,64.45,4.3,231.0,0.0,4700
0.5534475301179775,63.85,4.35,233.0,0.0,4800
0.554440314913,58.45,3.95,233.0,0.1,4900
0.5388723897437956,65.8,4.9,236.0,0.05,5000
0.4767705826648837,33.15,0.0,40.0,0.0,100
0.47451470588235256,34.0,0.0,43.0,0.0,200
0.47592023172905484,33.55,0.0,45.0,0.0,300
0.47815730837789616,33.35,0.0,49.0,0.0,400
0.47843076070237445,32.8,0.0,49.0,0.0,500
0.4784707135695183,33.05,0.0,51.0,0.0,600
0.4774004010695182,33.55,0.0,53.0,0.0,700
0.4804168477049907,33.2,0.0,55.0,0.0,800
0.4779647114527624,33.0,0.0,56.0,0.0,900
0.48321485469413317,33.7,0.1,57.0,0.0,1000
0.4826553541039128,32.95,0.05,58.0,0.0,1100
0.4789264288101601,33.0,0.0,59.0,0.0,1200
0.47658043672014216,33.4,0.0,63.0,0.0,1300
0.4774753711510259,32.35,0.0,63.0,0.0,1400
0.4797738682184747,30.85,0.0,63.0,0.0,1500
0.47974356824291264,32.1,0.0,63.0,0.0,1600
0.47977068014705837,32.95,0.0,64.0,0.0,1700
0.47919111986803486,33.15,0.0,66.0,0.0,1800
0.4794949367668617,32.45,0.0,66.0,0.0,1900
0.4782393187388587,33.0,0.0,66.0,0.0,2000
0.47752813057040966,32.95,0.0,68.0,0.0,2100
0.4790116767473115,32.7,0.0,68.0,0.0,2200
0.48000243705436685,33.0,0.0,69.0,0.0,2300
0.5257070671327146,47.9,2.35,71.0,0.2,2400
0.5296929436794453,40.0,1.6,77.0,0.05,2500
0.5274211536997679,52.0,2.75,78.0,0.05,2600
0.5446341386910564,46.45,2.4,80.0,0.0,2700
0.5191216381638426,48.45,2.35,87.0,0.0,2800
0.561109915790517,66.55,5.4,90.0,0.5,2900
0.5185117839090874,46.8,2.4,92.0,0.2,3000
0.5622866718735702,42.6,2.4,93.0,0.05,3100
0.514155048827182,43.05,2.0,96.0,0.05,3200
0.626976411430746,72.85,7.65,100.0,0.5,3300
0.7221708614204823,80.15,11.85,105.0,1.4,3400
0.6358386825375827,75.85,9.25,110.0,0.95,3500
0.5589546595734018,55.4,4.3,113.0,0.55,3600
0.5557830091783919,60.6,4.9,118.0,0.55,3700
0.5853240147834997,60.05,5.2,128.0,0.55,3800
0.5939573826421849,65.4,5.7,131.0,0.6,3900
0.5731500725411642,62.95,5.5,135.0,0.5,4000
0.5434664281289925,53.9,3.15,142.0,0.2,4100
0.5262788122169255,39.95,2.3,145.0,0.35,4200
0.5803070166841077,57.65,4.45,148.0,0.65,4300
0.5334415542546344,52.05,3.35,152.0,0.3,4400
0.643639615914609,66.6,6.5,156.0,0.65,4500
0.5732771575154713,65.95,5.6,160.0,0.6,4600
0.5347771326900228,49.8,3.25,167.0,0.5,4700
0.5481647701677748,50.05,3.0,172.0,0.2,4800
0.53186257675146,48.3,3.1,175.0,0.5,4900
0.5174444787616015,59.85,4.2,179.0,0.35,5000
0.4705822999549764,33.75,0.75,46.0,0.3,100
0.5021311480623959,33.45,0.75,53.0,0.05,200
0.5164805310934313,36.0,1.9,66.0,1.05,300
0.5357740800171832,38.95,1.8,78.0,0.65,400
0.551904327154629,53.4,3.75,88.0,0.7,500
0.515420488212355,43.0,1.9,91.0,0.1,600
0.5019245909371097,37.4,1.45,97.0,0.35,700
0.5348033718429801,46.9,2.85,110.0,0.6,800
0.6055691963936318,70.75,6.3,119.0,0.2,900
0.5648499414029687,65.15,5.05,135.0,0.5,1000
0.653890880638248,83.45,9.5,145.0,0.7,1100
0.5499259662628379,60.3,4.3,156.0,0.15,1200
0.5513581844700143,60.5,4.55,164.0,0.4,1300
0.584803887204627,62.7,5.2,171.0,0.2,1400
0.6171403856186932,70.8,6.35,176.0,0.4,1500
0.5524050041762435,73.65,6.2,180.0,0.35,1600
0.6353866523643962,77.2,6.75,187.0,0.15,1700
0.5561713701080216,67.5,5.35,192.0,0.05,1800
0.6048156759162928,71.5,6.0,194.0,0.1,1900
0.6327830966288442,81.55,7.85,202.0,0.15,2000
0.5827173179178573,72.1,6.15,204.0,0.15,2100
0.5537617829435237,69.5,5.2,207.0,0.0,2200
0.6108014384309552,79.7,7.65,211.0,0.1,2300
0.5811996900670564,76.3,6.8,212.0,0.1,2400
0.5766258498456688,70.6,6.05,212.0,0.15,2500
0.6047394671413714,67.4,5.95,215.0,0.1,2600
0.5671514727259214,64.45,4.9,221.0,0.15,2700
0.595670466026702,75.05,6.55,223.0,0.0,2800
0.5820337951565053,73.45,6.1,224.0,0.0,2900
0.5827604810341378,71.1,5.95,229.0,0.1,3000
0.5630286594459594,60.7,4.4,233.0,0.15,3100
0.5560678892014831,55.7,3.8,234.0,0.15,3200
0.568582979035112,66.25,4.95,234.0,0.05,3300
0.5604445932019801,67.05,4.95,238.0,0.1,3400
0.5293101808128354,60.45,4.2,240.0,0.3,3500
0.571052548425837,60.6,4.45,242.0,0.15,3600
0.5583812553093781,61.8,4.6,244.0,0.15,3700
0.5242466303094921,57.15,3.6,248.0,0.1,3800
0.5493034259189347,58.8,3.9,251.0,0.15,3900
0.6140042647176582,74.35,6.4,252.0,0.1,4000
0.5586193147135107,62.65,4.7,253.0,0.25,4100
0.5431925877349161,71.75,5.75,257.0,0.0,4200
0.544626455846443,62.9,4.45,259.0,0.05,4300
0.5613206152797982,61.25,4.65,261.0,0.0,4400
0.5544654938859976,57.55,4.15,261.0,0.0,4500
0.5429030732340344,71.9,5.75,261.0,0.05,4600
0.5574740470455959,61.25,4.2,263.0,0.1,4700
0.5490388232661583,55.1,3.95,265.0,0.15,4800
0.5385930858101818,65.75,4.75,266.0,0.05,4900
0.5834419575018732,66.05,5.2,267.0,0.05,5000
0.4823730615792046,32.5,0.6,46.0,0.15,100
0.47437129225712515,31.85,0.6,60.0,0.35,200
0.516306333549087,37.25,1.45,68.0,0.45,300
0.5100185546261333,34.55,1.4,79.0,0.4,400
0.5003164773399451,34.95,1.05,86.0,0.35,500
0.5831489222159636,66.85,6.05,103.0,1.0,600
0.6253803745535179,60.6,5.2,119.0,1.05,700
0.5538726666620338,53.4,4.0,138.0,0.6,800
0.5454640544341218,51.9,3.15,149.0,0.3,900
0.5659628933542996,53.35,3.55,158.0,0.3,1000
0.5650110595481687,49.6,3.25,169.0,0.25,1100
0.5656873153172532,57.9,4.3,173.0,0.45,1200
0.5491596064170401,52.8,3.4,180.0,0.25,1300
0.5904710923803809,62.7,4.95,193.0,0.35,1400
0.5760536437812084,62.65,4.7,201.0,0.3,1500
0.5599948120305558,54.15,3.35,209.0,0.35,1600
0.5532035457086916,51.7,3.35,213.0,0.35,1700
0.5454720381620678,47.4,2.7,214.0,0.15,1800
0.5782283612398984,59.4,4.45,220.0,0.25,1900
0.561977467229036,60.15,4.4,230.0,0.7,2000
0.6112261142026479,63.55,5.7,239.0,0.9,2100
0.585163769383557,68.95,5.95,248.0,0.65,2200
0.578250364723248,61.1,4.85,252.0,0.4,2300
0.5761692979641702,65.8,5.05,257.0,0.45,2400
0.5879579569075675,66.85,5.5,262.0,0.55,2500
0.5844891174499449,61.7,4.9,265.0,0.4,2600
0.53670799945593,64.2,5.05,270.0,0.4,2700
0.5784309679212176,70.15,6.2,275.0,0.75,2800
0.6497788245965621,74.95,8.05,280.0,0.5,2900
0.5826732433148789,63.75,5.35,283.0,0.45,3000
0.5987357142670611,67.1,6.15,288.0,0.6,3100
0.6021395428972847,62.75,5.7,291.0,0.65,3200
0.5723079915524528,67.2,6.2,295.0,0.65,3300
0.5836712437825959,58.45,4.5,299.0,0.5,3400
0.6035719562015703,69.5,5.75,300.0,0.35,3500
0.6063595528990577,72.65,6.85,306.0,0.55,3600
0.5949745722835628,67.9,6.0,307.0,0.4,3700
0.6086935942948305,72.15,6.5,309.0,0.55,3800
0.6212814225135113,71.25,6.65,310.0,0.45,3900
0.5746903261161453,70.85,6.35,311.0,0.5,4000
0.580943666215724,71.55,6.6,314.0,0.65,4100
0.5441473815449687,50.95,3.15,316.0,0.55,4200
0.5995503942447389,64.45,5.85,319.0,0.7,4300
0.5861435223144696,72.3,6.55,321.0,0.4,4400
0.588960750117602,72.8,6.75,324.0,0.35,4500
0.6163044478764866,79.25,8.05,328.0,0.3,4600
0.6023059034543887,77.85,7.2,330.0,0.2,4700
0.6214553508567855,69.1,6.3,336.0,0.5,4800
0.6610879787414523,83.0,8.65,338.0,0.15,4900
0.6041113468334167,78.95,7.3,341.0,0.25,5000
0.46624032777449065,31.6,0.3,47.0,0.2,100
0.5246226924587301,42.1,1.95,54.0,0.4,200
0.4999253315244651,42.1,2.35,65.0,0.8,300
0.5192576414220673,38.05,1.45,77.0,0.3,400
0.6024204183960669,59.75,4.6,89.0,0.3,500
0.5459733962969642,49.2,2.85,106.0,0.1,600
0.5656309218193509,54.35,3.65,114.0,0.05,700
0.5119207668069052,57.0,3.7,128.0,0.25,800
0.5440433165167475,52.9,3.55,134.0,0.4,900
0.5348526542301554,53.25,3.55,145.0,0.35,1000
0.581423495477798,61.65,4.55,155.0,0.2,1100
0.5583842940391681,57.6,3.8,163.0,0.1,1200
0.5490373203814469,51.7,2.85,169.0,0.15,1300
0.5215954688340294,48.45,2.9,176.0,0.05,1400
0.5657298401354123,61.45,4.75,182.0,0.15,1500
0.578580394858344,67.3,5.1,188.0,0.05,1600
0.5679175694714005,61.4,5.0,193.0,0.4,1700
0.5830665484387253,70.0,5.55,199.0,0.25,1800
0.5744033484294514,62.7,4.5,203.0,0.1,1900
0.5528848238067432,50.05,3.0,205.0,0.05,2000
0.559463689363117,55.55,3.6,209.0,0.15,2100
0.5492274472926669,58.05,4.05,214.0,0.15,2200
0.5480677738929669,46.2,2.5,216.0,0.15,2300
0.5698309320590054,55.95,3.95,220.0,0.1,2400
0.5556904748203173,51.7,3.25,221.0,0.05,2500
0.5684832639270241,62.25,5.0,223.0,0.1,2600
0.615515184595511,66.0,5.55,226.0,0.1,2700
0.5631999425703859,62.9,4.75,228.0,0.1,2800
0.5715895870385779,68.05,5.6,232.0,0.3,2900
0.5779934898272693,63.8,4.95,239.0,0.05,3000
0.6131038496459976,84.5,7.7,241.0,0.0,3100
0.548121931184112,59.15,4.45,243.0,0.1,3200
0.5798970693825115,63.75,4.65,246.0,0.0,3300
0.5335987804081693,51.95,3.2,251.0,0.05,3400
0.5989832034331899,72.1,6.15,253.0,0.05,3500
0.5577770583482089,62.45,4.85,253.0,0.15,3600
0.5627493097208878,63.2,4.5,253.0,0.05,3700
0.5090542887470176,51.0,3.05,256.0,0.1,3800
0.5189413929122358,50.65,2.85,261.0,0.1,3900
0.5476737356973933,53.65,3.5,262.0,0.1,4000
0.5640795603970703,65.7,4.8,264.0,0.05,4100
0.5561513696923678,50.35,3.15,267.0,0.0,4200
0.5147077324613659,49.0,2.65,271.0,0.15,4300
0.5525956376116115,48.05,2.5,274.0,0.05,4400
0.5444415639468263,46.0,2.4,276.0,0.05,4500
0.5721659138014725,50.95,3.05,277.0,0.0,4600
0.5541641771851551,45.35,2.35,279.0,0.0,4700
0.5546170829128075,55.2,3.55,280.0,0.05,4800
0.5561320881965635,63.6,4.7,281.0,0.15,4900
0.5604848144477266,61.55,4.6,284.0,0.05,5000
0.5260453456666362,35.75,0.95,45.0,0.15,100
0.538633927130391,52.25,3.35,62.0,0.55,200
0.5362145307005116,53.45,3.05,82.0,0.2,300
0.5465520744892385,59.25,3.85,94.0,0.1,400
0.6088056121204071,65.05,5.5,110.0,0.6,500
0.586504730593701,64.1,5.1,121.0,0.35,600
0.560418444016485,57.85,4.0,128.0,0.15,700
0.5608019001948451,55.55,3.65,134.0,0.0,800
0.5523784613495935,68.65,5.15,140.0,0.1,900
0.5229048695632093,48.65,2.65,144.0,0.2,1000
0.5504220160508153,62.05,4.35,152.0,0.15,1100
0.5906593597444767,64.15,5.15,158.0,0.15,1200
0.5618051209391793,57.8,4.1,161.0,0.25,1300
0.5866547315692598,75.95,6.75,163.0,0.2,1400
0.5969788141694874,60.35,4.95,169.0,0.25,1500
0.6459358181573059,79.2,8.85,173.0,0.55,1600
0.6193787965283104,73.05,7.05,177.0,0.4,1700
0.5809753007459033,68.0,6.05,185.0,0.35,1800
0.6365013106664626,76.1,8.0,186.0,0.4,1900
0.655256677982117,71.8,7.4,192.0,0.35,2000
0.6060421975770242,74.8,7.5,195.0,0.5,2100
0.6161206120463059,78.8,7.5,199.0,0.2,2200
0.6350690639139998,74.05,7.65,202.0,0.6,2300
0.6027054511738174,74.7,7.25,207.0,0.15,2400
0.620141335824469,72.45,6.4,211.0,0.2,2500
0.6063661934725667,76.6,7.3,213.0,0.4,2600
0.5740457914599045,66.65,5.9,214.0,0.5,2700
0.5880566111009086,61.3,5.3,218.0,0.45,2800
0.6123189420710936,81.5,8.45,222.0,0.5,2900
0.5816759984992769,67.75,6.3,222.0,0.35,3000
0.5341359286109231,60.8,4.5,224.0,0.5,3100
0.5665631184494835,66.85,5.6,226.0,0.4,3200
0.5747032188354135,63.15,5.1,228.0,0.25,3300
0.5552886365590504,60.2,5.0,233.0,0.3,3400
0.588106971217201,61.6,4.95,234.0,0.45,3500
0.5520651853465476,67.95,5.6,235.0,0.5,3600
0.5520358225426041,70.55,6.0,239.0,0.45,3700
0.5789136658294236,72.0,6.3,242.0,0.25,3800
0.5594434726117032,68.85,6.05,246.0,0.15,3900
0.5849737270519431,70.55,6.1,246.0,0.15,4000
0.575940197811234,73.15,6.15,249.0,0.35,4100
0.5475638640222213,59.1,4.2,253.0,0.1,4200
0.5722039792473965,56.65,4.05,256.0,0.2,4300
0.5569598694974667,67.55,5.55,258.0,0.1,4400
0.6110662950489825,73.2,7.05,263.0,0.2,4500
0.590026813716235,74.6,6.7,265.0,0.2,4600
0.5501616426829407,60.35,4.4,267.0,0.25,4700
0.5992632431450107,71.2,6.3,270.0,0.15,4800
0.5521743024690864,65.2,4.9,272.0,0.25,4900
0.5506960776891681,66.35,5.25,273.0,0.3,5000
0.49428727240538806,34.75,0.65,46.0,0.05,100
0.5213875785506261,39.15,1.0,61.0,0.0,200
0.5257154055648445,42.45,2.1,77.0,0.7,300
0.516969436216775,43.45,1.8,89.0,0.15,400
0.5271832294064165,49.0,3.05,104.0,0.4,500
0.591764665278869,52.35,4.5,120.0,0.7,600
0.6493256789331047,80.3,8.65,129.0,0.6,700
0.5586851815924712,47.15,2.75,137.0,0.1,800
0.5609761783356203,62.9,4.45,148.0,0.0,900
0.6221982715084124,80.6,8.35,158.0,0.5,1000
0.6374415841263633,77.15,8.25,168.0,0.15,1100
0.5958356217031855,74.15,6.9,173.0,0.3,1200
0.6453832614555599,80.2,8.75,179.0,0.6,1300
0.6275025341186559,76.55,7.3,187.0,0.3,1400
0.5731207244502341,64.8,5.15,198.0,0.25,1500
0.5929757417611845,68.15,5.65,208.0,0.15,1600
0.5595734231666541,71.55,6.0,211.0,0.25,1700
0.5381144243085341,63.9,4.85,215.0,0.35,1800
0.5651757379049848,57.3,4.3,219.0,0.25,1900
0.5942432249157498,58.5,4.85,224.0,0.5,2000
0.5964503466093667,63.65,5.15,228.0,0.15,2100
0.6484166329447395,70.65,6.7,228.0,0.3,2200
0.6251222531970734,74.0,7.35,229.0,0.55,2300
0.6465960020901048,81.1,8.45,231.0,0.2,2400
0.6273709807243758,79.65,8.3,239.0,0.45,2500
0.620745958975226,79.65,8.1,245.0,0.4,2600
0.6370885966336914,88.85,9.15,247.0,0.25,2700
0.6149681023047967,70.1,6.1,248.0,0.25,2800
0.58910491309581,64.9,5.6,251.0,0.45,2900
0.5581885012248121,65.2,5.3,251.0,0.3,3000
0.603158353107992,77.25,7.8,256.0,0.35,3100
0.5781636196950377,74.3,6.45,260.0,0.15,3200
0.5696164253948164,70.5,6.05,265.0,0.25,3300
0.615730378341554,83.2,8.1,268.0,0.25,3400
0.5614549265706728,65.55,5.65,271.0,0.4,3500
0.6301653762542555,79.8,8.2,275.0,0.5,3600
0.6175747963657662,83.5,8.25,279.0,0.25,3700
0.5948456949252441,75.05,7.1,282.0,0.3,3800
0.6033245256668446,69.35,6.5,285.0,0.2,3900
0.6305380167254889,76.4,7.7,290.0,0.2,4000
0.5679299495211587,69.3,5.9,291.0,0.2,4100
0.6265545670305273,78.85,7.5,295.0,0.0,4200
0.5984862433749808,72.7,6.75,295.0,0.35,4300
0.606670025255199,70.0,5.8,296.0,0.4,4400
0.6048812088217488,83.55,7.75,299.0,0.05,4500
0.5735377234574038,62.6,4.7,300.0,0.2,4600
0.6096062354572647,73.25,6.45,301.0,0.35,4700
0.5239477248276444,65.2,5.25,305.0,0.55,4800
0.6081079021000815,71.1,6.5,306.0,0.25,4900
0.5642854072556109,66.3,5.75,309.0,0.4,5000
0.49731377448059133,36.75,0.75,49.0,0.05,100
0.5123106404984895,38.15,1.3,58.0,0.15,200
0.4953390810566821,37.8,1.2,67.0,0.25,300
0.5138848284457596,37.0,1.2,75.0,0.2,400
0.5009224043472281,35.0,0.95,86.0,0.3,500
0.5047457804602595,46.25,2.8,88.0,0.55,600
0.5296343854171753,38.75,2.0,95.0,0.45,700
0.5275823756779486,48.1,3.2,101.0,0.6,800
0.5240332946899781,40.3,2.2,114.0,0.7,900
0.5899531288592309,52.2,4.95,126.0,1.3,1000
0.5509532942917341,45.7,3.0,134.0,0.7,1100
0.5046565891840075,42.3,2.7,148.0,0.75,1200
0.5640634089757277,57.65,4.8,156.0,1.05,1300
0.5921483824831795,63.05,6.15,165.0,1.65,1400
0.6411580309660111,63.55,7.1,173.0,1.3,1500
0.6216449578223332,67.75,7.1,181.0,1.35,1600
0.6209938828416386,58.15,6.0,195.0,1.2,1700
0.5776422541025158,52.6,4.65,199.0,1.35,1800
0.6169028414476658,62.65,6.35,202.0,1.1,1900
0.5680277552585677,61.9,5.75,213.0,1.15,2000
0.578341122546453,61.35,6.15,222.0,1.3,2100
0.5903023897709316,58.0,5.55,231.0,1.15,2200
0.6005689281449317,64.1,6.55,234.0,1.2,2300
0.6432395064038703,70.45,7.45,238.0,1.1,2400
0.5798989340726324,63.7,6.15,242.0,0.95,2500
0.6397952583439398,72.85,8.15,248.0,1.1,2600
0.6100483788650312,65.05,6.55,253.0,1.25,2700
0.6476147932901088,70.95,7.45,259.0,1.3,2800
0.6224718706804075,74.8,8.15,262.0,1.3,2900
0.6617327234372714,70.7,7.7,265.0,0.95,3000
0.6501005284522097,78.4,9.0,269.0,0.9,3100
0.6497910343378022,73.2,8.05,273.0,1.45,3200
0.6352742742524079,68.75,7.6,274.0,1.5,3300
0.5925823574875346,57.7,6.15,280.0,1.45,3400
0.6161071494828205,68.4,7.65,287.0,1.5,3500
0.581271834977093,61.5,6.25,289.0,1.35,3600
0.6103664459451257,60.85,6.35,295.0,1.35,3700
0.6128283248380612,82.55,9.15,297.0,1.2,3800
0.5989962375093153,64.45,6.2,300.0,1.35,3900
0.6154465266491774,67.2,6.75,303.0,1.35,4000
0.6338455647533942,71.6,7.75,304.0,1.4,4100
0.6063719219135681,63.0,6.6,307.0,1.35,4200
0.6307548743291834,71.45,7.7,311.0,1.0,4300
0.6360805612903302,64.8,7.05,313.0,1.45,4400
0.613104647133502,72.3,8.55,315.0,1.5,4500
0.6615715436811654,70.15,8.15,318.0,1.35,4600
0.6041451080632531,63.05,5.85,320.0,1.1,4700
0.5850288506347892,61.15,6.15,323.0,1.0,4800
0.6080671573606132,63.25,6.45,326.0,1.05,4900
0.6024099382061776,63.95,6.1,328.0,1.05,5000
0.4930308224136429,35.7,0.65,44.0,0.1,100
0.4894680020617863,39.3,1.35,52.0,0.35,200
0.4947233360221298,37.1,1.95,66.0,0.8,300
0.5314312742500055,44.75,2.5,77.0,0.45,400
0.51819356481747,40.9,1.75,91.0,0.3,500
0.530622822814973,38.7,1.55,106.0,0.05,600
0.616148947082129,73.35,6.1,123.0,0.3,700
0.5191926179867232,38.45,1.55,138.0,0.15,800
0.620459922989441,80.05,7.55,154.0,0.0,900
0.6136314308904006,76.05,6.9,163.0,0.15,1000
0.5174083664095643,46.85,2.55,173.0,0.45,1100
0.5881322412909336,71.45,5.9,178.0,0.2,1200
0.5823752269596641,71.95,6.0,188.0,0.1,1300
0.5934582711986908,62.1,5.25,196.0,0.2,1400
0.5559816556284496,68.2,5.5,204.0,0.4,1500
0.5892866258425065,66.55,5.6,208.0,0.25,1600
0.5756750559044286,71.7,6.0,214.0,0.3,1700
0.6255800356826903,77.4,7.45,218.0,0.4,1800
0.6016560764846006,69.9,6.4,225.0,0.35,1900
0.5760713676516044,75.05,6.7,230.0,0.05,2000
0.5680063844854847,67.3,5.15,231.0,0.15,2100
0.5880728907376074,69.45,5.6,235.0,0.1,2200
0.5742171255071049,68.8,5.8,237.0,0.2,2300
0.5833711950444116,80.45,7.0,238.0,0.2,2400
0.552959749212475,60.5,4.2,240.0,0.05,2500
0.5943246139490642,68.05,5.7,241.0,0.3,2600
0.5717591921895795,65.6,5.0,246.0,0.25,2700
0.581130722556616,71.0,6.05,246.0,0.4,2800
0.5714570373278887,71.6,5.9,249.0,0.05,2900
0.5806831078714715,80.85,7.45,249.0,0.2,3000
0.596905110239131,71.9,6.4,253.0,0.4,3100
0.5447588684651612,58.5,4.05,256.0,0.35,3200
0.5415153839797131,65.05,5.1,258.0,0.35,3300
0.5689271932638394,70.75,5.8,261.0,0.15,3400
0.5414508713821591,65.35,4.75,265.0,0.2,3500
0.6124937765196172,78.4,7.5,265.0,0.15,3600
0.5709270010147679,68.3,5.85,268.0,0.4,3700
0.5451075820868028,58.65,4.7,270.0,0.4,3800
0.5697849205566266,75.45,6.8,275.0,0.45,3900
0.5804775160008465,62.9,4.85,280.0,0.1,4000
0.5622363650352308,63.1,5.2,280.0,0.2,4100
0.5486621963899139,54.8,3.65,282.0,0.15,4200
0.5979895389038606,70.15,5.75,285.0,0.3,4300
0.585820711637235,68.7,6.2,287.0,0.35,4400
0.5286072852975595,66.4,5.25,293.0,0.3,4500
0.5572229341235861,62.45,4.75,294.0,0.25,4600
0.571568350080949,68.75,5.7,299.0,0.35,4700
0.5645699549162801,63.7,5.25,304.0,0.4,4800
0.6083755587605072,71.45,6.3,305.0,0.15,4900
0.5486491892774609,64.6,5.1,309.0,0.1,5000
0.4904055238895837,33.3,0.65,48.0,0.2,100
0.49917344696450733,48.9,2.7,63.0,0.5,200
0.5144175175582031,37.85,1.2,76.0,0.05,300
0.5796391846035176,68.5,5.45,94.0,0.05,400
0.5348106388976315,48.2,2.5,108.0,0.0,500
0.569173375301566,69.65,5.5,111.0,0.2,600
0.5350220334951011,63.55,4.35,120.0,0.0,700
0.5904496158176873,73.9,6.45,125.0,0.0,800
0.5197944092752916,49.5,2.95,130.0,0.2,900
0.512367488428223,52.25,3.35,135.0,0.25,1000
0.5863862010293728,69.8,5.75,143.0,0.15,1100
0.5458458445370803,62.85,4.7,148.0,0.3,1200
0.5746419441943414,60.9,4.55,153.0,0.2,1300
0.534600537660003,56.75,3.5,154.0,0.2,1400
0.5301218761466319,53.85,3.65,157.0,0.3,1500
0.5717558592656301,59.65,4.6,158.0,0.4,1600
0.527272543685452,49.6,2.7,163.0,0.2,1700
0.5234921606942429,51.2,3.05,163.0,0.25,1800
0.5266463735753459,52.95,3.55,165.0,0.45,1900
0.5847557960481995,65.7,5.2,170.0,0.3,2000
0.565443065149585,62.8,5.0,170.0,0.4,2100
0.5637085802623529,65.7,5.55,172.0,0.35,2200
0.5354586397195616,57.65,4.25,176.0,0.2,2300
0.5850374209271363,63.1,5.0,182.0,0.2,2400
0.5476645971957222,53.4,3.9,184.0,0.35,2500
0.5528294141347415,60.45,4.8,187.0,0.25,2600
0.5828346282310475,61.45,4.85,191.0,0.3,2700
0.5434981868826891,62.45,4.8,193.0,0.4,2800
0.5681941819440479,67.2,4.9,195.0,0.35,2900
0.5308690525757879,64.05,5.0,197.0,0.4,3000
0.5734882397548355,64.6,5.25,199.0,0.4,3100
0.592116442322971,74.5,6.95,204.0,0.45,3200
0.6223452021998093,79.7,7.6,206.0,0.15,3300
0.5633370707815419,67.0,5.45,209.0,0.25,3400
0.5726499266054894,58.45,4.85,211.0,0.4,3500
0.5678338783456234,64.0,5.15,212.0,0.5,3600
0.6160350925723594,81.3,7.2,215.0,0.2,3700
0.592266986560354,68.4,6.1,220.0,0.25,3800
0.614156404749324,76.05,7.15,220.0,0.4,3900
0.5670128549831877,66.25,5.2,221.0,0.2,4000
0.5997529927205706,77.65,7.35,224.0,0.45,4100
0.6071214896670546,65.75,5.8,225.0,0.4,4200
0.586143697822754,72.85,6.45,229.0,0.1,4300
0.5859251023622909,69.8,6.25,233.0,0.4,4400
0.6012461842383098,68.8,6.2,235.0,0.3,4500
0.570910932557529,62.75,4.95,237.0,0.3,4600
0.601685321593564,75.25,6.5,243.0,0.1,4700
0.599497014693097,70.4,6.75,245.0,0.35,4800
0.5946438989731744,74.9,6.65,248.0,0.2,4900
0.569814526704022,73.9,6.45,250.0,0.15,5000
0.49004856069323466,30.7,0.4,47.0,0.15,100
0.5267801983508057,34.45,1.3,53.0,0.6,200
0.5017872957465974,40.65,1.8,63.0,0.65,300
0.5308126475725499,40.0,2.0,72.0,0.6,400
0.5329437304200693,50.3,3.15,89.0,0.45,500
0.5519902182889715,51.75,3.95,99.0,1.1,600
0.4929799433223051,41.0,2.25,109.0,0.7,700
0.569229262665125,57.1,5.35,120.0,1.3,800
0.5368206036520279,43.75,3.1,137.0,1.2,900
0.5459106343172332,51.65,3.65,154.0,0.65,1000
0.5391245191242381,47.3,2.85,166.0,0.55,1100
0.5736057461650003,56.15,4.15,176.0,0.45,1200
0.6073424657049957,64.65,6.15,182.0,0.65,1300
0.5011651700614042,49.55,3.05,190.0,0.45,1400
0.607749946032066,68.7,6.75,195.0,0.8,1500
0.6255311748607864,75.65,8.0,199.0,0.95,1600
0.6595010422163085,70.15,7.5,206.0,0.9,1700
0.626981003604772,68.3,6.85,210.0,0.9,1800
0.6319493015725585,67.9,6.8,212.0,0.4,1900
0.6112226267865747,68.2,6.3,219.0,0.75,2000
0.6364248337121092,67.15,6.45,226.0,0.5,2100
0.5859805614774806,68.75,6.1,233.0,0.45,2200
0.5687143448488533,77.45,7.65,235.0,0.65,2300
0.6287852801216707,76.85,7.65,236.0,0.6,2400
0.6091511774071354,79.4,8.0,237.0,0.5,2500
0.6469490339789414,77.7,8.45,241.0,0.6,2600
0.6614226656780738,87.3,9.6,242.0,0.45,2700
0.5819689062319767,72.2,6.7,246.0,0.65,2800
0.6525794940134082,71.3,7.6,248.0,0.9,2900
0.6063696534645067,69.95,6.6,253.0,0.85,3000
0.6646971070023335,88.45,9.9,258.0,0.55,3100
0.6535771073551426,76.45,8.6,265.0,0.65,3200
0.5777764190836491,75.4,8.15,267.0,1.15,3300
0.6659420569756015,89.9,10.3,268.0,0.85,3400
0.6225768940172766,71.35,7.6,269.0,0.9,3500
0.6399982781281994,75.2,7.6,272.0,0.65,3600
0.6420054083066435,74.1,8.2,276.0,0.85,3700
0.6535410524761698,81.9,8.75,276.0,0.7,3800
0.6531924813582062,78.45,8.15,278.0,0.75,3900
0.5805719886978122,62.45,5.4,279.0,0.8,4000
0.6437581870901135,84.15,8.95,283.0,0.7,4100
0.6186850501725136,68.3,6.6,286.0,0.75,4200
0.6537595595525626,79.15,9.35,289.0,0.75,4300
0.6084107979732951,76.6,8.0,292.0,0.6,4400
0.6533942285220774,78.25,8.8,295.0,0.75,4500
0.6366420988334605,80.65,8.7,297.0,1.0,4600
0.6461504820445387,76.25,8.35,302.0,0.45,4700
0.6199586641894642,78.8,8.0,304.0,0.55,4800
0.6258784306899404,74.2,7.9,309.0,0.45,4900
0.6029379660090964,76.5,7.75,311.0,0.7,5000
0.49650605878260556,39.75,1.4,50.0,0.35,100
0.5302251402336011,37.25,1.6,63.0,0.45,200
0.5873809383275113,63.3,4.5,72.0,0.0,300
0.546540318366197,67.95,5.6,87.0,0.45,400
0.5848378797326139,71.35,5.95,100.0,0.3,500
0.5275903671095841,47.8,3.05,112.0,0.55,600
0.5619551300289508,52.2,3.5,118.0,0.55,700
0.5351108476038218,46.65,2.6,122.0,0.3,800
0.5733763501249489,56.25,4.3,130.0,0.3,900
0.5842515585590322,63.95,4.9,140.0,0.15,1000
0.5617689337847251,69.7,6.7,143.0,0.6,1100
0.5871540617312379,58.05,4.5,150.0,0.45,1200
0.5926337450165595,74.0,7.1,155.0,0.35,1300
0.5597170111092923,62.65,4.7,158.0,0.45,1400
0.5167548820721263,51.3,3.45,164.0,0.6,1500
0.5523994950281911,57.8,4.6,168.0,0.35,1600
0.5568754304807376,58.2,4.25,170.0,0.45,1700
0.524354235408535,50.05,3.05,175.0,0.55,1800
0.49501632887466834,43.7,2.3,177.0,0.6,1900
0.5345217037897765,63.65,4.9,179.0,0.55,2000
0.527621355325213,57.65,3.8,179.0,0.25,2100
0.5567435192216911,56.0,4.15,179.0,0.6,2200
0.5430106092863098,53.0,3.35,181.0,0.45,2300
0.5207174410637727,48.95,3.1,184.0,0.65,2400
0.49973500035569335,59.95,4.3,187.0,0.4,2500
0.5924211884672306,53.95,4.3,191.0,0.6,2600
0.5525819145314143,51.65,3.65,195.0,0.45,2700
0.5796711724398426,60.5,4.9,195.0,0.5,2800
0.5771866711158048,65.45,5.6,199.0,0.25,2900
0.5327735760928574,58.9,4.05,200.0,0.4,3000
0.5683961943893141,60.6,4.55,205.0,0.35,3100
0.5744654839644482,67.5,5.25,211.0,0.35,3200
0.5496984501668443,63.7,4.9,214.0,0.3,3300
0.5718580869376508,68.15,5.75,216.0,0.35,3400
0.5964612784549461,78.85,7.3,219.0,0.45,3500
0.5968855082940318,73.6,6.4,221.0,0.2,3600
0.5926793145793134,74.8,6.75,222.0,0.3,3700
0.5618220425731443,71.5,5.85,222.0,0.15,3800
0.6036985102317617,74.25,6.65,223.0,0.25,3900
0.5299062620611974,63.4,4.75,225.0,0.25,4000
0.5737118316034956,69.2,5.55,228.0,0.25,4100
0.6219565242905452,70.65,6.4,230.0,0.35,4200
0.5521938570370326,68.8,5.85,234.0,0.1,4300
0.5830900063288483,64.2,5.25,238.0,0.25,4400
0.5776875334200662,75.7,6.9,241.0,0.45,4500
0.5978225795305423,71.3,6.3,243.0,0.4,4600
0.5448567139718681,62.2,4.65,245.0,0.25,4700
0.5601108970812236,60.9,4.75,246.0,0.15,4800
0.5904281523402465,64.4,5.25,248.0,0.35,4900
0.5785469506516332,76.3,6.9,251.0,0.25,5000
0.476039767289162,31.25,0.35,48.0,0.2,100
0.5121960848077668,38.9,1.2,62.0,0.45,200
0.5133794774170284,40.1,1.75,73.0,0.45,300
0.4931007454175663,36.95,1.3,84.0,0.4,400
0.5637697118501164,46.75,3.95,102.0,1.3,500
0.5809161278081372,55.65,4.45,117.0,0.3,600
0.5735764390381162,60.85,4.9,133.0,0.55,700
0.5657103450983099,59.6,4.65,151.0,0.45,800
0.5732778945976531,51.45,4.2,162.0,0.55,900
0.5151406535127374,45.4,2.5,166.0,0.5,1000
0.5776733725032291,53.75,3.6,168.0,0.15,1100
0.5452377826776122,54.95,3.6,175.0,0.2,1200
0.5293124429390098,57.1,4.05,183.0,0.4,1300
0.5553985544448189,60.25,4.6,188.0,0.5,1400
0.550048218648028,62.0,4.55,191.0,0.25,1500
0.5218022452802341,46.7,2.65,193.0,0.45,1600
0.5416023151326101,45.25,2.55,198.0,0.4,1700
0.5706708107987182,60.7,4.4,199.0,0.1,1800
0.5964466479688666,61.75,4.75,203.0,0.35,1900
0.5531563335657695,69.15,5.75,206.0,0.3,2000
0.554424054845138,58.65,4.15,211.0,0.25,2100
0.5534158894040113,57.55,3.85,217.0,0.35,2200
0.5587726847993041,49.2,3.05,225.0,0.15,2300
0.5677524646271158,61.25,4.9,226.0,0.45,2400
0.5528185100265627,66.0,5.55,229.0,0.45,2500
0.5872376675627202,67.95,5.95,232.0,0.25,2600
0.5319828664755254,48.0,2.85,238.0,0.5,2700
0.5792777379302512,67.6,5.85,244.0,0.45,2800
0.5713920423319829,63.7,4.95,246.0,0.25,2900
0.5466813884650986,61.65,4.2,248.0,0.35,3000
0.5817705301189726,64.3,5.35,250.0,0.75,3100
0.5585272556554661,61.7,4.6,255.0,0.2,3200
0.5072182267730079,51.15,2.85,255.0,0.25,3300
0.6001384302376428,60.9,4.6,255.0,0.6,3400
0.5878732759555158,70.65,6.05,259.0,0.35,3500
0.5825842235498937,66.45,5.65,261.0,0.3,3600
0.623435460142051,71.25,6.45,262.0,0.45,3700
0.5971014975088633,61.4,5.35,265.0,0.6,3800
0.5870802759362223,63.5,5.35,268.0,0.35,3900
0.6530907109192994,84.9,8.95,274.0,0.3,4000
0.6023502888054195,71.45,6.5,277.0,0.5,4100
0.5917680832004641,69.45,5.55,279.0,0.15,4200
0.5803789098596492,72.2,6.25,281.0,0.3,4300
0.5989042425470257,59.55,5.0,285.0,0.65,4400
0.5656694723444861,55.9,3.9,287.0,0.5,4500
0.5868495304310455,57.0,4.6,288.0,0.45,4600
0.6151182194833009,76.55,6.9,290.0,0.25,4700
0.5857024558703672,77.3,6.6,292.0,0.15,4800
0.5838579281432323,64.55,5.75,293.0,0.35,4900
0.6310838826409675,71.15,7.0,296.0,0.6,5000
0.48229680863208096,32.05,0.55,51.0,0.3,100
0.544345134041438,44.75,2.05,60.0,0.1,200
0.5619939713114951,48.85,2.95,67.0,0.25,300
0.5673731567068103,67.7,5.65,74.0,0.45,400
0.5399412988964936,65.3,4.7,80.0,0.1,500
0.5649351911301477,59.65,4.1,88.0,0.4,600
0.5900970717550554,65.9,5.15,98.0,0.05,700
0.5135525176929384,63.7,4.9,106.0,0.15,800
0.585373457376331,63.4,5.0,112.0,0.0,900
0.5727329768331695,63.25,4.7,122.0,0.05,1000
0.5343517198878501,51.95,3.25,124.0,0.25,1100
0.6378464805758483,84.05,8.55,127.0,0.1,1200
0.5909101087990986,65.1,5.25,136.0,0.05,1300
0.5878342715781533,76.8,7.05,140.0,0.2,1400
0.5901470655934185,71.8,6.05,146.0,0.25,1500
0.5621760475316256,65.1,4.8,153.0,0.15,1600
0.5736125331880644,70.2,5.55,155.0,0.1,1700
0.5379734231458217,56.85,3.65,157.0,0.1,1800
0.5409309290163444,59.95,4.2,160.0,0.25,1900
0.5392741161792151,55.7,3.7,162.0,0.15,2000
0.5682455891984548,56.05,3.95,163.0,0.25,2100
0.5489781635388115,59.85,4.7,167.0,0.15,2200
0.5264066282004178,56.05,3.65,169.0,0.25,2300
0.5224960423630421,53.05,3.05,176.0,0.05,2400
0.5493693672924722,61.7,4.8,180.0,0.25,2500
0.5533441916667501,60.65,4.25,180.0,0.25,2600
0.5679692101317807,66.05,5.1,182.0,0.15,2700
0.5682715917570044,64.7,4.6,183.0,0.1,2800
0.5620540853457038,59.6,4.25,186.0,0.05,2900
0.5538634777947699,62.1,4.35,189.0,0.05,3000
0.5321172877029225,68.05,5.05,189.0,0.0,3100
0.5577546047573861,66.8,5.4,190.0,0.05,3200
0.5772825529785072,69.65,5.5,193.0,0.05,3300
0.5624936829454816,62.1,4.6,194.0,0.15,3400
0.5630504486923633,60.0,4.25,196.0,0.0,3500
0.559568900838715,66.75,5.05,200.0,0.05,3600
0.5423223608371605,69.6,5.35,201.0,0.1,3700
0.5260790404052559,71.0,5.35,203.0,0.1,3800
0.5199210036986308,63.7,4.65,205.0,0.0,3900
0.5711459159685133,65.9,5.0,208.0,0.05,4000
0.5573948410776361,70.65,5.8,211.0,0.05,4100
0.603796214889406,74.65,6.4,213.0,0.15,4200
0.5518321404278606,66.85,5.1,213.0,0.0,4300
0.5820709784632324,61.0,4.8,215.0,0.05,4400
0.5750078163248353,64.45,4.8,216.0,0.05,4500
0.5549595228065267,66.55,4.7,216.0,0.05,4600
0.5662504705315515,62.0,4.35,218.0,0.15,4700
0.5558742659295199,73.0,5.75,220.0,0.1,4800
0.5466795650509371,64.1,4.7,224.0,0.1,4900
0.5730739601368084,65.5,4.55,224.0,0.15,5000
0.5156062568840091,41.25,1.65,41.0,0.4,100
0.5547610929191762,51.05,2.9,52.0,0.25,200
0.5015993478142453,32.85,0.7,65.0,0.2,300
0.5421112612784356,45.4,2.8,75.0,0.85,400
0.4923799711805298,44.35,2.25,91.0,0.6,500
0.5594747605265475,48.2,3.0,105.0,0.45,600
0.5679700933161735,52.15,3.5,119.0,0.5,700
0.6446980766901131,77.5,7.55,125.0,0.15,800
0.5289958120211811,43.6,2.15,142.0,0.05,900
0.5388931368916079,45.95,2.5,150.0,0.0,1000
0.6152897246761252,64.8,5.75,173.0,0.1,1100
0.565140847711232,52.45,3.05,183.0,0.0,1200
0.6270022642608675,79.65,8.2,186.0,0.4,1300
0.5817564614192136,72.1,6.45,196.0,0.55,1400
0.5488700105632714,59.45,4.4,201.0,0.4,1500
0.5200387835946809,52.1,3.15,209.0,0.2,1600
0.5230704283883421,52.0,3.05,214.0,0.2,1700
0.5910919991794922,73.25,6.15,220.0,0.15,1800
0.5719116890279643,62.1,4.55,227.0,0.05,1900
0.5581660159633608,51.95,3.3,232.0,0.15,2000
0.5523611441935075,55.0,3.3,232.0,0.15,2100
0.5805677392624917,59.55,4.1,237.0,0.1,2200
0.6188787253153136,70.2,5.95,243.0,0.2,2300
0.5958821321904167,73.1,6.3,251.0,0.15,2400
0.5636011838219257,67.15,5.4,252.0,0.1,2500
0.5928881627115181,68.25,6.0,258.0,0.3,2600
0.5973761383897468,72.25,6.6,261.0,0.2,2700
0.6271086120272262,82.45,8.25,265.0,0.05,2800
0.5948992531734357,68.35,5.95,268.0,0.25,2900
0.6023684136094217,78.7,7.2,270.0,0.05,3000
0.6176367851649618,77.35,7.35,270.0,0.55,3100
0.5893502308670724,81.9,7.9,272.0,0.05,3200
0.6178046755992171,76.15,7.25,278.0,0.15,3300
0.6164415511147455,76.35,7.25,281.0,0.2,3400
0.6175803224469408,83.85,8.15,283.0,0.15,3500
0.5829787011009926,73.5,6.3,286.0,0.35,3600
0.6513420792348225,81.25,7.75,289.0,0.25,3700
0.6182807956005718,78.3,7.4,291.0,0.3,3800
0.5835223792282058,71.85,6.15,292.0,0.3,3900
0.5632778358832234,58.35,4.2,294.0,0.1,4000
0.6067657924544585,72.65,6.45,299.0,0.15,4100
0.5720536130080571,64.35,5.05,303.0,0.2,4200
0.5938902731968718,71.85,7.0,305.0,0.35,4300
0.5980109092302432,65.35,5.65,306.0,0.15,4400
0.5996804753162871,76.2,6.95,306.0,0.3,4500
0.6059010262364448,66.95,6.1,308.0,0.35,4600
0.5783863384266197,65.4,5.35,308.0,0.25,4700
0.6154478930450568,81.5,8.2,312.0,0.05,4800
0.6151289032713705,80.7,7.7,314.0,0.35,4900
0.6035470619019858,74.05,6.85,315.0,0.45,5000
0.464228366568783,32.3,0.55,44.0,0.3,100
0.5034218902967719,42.95,1.75,57.0,0.35,200
0.5321177831485333,56.3,3.1,67.0,0.0,300
0.5284247047282924,42.4,1.65,81.0,0.0,400
0.5819661176177293,64.9,5.75,90.0,0.1,500
0.5451465595609417,50.85,3.0,104.0,0.1,600
0.5996911876491537,70.2,6.1,114.0,0.15,700
0.5252527026847373,55.4,3.5,130.0,0.2,800
0.5770933649712351,59.25,4.55,137.0,0.1,900
0.5554153782109517,66.6,5.05,151.0,0.2,1000
0.5631601366641455,60.65,4.4,159.0,0.35,1100
0.5721166518422769,56.75,3.85,162.0,0.3,1200
0.5067176745421865,52.85,3.1,163.0,0.35,1300
0.5145349581153191,55.45,3.4,169.0,0.15,1400
0.5841203830157121,65.5,5.05,175.0,0.1,1500
0.5435750627505629,62.45,4.4,180.0,0.05,1600
0.51870100783801,47.95,2.5,186.0,0.05,1700
0.5410894634146505,70.2,5.55,190.0,0.1,1800
0.536207640946891,56.05,4.0,197.0,0.2,1900
0.543814679022457,63.05,4.65,198.0,0.25,2000
0.6038641928085784,63.55,5.3,202.0,0.1,2100
0.5641542832786244,63.6,5.05,203.0,0.15,2200
0.517314988184052,54.3,3.45,205.0,0.1,2300
0.5632378453337792,68.6,5.95,208.0,0.2,2400
0.5875201748611903,74.9,6.55,212.0,0.1,2500
0.5804203825226002,68.65,5.65,215.0,0.15,2600
0.5445432072499049,65.5,4.7,216.0,0.05,2700
0.5992528155859185,73.35,6.55,222.0,0.25,2800
0.6185468824879213,82.2,7.75,226.0,0.15,2900
0.5850643731343186,54.15,4.05,226.0,0.35,3000
0.5748319947494396,67.85,5.6,228.0,0.25,3100
0.5515762279426469,65.6,4.55,230.0,0.1,3200
0.5790602773577933,76.35,6.55,232.0,0.15,3300
0.5600610189317502,59.8,4.85,233.0,0.1,3400
0.556500565395306,66.5,5.15,235.0,0.1,3500
0.5071426394448117,52.6,3.4,237.0,0.3,3600
0.5652456352186686,61.45,4.5,241.0,0.4,3700
0.5707422482424495,68.8,5.6,244.0,0.15,3800
0.5252530033667234,54.2,3.45,247.0,0.2,3900
0.5508465578928254,50.05,2.7,250.0,0.1,4000
0.5149021084148844,50.0,2.85,251.0,0.1,4100
0.5293548620166624,60.25,4.5,253.0,0.4,4200
0.5641932034243597,67.65,5.1,254.0,0.15,4300
0.549013869427042,62.6,4.4,255.0,0.1,4400
0.5637370415606212,65.5,5.15,257.0,0.2,4500
0.5784172175186671,67.05,5.0,259.0,0.0,4600
0.515443455310787,56.45,3.65,262.0,0.1,4700
0.5480676718075299,57.4,4.25,264.0,0.2,4800
0.5665364536852988,68.6,5.55,268.0,0.2,4900
0.5210638637644329,65.95,4.7,271.0,0.3,5000
0.5205333985365894,41.9,1.35,49.0,0.1,100
0.5414713373582254,50.2,2.9,59.0,0.25,200
0.531056268100448,41.65,2.05,74.0,0.25,300
0.5343617081798858,55.15,4.25,80.0,0.9,400
0.5564233834389206,46.5,2.95,93.0,0.4,500
0.6378034877162756,69.7,6.95,101.0,0.15,600
0.5517346386162842,57.7,4.8,116.0,0.6,700
0.5909933720674343,67.7,6.7,122.0,0.95,800
0.538687522012369,52.6,3.7,133.0,0.6,900
0.6041347228617211,65.2,6.45,140.0,0.9,1000
0.5698451764081063,57.05,4.85,151.0,0.7,1100
0.5818720654117191,56.25,4.15,160.0,0.65,1200
0.568108633855889,51.8,3.65,164.0,0.45,1300
0.5668938393628487,59.2,4.45,170.0,0.35,1400
0.527500391230131,52.65,3.5,175.0,0.6,1500
0.5737008748768703,57.2,4.55,180.0,0.85,1600
0.6118436718822122,76.2,7.15,183.0,0.3,1700
0.6487122840184161,84.0,8.9,186.0,0.2,1800
0.5466986548679148,65.15,5.15,189.0,0.3,1900
0.570730878969367,57.35,4.2,195.0,0.3,2000
0.557320691887932,63.6,4.7,200.0,0.4,2100
0.5652983857801698,59.75,4.15,204.0,0.35,2200
0.6022237357001408,62.3,5.2,208.0,0.55,2300
0.5804585994418674,66.85,5.65,210.0,0.35,2400
0.5267846601137323,70.3,6.2,213.0,0.35,2500
0.5490150537588177,67.95,5.85,215.0,0.5,2600
0.559404743663011,57.2,4.2,220.0,0.2,2700
0.6040779671092096,79.45,7.35,221.0,0.3,2800
0.546692549825085,63.0,4.75,223.0,0.3,2900
0.5609087135673521,59.8,4.95,227.0,0.45,3000
0.5127066404315679,71.15,5.85,230.0,0.2,3100
0.6021392514197255,79.9,7.85,235.0,0.3,3200
0.5533491512991917,61.95,4.75,238.0,0.2,3300
0.5646831612185477,61.15,4.75,238.0,0.2,3400
0.5763918215786575,61.65,4.75,240.0,0.3,3500
0.5641377944035502,63.75,4.75,241.0,0.15,3600
0.6015317660120603,74.35,6.95,242.0,0.25,3700
0.5685443139288034,62.65,5.25,246.0,0.35,3800
0.5549834369280227,66.15,5.05,247.0,0.05,3900
0.5898764582451036,64.0,5.05,249.0,0.2,4000
0.5659999279566852,66.65,5.55,251.0,0.25,4100
0.5567040717862167,64.7,5.15,253.0,0.45,4200
0.5531532416771879,67.65,5.5,256.0,0.25,4300
0.5519690738989731,63.0,4.6,258.0,0.2,4400
0.5246017888139283,47.1,2.75,258.0,0.25,4500
0.5254863918413207,53.45,3.4,261.0,0.2,4600
0.5642941185253496,65.0,5.05,262.0,0.25,4700
0.5528854504552068,61.55,4.55,264.0,0.3,4800
0.5577976708726016,67.85,5.5,265.0,0.15,4900
0.5788398413011668,74.3,5.95,266.0,0.25,5000
0.4892408725008971,30.85,0.3,49.0,0.2,100
0.49344153902093824,35.0,0.85,55.0,0.15,200
0.49385996657368986,33.2,0.95,66.0,0.6,300
0.5261890559882156,40.9,1.9,77.0,0.4,400
0.5535964965403339,48.5,3.2,89.0,0.7,500
0.5646331537073384,52.75,4.3,103.0,1.05,600
0.5486096610484351,48.15,3.1,111.0,0.7,700
0.5592340345664311,56.0,4.6,121.0,0.75,800
0.5596723671808876,58.05,4.8,132.0,1.0,900
0.5996663359338965,66.2,6.55,145.0,1.25,1000
0.6137062846486516,66.9,6.95,150.0,1.2,1100
0.6022703005222491,54.35,5.3,157.0,1.15,1200
0.5858719111043498,76.35,8.2,165.0,1.65,1300
0.5740541100780118,68.05,6.1,172.0,1.1,1400
0.5676478004596566,62.05,5.8,178.0,1.05,1500
0.5836040703014092,61.85,5.65,183.0,1.1,1600
0.5611323482609023,63.5,5.3,191.0,0.95,1700
0.573602125526059,61.7,5.9,196.0,1.1,1800
0.6253143323823717,68.5,6.85,196.0,0.85,1900
0.5731599839168792,54.6,4.75,198.0,1.1,2000
0.5742662918604798,67.15,6.45,202.0,0.85,2100
0.5745218909497459,51.7,4.5,206.0,1.15,2200
0.6183192888836759,75.9,8.3,211.0,1.0,2300
0.6086594370499633,57.1,5.35,216.0,1.15,2400
0.6308768514575296,66.45,7.15,221.0,1.1,2500
0.5676935556670265,64.9,6.0,224.0,1.2,2600
0.6095748295791614,72.3,7.85,226.0,1.2,2700
0.5870658534738983,62.3,5.9,228.0,1.15,2800
0.5817008937069705,65.25,6.0,229.0,1.15,2900
0.5876416645261111,56.95,5.2,230.0,1.5,3000
0.5777086928248141,68.25,6.6,232.0,1.15,3100
0.5842895433041575,58.85,5.15,237.0,1.15,3200
0.6161993359128118,69.3,6.5,237.0,0.6,3300
0.5776548467398755,61.3,5.25,241.0,0.9,3400
0.6292503233778248,61.65,6.0,242.0,1.0,3500
0.5918791943964667,69.6,6.85,242.0,1.05,3600
0.6003372032897469,64.6,5.85,246.0,0.95,3700
0.598600834355032,67.55,6.45,249.0,1.1,3800
0.5865037065569604,65.1,6.2,251.0,1.0,3900
0.6076775191385432,67.9,6.95,256.0,1.1,4000
0.5818439347717985,65.55,6.35,257.0,1.0,4100
0.5918409263302145,63.8,6.15,262.0,1.35,4200
0.5885461637431628,62.45,6.05,265.0,0.9,4300
0.6317720050503431,72.65,7.65,267.0,1.15,4400
0.5976396170612912,56.75,5.7,268.0,1.35,4500
0.5984844991456852,71.55,7.8,269.0,1.4,4600
0.6043923939940857,65.0,6.4,271.0,0.8,4700
0.5947232846084939,69.45,6.35,274.0,1.0,4800
0.5766981564585267,71.6,7.35,274.0,0.85,4900
0.6134084323446458,65.4,6.7,274.0,0.8,5000
