Energy,Episode length,Green food,Number of nodes,Red food,Trained time steps
0.5104358472992765,36.2,0.7,0.0,0.35,100
0.5154355228607248,37.8,1.1,0.0,0.35,200
0.5103613999462786,36.25,0.55,0.0,0.2,300
0.5047464527703828,40.2,1.15,0.0,0.35,400
0.5021757950246879,37.4,0.85,0.0,0.35,500
0.5022651776615682,40.1,0.9,0.0,0.05,600
0.5071929118214636,34.4,0.8,0.0,0.5,700
0.49684475103990994,35.6,0.7,0.0,0.4,800
0.4984525426615568,36.0,0.75,0.0,0.35,900
0.4956503315120572,36.65,0.7,0.0,0.25,1000
0.515342502362121,36.45,0.8,0.0,0.4,1100
0.4975071143791784,35.05,0.85,0.0,0.45,1200
0.486811319610802,36.4,0.7,0.0,0.35,1300
0.5050306627680116,38.1,1.0,0.0,0.4,1400
0.515407818552158,35.2,0.75,0.0,0.45,1500
0.47602439776376704,37.25,0.9,0.0,0.4,1600
0.48032672239223206,39.45,1.05,0.0,0.25,1700
0.4990698966860597,35.9,0.75,0.0,0.45,1800
0.5096375556622083,41.0,1.25,0.0,0.3,1900
0.5071978688738421,33.6,0.7,0.0,0.65,2000
0.5183608125335759,35.8,0.75,0.0,0.3,2100
0.51596809826976,38.95,0.9,0.0,0.3,2200
0.5274798149023413,41.75,1.35,0.0,0.25,2300
0.5066694444785068,37.95,0.95,0.0,0.2,2400
0.4936793016428026,35.85,0.65,0.0,0.3,2500
0.5089412206833184,38.15,1.0,0.0,0.35,2600
0.5125325889493426,40.65,1.15,0.0,0.25,2700
0.4835737309357796,39.65,0.95,0.0,0.25,2800
0.48986876382193445,39.55,0.95,0.0,0.15,2900
0.5020718488355211,41.2,1.15,0.0,0.15,3000
0.4872937231078901,37.6,0.75,0.0,0.2,3100
0.5229203139173689,38.8,1.1,0.0,0.45,3200
0.5187074119150997,37.95,0.75,0.0,0.2,3300
0.5083208492349789,40.0,1.1,0.0,0.35,3400
0.5135050134280311,36.4,1.05,0.0,0.5,3500
0.489331761612942,39.35,1.05,0.0,0.4,3600
0.4945258414288899,40.35,1.15,0.0,0.2,3700
0.5270382486289791,38.65,0.9,0.0,0.35,3800
0.5008418926053244,41.45,1.0,0.0,0.1,3900
0.5346300745168217,40.1,1.1,0.0,0.25,4000
0.4766039572138994,35.55,0.6,0.0,0.25,4100
0.48872718217994376,37.35,0.8,0.0,0.3,4200
0.509802155130616,42.8,1.3,0.0,0.2,4300
0.4961428019289773,34.35,0.6,0.0,0.5,4400
0.5262691360252251,35.2,0.75,0.0,0.35,4500
0.5052434520964357,36.15,0.8,0.0,0.4,4600
0.49221998182190746,42.15,1.3,0.0,0.2,4700
0.5074017427367531,38.4,1.05,0.0,0.4,4800
0.4948164479931111,35.0,0.6,0.0,0.4,4900
0.5072715414774777,41.3,1.35,0.0,0.4,5000
0.49883774907114653,36.95,0.8,0.0,0.35,100
0.49312159867712724,37.25,0.7,0.0,0.25,200
0.550899863286584,42.25,1.45,0.0,0.2,300
0.48543779787565633,35.65,0.7,0.0,0.35,400
0.5144513650351005,41.65,1.1,0.0,0.2,500
0.5218648347765199,40.9,1.1,0.0,0.2,600
0.5023477425216086,37.75,1.0,0.0,0.4,700
0.5138590656409628,42.0,1.4,0.0,0.2,800
0.5449172207542186,36.65,0.9,0.0,0.4,900
0.5013940228108754,43.0,1.4,0.0,0.25,1000
0.48299372386495226,40.15,1.05,0.0,0.35,1100
0.5013114130285665,41.3,1.2,0.0,0.15,1200
0.5043571405846369,43.05,1.3,0.0,0.2,1300
0.4888834505677197,35.3,0.75,0.0,0.4,1400
0.4949772265790484,37.9,0.85,0.0,0.35,1500
0.49837024216244885,42.6,1.4,0.0,0.3,1600
0.5032575011054192,37.9,0.9,0.0,0.35,1700
0.5231084104505442,38.7,1.0,0.0,0.3,1800
0.518218496642117,35.05,0.6,0.0,0.35,1900
0.49065084812485293,36.2,0.85,0.0,0.4,2000
0.49277023273328596,38.85,0.95,0.0,0.3,2100
0.49699035599587515,36.4,0.75,0.0,0.35,2200
0.5156075188266608,39.2,1.3,0.0,0.45,2300
0.5434584840670448,34.6,0.8,0.0,0.6,2400
0.5085830544579347,37.15,0.75,0.0,0.2,2500
0.5009241163625113,35.95,0.7,0.0,0.35,2600
0.5330936239787032,37.2,1.1,0.0,0.5,2700
0.5051910813662324,38.2,0.95,0.0,0.3,2800
0.49594189819524936,35.55,0.7,0.0,0.45,2900
0.5245201457116722,41.7,1.25,0.0,0.25,3000
0.49956543178842133,38.4,1.1,0.0,0.45,3100
0.48547703752794263,36.9,0.8,0.0,0.3,3200
0.5260549411150516,38.95,1.2,0.0,0.5,3300
0.4855653980704019,33.6,0.55,0.0,0.5,3400
0.4687655663004814,38.7,0.9,0.0,0.3,3500
0.5066541641520541,42.65,1.35,0.0,0.2,3600
0.48286852795697166,34.05,0.5,0.0,0.3,3700
0.5190210384204851,38.95,1.2,0.0,0.35,3800
0.507003250635454,35.1,0.9,0.0,0.5,3900
0.49554891574818977,41.7,1.3,0.0,0.35,4000
0.4844170019191719,35.95,0.55,0.0,0.25,4100
0.5095804314187107,38.7,0.75,0.0,0.1,4200
0.5113951842399358,36.65,0.7,0.0,0.2,4300
0.49980148928232937,37.95,0.9,0.0,0.35,4400
0.48314333959012784,37.05,0.9,0.0,0.45,4500
0.5251771728509538,43.55,1.35,0.0,0.15,4600
0.49106473438477155,37.2,0.75,0.0,0.25,4700
0.5128664832432148,40.2,1.3,0.0,0.5,4800
0.5014160511813631,36.05,0.8,0.0,0.35,4900
0.5037708771707815,36.65,0.7,0.0,0.25,5000
0.5070227633378022,36.5,0.7,0.0,0.2,100
0.47991105999095496,35.5,0.65,0.0,0.4,200
0.530502464687574,40.2,1.2,0.0,0.35,300
0.5109488767134235,41.15,1.25,0.0,0.35,400
0.49801128525715466,37.6,0.75,0.0,0.2,500
0.5244699451393393,39.15,1.15,0.0,0.3,600
0.4911503267429843,37.05,0.85,0.0,0.3,700
0.5163117265490331,37.65,0.7,0.0,0.2,800
0.4925306622179327,40.85,1.0,0.0,0.25,900
0.483304224862873,38.4,0.75,0.0,0.15,1000
0.5092904129392288,38.45,0.95,0.0,0.3,1100
0.5015889774680686,40.15,1.2,0.0,0.35,1200
0.4863555867561272,36.25,0.6,0.0,0.3,1300
0.5184474820009538,40.0,1.05,0.0,0.15,1400
0.5146785015823004,37.35,0.9,0.0,0.4,1500
0.5079442712409715,35.5,0.65,0.0,0.35,1600
0.4964800128373238,40.3,1.25,0.0,0.45,1700
0.5020212258589246,38.75,0.9,0.0,0.25,1800
0.4994936679213451,46.2,1.8,0.0,0.2,1900
0.5204071594729738,40.6,1.1,0.0,0.1,2000
0.4986077489212827,38.15,0.9,0.0,0.25,2100
0.5035599935518267,40.45,1.15,0.0,0.35,2200
0.5007143566175289,38.8,1.15,0.0,0.4,2300
0.51977491708672,38.8,1.0,0.0,0.35,2400
0.49189529500216655,36.3,0.7,0.0,0.3,2500
0.5031231709739772,36.0,0.8,0.0,0.2,2600
0.4900559465948261,40.2,1.2,0.0,0.35,2700
0.5334400467308058,45.8,1.55,0.0,0.15,2800
0.519022043820047,40.2,1.0,0.0,0.3,2900
0.4792582207602772,35.3,0.75,0.0,0.55,3000
0.5119345693668035,39.15,1.15,0.0,0.4,3100
0.5011389392023577,38.8,0.9,0.0,0.3,3200
0.5251658829351116,39.05,1.05,0.0,0.25,3300
0.5158788381655526,40.3,1.05,0.0,0.3,3400
0.4926816969092739,37.95,1.0,0.0,0.35,3500
0.4854998515312272,40.5,0.9,0.0,0.1,3600
0.5174317380490355,40.8,1.3,0.0,0.3,3700
0.5246384033179786,41.45,1.3,0.0,0.4,3800
0.5199411507308729,39.35,1.05,0.0,0.25,3900
0.506535036984913,40.0,1.2,0.0,0.3,4000
0.5002719161612909,38.5,0.9,0.0,0.25,4100
0.5168930749476875,42.45,1.4,0.0,0.2,4200
0.512522518975582,36.9,0.85,0.0,0.4,4300
0.5149263465336472,38.75,1.1,0.0,0.35,4400
0.49461112696061305,36.1,0.6,0.0,0.2,4500
0.49052868664428484,33.5,0.6,0.0,0.4,4600
0.5165452172258749,35.65,0.75,0.0,0.35,4700
0.5000716582128547,41.15,1.3,0.0,0.3,4800
0.48910177713800584,40.05,1.05,0.0,0.35,4900
0.535418765367082,37.2,1.0,0.0,0.35,5000
0.48604842518855207,35.55,0.8,0.0,0.5,100
0.4861595488019689,38.3,0.85,0.0,0.3,200
0.48074021258675864,37.05,0.95,0.0,0.35,300
0.48983228476646284,39.75,1.1,0.0,0.25,400
0.49036903648893615,40.0,1.0,0.0,0.15,500
0.49551843850122423,36.8,0.8,0.0,0.25,600
0.49415753668638257,38.75,1.0,0.0,0.4,700
0.5031109803948033,38.1,0.9,0.0,0.25,800
0.4941330285417105,38.4,0.9,0.0,0.2,900
0.5066737902657041,38.0,1.0,0.0,0.4,1000
0.5035081273297725,36.35,0.95,0.0,0.5,1100
0.48756026612944614,37.45,0.8,0.0,0.4,1200
0.5028736994546895,35.0,0.85,0.0,0.65,1300
0.5117211421993922,38.75,0.95,0.0,0.3,1400
0.5194239883316887,36.8,0.8,0.0,0.3,1500
0.4954843594635231,41.2,1.15,0.0,0.15,1600
0.5021299303089154,34.3,0.7,0.0,0.5,1700
0.5086381299816225,37.45,0.8,0.0,0.35,1800
0.48754638918111326,36.05,0.75,0.0,0.35,1900
0.5120635940879719,36.5,0.9,0.0,0.35,2000
0.5170102355671191,40.25,1.3,0.0,0.4,2100
0.5141707556507698,37.75,1.0,0.0,0.35,2200
0.5041108933850004,34.95,0.65,0.0,0.45,2300
0.4889010763733947,39.2,1.15,0.0,0.2,2400
0.4928587146508563,38.55,0.9,0.0,0.3,2500
0.509204215107246,35.8,0.8,0.0,0.45,2600
0.47204522057859843,36.85,0.7,0.0,0.25,2700
0.5017277043151546,38.65,0.95,0.0,0.2,2800
0.4995799994960001,40.95,1.15,0.0,0.1,2900
0.5090325749217676,36.35,0.75,0.0,0.3,3000
0.5050055110728718,35.8,0.75,0.0,0.4,3100
0.5045729042116672,35.9,0.7,0.0,0.4,3200
0.5086189050430877,36.45,0.85,0.0,0.4,3300
0.5239253633728431,38.85,0.95,0.0,0.3,3400
0.4957651801574022,36.65,0.65,0.0,0.4,3500
0.5518002814930568,41.9,1.45,0.0,0.4,3600
0.5242771205377822,39.7,1.25,0.0,0.3,3700
0.4931164777538033,36.75,0.85,0.0,0.45,3800
0.5120116956982339,35.4,0.65,0.0,0.3,3900
0.4898514457466495,40.2,0.95,0.0,0.1,4000
0.49335379678219027,37.35,0.6,0.0,0.1,4100
0.4970217079547067,36.7,0.85,0.0,0.4,4200
0.49716019624527685,38.2,0.9,0.0,0.25,4300
0.48829798734759233,36.85,0.7,0.0,0.25,4400
0.522826868839257,41.4,1.35,0.0,0.3,4500
0.48880708630163383,38.8,1.05,0.0,0.45,4600
0.49964990540984944,39.55,0.9,0.0,0.1,4700
0.5123054351846024,39.25,0.95,0.0,0.25,4800
0.5025228862838301,42.2,1.3,0.0,0.25,4900
0.518252114270123,40.7,1.15,0.0,0.25,5000
0.5164411160367393,41.0,1.3,0.0,0.25,100
0.47312016409727525,36.45,0.95,0.0,0.5,200
0.4897470596877304,42.7,1.4,0.0,0.35,300
0.50452161343869,40.0,1.1,0.0,0.3,400
0.5213028597062014,42.5,1.3,0.0,0.15,500
0.5193074843244373,36.6,0.9,0.0,0.35,600
0.5025077655113267,37.0,0.9,0.0,0.4,700
0.5114786647237065,42.05,1.25,0.0,0.25,800
0.4763412966414918,37.55,0.9,0.0,0.45,900
0.4998490863698497,38.9,1.05,0.0,0.3,1000
0.491263650826553,35.15,0.85,0.0,0.55,1100
0.49962879252978043,41.85,1.1,0.0,0.25,1200
0.5138433823657456,36.35,0.85,0.0,0.4,1300
0.5086761931595196,37.75,1.05,0.0,0.45,1400
0.5027373738435018,42.7,1.55,0.0,0.35,1500
0.5007743267452878,40.25,1.15,0.0,0.3,1600
0.5060436451903956,38.8,1.1,0.0,0.25,1700
0.5033677314359413,32.8,0.65,0.0,0.55,1800
0.5097089885979627,41.3,1.25,0.0,0.3,1900
0.5216711531556242,39.75,1.2,0.0,0.25,2000
0.4946960833829358,39.3,1.0,0.0,0.3,2100
0.50432009338827,37.45,0.85,0.0,0.3,2200
0.5041606979759882,36.15,1.05,0.0,0.5,2300
0.48192345460019703,37.6,0.7,0.0,0.15,2400
0.482759528146744,36.2,0.85,0.0,0.5,2500
0.5009758661671415,37.3,0.95,0.0,0.3,2600
0.5045831796604021,41.55,1.1,0.0,0.2,2700
0.5006901392400145,35.7,0.9,0.0,0.45,2800
0.49503441841922635,40.15,1.35,0.0,0.55,2900
0.47448003456012444,40.15,1.1,0.0,0.25,3000
0.4996340674479619,36.65,0.7,0.0,0.4,3100
0.49494913331057155,35.2,0.8,0.0,0.6,3200
0.515674587183671,37.3,1.0,0.0,0.55,3300
0.4920312844595295,37.3,0.95,0.0,0.35,3400
0.5028911214727412,37.2,0.9,0.0,0.25,3500
0.5259638496244644,40.0,1.35,0.0,0.5,3600
0.5039150090986292,37.0,0.8,0.0,0.35,3700
0.4967479767995974,39.4,0.95,0.0,0.25,3800
0.5044348879849224,39.7,1.0,0.0,0.25,3900
0.5106500466883654,41.75,1.15,0.0,0.0,4000
0.5125341476828902,39.8,0.9,0.0,0.25,4100
0.4903350137994006,37.2,0.7,0.0,0.35,4200
0.501290160933271,41.9,1.35,0.0,0.4,4300
0.5297096820767635,40.8,1.25,0.0,0.3,4400
0.510603726276695,39.85,1.05,0.0,0.2,4500
0.4798531221199391,37.65,0.85,0.0,0.3,4600
0.4970737413346537,35.5,0.65,0.0,0.35,4700
0.5093721073518955,41.5,1.35,0.0,0.3,4800
0.4952677213388702,39.35,1.15,0.0,0.35,4900
0.48825583034391207,38.0,0.9,0.0,0.25,5000
0.5076423992645545,39.75,1.3,0.0,0.45,100
0.5142330453119136,31.8,0.5,0.0,0.5,200
0.5185896695646676,36.55,1.0,0.0,0.45,300
0.5032895872542087,34.95,0.8,0.0,0.5,400
0.49825175851137027,40.25,1.15,0.0,0.35,500
0.4825188356617508,37.55,0.75,0.0,0.25,600
0.5160037147832076,40.8,1.05,0.0,0.15,700
0.5128787034345069,37.2,0.9,0.0,0.45,800
0.49913404765455116,40.85,1.0,0.0,0.15,900
0.493427663951392,35.95,0.75,0.0,0.4,1000
0.5043622557696854,38.55,0.9,0.0,0.35,1100
0.5118294572920762,37.3,1.0,0.0,0.45,1200
0.5106532273795255,37.7,1.05,0.0,0.4,1300
0.47720113716924184,36.25,0.9,0.0,0.4,1400
0.5029555449984373,39.35,1.05,0.0,0.25,1500
0.49987240612553824,39.7,1.1,0.0,0.3,1600
0.5079988419595318,39.3,1.1,0.0,0.35,1700
0.4997849358714128,35.6,0.65,0.0,0.3,1800
0.5003326042707532,38.9,0.85,0.0,0.15,1900
0.48533364236737986,39.95,1.15,0.0,0.35,2000
0.5167564456229312,38.3,1.05,0.0,0.35,2100
0.4927375146730446,37.55,0.7,0.0,0.15,2200
0.5343098629080699,42.4,1.35,0.0,0.2,2300
0.5243690495498696,38.2,1.05,0.0,0.35,2400
0.4760273646404129,38.6,0.9,0.0,0.3,2500
0.5029288418462416,43.1,1.5,0.0,0.35,2600
0.5025919535504182,40.55,0.9,0.0,0.1,2700
0.4996352374233644,36.0,0.7,0.0,0.35,2800
0.49516327425235873,37.5,0.8,0.0,0.25,2900
0.5124404414749498,37.95,1.05,0.0,0.45,3000
0.5390758049711174,42.85,1.4,0.0,0.3,3100
0.5278086130850442,37.1,1.05,0.0,0.35,3200
0.4942833995059653,34.6,0.55,0.0,0.4,3300
0.4975049311523422,41.3,1.3,0.0,0.35,3400
0.5066146492949885,38.05,1.15,0.0,0.65,3500
0.5064826922932641,43.3,1.25,0.0,0.1,3600
0.5160318043343101,35.25,0.65,0.0,0.3,3700
0.4918249515679557,40.4,1.0,0.0,0.25,3800
0.46811349922960466,33.25,0.5,0.0,0.35,3900
0.4885395039105743,37.95,1.1,0.0,0.45,4000
0.49014069440758046,39.15,1.0,0.0,0.2,4100
0.5069804352272966,38.2,1.1,0.0,0.35,4200
0.48086157587391015,37.05,0.85,0.0,0.25,4300
0.49692026718482313,39.55,1.05,0.0,0.4,4400
0.4944071102207824,44.25,1.4,0.0,0.1,4500
0.5220506354273933,38.75,1.05,0.0,0.35,4600
0.5015361019347655,33.55,0.6,0.0,0.45,4700
0.5513605786714957,42.9,1.55,0.0,0.4,4800
0.5204084142588685,36.8,0.8,0.0,0.45,4900
0.5040837540302189,36.6,0.8,0.0,0.35,5000
0.4852834724028983,39.95,1.1,0.0,0.35,100
0.4933684229549633,39.15,0.8,0.0,0.2,200
0.4964379767281997,40.8,1.25,0.0,0.25,300
0.49867790778396826,39.1,1.1,0.0,0.45,400
0.4938586201829175,38.05,0.95,0.0,0.25,500
0.48578638974003086,38.85,1.0,0.0,0.4,600
0.4975004340210692,40.45,1.15,0.0,0.25,700
0.5393950930113294,37.55,0.95,0.0,0.45,800
0.4814462997773317,38.7,1.0,0.0,0.25,900
0.5012805768702658,38.95,1.0,0.0,0.25,1000
0.5142267359621738,38.55,1.05,0.0,0.35,1100
0.47118197072843915,34.5,0.55,0.0,0.35,1200
0.5062402908028318,36.25,0.8,0.0,0.25,1300
0.5076115879507885,40.85,1.35,0.0,0.3,1400
0.4892133584526153,37.45,0.9,0.0,0.35,1500
0.4884352011279985,34.35,0.7,0.0,0.5,1600
0.48339176094087766,39.4,0.9,0.0,0.1,1700
0.5244521118140205,37.35,1.0,0.0,0.4,1800
0.47744794565206206,38.3,0.85,0.0,0.3,1900
0.490089831109059,35.8,0.7,0.0,0.35,2000
0.5088060321702064,39.65,1.05,0.0,0.3,2100
0.4934418590159437,39.3,1.25,0.0,0.45,2200
0.5065949182812219,38.85,0.9,0.0,0.25,2300
0.5051244402984733,33.15,0.6,0.0,0.6,2400
0.5099604715132334,41.4,1.1,0.0,0.15,2500
0.5026505110913729,40.9,1.15,0.0,0.3,2600
0.49888255770412415,35.05,0.75,0.0,0.5,2700
0.4976371802784989,40.0,1.1,0.0,0.25,2800
0.49759922937205137,34.5,0.6,0.0,0.4,2900
0.506169114178543,41.55,1.3,0.0,0.15,3000
0.5143842358499475,36.5,0.95,0.0,0.4,3100
0.5112670457015013,38.0,0.85,0.0,0.3,3200
0.5084279293540129,37.5,0.95,0.0,0.4,3300
0.5218682511256311,38.95,0.95,0.0,0.25,3400
0.5021659889401053,37.05,0.7,0.0,0.15,3500
0.5136551538719585,39.65,1.0,0.0,0.2,3600
0.516930198983327,38.55,0.9,0.0,0.4,3700
0.4884678157974326,38.25,0.9,0.0,0.35,3800
0.4978553949889205,37.9,1.1,0.0,0.55,3900
0.512449221409154,38.75,0.9,0.0,0.15,4000
0.5096916604952986,40.75,1.1,0.0,0.2,4100
0.4849191557905395,40.55,1.0,0.0,0.2,4200
0.49209525509381313,34.65,0.7,0.0,0.45,4300
0.5018055271125011,36.7,0.95,0.0,0.55,4400
0.49432556004410316,35.7,0.75,0.0,0.45,4500
0.5153391573019399,38.1,0.8,0.0,0.3,4600
0.48899854580384317,36.75,0.85,0.0,0.55,4700
0.4987904976304556,36.25,0.65,0.0,0.2,4800
0.5047851761552321,35.8,0.8,0.0,0.5,4900
0.4965734071142939,35.6,0.7,0.0,0.4,5000
0.48707269639687956,36.6,0.9,0.0,0.55,100
0.5133075523606292,40.65,1.2,0.0,0.15,200
0.5073428612983142,40.2,1.15,0.0,0.3,300
0.5088859131483573,42.35,1.5,0.0,0.35,400
0.5036837718613969,37.3,0.9,0.0,0.35,500
0.480922083545056,37.6,0.85,0.0,0.25,600
0.5125620208379716,42.15,1.3,0.0,0.4,700
0.5001010136422749,38.8,0.8,0.0,0.1,800
0.5136973462780657,38.55,1.05,0.0,0.45,900
0.5058963254805393,36.8,0.8,0.0,0.4,1000
0.48389544245061283,34.7,0.6,0.0,0.4,1100
0.4934302464782103,36.85,0.75,0.0,0.25,1200
0.4754763268950143,35.4,0.6,0.0,0.3,1300
0.5087446835731452,39.95,1.05,0.0,0.35,1400
0.5073472133636859,37.3,0.9,0.0,0.3,1500
0.5054137019634168,34.95,0.8,0.0,0.4,1600
0.5168660935016545,37.15,0.85,0.0,0.35,1700
0.5007706580622242,39.1,1.15,0.0,0.45,1800
0.5125846566851835,39.7,1.15,0.0,0.3,1900
0.49658569099700794,37.75,0.85,0.0,0.25,2000
0.4821889655069082,36.6,0.85,0.0,0.3,2100
0.5174575774180616,37.45,0.85,0.0,0.25,2200
0.5171499987617427,37.15,0.85,0.0,0.4,2300
0.4970944306011503,39.5,1.1,0.0,0.45,2400
0.5073265377238289,37.2,0.95,0.0,0.35,2500
0.48341167895256243,38.0,0.9,0.0,0.25,2600
0.5028768686535297,38.6,0.95,0.0,0.3,2700
0.4745251844030542,43.1,1.25,0.0,0.2,2800
0.5084613124303936,41.95,1.25,0.0,0.25,2900
0.5099643030304931,43.25,1.35,0.0,0.25,3000
0.5006524181456093,40.6,1.0,0.0,0.2,3100
0.49241759683500225,39.65,1.05,0.0,0.45,3200
0.48917192981551355,36.8,0.9,0.0,0.55,3300
0.5012043838333693,36.8,0.9,0.0,0.2,3400
0.5048824682539155,40.35,1.15,0.0,0.3,3500
0.47162244071385,40.15,1.1,0.0,0.25,3600
0.5103283602695587,36.4,0.75,0.0,0.35,3700
0.4984145657207196,42.95,1.3,0.0,0.2,3800
0.5178405778534695,37.85,1.0,0.0,0.3,3900
0.5015659323303706,41.85,1.25,0.0,0.15,4000
0.48337017768784757,34.35,0.6,0.0,0.45,4100
0.5220447517661001,38.35,1.15,0.0,0.35,4200
0.4983813693037217,36.0,0.65,0.0,0.4,4300
0.4892665443224916,41.0,1.15,0.0,0.3,4400
0.501160805896478,40.4,1.3,0.0,0.45,4500
0.5138025435982636,38.65,0.95,0.0,0.2,4600
0.5101892555185006,39.65,1.05,0.0,0.3,4700
0.5162204855365363,44.9,1.55,0.0,0.25,4800
0.4920731137628042,36.6,0.85,0.0,0.25,4900
0.5021061217075604,40.05,0.95,0.0,0.15,5000
0.5172753133935636,39.9,1.25,0.0,0.45,100
0.5125535708002478,41.25,1.15,0.0,0.3,200
0.4949364105125095,36.45,1.0,0.0,0.5,300
0.4964888547945631,32.9,0.4,0.0,0.35,400
0.49443601651212365,36.2,0.7,0.0,0.3,500
0.49614941265251444,40.85,1.0,0.0,0.15,600
0.519593303007488,36.35,0.95,0.0,0.5,700
0.520530425350036,40.45,1.1,0.0,0.3,800
0.4928564110810313,38.3,0.8,0.0,0.2,900
0.4760597576454293,35.3,0.65,0.0,0.4,1000
0.5003930413048233,37.6,0.85,0.0,0.3,1100
0.48479746904533644,35.0,0.65,0.0,0.4,1200
0.5003550557594363,35.9,0.75,0.0,0.35,1300
0.5000421744991724,36.65,0.7,0.0,0.25,1400
0.5082636657665783,41.15,1.25,0.0,0.25,1500
0.5070214826030516,36.45,0.9,0.0,0.45,1600
0.5054277305564702,38.55,0.9,0.0,0.2,1700
0.4865629890267146,38.7,0.8,0.0,0.15,1800
0.5123673770179901,36.6,0.7,0.0,0.35,1900
0.5133962830011185,41.6,1.25,0.0,0.1,2000
0.5085542595219101,38.15,0.9,0.0,0.3,2100
0.49000545193563994,40.65,1.1,0.0,0.15,2200
0.4946030433598653,42.95,1.15,0.0,0.05,2300
0.49907905420484006,43.4,1.5,0.0,0.2,2400
0.5072395039911333,40.75,1.25,0.0,0.2,2500
0.5049765695021379,40.2,1.25,0.0,0.3,2600
0.5191017039269861,35.75,0.95,0.0,0.55,2700
0.5091153198953013,36.7,0.75,0.0,0.35,2800
0.5326941143142736,38.55,0.95,0.0,0.3,2900
0.5165461659261277,41.05,1.15,0.0,0.15,3000
0.5092700920136292,37.85,0.8,0.0,0.15,3100
0.5196297129329367,36.2,0.75,0.0,0.25,3200
0.500373720017703,35.0,0.8,0.0,0.5,3300
0.4893982293103553,36.2,0.7,0.0,0.4,3400
0.4807978211941045,38.1,0.95,0.0,0.2,3500
0.5054929408662227,40.85,1.05,0.0,0.15,3600
0.5100839008025277,39.2,0.9,0.0,0.25,3700
0.5124704619695116,37.8,0.95,0.0,0.35,3800
0.4919326619899461,37.55,0.65,0.0,0.2,3900
0.49288523226517517,37.5,0.8,0.0,0.25,4000
0.5434024650050262,42.3,1.45,0.0,0.2,4100
0.507580979631413,36.9,0.85,0.0,0.35,4200
0.4777049513965256,38.65,0.95,0.0,0.4,4300
0.49157087659183685,37.2,0.9,0.0,0.45,4400
0.5012433861543925,39.8,0.9,0.0,0.25,4500
0.528244552618492,38.3,1.05,0.0,0.3,4600
0.5010092741340002,37.15,0.9,0.0,0.2,4700
0.4993979104489344,40.85,1.05,0.0,0.2,4800
0.4938371748310931,37.05,0.9,0.0,0.4,4900
0.512462467826013,39.45,1.2,0.0,0.3,5000
0.488796492372172,35.1,0.75,0.0,0.4,100
0.500993679025485,38.45,1.0,0.0,0.35,200
0.5045357452086396,41.8,1.3,0.0,0.15,300
0.5067900779359803,38.75,1.0,0.0,0.2,400
0.4941336411062722,44.55,1.4,0.0,0.1,500
0.512727662863691,35.1,0.85,0.0,0.45,600
0.5181028425334148,39.5,1.05,0.0,0.35,700
0.5050448871207605,38.85,0.95,0.0,0.2,800
0.5041763125273591,35.45,0.7,0.0,0.4,900
0.5018405129537948,40.3,1.2,0.0,0.35,1000
0.4952320674277465,33.95,0.8,0.0,0.85,1100
0.5112324061303486,38.5,0.75,0.0,0.05,1200
0.49940483975837646,37.45,0.9,0.0,0.5,1300
0.5146937453919136,39.15,1.2,0.0,0.35,1400
0.5153825110789343,38.15,0.95,0.0,0.35,1500
0.522115469988034,40.15,1.05,0.0,0.25,1600
0.5043621817957562,38.7,0.95,0.0,0.25,1700
0.5254230475802099,37.95,1.0,0.0,0.5,1800
0.5097525335809701,41.8,1.5,0.0,0.45,1900
0.5016313919511177,39.25,1.05,0.0,0.25,2000
0.49653814726505835,35.85,0.95,0.0,0.45,2100
0.5007985117676899,37.7,0.95,0.0,0.3,2200
0.511598345276948,36.55,0.95,0.0,0.45,2300
0.4972135865081758,38.35,0.9,0.0,0.25,2400
0.4940950674273408,41.8,1.35,0.0,0.45,2500
0.5289551610616667,38.4,0.95,0.0,0.45,2600
0.5081002172462308,38.4,1.1,0.0,0.45,2700
0.5146350055177499,36.85,0.9,0.0,0.3,2800
0.498185976032216,37.15,0.9,0.0,0.45,2900
0.5158015020439245,39.05,1.0,0.0,0.35,3000
0.5201443062420738,40.85,1.2,0.0,0.35,3100
0.49063318036963804,35.8,0.8,0.0,0.45,3200
0.4959705159335992,41.4,1.3,0.0,0.4,3300
0.5023523622891385,40.35,1.2,0.0,0.25,3400
0.49889441923905287,37.95,1.0,0.0,0.3,3500
0.521574543209073,43.25,1.55,0.0,0.4,3600
0.5112617928566403,37.65,0.85,0.0,0.25,3700
0.4717207934004211,34.8,0.65,0.0,0.3,3800
0.5068801713287179,40.8,1.25,0.0,0.4,3900
0.4826287077374515,36.85,0.7,0.0,0.3,4000
0.48950371589888053,36.75,0.95,0.0,0.3,4100
0.5073141361357607,37.2,0.85,0.0,0.3,4200
0.5215413667973549,36.25,0.85,0.0,0.4,4300
0.4911863126393394,38.25,1.0,0.0,0.4,4400
0.49492890486341673,35.25,0.9,0.0,0.5,4500
0.49445155497655124,38.55,1.1,0.0,0.35,4600
0.5205576204647346,43.95,1.5,0.0,0.15,4700
0.5148151710359964,37.75,0.8,0.0,0.35,4800
0.47896268611797205,37.05,0.8,0.0,0.45,4900
0.5150290732506888,36.55,0.85,0.0,0.35,5000
0.49809120524551986,35.35,0.7,0.0,0.35,100
0.5097135865745417,39.9,1.0,0.0,0.15,200
0.5147153639738875,35.65,0.8,0.0,0.35,300
0.4867529702748886,42.5,1.15,0.0,0.25,400
0.5100107402896816,36.15,0.85,0.0,0.4,500
0.5130213942745415,40.6,1.2,0.0,0.4,600
0.4821868496027782,34.9,0.75,0.0,0.55,700
0.4927333713128797,36.2,0.65,0.0,0.3,800
0.5050062237030721,39.95,0.9,0.0,0.2,900
0.5162826439300342,37.3,1.15,0.0,0.6,1000
0.5041110636770557,38.45,0.95,0.0,0.3,1100
0.49814173179564564,40.6,1.3,0.0,0.4,1200
0.5182294875555231,41.6,1.25,0.0,0.25,1300
0.49737130322972006,36.25,0.8,0.0,0.35,1400
0.49900165792912166,38.15,0.9,0.0,0.3,1500
0.5169924553966571,43.65,1.4,0.0,0.2,1600
0.49520809241671315,38.65,0.75,0.0,0.15,1700
0.49270738557648663,41.55,1.2,0.0,0.15,1800
0.5162365389404056,35.65,0.65,0.0,0.3,1900
0.4923653532297183,34.1,0.65,0.0,0.45,2000
0.5080652137692927,41.8,1.15,0.0,0.15,2100
0.49540958055935597,41.95,1.25,0.0,0.15,2200
0.5022178418874932,37.45,0.7,0.0,0.35,2300
0.47503652883270703,37.45,0.85,0.0,0.3,2400
0.4961160518017822,37.75,0.85,0.0,0.35,2500
0.49457575399022036,33.25,0.6,0.0,0.4,2600
0.5086818866245839,40.45,1.1,0.0,0.3,2700
0.5077474862814427,39.95,1.2,0.0,0.5,2800
0.5076321475458492,35.9,0.6,0.0,0.2,2900
0.4724410528094839,34.75,0.75,0.0,0.5,3000
0.5177045961450137,40.0,1.15,0.0,0.25,3100
0.5199923938804105,36.85,0.85,0.0,0.4,3200
0.4971149463945671,37.25,0.65,0.0,0.2,3300
0.4950975061960786,38.55,0.95,0.0,0.35,3400
0.5346078612686692,36.2,0.85,0.0,0.45,3500
0.523885818837858,40.35,1.25,0.0,0.3,3600
0.48878017962086834,40.0,1.1,0.0,0.3,3700
0.4922868847878156,38.7,0.8,0.0,0.25,3800
0.4964335293848182,37.5,1.05,0.0,0.4,3900
0.4848231436523136,43.6,1.35,0.0,0.25,4000
0.49374607162213485,39.75,1.15,0.0,0.25,4100
0.49272341453296076,40.75,1.4,0.0,0.55,4200
0.5230745698886562,41.1,1.2,0.0,0.35,4300
0.5019876703208725,37.85,1.0,0.0,0.3,4400
0.4898454072733343,41.35,1.15,0.0,0.15,4500
0.503049919944943,38.0,1.1,0.0,0.55,4600
0.5192036759239349,39.75,1.1,0.0,0.25,4700
0.5340456537812319,43.2,1.55,0.0,0.2,4800
0.505090110186899,40.25,1.0,0.0,0.25,4900
0.5105898432780247,41.95,1.15,0.0,0.2,5000
0.5061269242503579,36.4,0.75,0.0,0.3,100
0.485418343446531,37.2,0.75,0.0,0.3,200
0.48786279378384984,37.9,0.9,0.0,0.35,300
0.512997506660576,39.35,1.05,0.0,0.3,400
0.5099526050301315,38.15,0.95,0.0,0.25,500
0.4865840442603693,41.1,1.2,0.0,0.2,600
0.4938410247160876,37.15,0.9,0.0,0.4,700
0.49076213348197584,36.3,0.8,0.0,0.25,800
0.5012608762439459,38.0,0.8,0.0,0.2,900
0.4984561058560001,41.5,1.15,0.0,0.05,1000
0.5248799787357367,39.25,1.1,0.0,0.25,1100
0.5138463618473544,42.3,1.45,0.0,0.3,1200
0.5251792278646257,41.15,1.2,0.0,0.2,1300
0.5213630664596959,38.2,0.9,0.0,0.2,1400
0.5118684109356768,34.75,0.85,0.0,0.65,1500
0.49228535841735477,34.4,0.75,0.0,0.55,1600
0.49927616361531174,38.7,0.9,0.0,0.25,1700
0.5212066403307571,42.85,1.3,0.0,0.25,1800
0.5049896319303627,37.45,0.95,0.0,0.5,1900
0.5014375081209431,41.5,1.2,0.0,0.3,2000
0.5087570612390134,38.0,1.0,0.0,0.4,2100
0.47445040036033426,39.2,1.15,0.0,0.45,2200
0.48671966314363474,36.15,0.65,0.0,0.25,2300
0.4873065758187848,36.8,0.65,0.0,0.2,2400
0.5001106372405589,38.7,0.85,0.0,0.3,2500
0.49948606844079074,33.35,0.55,0.0,0.4,2600
0.5217578957751494,40.05,1.15,0.0,0.2,2700
0.48531267238373826,37.3,1.0,0.0,0.55,2800
0.5087332080817288,39.65,1.3,0.0,0.45,2900
0.491824764809084,37.6,0.85,0.0,0.3,3000
0.5117369192945047,42.8,1.4,0.0,0.25,3100
0.5081069104759427,39.5,1.15,0.0,0.4,3200
0.49659591224194566,37.1,0.75,0.0,0.25,3300
0.5134747330197797,39.75,1.05,0.0,0.25,3400
0.4712830256440152,35.3,0.75,0.0,0.4,3500
0.4965252000968013,41.3,1.25,0.0,0.25,3600
0.5087221062160352,36.95,0.8,0.0,0.3,3700
0.5109322514706447,37.5,1.0,0.0,0.45,3800
0.4995754242626867,35.65,0.8,0.0,0.5,3900
0.49001526747957713,40.0,1.25,0.0,0.4,4000
0.4939967014365658,38.6,1.15,0.0,0.45,4100
0.5351379306006108,38.3,1.15,0.0,0.35,4200
0.5225855510972892,38.1,0.85,0.0,0.3,4300
0.5062171646614885,41.25,1.4,0.0,0.35,4400
0.49796976661303305,39.35,1.0,0.0,0.35,4500
0.5091868270950753,39.75,1.0,0.0,0.35,4600
0.5085304327410719,40.05,1.15,0.0,0.35,4700
0.5095721843601929,39.6,1.2,0.0,0.25,4800
0.5117078658662555,38.7,0.8,0.0,0.2,4900
0.4921022575490664,40.05,1.0,0.0,0.05,5000
0.5058433243828732,40.7,1.0,0.0,0.25,100
0.5181132699138593,38.2,1.0,0.0,0.35,200
0.49800486074734246,34.35,0.65,0.0,0.35,300
0.5017785555182354,40.05,1.2,0.0,0.3,400
0.4873212912056978,38.8,1.05,0.0,0.3,500
0.4942472127700886,37.1,1.0,0.0,0.5,600
0.4960312418441081,41.15,1.0,0.0,0.2,700
0.49593775890224884,33.6,0.55,0.0,0.45,800
0.5112303659776517,38.95,1.2,0.0,0.4,900
0.5060239756538497,38.45,1.1,0.0,0.4,1000
0.5075856706677901,41.35,1.35,0.0,0.25,1100
0.5002180001471722,39.7,1.0,0.0,0.25,1200
0.499030281497779,42.45,1.3,0.0,0.25,1300
0.5143828430186692,42.25,1.45,0.0,0.3,1400
0.5026107028074249,38.8,1.1,0.0,0.55,1500
0.502403045854818,37.35,0.75,0.0,0.2,1600
0.4958003097823382,37.2,0.8,0.0,0.25,1700
0.5256981163058743,37.95,1.05,0.0,0.55,1800
0.5116208033281655,36.45,0.95,0.0,0.45,1900
0.5035316871552713,39.45,0.9,0.0,0.15,2000
0.5149530195273703,37.4,1.0,0.0,0.5,2100
0.512670720753137,37.85,0.8,0.0,0.2,2200
0.4850018340695074,35.7,0.55,0.0,0.2,2300
0.5116710924429365,40.85,1.25,0.0,0.35,2400
0.4826867250189764,38.0,0.75,0.0,0.2,2500
0.5066266787065186,39.15,1.0,0.0,0.3,2600
0.49817604485752,38.45,0.95,0.0,0.3,2700
0.5356555712542123,45.55,1.55,0.0,0.2,2800
0.5109143218933612,40.35,1.15,0.0,0.3,2900
0.5038360796812826,38.65,1.2,0.0,0.45,3000
0.503633884312258,39.75,1.0,0.0,0.25,3100
0.5118035480163121,38.45,1.05,0.0,0.3,3200
0.519231342221316,42.0,1.15,0.0,0.25,3300
0.5023340907931002,37.05,0.8,0.0,0.3,3400
0.48681792974727295,35.75,0.8,0.0,0.35,3500
0.5005279260399237,36.05,0.7,0.0,0.25,3600
0.5168451859549784,36.8,0.85,0.0,0.4,3700
0.4974696211293391,39.3,0.95,0.0,0.2,3800
0.5035303454188061,42.75,1.35,0.0,0.3,3900
0.49010809699733515,36.95,1.0,0.0,0.55,4000
0.4903338504296187,37.55,0.9,0.0,0.35,4100
0.5066729651457614,38.8,1.4,0.0,0.55,4200
0.5016097113774661,39.45,1.05,0.0,0.25,4300
0.5124425658647804,41.1,1.25,0.0,0.15,4400
0.516357246901794,38.4,1.1,0.0,0.3,4500
0.49812020664891576,42.05,1.35,0.0,0.35,4600
0.5169992152600692,39.35,0.95,0.0,0.2,4700
0.5112359730744035,37.6,0.9,0.0,0.35,4800
0.4856624919954622,32.55,0.6,0.0,0.4,4900
0.5134764742321697,37.35,0.75,0.0,0.35,5000
0.47045590675939764,35.3,0.9,0.0,0.65,100
0.49202435934729494,36.85,0.7,0.0,0.25,200
0.4959342988895128,38.6,1.0,0.0,0.2,300
0.5123271056451666,40.75,1.35,0.0,0.45,400
0.5105726205415634,33.5,0.7,0.0,0.65,500
0.5188112846411626,41.05,1.25,0.0,0.4,600
0.5104474773679829,35.8,0.8,0.0,0.35,700
0.5097767590766374,39.2,1.05,0.0,0.4,800
0.5179946893246887,40.4,1.1,0.0,0.25,900
0.5093074835400448,38.45,0.9,0.0,0.2,1000
0.494689055126117,40.2,1.1,0.0,0.25,1100
0.496678630323448,35.7,0.55,0.0,0.15,1200
0.5163806842689235,40.1,1.05,0.0,0.25,1300
0.4955298432242753,38.45,0.9,0.0,0.1,1400
0.504782786282822,34.7,0.65,0.0,0.3,1500
0.5239305676801064,37.6,0.8,0.0,0.3,1600
0.5198803605014405,41.2,1.3,0.0,0.25,1700
0.4980924028523635,38.25,0.95,0.0,0.35,1800
0.5223576164683844,40.65,1.1,0.0,0.2,1900
0.4947313534915289,34.75,0.65,0.0,0.3,2000
0.5053888895485994,38.9,1.05,0.0,0.25,2100
0.523117302555962,39.55,1.15,0.0,0.3,2200
0.5091132440790359,39.45,1.05,0.0,0.3,2300
0.5236555820038572,41.95,1.3,0.0,0.25,2400
0.5048570971904918,39.75,0.95,0.0,0.3,2500
0.5206443688348177,39.35,1.0,0.0,0.3,2600
0.481236394048761,38.9,1.0,0.0,0.4,2700
0.5193562865669061,36.8,1.1,0.0,0.45,2800
0.5119585780303839,35.3,0.85,0.0,0.45,2900
0.49157703876312137,36.9,0.85,0.0,0.3,3000
0.5078073150069594,36.1,0.85,0.0,0.4,3100
0.5144127416132331,42.25,1.2,0.0,0.05,3200
0.5267297894061445,39.85,1.15,0.0,0.3,3300
0.492784935531519,36.35,0.8,0.0,0.35,3400
0.5029864418261598,39.05,1.0,0.0,0.35,3500
0.5148774259416622,41.95,1.25,0.0,0.3,3600
0.49650799876996227,39.5,1.2,0.0,0.3,3700
0.5076373187251203,39.6,1.05,0.0,0.25,3800
0.4925869512174879,37.5,0.95,0.0,0.35,3900
0.4966746270523356,37.3,0.8,0.0,0.25,4000
0.482998884976151,37.5,0.85,0.0,0.45,4100
0.5075977990863528,38.25,0.9,0.0,0.1,4200
0.5047278096774386,37.05,0.9,0.0,0.35,4300
0.5075496171981622,37.9,0.85,0.0,0.3,4400
0.4949530447978268,38.85,0.95,0.0,0.35,4500
0.49874491258733106,41.5,1.2,0.0,0.25,4600
0.4943700580194446,39.0,0.8,0.0,0.1,4700
0.5060109706105776,39.75,1.1,0.0,0.45,4800
0.49202136500861304,37.75,0.9,0.0,0.35,4900
0.5068320031059955,38.45,1.1,0.0,0.45,5000
0.5005355566102838,38.45,0.95,0.0,0.25,100
0.5006542710013865,36.7,0.8,0.0,0.35,200
0.489046695157415,36.9,0.9,0.0,0.35,300
0.5081159038822787,40.1,1.3,0.0,0.4,400
0.4910243969951063,40.2,1.25,0.0,0.4,500
0.4994304396917107,36.95,1.05,0.0,0.45,600
0.49823229537047764,38.85,0.9,0.0,0.25,700
0.48945546863517053,38.7,0.9,0.0,0.3,800
0.5066616634493688,37.75,0.95,0.0,0.45,900
0.5052325234672523,38.35,0.9,0.0,0.25,1000
0.4845334578332987,38.85,1.15,0.0,0.55,1100
0.514488718088085,43.75,1.35,0.0,0.1,1200
0.507707097886702,42.05,1.25,0.0,0.25,1300
0.5112012567721631,36.0,0.65,0.0,0.35,1400
0.517903177446078,32.15,0.4,0.0,0.45,1500
0.5039915533506732,37.95,0.9,0.0,0.35,1600
0.49032316122697683,38.05,0.75,0.0,0.2,1700
0.47755046919153604,38.4,1.05,0.0,0.35,1800
0.5081947656505388,39.45,1.05,0.0,0.3,1900
0.5161228401561285,39.55,1.1,0.0,0.25,2000
0.5252216586191423,39.6,1.0,0.0,0.25,2100
0.5214750022861503,34.4,0.55,0.0,0.35,2200
0.500914430965891,38.35,0.9,0.0,0.35,2300
0.5029901092863287,38.95,1.0,0.0,0.2,2400
0.5029014062669956,38.25,1.05,0.0,0.4,2500
0.5362646949375103,40.0,1.2,0.0,0.35,2600
0.49180551423005703,39.7,1.0,0.0,0.3,2700
0.5175430666479613,39.6,1.0,0.0,0.25,2800
0.5337661281978885,41.6,1.3,0.0,0.25,2900
0.5198245315128144,42.45,1.35,0.0,0.25,3000
0.46787573545412925,35.3,0.8,0.0,0.5,3100
0.4911798891363036,34.4,0.75,0.0,0.5,3200
0.5226878116137782,35.1,0.8,0.0,0.4,3300
0.5096714869415064,41.3,1.05,0.0,0.15,3400
0.5085314771014577,37.15,0.9,0.0,0.45,3500
0.5065948233735392,38.8,1.0,0.0,0.4,3600
0.4933815746971465,36.7,0.85,0.0,0.35,3700
0.5166908547048656,37.5,0.9,0.0,0.3,3800
0.510118055757149,36.65,0.95,0.0,0.5,3900
0.48365265955618886,36.5,0.75,0.0,0.3,4000
0.5193161705352515,38.55,0.95,0.0,0.35,4100
0.48520138662624024,40.7,1.45,0.0,0.55,4200
0.4616323723540582,38.95,1.0,0.0,0.4,4300
0.4967656233443029,39.2,1.0,0.0,0.3,4400
0.5048805671652481,37.3,0.75,0.0,0.25,4500
0.4966171569069616,38.8,0.9,0.0,0.2,4600
0.499035336990712,37.3,0.85,0.0,0.35,4700
0.5274975538613836,39.35,1.2,0.0,0.25,4800
0.4905218888575516,37.3,0.95,0.0,0.55,4900
0.5033379777947854,37.6,0.75,0.0,0.2,5000
0.4926014583876679,42.1,1.3,0.0,0.25,100
0.5023797666342192,36.25,0.75,0.0,0.3,200
0.4914688316040888,37.2,0.9,0.0,0.4,300
0.5081001052037165,38.3,0.9,0.0,0.3,400
0.5033041846006602,36.45,0.8,0.0,0.4,500
0.5072833584786045,36.75,0.9,0.0,0.45,600
0.49022016234184046,36.35,0.9,0.0,0.45,700
0.5016230796128899,39.05,1.0,0.0,0.45,800
0.5268385738051496,40.05,1.15,0.0,0.3,900
0.48371254582467554,41.85,1.25,0.0,0.4,1000
0.5052731663536055,42.5,1.4,0.0,0.3,1100
0.5077133996597769,37.7,0.85,0.0,0.35,1200
0.5247362037096311,45.15,1.9,0.0,0.45,1300
0.5148617162234886,44.15,1.6,0.0,0.35,1400
0.5087075398110684,39.2,1.05,0.0,0.35,1500
0.5102799894220462,36.6,0.75,0.0,0.25,1600
0.4940767078978121,39.75,1.1,0.0,0.3,1700
0.48753682316746055,39.45,1.1,0.0,0.4,1800
0.5075421868349287,38.2,0.9,0.0,0.25,1900
0.4805004083206758,35.05,0.5,0.0,0.25,2000
0.5173941202313327,34.75,0.7,0.0,0.4,2100
0.5058241977749648,37.3,1.0,0.0,0.45,2200
0.5140562943114365,36.4,0.7,0.0,0.3,2300
0.5066316830843165,35.35,0.75,0.0,0.35,2400
0.5038887672380583,40.8,1.1,0.0,0.2,2500
0.4972788406881398,39.8,1.0,0.0,0.15,2600
0.49419435242176035,36.85,0.85,0.0,0.35,2700
0.48976257484774804,38.35,0.75,0.0,0.2,2800
0.5173253158717753,41.35,1.3,0.0,0.2,2900
0.5167222036200467,40.65,1.0,0.0,0.1,3000
0.4910211247492673,37.85,0.85,0.0,0.3,3100
0.5142762078981952,34.05,0.6,0.0,0.5,3200
0.5100398530535033,37.25,0.7,0.0,0.3,3300
0.48546626083432287,38.7,1.0,0.0,0.35,3400
0.5025263659194298,41.9,1.3,0.0,0.35,3500
0.49926765065117956,38.1,0.95,0.0,0.45,3600
0.526037522053896,41.75,1.2,0.0,0.25,3700
0.5010127077900717,44.35,1.4,0.0,0.05,3800
0.49838725358617963,36.3,0.8,0.0,0.3,3900
0.5123967903829253,39.7,1.15,0.0,0.35,4000
0.5056189872487387,37.55,0.85,0.0,0.35,4100
0.5281324029647069,37.2,0.8,0.0,0.35,4200
0.5041170324070393,37.3,0.8,0.0,0.25,4300
0.48698100768972996,35.6,0.7,0.0,0.35,4400
0.5011033835299241,41.25,1.25,0.0,0.4,4500
0.4878679652209496,43.55,1.3,0.0,0.2,4600
0.4820549870944144,40.2,1.1,0.0,0.35,4700
0.5178577994992521,38.85,0.95,0.0,0.2,4800
0.4982880522699623,38.05,0.85,0.0,0.3,4900
0.49367240785360433,33.5,0.55,0.0,0.45,5000
0.4992701867832678,40.2,1.05,0.0,0.35,100
0.5275656724898844,39.15,1.1,0.0,0.35,200
0.5048909139576063,39.4,1.0,0.0,0.3,300
0.49673073300669524,39.5,0.95,0.0,0.2,400
0.513178829440031,39.0,1.15,0.0,0.4,500
0.4974727105257054,37.5,0.95,0.0,0.5,600
0.5093047309334546,36.0,0.85,0.0,0.45,700
0.49934359036301823,38.2,0.85,0.0,0.15,800
0.4956930758109942,41.4,1.3,0.0,0.35,900
0.5116338691101348,40.6,1.15,0.0,0.2,1000
0.48962298606524957,39.3,1.0,0.0,0.3,1100
0.5000824164198254,43.2,1.45,0.0,0.3,1200
0.5275793877313333,38.9,1.3,0.0,0.35,1300
0.5001764829849185,41.9,1.3,0.0,0.3,1400
0.49143987306666653,38.95,0.95,0.0,0.3,1500
0.5042923285484021,42.1,1.05,0.0,0.05,1600
0.49641726975681094,41.05,1.05,0.0,0.1,1700
0.5024274585259977,37.75,0.9,0.0,0.2,1800
0.4966840792355821,36.85,0.65,0.0,0.2,1900
0.4828595633483367,35.0,0.65,0.0,0.4,2000
0.5142572377706918,37.25,0.7,0.0,0.35,2100
0.5249351375310953,40.7,1.2,0.0,0.2,2200
0.4969945010822429,38.15,0.9,0.0,0.35,2300
0.5056407131123075,40.75,1.25,0.0,0.35,2400
0.5126104576170406,36.15,0.65,0.0,0.2,2500
0.49850661768311966,38.15,1.0,0.0,0.35,2600
0.4982091947894006,38.2,1.0,0.0,0.4,2700
0.5120346008797476,40.9,1.35,0.0,0.25,2800
0.5058799314160993,34.95,0.6,0.0,0.35,2900
0.4790074636896109,37.9,0.95,0.0,0.3,3000
0.4957085011257251,38.5,1.05,0.0,0.4,3100
0.5034176482401758,41.8,1.0,0.0,0.1,3200
0.4998230419397542,38.85,1.0,0.0,0.3,3300
0.5102605829332207,35.7,0.85,0.0,0.5,3400
0.5028668765533789,38.75,0.95,0.0,0.2,3500
0.4878477200285804,37.25,0.75,0.0,0.25,3600
0.5165418923913374,39.05,1.15,0.0,0.3,3700
0.5075687434216128,39.25,1.15,0.0,0.35,3800
0.47951694411977697,37.55,0.85,0.0,0.3,3900
0.4984538010834946,39.05,1.1,0.0,0.35,4000
0.5070025337296291,43.1,1.25,0.0,0.15,4100
0.5081534092507551,40.3,1.0,0.0,0.25,4200
0.5226651605376442,35.0,0.65,0.0,0.4,4300
0.48956994685725846,33.2,0.4,0.0,0.45,4400
0.5161203164644623,42.35,1.2,0.0,0.1,4500
0.5073066693939764,34.0,0.45,0.0,0.3,4600
0.5152263663479488,37.8,0.95,0.0,0.4,4700
0.4998783059921279,37.4,0.9,0.0,0.4,4800
0.48675478720561777,36.9,0.85,0.0,0.4,4900
0.5042834025569342,40.8,1.2,0.0,0.25,5000
0.5408640699152306,39.4,1.2,0.0,0.55,100
0.4782269725828704,37.4,0.9,0.0,0.35,200
0.5026242919485464,39.45,0.95,0.0,0.3,300
0.5033586440942626,39.15,1.1,0.0,0.35,400
0.5169736167454684,42.25,1.3,0.0,0.2,500
0.5055120328722256,37.85,0.9,0.0,0.4,600
0.5258800445162686,40.85,1.35,0.0,0.3,700
0.4977085671960599,33.5,0.95,0.0,0.75,800
0.536956243406258,35.05,0.75,0.0,0.6,900
0.48313313457345525,34.75,0.7,0.0,0.5,1000
0.48197650522892843,38.05,1.0,0.0,0.35,1100
0.5119365099165611,40.25,1.0,0.0,0.2,1200
0.4796484075769767,35.8,0.75,0.0,0.5,1300
0.5000929861977615,37.95,0.9,0.0,0.2,1400
0.5098693036334702,38.65,1.05,0.0,0.45,1500
0.5133469601796393,41.45,1.1,0.0,0.15,1600
0.5058760386333877,39.55,1.1,0.0,0.25,1700
0.5044690841561634,37.4,0.8,0.0,0.3,1800
0.500439370770734,38.2,0.95,0.0,0.3,1900
0.48982583559462406,40.75,1.1,0.0,0.1,2000
0.4825309669461773,36.7,0.8,0.0,0.35,2100
0.5054240672560498,37.55,0.95,0.0,0.35,2200
0.5123180293352361,41.4,1.35,0.0,0.45,2300
0.49917949563014224,39.5,1.1,0.0,0.25,2400
0.510199592864512,36.55,0.75,0.0,0.3,2500
0.49572763988938046,34.35,0.7,0.0,0.45,2600
0.5113430563799821,37.05,0.7,0.0,0.3,2700
0.4922472231953954,39.0,0.95,0.0,0.2,2800
0.5279955957915003,38.15,1.05,0.0,0.25,2900
0.5100861118394032,36.5,0.95,0.0,0.5,3000
0.5089473700087039,38.35,0.95,0.0,0.25,3100
0.5199507492940864,40.2,1.15,0.0,0.25,3200
0.4951038768283684,42.2,1.25,0.0,0.2,3300
0.5286636446313093,39.25,1.0,0.0,0.4,3400
0.5105305791461573,37.65,0.8,0.0,0.35,3500
0.5242098743344314,40.55,1.35,0.0,0.45,3600
0.5002862479074459,38.75,1.05,0.0,0.45,3700
0.5183981635437587,37.65,0.85,0.0,0.35,3800
0.5273378758175921,40.9,1.3,0.0,0.25,3900
0.4805194783720695,36.1,0.6,0.0,0.3,4000
0.5061729585653576,39.65,1.05,0.0,0.2,4100
0.5038194405554234,35.5,0.75,0.0,0.35,4200
0.5073928738537875,38.25,0.95,0.0,0.35,4300
0.502431029829563,34.2,0.5,0.0,0.2,4400
0.5074037578538411,37.75,0.85,0.0,0.35,4500
0.5007845317704669,36.6,0.75,0.0,0.25,4600
0.5037769751930965,41.95,1.3,0.0,0.25,4700
0.4907153472380427,34.4,0.65,0.0,0.5,4800
0.5017249819071937,42.65,1.2,0.0,0.15,4900
0.5187737846409126,37.05,1.2,0.0,0.8,5000
0.5261235206554982,40.9,1.15,0.0,0.2,100
0.5289541064229708,41.7,1.5,0.0,0.5,200
0.5074649140355515,38.5,1.05,0.0,0.4,300
0.5088489749416475,39.35,0.9,0.0,0.15,400
0.4976235897200155,40.25,1.2,0.0,0.45,500
0.5068563045795059,35.45,0.9,0.0,0.55,600
0.48634892244770134,38.45,1.05,0.0,0.45,700
0.4996423953970483,36.6,0.75,0.0,0.25,800
0.5142653637218959,34.0,0.75,0.0,0.5,900
0.4835108770322793,36.6,0.6,0.0,0.25,1000
0.4982430284496074,39.95,1.1,0.0,0.25,1100
0.5362833905678115,40.5,1.25,0.0,0.45,1200
0.516440999635613,38.75,1.05,0.0,0.25,1300
0.4687859257487423,34.9,0.65,0.0,0.45,1400
0.4946662715556965,36.65,0.75,0.0,0.4,1500
0.5023100234748957,37.0,1.0,0.0,0.4,1600
0.49504288529752294,42.45,1.15,0.0,0.15,1700
0.4834150529702935,36.55,0.7,0.0,0.4,1800
0.5267206431311175,36.7,1.0,0.0,0.35,1900
0.47065743208856536,36.0,0.65,0.0,0.4,2000
0.4900048966262416,40.05,1.05,0.0,0.25,2100
0.480639293989962,41.3,1.2,0.0,0.45,2200
0.5126157109523082,38.8,1.05,0.0,0.3,2300
0.5015116563659832,38.0,0.85,0.0,0.25,2400
0.5180799575709136,39.5,1.2,0.0,0.3,2500
0.495801998233496,39.7,1.25,0.0,0.25,2600
0.5301960282729431,36.15,0.6,0.0,0.3,2700
0.5072153748385546,36.55,0.85,0.0,0.45,2800
0.5096288105730729,37.45,0.9,0.0,0.35,2900
0.48406580658991,35.25,0.55,0.0,0.3,3000
0.5105895353498983,36.1,0.8,0.0,0.45,3100
0.5091799929625246,39.0,1.1,0.0,0.3,3200
0.5005434584043358,37.65,0.9,0.0,0.3,3300
0.5097565420008787,37.85,0.85,0.0,0.2,3400
0.5170204861532353,40.1,1.2,0.0,0.25,3500
0.511309648113426,40.35,1.1,0.0,0.45,3600
0.5137849788408878,39.7,1.15,0.0,0.3,3700
0.5029690929091942,37.35,0.9,0.0,0.3,3800
0.5123062111396914,38.55,0.8,0.0,0.15,3900
0.5043837315472819,37.0,0.9,0.0,0.35,4000
0.4977039060937454,35.3,0.75,0.0,0.3,4100
0.4990405807468482,36.85,0.8,0.0,0.25,4200
0.49837545174572273,44.8,1.35,0.0,0.1,4300
0.5121287418591514,36.65,0.8,0.0,0.35,4400
0.49668283786759604,41.3,1.25,0.0,0.25,4500
0.5075304947977519,36.8,0.85,0.0,0.4,4600
0.48442507042927785,39.25,0.95,0.0,0.25,4700
0.5228415061511708,41.85,1.2,0.0,0.1,4800
0.4845169715515937,40.1,1.05,0.0,0.35,4900
0.5035368732090248,37.85,0.95,0.0,0.35,5000
0.5101637126702679,41.85,1.3,0.0,0.35,100
0.500002157228767,37.9,1.0,0.0,0.4,200
0.48598259480212447,41.25,1.15,0.0,0.2,300
0.5264261324192148,37.95,0.95,0.0,0.35,400
0.5184297797575358,36.1,1.0,0.0,0.5,500
0.5090300764036142,36.6,0.95,0.0,0.4,600
0.5237712720003068,38.1,1.15,0.0,0.55,700
0.47096227275665487,32.55,0.6,0.0,0.6,800
0.5001773040784483,37.55,0.7,0.0,0.2,900
0.49999118646237584,35.85,0.65,0.0,0.4,1000
0.5095466640303956,40.25,1.15,0.0,0.3,1100
0.5027854028592927,38.85,0.8,0.0,0.15,1200
0.5100780426910425,33.85,0.65,0.0,0.5,1300
0.4982251523954271,39.85,1.1,0.0,0.25,1400
0.5006048585006906,33.8,0.55,0.0,0.55,1500
0.5084686792776945,36.95,0.75,0.0,0.3,1600
0.5148516940138832,36.15,0.75,0.0,0.4,1700
0.5091228551167254,32.85,0.65,0.0,0.5,1800
0.5010336198887252,42.15,1.5,0.0,0.35,1900
0.5054750523475837,38.2,1.05,0.0,0.3,2000
0.5097357200769035,37.0,1.1,0.0,0.5,2100
0.4977250380319644,37.4,0.8,0.0,0.35,2200
0.4937396857085684,39.7,0.95,0.0,0.35,2300
0.4995851064918545,37.75,0.75,0.0,0.3,2400
0.512586045092444,35.4,0.8,0.0,0.55,2500
0.49517769335859174,38.0,0.9,0.0,0.3,2600
0.4859667897036976,37.8,1.0,0.0,0.45,2700
0.49145619161367887,39.75,0.8,0.0,0.05,2800
0.5129146865593042,42.25,1.35,0.0,0.4,2900
0.4791856061560741,37.55,0.95,0.0,0.5,3000
0.5066848062262965,35.75,0.85,0.0,0.5,3100
0.4980062084283704,36.7,0.8,0.0,0.3,3200
0.4878886438883326,38.85,1.05,0.0,0.45,3300
0.5111352830948224,37.3,0.95,0.0,0.2,3400
0.5141914706731624,36.8,0.95,0.0,0.45,3500
0.5119042405059736,35.85,0.65,0.0,0.3,3600
0.5005452114486204,36.7,1.0,0.0,0.4,3700
0.5082420007233271,36.65,0.85,0.0,0.45,3800
0.4960836306296509,37.45,0.7,0.0,0.25,3900
0.4852813776458487,41.65,1.25,0.0,0.4,4000
0.49234153851894613,40.05,1.2,0.0,0.5,4100
0.47363275951312567,38.0,1.0,0.0,0.4,4200
0.5151607423185397,38.05,0.85,0.0,0.3,4300
0.5050783080288642,34.95,0.8,0.0,0.6,4400
0.5088207641052999,38.8,0.8,0.0,0.15,4500
0.5089575200377052,36.9,0.6,0.0,0.05,4600
0.49979916901242294,34.9,0.6,0.0,0.45,4700
0.5017390846490658,40.7,1.15,0.0,0.2,4800
0.5034742357451033,35.65,0.6,0.0,0.3,4900
0.4813784391834311,34.95,0.75,0.0,0.35,5000
