Energy,Episode length,Green food,Number of nodes,Red food,Trained time steps
0.5067861780395386,33.65,0.75,63.0,0.15,100
0.5342356651407846,47.9,3.65,94.0,1.25,200
0.5688409185206801,57.7,4.4,112.0,0.65,300
0.5960968353339202,64.05,5.25,142.0,0.6,400
0.5580541514964099,54.85,4.9,164.0,1.05,500
0.5995176855246965,62.0,5.2,186.0,0.25,600
0.5765684991014649,66.7,6.05,207.0,0.4,700
0.6022821859203289,78.95,7.6,229.0,0.9,800
0.5644094212165907,60.5,4.45,260.0,0.2,900
0.575673028809353,72.5,6.5,287.0,0.35,1000
0.5803912818771033,69.7,5.9,316.0,0.4,1100
0.5955134537784674,75.65,7.05,331.0,0.15,1200
0.5871354730380877,68.65,5.85,352.0,0.35,1300
0.5623724305030057,56.25,4.0,374.0,0.25,1400
0.5931931771813513,60.65,4.45,395.0,0.05,1500
0.5708717976888853,53.55,3.15,421.0,0.05,1600
0.6075597646773181,60.1,5.1,439.0,0.05,1700
0.6401204901091931,81.95,7.75,464.0,0.05,1800
0.6008841226377364,80.05,7.7,484.0,0.3,1900
0.6186221818336757,69.35,5.85,500.0,0.05,2000
0.6114886303745741,67.15,5.4,518.0,0.05,2100
0.5920278435495192,71.05,5.75,532.0,0.1,2200
0.5467000212112785,65.3,5.35,550.0,0.3,2300
0.6078283496052512,62.7,5.3,579.0,0.1,2400
0.5859159364774451,61.0,4.55,596.0,0.25,2500
0.561391651358243,64.9,5.1,617.0,0.3,2600
0.5739425751341554,57.0,4.45,632.0,0.2,2700
0.5561852368111013,70.35,5.45,645.0,0.2,2800
0.6096583624082181,59.7,4.95,658.0,0.25,2900
0.5401834030696286,71.8,5.55,672.0,0.2,3000
0.5536756654003253,57.5,4.35,687.0,0.3,3100
0.6326243716367961,70.95,7.2,702.0,0.4,3200
0.5958285674392262,76.7,7.0,713.0,0.15,3300
0.5687396279289991,61.1,4.85,730.0,0.35,3400
0.5673756905256797,56.25,4.25,746.0,0.35,3500
0.60577414638223,66.95,6.15,767.0,0.45,3600
0.5783485248921727,63.5,5.45,775.0,0.55,3700
0.5678169691838157,67.0,5.35,787.0,0.25,3800
0.6205324455934587,79.05,7.85,798.0,0.25,3900
0.569106193893282,70.7,5.65,809.0,0.2,4000
0.6106282800318925,78.7,7.65,820.0,0.3,4100
0.5334818654907203,57.6,4.05,836.0,0.25,4200
0.5714016329102388,63.0,5.05,849.0,0.4,4300
0.579285313363327,65.6,5.5,864.0,0.35,4400
0.5545349149842624,58.25,4.65,873.0,0.5,4500
0.586495343948988,73.05,6.7,886.0,0.3,4600
0.6110714232874928,80.5,7.75,898.0,0.15,4700
0.6320433442418917,79.1,7.8,914.0,0.4,4800
0.6000407469015929,79.05,7.8,927.0,0.1,4900
0.5773814340949259,69.1,5.7,940.0,0.15,5000
0.4967092724269434,31.55,0.55,63.0,0.4,100
0.4780805735825807,33.1,0.95,99.0,0.35,200
0.5444358943908669,38.7,1.7,130.0,0.6,300
0.561199057256003,44.65,3.0,159.0,0.7,400
0.5680223246507516,48.35,3.9,190.0,1.05,500
0.5695580498376157,47.8,3.35,220.0,0.85,600
0.5610731837554453,45.05,3.05,258.0,0.95,700
0.5876536184225116,51.2,4.5,283.0,1.3,800
0.5586556351507148,56.5,5.5,319.0,1.5,900
0.5605029342582034,51.15,3.8,338.0,1.1,1000
0.5511054521185168,49.0,4.05,362.0,1.45,1100
0.5958111322268601,62.35,5.6,387.0,1.0,1200
0.5691695987101989,66.4,5.8,410.0,0.9,1300
0.5888853466749123,61.6,5.75,436.0,1.05,1400
0.5857298033214282,55.3,4.65,454.0,1.2,1500
0.5807641195806712,55.85,4.6,473.0,0.85,1600
0.5738563540974544,61.25,5.15,495.0,0.8,1700
0.5841966215640537,54.3,4.5,519.0,0.8,1800
0.6193721766663958,70.85,6.75,540.0,0.6,1900
0.6059306048428654,61.45,5.75,562.0,0.6,2000
0.5918689711571481,63.0,5.9,585.0,0.55,2100
0.5988053472124434,68.15,6.45,606.0,0.7,2200
0.6142867863495588,65.7,6.7,626.0,1.15,2300
0.6255403544750269,79.2,8.75,641.0,1.05,2400
0.6077148756929673,76.7,7.75,660.0,0.7,2500
0.5805171817979742,65.7,6.05,679.0,0.6,2600
0.6251436146809647,60.3,5.65,691.0,0.8,2700
0.5731209793696668,59.75,5.4,704.0,0.85,2800
0.5795827241202092,64.45,6.2,725.0,0.9,2900
0.6386161940727015,77.35,8.3,738.0,0.65,3000
0.5637101721164366,65.6,5.75,750.0,0.85,3100
0.568394754347401,65.3,6.3,769.0,1.2,3200
0.6121677201049083,71.25,6.45,783.0,0.95,3300
0.6329131106221931,77.2,8.25,801.0,0.65,3400
0.6596668940599658,77.6,8.9,812.0,0.65,3500
0.6610960215571555,78.55,8.65,829.0,0.4,3600
0.606001048684231,67.2,6.4,847.0,0.5,3700
0.618295499131015,72.8,8.05,860.0,0.85,3800
0.613315966737816,66.85,7.05,879.0,0.9,3900
0.615507650034363,77.2,7.8,891.0,0.75,4000
0.6369790789227233,83.75,8.7,901.0,0.85,4100
0.6062444885184004,70.4,7.0,914.0,0.9,4200
0.6442315409241751,75.15,8.0,934.0,0.45,4300
0.574682845072028,63.55,5.6,942.0,0.8,4400
0.6582349347166756,75.45,8.35,953.0,0.6,4500
0.6471962151885063,77.15,8.6,968.0,0.7,4600
0.6585588156159405,82.9,9.6,983.0,0.65,4700
0.6416123496520252,78.55,8.45,992.0,0.75,4800
0.6735597379406726,76.35,8.5,1002.0,0.55,4900
0.6266525058904377,69.5,7.3,1012.0,0.85,5000
0.49929136470674207,34.25,0.8,60.0,0.15,100
0.5247746850124309,39.1,2.05,88.0,0.7,200
0.5273684574786869,39.55,1.65,110.0,0.35,300
0.561627829509933,56.15,4.25,143.0,0.55,400
0.5431273204826976,57.65,4.05,167.0,0.4,500
0.5846346157263942,58.2,4.95,193.0,0.9,600
0.593486061293554,66.35,7.15,213.0,1.4,700
0.568867444684779,69.35,6.65,235.0,0.85,800
0.5824207656245689,59.55,5.35,259.0,0.9,900
0.5530764857422532,60.7,5.55,292.0,1.1,1000
0.545695954701617,58.8,5.15,319.0,0.95,1100
0.6184412119505845,68.75,6.9,343.0,1.1,1200
0.6845065210130633,78.85,9.1,367.0,0.95,1300
0.6467753889497069,70.15,7.85,392.0,1.15,1400
0.5970209431872489,67.3,7.05,408.0,1.2,1500
0.6042200920664752,71.4,7.7,421.0,0.95,1600
0.5938421626112685,72.15,7.05,443.0,0.9,1700
0.603342179405508,58.5,6.1,466.0,1.25,1800
0.6484198284223912,69.25,7.4,484.0,1.3,1900
0.5975554813869953,72.0,7.7,501.0,1.0,2000
0.6071450024547047,71.25,7.85,522.0,1.25,2100
0.6244610667483441,79.7,8.95,539.0,1.15,2200
0.6612071014021503,78.0,9.55,555.0,0.95,2300
0.6426420792309585,76.35,8.5,581.0,0.75,2400
0.649686220057249,78.65,8.35,601.0,0.75,2500
0.6409857516700047,77.25,8.95,617.0,0.75,2600
0.6793850670574485,83.45,10.15,640.0,0.5,2700
0.6521692109605712,81.5,9.55,654.0,0.75,2800
0.6836622367713109,93.55,11.9,669.0,0.9,2900
0.6483804039054841,75.5,8.4,686.0,0.7,3000
0.6462671821865167,83.25,9.55,699.0,0.85,3100
0.6485852384682083,80.7,8.85,717.0,0.6,3200
0.673089560442299,85.7,10.2,729.0,0.85,3300
0.6734335818460688,89.1,10.4,748.0,0.6,3400
0.6275074555610408,76.0,7.8,766.0,0.65,3500
0.6639858493103952,85.6,9.95,773.0,0.8,3600
0.6618063047994506,88.15,10.6,788.0,0.65,3700
0.6808020353069117,86.25,10.15,800.0,0.55,3800
0.6537272537806006,73.75,8.0,806.0,0.5,3900
0.6423557519433329,83.95,9.55,822.0,0.75,4000
0.6560452464972072,85.0,9.25,838.0,0.55,4100
0.6800379757789752,79.95,9.5,849.0,0.6,4200
0.6584608423440568,74.65,9.1,858.0,0.95,4300
0.6215964910032503,79.7,8.8,876.0,0.8,4400
0.7008757373271887,87.3,10.6,888.0,0.4,4500
0.7291810189115258,95.25,12.35,899.0,0.4,4600
0.6698183328168672,81.05,9.6,912.0,0.65,4700
0.6236664250915058,75.05,7.75,926.0,0.7,4800
0.6303858296965619,80.85,9.1,935.0,0.8,4900
0.664462100564913,83.55,9.55,946.0,0.45,5000
0.5039472468306312,37.6,1.0,61.0,0.1,100
0.5071299869119237,32.45,0.65,86.0,0.3,200
0.5301306592285984,53.25,2.8,108.0,0.0,300
0.5436430007818244,40.15,1.55,129.0,0.15,400
0.5338560665747658,47.9,2.35,155.0,0.0,500
0.5262030923847443,48.2,2.25,183.0,0.0,600
0.6047848635696741,68.65,5.8,215.0,0.0,700
0.5589313708521191,63.6,4.55,245.0,0.0,800
0.5563308734370704,54.65,3.3,268.0,0.05,900
0.571444584814347,55.4,3.45,288.0,0.0,1000
0.5281505185289823,46.55,2.15,303.0,0.0,1100
0.5247037466521951,49.8,3.0,319.0,0.05,1200
0.5558111027426923,57.5,3.55,341.0,0.0,1300
0.574696362910225,65.3,5.0,359.0,0.1,1400
0.5654518233551482,74.6,6.15,376.0,0.05,1500
0.6735446375452303,89.75,9.65,397.0,0.15,1600
0.5787989048360237,67.15,5.7,417.0,0.2,1700
0.5870497797580414,70.85,5.95,435.0,0.25,1800
0.6381361799863915,69.15,6.45,452.0,0.35,1900
0.5615337359305272,60.95,4.5,463.0,0.2,2000
0.5710612283208845,61.55,5.25,479.0,0.45,2100
0.6042856554545922,65.6,5.9,492.0,0.5,2200
0.6100069382992074,68.45,6.4,511.0,0.5,2300
0.581566297955274,67.1,5.5,524.0,0.35,2400
0.5757824048927078,68.75,6.45,538.0,0.5,2500
0.5702787151355728,67.05,5.6,552.0,0.35,2600
0.6387658740167157,79.05,7.9,566.0,0.4,2700
0.6713498517874075,84.05,8.8,582.0,0.1,2800
0.6103145919727758,74.4,7.4,595.0,0.4,2900
0.5846795527557475,57.75,4.5,606.0,0.25,3000
0.6184504760733744,64.9,6.05,612.0,0.35,3100
0.638304588693247,80.5,8.85,635.0,0.75,3200
0.682835478614035,80.6,9.15,651.0,0.4,3300
0.604648495631797,68.6,6.5,662.0,0.6,3400
0.5547438589828603,75.8,7.0,680.0,0.75,3500
0.6193279936973923,79.7,7.8,704.0,0.4,3600
0.5772174134990248,63.2,5.2,723.0,0.6,3700
0.6155497600660416,66.55,6.35,740.0,0.4,3800
0.6202482279033832,72.85,7.0,753.0,0.45,3900
0.6176014277830031,73.7,7.1,766.0,0.4,4000
0.6151890172348661,75.35,7.55,780.0,0.45,4100
0.6409969109230353,77.3,7.25,792.0,0.2,4200
0.6450764209399915,80.9,8.65,801.0,0.35,4300
0.6525928249212092,81.6,8.4,815.0,0.4,4400
0.5933531395717438,78.35,7.55,827.0,0.35,4500
0.6576341431461487,73.05,7.45,843.0,0.4,4600
0.6710006971026045,84.6,9.85,849.0,0.5,4700
0.6505778662655168,84.1,8.8,857.0,0.45,4800
0.6027542763544798,76.95,7.45,870.0,0.2,4900
0.6186441355669857,77.95,7.65,879.0,0.3,5000
0.4969922375714173,32.25,0.75,56.0,0.35,100
0.501969864994498,39.0,1.2,87.0,0.2,200
0.5128046604427471,37.35,1.25,103.0,0.25,300
0.5014436745475159,35.3,1.1,131.0,0.2,400
0.5459770527208425,38.5,1.8,156.0,0.55,500
0.5380494674009882,48.8,3.2,181.0,0.85,600
0.5680361852284841,59.45,5.35,203.0,0.9,700
0.6231780781752775,67.4,6.8,222.0,1.05,800
0.6331618946710027,74.45,7.75,246.0,0.85,900
0.6475387156709609,69.5,7.7,262.0,0.95,1000
0.6794128727902863,80.3,9.9,291.0,1.0,1100
0.6036840895641288,72.7,8.35,323.0,1.05,1200
0.634686168930138,82.15,9.2,345.0,1.1,1300
0.6455959536215764,68.95,7.6,364.0,0.95,1400
0.6253836152028003,79.6,8.65,388.0,0.9,1500
0.6629138464742502,86.15,10.7,411.0,1.1,1600
0.6890721605832091,79.55,10.25,425.0,0.95,1700
0.6163355405519595,73.75,7.75,443.0,1.3,1800
0.5950775592848306,66.0,6.95,460.0,1.05,1900
0.6069069163966623,71.45,7.2,479.0,1.15,2000
0.6112389266786565,67.2,7.55,499.0,1.0,2100
0.6213256479965451,76.3,8.75,522.0,1.0,2200
0.6483753572935534,75.0,8.5,533.0,0.85,2300
0.6784454018459607,76.5,9.15,561.0,0.9,2400
0.6308283521451111,76.25,8.65,575.0,0.95,2500
0.6174390339087684,65.0,6.65,590.0,1.2,2600
0.6209168883869596,81.1,8.85,597.0,0.6,2700
0.6179329483368546,74.6,8.05,610.0,1.1,2800
0.645996210753298,82.85,8.85,620.0,0.5,2900
0.6478488532354431,75.8,8.1,637.0,0.75,3000
0.6426656974324081,80.55,8.9,648.0,0.8,3100
0.6034990404870297,74.1,8.0,660.0,0.9,3200
0.679996879729867,89.85,10.65,670.0,0.65,3300
0.646584840369535,85.95,9.95,683.0,0.85,3400
0.6537210890386338,77.0,8.15,692.0,0.85,3500
0.6563708224945077,87.25,9.65,705.0,0.85,3600
0.6576215575588409,82.35,9.6,718.0,0.65,3700
0.6884624390897837,82.1,9.9,732.0,0.75,3800
0.6524559723461574,79.25,9.4,744.0,0.85,3900
0.658360195551176,72.5,8.1,758.0,0.8,4000
0.6308238449680819,81.55,9.2,766.0,0.8,4100
0.6310299664831824,79.4,8.8,779.0,0.85,4200
0.6364402512027689,75.95,8.05,785.0,0.6,4300
0.6330504285995625,81.4,8.95,791.0,0.6,4400
0.6432218284088755,86.45,9.35,800.0,0.55,4500
0.6145287961533107,79.25,8.95,809.0,1.05,4600
0.6357819312105796,81.4,9.0,821.0,0.55,4700
0.6956599194707166,79.85,9.6,828.0,0.55,4800
0.6404238554866684,80.0,8.5,834.0,0.65,4900
0.6719201478050424,75.3,8.6,843.0,0.7,5000
0.48454022337365793,32.35,0.65,57.0,0.3,100
0.5436874846547571,38.9,1.65,90.0,0.25,200
0.5290394786410314,43.2,2.05,118.0,0.4,300
0.6052880694810597,64.85,5.85,142.0,0.5,400
0.5874205418327599,60.25,4.75,167.0,0.45,500
0.5082484640963355,37.95,1.45,196.0,0.15,600
0.5302316272785063,42.8,2.05,224.0,0.15,700
0.5323529904831864,41.0,1.95,254.0,0.2,800
0.5421398192500134,44.6,2.4,281.0,0.3,900
0.5157676556901911,48.05,2.6,309.0,0.3,1000
0.529636609705679,51.4,3.0,335.0,0.25,1100
0.5322174607223089,50.35,3.0,352.0,0.45,1200
0.5477439421691794,62.6,5.0,380.0,0.45,1300
0.537469665983704,49.15,3.3,406.0,0.45,1400
0.5254657916350742,47.45,3.0,425.0,0.6,1500
0.5647287434610307,58.8,4.55,457.0,0.6,1600
0.5790491903919591,55.7,4.6,480.0,0.8,1700
0.5523705801160157,60.5,4.7,504.0,0.65,1800
0.5740321449744255,59.05,5.05,523.0,0.9,1900
0.5577766791831777,54.75,4.15,550.0,0.8,2000
0.5217265448128184,46.75,2.95,569.0,0.65,2100
0.5752925695658103,60.45,5.05,583.0,0.7,2200
0.5704020588310905,68.85,6.4,599.0,0.65,2300
0.591882794093402,62.65,6.0,611.0,0.8,2400
0.6015698930011985,63.55,5.85,625.0,0.85,2500
0.5861581630234671,51.6,4.4,645.0,1.05,2600
0.5561398984166182,68.75,6.0,664.0,0.9,2700
0.6123275546107625,63.95,6.15,683.0,0.65,2800
0.6437943673291749,78.75,8.7,697.0,1.1,2900
0.6443587970875403,67.7,7.25,713.0,1.05,3000
0.6501568786909281,76.15,8.6,728.0,0.9,3100
0.5982322091837959,66.75,6.85,740.0,0.85,3200
0.6717131371808501,74.95,8.45,753.0,0.6,3300
0.5738771721235364,70.45,6.65,765.0,0.5,3400
0.6156621651480626,70.6,6.4,779.0,0.45,3500
0.5959196777682065,64.75,6.05,795.0,0.8,3600
0.6066544499275539,68.5,7.05,813.0,0.55,3700
0.6485153051763298,80.35,8.5,832.0,0.8,3800
0.6373280469091458,74.5,7.85,848.0,0.6,3900
0.6579172716384589,84.1,9.6,859.0,0.7,4000
0.675559843426532,79.8,9.2,874.0,0.9,4100
0.5969866333442175,72.65,7.4,891.0,0.8,4200
0.6292321939080501,78.05,8.25,901.0,0.85,4300
0.5899592806431123,65.45,5.85,914.0,0.6,4400
0.6293950675121737,73.0,7.65,928.0,0.7,4500
0.6021384950197392,72.1,7.1,945.0,0.85,4600
0.5899340138752036,81.45,7.9,964.0,0.85,4700
0.6113603811586718,68.9,6.65,978.0,0.65,4800
0.5902506176828451,67.7,6.45,990.0,1.0,4900
0.6021441589537154,73.85,7.55,1003.0,0.8,5000
0.5133845713997,33.65,0.65,63.0,0.2,100
0.5194528167624178,36.55,1.7,95.0,0.6,200
0.4854788006511604,33.1,1.1,119.0,0.5,300
0.5645634209297793,42.4,3.0,155.0,1.3,400
0.5481004650256497,54.05,4.0,181.0,0.5,500
0.606806077403119,79.8,8.0,210.0,0.05,600
0.5743629605821317,61.45,4.7,236.0,0.1,700
0.640251202214474,75.55,6.95,255.0,0.0,800
0.6079274447393435,88.35,8.65,278.0,0.15,900
0.626978512858102,76.25,7.35,311.0,0.05,1000
0.6433833595446755,84.75,9.2,332.0,0.1,1100
0.6439389197907859,84.4,8.8,361.0,0.2,1200
0.6100897980014812,85.9,9.15,384.0,0.45,1300
0.6601484140829729,79.2,8.65,410.0,0.45,1400
0.598550166137769,81.0,8.1,431.0,0.3,1500
0.5672388496011124,63.1,5.65,449.0,0.75,1600
0.6319050276408891,69.9,6.85,465.0,0.35,1700
0.6165836532734692,82.65,8.8,484.0,0.35,1800
0.5905698473206855,77.2,7.3,499.0,0.45,1900
0.6010524962383762,83.3,8.0,514.0,0.2,2000
0.6405844606489994,76.55,7.4,528.0,0.2,2100
0.6144271192447015,76.1,7.4,549.0,0.25,2200
0.6359447379182817,85.8,8.9,569.0,0.4,2300
0.6127826507868246,81.2,8.1,587.0,0.45,2400
0.6379166040751139,74.7,7.9,600.0,0.5,2500
0.6535548915044653,82.7,8.7,619.0,0.3,2600
0.5980868254447662,73.75,6.75,629.0,0.1,2700
0.596558877569381,73.3,6.85,639.0,0.25,2800
0.6486728025256658,91.3,9.55,651.0,0.15,2900
0.6039489863114024,82.55,8.0,658.0,0.35,3000
0.64369231000241,82.5,8.25,670.0,0.15,3100
0.6483555705568504,88.35,9.45,683.0,0.4,3200
0.6083371555640595,81.3,7.95,689.0,0.15,3300
0.6128543155156673,76.5,7.45,708.0,0.2,3400
0.6089015408985567,82.05,8.4,722.0,0.25,3500
0.6290057008080117,85.45,8.7,733.0,0.2,3600
0.6386701039627545,80.85,8.35,746.0,0.2,3700
0.6647649541513542,82.2,8.8,764.0,0.3,3800
0.590683254228263,81.1,7.75,770.0,0.2,3900
0.6571425175815759,82.4,8.9,781.0,0.45,4000
0.6277698994158608,77.2,7.65,794.0,0.5,4100
0.6032298057705108,73.6,7.25,801.0,0.3,4200
0.6092648045162203,77.55,7.65,810.0,0.4,4300
0.6169000422404245,76.3,7.2,816.0,0.3,4400
0.6486789627677482,92.1,9.75,823.0,0.45,4500
0.6543310910150462,85.1,9.2,833.0,0.45,4600
0.6247781459648202,81.8,8.15,840.0,0.35,4700
0.6246134950551567,75.6,7.4,853.0,0.35,4800
0.675336081114675,85.75,9.75,864.0,0.25,4900
0.6611397212162635,86.15,9.6,869.0,0.35,5000
0.4951782288794709,38.55,1.2,59.0,0.2,100
0.5201556853850192,41.8,1.5,80.0,0.1,200
0.4968068121270628,35.05,0.65,102.0,0.1,300
0.47488355436892726,38.25,1.4,128.0,0.6,400
0.5208579800192831,41.4,1.6,155.0,0.15,500
0.5510600359759755,62.7,4.25,183.0,0.35,600
0.5420366342457963,47.25,2.15,203.0,0.05,700
0.5284641806869718,42.35,1.8,223.0,0.05,800
0.5045166535113876,47.35,2.55,240.0,0.25,900
0.5419181520050713,45.35,2.1,263.0,0.15,1000
0.5412015724459649,48.35,2.5,283.0,0.4,1100
0.5365332545823224,53.1,3.55,304.0,0.5,1200
0.5521924172800095,52.85,3.35,328.0,0.1,1300
0.5761600089174064,62.4,4.8,344.0,0.25,1400
0.5606119901076444,57.55,3.85,371.0,0.25,1500
0.5756168655502935,66.85,5.45,391.0,0.25,1600
0.5701607160355413,60.8,4.5,411.0,0.15,1700
0.5571557077541164,64.1,5.1,431.0,0.3,1800
0.5676441487035937,60.7,4.7,442.0,0.5,1900
0.5971823424451768,68.8,5.95,461.0,0.45,2000
0.5723014284581456,68.75,6.0,476.0,0.8,2100
0.5771374760565072,66.75,5.9,491.0,0.4,2200
0.562706560221098,63.6,4.9,509.0,0.4,2300
0.5763282188786043,72.15,6.6,526.0,0.65,2400
0.592322894954463,72.6,7.05,547.0,0.5,2500
0.6054558056172512,77.1,7.5,568.0,0.4,2600
0.6371859823300635,70.6,6.5,585.0,0.35,2700
0.6168991150671993,71.0,6.8,600.0,0.5,2800
0.6119924199124004,72.45,6.65,611.0,0.4,2900
0.5855946389454129,62.05,5.4,628.0,0.5,3000
0.5683753818464172,66.2,5.5,642.0,0.55,3100
0.5762998298172535,57.85,4.55,656.0,0.55,3200
0.6045701277756746,64.45,6.05,671.0,0.35,3300
0.639477545759514,80.85,8.7,686.0,0.2,3400
0.5982489745594581,78.25,7.8,704.0,0.4,3500
0.5740472478701728,71.35,6.1,717.0,0.35,3600
0.6386012654171239,80.35,8.3,734.0,0.15,3700
0.5916529006454321,78.25,7.1,751.0,0.45,3800
0.5929814832727545,80.4,7.75,762.0,0.55,3900
0.5928617057123785,74.05,6.5,773.0,0.3,4000
0.6129757622130663,76.05,6.9,785.0,0.25,4100
0.6135337706514873,83.35,8.2,801.0,0.45,4200
0.6133363801536535,80.15,8.2,817.0,0.35,4300
0.5631403842304386,66.05,5.55,833.0,0.45,4400
0.6248977960957813,78.45,7.5,848.0,0.35,4500
0.635351909330615,83.25,8.35,863.0,0.3,4600
0.6140036054466844,76.65,7.4,879.0,0.5,4700
0.5997875224973225,75.0,7.05,894.0,0.45,4800
0.6264417956156324,78.4,7.95,907.0,0.55,4900
0.6189993892884182,81.55,8.5,919.0,0.6,5000
0.5069674661552399,38.4,1.05,65.0,0.0,100
0.4961743166159585,37.55,1.15,91.0,0.2,200
0.5288233037366197,37.1,1.3,118.0,0.3,300
0.5157517846035977,33.9,1.15,144.0,0.45,400
0.5343109631558094,39.1,2.1,169.0,1.0,500
0.5347233948486647,32.1,1.4,198.0,0.8,600
0.5454711190692768,46.7,3.1,231.0,0.55,700
0.5162022059526803,40.65,2.4,254.0,0.85,800
0.5130070401123515,44.2,2.65,281.0,0.7,900
0.5869544585104802,53.65,4.8,307.0,1.5,1000
0.5642595183970534,45.95,3.6,334.0,1.2,1100
0.5494133349488148,48.4,4.25,359.0,1.25,1200
0.589056031073776,69.25,6.95,382.0,1.2,1300
0.5581389199823126,56.85,5.15,404.0,1.5,1400
0.5596373564878826,47.85,3.9,430.0,1.35,1500
0.6485205093771902,66.45,7.6,449.0,1.25,1600
0.584158127091767,57.6,5.35,470.0,1.1,1700
0.6198956295486946,72.9,7.3,490.0,0.4,1800
0.6300903927511354,77.25,7.8,511.0,0.6,1900
0.5939736826559584,70.45,6.95,527.0,0.6,2000
0.5913690586767857,58.0,4.95,543.0,0.55,2100
0.5979399444507132,68.8,6.45,561.0,0.55,2200
0.6022669689274797,65.95,6.5,577.0,0.6,2300
0.5883444488093214,68.85,6.55,588.0,1.1,2400
0.652012196375022,82.55,9.2,604.0,0.75,2500
0.6540397253219845,78.6,8.5,613.0,0.75,2600
0.6027137653576208,65.45,6.0,621.0,0.7,2700
0.5882064453618682,67.15,5.85,633.0,0.6,2800
0.6336509049555066,72.2,7.5,643.0,1.0,2900
0.5887844360679071,69.75,6.3,658.0,0.65,3000
0.5924922248085315,77.95,7.8,669.0,0.7,3100
0.6026100949192829,75.8,7.65,686.0,0.4,3200
0.5732366852646498,68.5,6.65,701.0,0.8,3300
0.6142220379761738,76.6,7.15,714.0,0.35,3400
0.6120020574831269,78.45,7.85,729.0,0.6,3500
0.5874546244187535,77.45,7.05,742.0,0.3,3600
0.5525931783795478,59.85,4.5,752.0,0.3,3700
0.6121745268280137,73.5,7.15,765.0,0.25,3800
0.6325113592090802,76.9,7.4,781.0,0.25,3900
0.5722973649106396,65.4,5.65,785.0,0.1,4000
0.5907567804108289,70.8,6.6,794.0,0.25,4100
0.6265462311943905,81.8,8.05,806.0,0.05,4200
0.6089775500024903,70.55,6.35,820.0,0.2,4300
0.6022660196776658,67.9,6.15,840.0,0.3,4400
0.5671598688624538,69.45,5.7,851.0,0.35,4500
0.6416656696548169,74.65,7.3,859.0,0.2,4600
0.6396615557995037,80.95,8.1,866.0,0.3,4700
0.602044806556153,72.25,6.85,875.0,0.1,4800
0.6413670987506753,70.35,6.9,889.0,0.35,4900
0.622021179320332,82.65,8.2,900.0,0.3,5000
0.48803368376694944,33.15,0.7,56.0,0.3,100
0.5128559392980562,39.3,1.7,96.0,0.4,200
0.5236956212880695,35.35,1.15,125.0,0.25,300
0.5507444136364454,40.45,2.6,157.0,0.9,400
0.5517663368407162,43.35,3.25,187.0,1.15,500
0.5478551592217918,48.45,4.15,219.0,1.55,600
0.6169758298241714,54.35,5.45,244.0,1.8,700
0.5345013857467157,47.45,3.95,268.0,1.55,800
0.5662412400179618,52.1,5.05,300.0,1.55,900
0.5637406713180064,63.85,5.9,318.0,1.0,1000
0.6195354418717195,76.05,8.25,333.0,1.3,1100
0.5747671990264049,64.85,5.55,357.0,0.6,1200
0.5615101307544077,54.15,4.45,378.0,0.75,1300
0.5729755174148821,52.15,4.65,405.0,0.9,1400
0.5526720645958293,57.8,4.5,425.0,0.6,1500
0.5923816001785565,57.95,5.35,444.0,0.7,1600
0.5704757911883339,56.55,4.6,470.0,0.4,1700
0.6008888933312677,67.7,6.4,496.0,0.7,1800
0.5872931177495102,65.5,5.4,518.0,0.6,1900
0.602504643087093,62.15,6.2,543.0,0.85,2000
0.6046794990974836,65.8,6.2,563.0,0.75,2100
0.6075542064362844,66.4,6.05,584.0,0.3,2200
0.6202800603565316,77.55,7.85,599.0,0.7,2300
0.6281184813273292,71.5,7.1,613.0,0.45,2400
0.6579824462358651,82.65,9.65,630.0,0.6,2500
0.6652718238950663,89.35,10.0,651.0,0.35,2600
0.6613160966699232,93.35,10.5,667.0,0.55,2700
0.6624988284553994,85.35,9.7,687.0,0.45,2800
0.6511173914366737,80.95,8.6,708.0,0.3,2900
0.6445573262255164,77.2,7.9,725.0,0.45,3000
0.5983003704571735,82.6,8.05,740.0,0.25,3100
0.6154199187987669,81.95,8.25,755.0,0.45,3200
0.613475990832162,76.75,7.55,767.0,0.6,3300
0.6347271529531369,79.6,8.95,780.0,0.35,3400
0.648536868599409,84.15,9.1,792.0,0.4,3500
0.6759512493523048,88.8,10.2,812.0,0.45,3600
0.6894112517997634,85.45,9.9,830.0,0.65,3700
0.6700279279561738,82.65,9.55,845.0,0.6,3800
0.6257465419330626,78.2,7.95,857.0,0.25,3900
0.6562086400778645,85.7,9.45,870.0,0.5,4000
0.5985982193241118,76.4,7.3,874.0,0.55,4100
0.5918638467810076,70.1,7.0,885.0,0.6,4200
0.6361327079448716,75.35,7.9,903.0,0.65,4300
0.631846973685374,71.95,7.15,912.0,0.4,4400
0.6634281785862577,85.15,9.35,924.0,0.25,4500
0.6344743252187145,81.75,8.95,933.0,0.5,4600
0.6595682475101986,91.6,10.0,948.0,0.4,4700
0.6274185806910008,80.2,7.9,961.0,0.6,4800
0.5925443493378892,78.85,7.4,973.0,0.5,4900
0.689863031690712,84.45,9.75,982.0,0.25,5000
0.48422240243273296,33.0,0.65,58.0,0.15,100
0.5173177389332052,31.2,0.85,89.0,0.65,200
0.5229243067859335,37.95,1.6,110.0,0.6,300
0.5456324017665322,44.35,2.25,136.0,0.3,400
0.5308320539831307,49.95,3.1,162.0,0.3,500
0.5463525212941709,52.6,3.3,183.0,0.3,600
0.5118553717648716,48.15,2.85,207.0,0.3,700
0.5474202188165251,51.7,3.0,240.0,0.05,800
0.5269786154356473,41.8,1.7,265.0,0.05,900
0.5127496804087106,42.0,1.85,284.0,0.15,1000
0.5300762151828365,44.65,2.1,308.0,0.2,1100
0.5612192690716783,55.3,3.9,337.0,0.15,1200
0.5848903313207849,73.2,6.55,357.0,0.4,1300
0.6102943234992113,68.15,6.6,375.0,0.4,1400
0.6160203468558103,67.3,6.4,398.0,0.4,1500
0.5800093171395575,63.2,5.2,418.0,0.5,1600
0.605212829680128,61.05,5.35,434.0,0.4,1700
0.560656060032728,49.75,3.7,452.0,0.3,1800
0.6059454517922326,74.95,7.65,467.0,0.2,1900
0.603736765306931,70.4,6.5,484.0,0.25,2000
0.6329358519999848,74.1,8.1,507.0,0.65,2100
0.683730588040375,83.95,10.65,522.0,0.9,2200
0.6443324655113957,86.4,10.2,536.0,0.75,2300
0.6472112122110125,70.7,7.5,554.0,0.45,2400
0.5853885225075603,62.3,5.75,566.0,0.45,2500
0.6728150461542451,70.75,7.65,583.0,0.4,2600
0.6734148122806604,84.3,9.55,603.0,0.55,2700
0.7331790186769683,90.05,12.1,620.0,0.45,2800
0.6463804043114298,81.3,8.95,633.0,0.7,2900
0.6010126313390913,59.85,5.1,650.0,0.4,3000
0.6632209683248937,80.65,9.05,666.0,0.65,3100
0.6063517895701418,63.45,6.35,679.0,0.45,3200
0.6456443518644635,76.3,8.2,694.0,0.6,3300
0.6433541167791897,77.55,8.95,712.0,0.55,3400
0.6412530109581857,82.8,9.5,726.0,0.8,3500
0.6668653693026315,88.3,10.45,740.0,0.55,3600
0.6697637747192573,88.45,10.6,750.0,0.3,3700
0.6568533854257897,88.45,10.2,768.0,0.5,3800
0.6595821299930272,87.5,10.5,789.0,0.45,3900
0.6358013046308004,71.0,7.15,801.0,0.5,4000
0.6067791361345097,69.5,6.5,815.0,0.5,4100
0.6173561792328517,88.05,9.05,831.0,0.3,4200
0.5912030912905388,73.65,7.05,843.0,0.55,4300
0.6296990705872003,78.2,7.95,859.0,0.4,4400
0.5925866032086099,68.7,6.45,870.0,0.4,4500
0.6226849967594627,66.8,6.8,879.0,0.65,4600
0.6457885576672016,74.45,7.8,896.0,0.55,4700
0.6452973210466387,78.5,8.4,907.0,0.6,4800
0.6257755013183741,78.1,8.05,918.0,0.55,4900
0.6300035494028551,74.4,7.8,931.0,0.7,5000
0.49016722153995296,31.05,0.45,59.0,0.35,100
0.5038080079037748,38.4,1.65,94.0,0.75,200
0.4970850776129424,32.85,1.1,120.0,0.65,300
0.5092200270825165,37.8,1.65,149.0,0.7,400
0.562948241138032,52.8,3.5,175.0,0.9,500
0.5320075467132989,39.9,1.9,203.0,0.6,600
0.5358677741989288,42.2,2.75,221.0,1.1,700
0.5719682442342429,59.35,4.85,256.0,1.0,800
0.6036649471379548,53.65,5.2,289.0,1.4,900
0.6023232483771594,63.65,6.8,322.0,2.1,1000
0.5698949655559385,53.25,5.15,344.0,1.5,1100
0.6032919345934924,62.4,6.75,364.0,1.75,1200
0.607356600367259,61.15,6.5,390.0,1.7,1300
0.6031215239830857,67.8,7.25,418.0,1.5,1400
0.6255643612768547,81.0,9.25,446.0,1.1,1500
0.6372768077248697,77.8,8.9,460.0,0.85,1600
0.6520094772955523,72.05,8.05,474.0,0.75,1700
0.6595294703791577,72.7,7.85,489.0,1.0,1800
0.6282897179982901,79.2,8.75,509.0,1.05,1900
0.619556937322553,59.85,5.45,527.0,0.95,2000
0.5895027779651661,67.9,6.6,541.0,1.1,2100
0.6349977798622868,72.05,7.05,562.0,0.7,2200
0.5960682969197462,66.4,6.75,582.0,0.95,2300
0.610722717614487,64.9,5.95,597.0,0.9,2400
0.6118785798570915,75.9,7.8,615.0,0.85,2500
0.6104721563018503,70.8,7.15,632.0,0.85,2600
0.606276389560046,81.0,9.1,646.0,1.05,2700
0.6464032953883464,83.1,8.6,655.0,0.65,2800
0.6280294181447442,71.3,7.4,678.0,0.45,2900
0.6608305825894665,81.6,9.25,693.0,0.3,3000
0.6432159115252916,70.85,7.7,710.0,1.05,3100
0.5917101540770754,71.25,6.8,725.0,0.7,3200
0.6690771365438735,81.55,9.55,742.0,0.6,3300
0.6441587792260509,77.15,8.8,756.0,0.65,3400
0.6615150932931443,83.15,9.05,766.0,0.5,3500
0.6572638070024392,82.4,9.4,778.0,0.5,3600
0.6169619019495942,72.75,7.45,793.0,0.55,3700
0.6450205231709021,88.1,9.85,802.0,0.75,3800
0.6643609852746812,82.4,9.7,811.0,0.85,3900
0.5953533276703815,80.7,8.15,822.0,0.45,4000
0.6560789204984785,78.85,8.6,835.0,0.45,4100
0.6088212598774588,84.7,9.35,847.0,1.05,4200
0.6990188848540553,85.2,10.35,861.0,0.5,4300
0.6801537621318824,77.25,9.5,874.0,0.8,4400
0.6632205114871976,89.85,10.75,880.0,0.8,4500
0.6687534658293759,84.5,9.65,891.0,0.55,4600
0.667314734045228,82.3,8.6,902.0,0.3,4700
0.6922499576197461,83.35,10.25,906.0,0.65,4800
0.6675906943896904,81.7,9.3,913.0,0.5,4900
0.7035090921024949,87.5,11.25,921.0,0.65,5000
0.5257763275141408,35.3,1.1,61.0,0.4,100
0.5016195270418774,40.0,2.1,96.0,0.6,200
0.49489079547980996,34.1,1.3,127.0,0.7,300
0.5264119136356147,36.95,1.55,159.0,0.35,400
0.5266184691964192,42.7,2.3,174.0,0.55,500
0.5363508313801597,43.8,2.4,201.0,0.65,600
0.5656290299252711,50.95,3.95,231.0,1.1,700
0.564925443767757,59.0,5.25,253.0,0.95,800
0.5525324005656376,44.85,2.55,270.0,0.6,900
0.5355959970169286,41.45,2.7,293.0,0.85,1000
0.5448104115640012,46.9,3.1,307.0,0.55,1100
0.6263589122647628,65.55,6.15,323.0,0.65,1200
0.6288659546889538,76.6,8.8,344.0,1.0,1300
0.6403725825913561,89.2,10.4,359.0,0.55,1400
0.5895837320908398,57.2,5.15,382.0,1.0,1500
0.6803113339130128,85.1,10.6,395.0,0.7,1600
0.5790293607544534,63.95,6.2,404.0,0.75,1700
0.6427008731923787,77.7,8.3,419.0,0.65,1800
0.613668837145063,62.95,6.3,437.0,1.05,1900
0.6084533209302851,74.05,7.7,449.0,0.9,2000
0.6464072897901663,77.45,8.8,460.0,0.95,2100
0.6578066747040257,79.75,8.9,476.0,0.65,2200
0.6276306758315128,77.4,8.45,492.0,1.1,2300
0.6073539562594001,71.65,7.35,502.0,0.9,2400
0.6437936251803588,77.0,8.4,515.0,0.7,2500
0.699735404159527,83.6,10.55,529.0,0.75,2600
0.647327208468801,73.9,8.5,541.0,0.65,2700
0.6208418754862352,77.25,8.0,551.0,0.35,2800
0.6340399267626834,88.55,9.3,562.0,0.5,2900
0.5996266864037316,80.65,8.75,573.0,0.65,3000
0.6396380213786476,74.9,8.2,586.0,0.35,3100
0.6427225410664786,73.1,7.65,599.0,0.65,3200
0.6529335232089851,87.2,10.0,606.0,0.55,3300
0.5954259673083511,66.85,6.45,617.0,0.55,3400
0.5882166529031161,82.75,8.0,636.0,0.6,3500
0.6439286108019262,75.25,8.4,649.0,0.75,3600
0.6393874149730421,82.5,8.6,660.0,0.5,3700
0.6744644026245964,89.05,10.35,674.0,0.45,3800
0.6788152293069872,79.05,9.5,680.0,0.6,3900
0.6860288264013465,92.8,11.15,690.0,0.35,4000
0.6372863933812469,74.05,7.95,704.0,0.8,4100
0.6447380636119016,83.65,9.5,715.0,0.95,4200
0.656046836070735,78.95,8.8,725.0,0.6,4300
0.6504581652936514,79.2,9.0,739.0,0.55,4400
0.6692156074308401,82.15,9.7,745.0,0.75,4500
0.654509334197227,78.25,8.1,753.0,0.45,4600
0.6072648238996705,70.7,7.3,761.0,0.8,4700
0.6607118218037292,82.35,9.35,774.0,0.4,4800
0.6400086629623648,81.2,9.25,785.0,0.45,4900
0.6628763994368783,81.05,9.0,794.0,0.35,5000
0.5118692605232116,39.95,1.35,58.0,0.25,100
0.5324304178741223,41.15,2.25,83.0,0.6,200
0.5234685914947358,39.8,1.95,114.0,0.5,300
0.49482976372496096,32.15,0.95,136.0,0.55,400
0.5538216261060828,44.9,3.4,155.0,1.1,500
0.49617569396249533,44.8,2.4,187.0,0.65,600
0.5685066118454843,58.6,5.2,211.0,0.75,700
0.5704113222523296,60.2,4.4,244.0,0.5,800
0.5722077612340492,57.8,5.25,278.0,1.15,900
0.595724506189344,56.8,5.15,308.0,1.3,1000
0.5943246880680106,62.7,6.4,333.0,1.4,1100
0.622021581370001,65.55,6.65,354.0,0.9,1200
0.6040243944597063,76.2,8.0,375.0,1.0,1300
0.6053234512254387,71.4,6.8,390.0,1.0,1400
0.6457203886088487,64.6,6.65,416.0,0.85,1500
0.5849212454703719,64.4,6.5,436.0,0.75,1600
0.5877045619708658,76.45,8.2,454.0,1.35,1700
0.6025256567374044,68.2,6.85,474.0,1.15,1800
0.5832964589816437,59.7,5.7,494.0,1.05,1900
0.6166300691890128,71.0,7.1,515.0,0.9,2000
0.5878005842863534,76.4,8.0,538.0,1.0,2100
0.6289262337765846,66.15,6.6,557.0,0.95,2200
0.5614861201014074,62.75,5.7,576.0,1.05,2300
0.6171240970724585,71.3,7.5,591.0,1.1,2400
0.5900447542812246,64.6,6.55,606.0,1.1,2500
0.5483237618381149,65.2,6.25,621.0,0.8,2600
0.6200445189309673,73.95,7.75,635.0,0.9,2700
0.6067439836066072,78.0,8.2,649.0,1.05,2800
0.5916232946053428,74.8,7.0,664.0,0.75,2900
0.6332131128505427,82.65,9.65,681.0,0.55,3000
0.5818241096296315,60.25,5.85,699.0,1.35,3100
0.6028804339306226,69.15,7.55,714.0,1.2,3200
0.5988472262449711,67.6,6.65,726.0,1.0,3300
0.6010790079253243,73.2,7.9,743.0,1.25,3400
0.6159341673495705,73.1,7.65,753.0,1.25,3500
0.6197380536519608,65.3,7.05,767.0,0.95,3600
0.6108953504551612,64.0,6.45,776.0,1.2,3700
0.6404786619727045,76.85,8.7,788.0,0.95,3800
0.7004285061689816,85.65,9.85,800.0,0.9,3900
0.687131622439205,93.4,11.2,810.0,0.65,4000
0.6350818198513315,79.95,8.8,819.0,0.75,4100
0.5917521910044206,72.4,7.4,825.0,0.8,4200
0.5966899279013596,69.55,6.5,835.0,0.75,4300
0.6996548799704809,92.2,11.8,845.0,0.9,4400
0.6526161032534394,86.65,10.3,853.0,0.65,4500
0.6389513450943796,83.25,9.05,863.0,0.65,4600
0.6509842398955813,81.65,9.25,874.0,0.7,4700
0.6416969504601748,80.7,8.8,882.0,0.6,4800
0.6633944138303032,76.65,8.5,891.0,1.05,4900
0.604829213999371,69.85,6.8,901.0,0.95,5000
0.5129913177230077,41.3,1.45,60.0,0.1,100
0.5310204355059878,45.8,1.9,76.0,0.1,200
0.5131460147728659,41.0,1.45,96.0,0.1,300
0.5116212541580135,40.45,1.8,123.0,0.15,400
0.5343989469474407,50.15,2.75,146.0,0.15,500
0.5593011461693511,50.35,2.85,170.0,0.25,600
0.5300286176587259,52.95,3.15,203.0,0.25,700
0.5463902821396498,49.5,3.15,227.0,0.45,800
0.5772518293668665,57.1,4.3,253.0,0.3,900
0.5804043760890465,55.3,4.7,275.0,0.65,1000
0.5407398387377833,51.05,3.5,307.0,0.7,1100
0.5152729690345978,44.45,2.65,337.0,0.7,1200
0.5573668173965136,59.2,4.7,361.0,0.65,1300
0.5535360896595525,54.85,4.05,385.0,0.55,1400
0.5743687183367105,62.1,4.95,411.0,0.35,1500
0.5951170232919457,67.8,5.45,433.0,0.1,1600
0.5911269863993686,73.45,6.75,460.0,0.4,1700
0.5825000031491738,60.15,4.95,480.0,0.3,1800
0.6390224181385958,81.75,8.35,502.0,0.55,1900
0.6026839259535132,68.35,6.15,521.0,0.5,2000
0.6286496161888605,68.25,6.35,544.0,0.65,2100
0.6277848507694564,67.1,6.5,566.0,0.5,2200
0.6563781326341257,85.05,9.8,586.0,0.35,2300
0.614429239775786,73.05,7.05,601.0,0.2,2400
0.603171355658828,63.05,5.85,617.0,0.5,2500
0.6064049459078078,63.0,5.55,628.0,0.4,2600
0.6011787376450388,63.45,5.85,644.0,0.55,2700
0.6216122467357982,69.2,6.65,667.0,0.55,2800
0.6275850191107887,74.3,7.6,685.0,0.95,2900
0.6098544809603348,70.55,6.35,697.0,0.65,3000
0.5917420663379362,62.95,5.8,710.0,0.65,3100
0.6355958634808364,74.55,7.6,726.0,0.8,3200
0.63109363709759,71.85,7.5,746.0,0.55,3300
0.6222608715098612,75.2,7.55,758.0,0.6,3400
0.598838065370052,78.5,7.7,769.0,0.45,3500
0.617225219466714,77.45,8.25,784.0,0.65,3600
0.6298273820066344,75.55,7.8,796.0,0.75,3700
0.5892675737031609,67.6,6.15,811.0,1.0,3800
0.6257200304530317,70.4,6.95,818.0,0.7,3900
0.616023362457132,76.6,8.05,829.0,0.7,4000
0.5814411187542081,72.65,6.4,842.0,0.55,4100
0.6381635373898968,82.85,8.5,855.0,0.45,4200
0.6269397385972456,74.5,7.15,863.0,0.4,4300
0.6076855644190851,63.8,6.0,874.0,0.95,4400
0.6148920115861707,76.0,7.95,889.0,1.2,4500
0.6143950699340766,67.4,6.3,898.0,0.6,4600
0.5891912174445769,62.0,5.35,911.0,0.7,4700
0.6059833174007335,62.05,6.0,921.0,1.2,4800
0.5689029877850108,71.95,7.3,935.0,1.0,4900
0.6224107829707375,67.6,6.35,945.0,0.8,5000
0.48928063357469237,32.5,0.65,57.0,0.2,100
0.5401406740923076,36.2,1.65,85.0,0.75,200
0.5290844638066481,38.35,1.5,110.0,0.25,300
0.542114671230554,38.3,1.85,135.0,0.55,400
0.5124725019728291,35.5,0.85,160.0,0.1,500
0.5646262691137633,50.8,3.85,181.0,0.75,600
0.5434953292688887,46.7,3.0,201.0,0.65,700
0.5350517717322109,56.05,4.05,227.0,0.4,800
0.6070423451755435,63.0,5.25,249.0,0.45,900
0.6159436091254825,70.95,7.2,273.0,0.8,1000
0.5566707275301711,53.2,3.75,296.0,0.55,1100
0.6229763272336997,64.95,6.05,314.0,0.6,1200
0.5561330264490347,68.9,5.7,332.0,0.6,1300
0.5778887828653242,61.4,4.9,357.0,0.4,1400
0.5967968989397006,63.45,5.6,374.0,0.35,1500
0.6294603703050365,66.75,6.55,395.0,0.5,1600
0.5463663652972863,65.75,5.2,413.0,0.2,1700
0.5906150337051884,60.15,5.2,426.0,0.55,1800
0.5826223360887823,64.3,5.1,451.0,0.25,1900
0.6365123049852904,78.7,8.35,475.0,0.25,2000
0.6690727770047408,86.2,9.35,495.0,0.3,2100
0.5893185231860298,59.85,5.2,516.0,0.55,2200
0.607607004059474,74.95,7.25,537.0,0.5,2300
0.613593462626145,77.3,7.45,554.0,0.35,2400
0.598422258485129,69.2,6.2,568.0,0.4,2500
0.6194813563674877,76.55,7.65,590.0,0.6,2600
0.577225447413029,74.45,6.6,597.0,0.4,2700
0.6224986015294616,84.5,8.65,610.0,0.3,2800
0.6042066757764405,73.9,7.75,622.0,0.7,2900
0.6107846277841202,80.2,8.15,638.0,0.3,3000
0.6076882392153772,68.9,5.95,654.0,0.5,3100
0.6490561853293881,71.05,7.0,670.0,0.5,3200
0.6183833994534538,67.55,6.25,686.0,0.45,3300
0.5601870604621663,68.35,6.35,701.0,0.6,3400
0.620986722739974,73.85,7.55,709.0,0.85,3500
0.6044750969926014,74.05,7.3,729.0,0.35,3600
0.6458978254223763,84.9,9.25,743.0,0.5,3700
0.6462357296720181,82.4,8.85,759.0,0.6,3800
0.6312801749060877,75.8,8.0,770.0,0.5,3900
0.6608485484600812,80.95,9.35,787.0,0.65,4000
0.6587967800640087,86.4,9.35,806.0,0.15,4100
0.6330659398118214,87.0,8.8,821.0,0.5,4200
0.6371323053960133,77.05,7.6,833.0,0.2,4300
0.6358588209182954,79.5,8.05,848.0,0.35,4400
0.6461157403458075,86.15,9.0,860.0,0.6,4500
0.6169506486479496,73.1,7.25,874.0,0.65,4600
0.6894345084740183,88.05,10.35,888.0,0.25,4700
0.6439779105446664,76.25,8.1,899.0,0.4,4800
0.6244864778930582,77.3,8.55,911.0,0.6,4900
0.6432038401076706,82.45,8.65,919.0,0.2,5000
0.5098555955358706,33.95,0.8,60.0,0.25,100
0.49943065484301,37.9,1.35,83.0,0.25,200
0.531257750350739,39.85,1.2,107.0,0.1,300
0.5311187464488688,39.3,1.65,130.0,0.5,400
0.5300797841821148,37.35,1.55,160.0,0.45,500
0.555817617914885,49.05,3.55,179.0,0.85,600
0.5380944252629665,38.25,2.25,201.0,1.0,700
0.5757671028351198,55.3,4.65,226.0,1.05,800
0.5413948492007575,56.9,4.4,250.0,0.9,900
0.5515606905356399,53.75,4.4,270.0,1.3,1000
0.5485704359608354,44.1,2.9,294.0,0.8,1100
0.5508572915898473,46.55,3.0,315.0,0.55,1200
0.5991994013175204,64.25,6.05,335.0,0.9,1300
0.6299813006545701,69.8,6.55,354.0,0.55,1400
0.6121890134721046,66.5,6.1,381.0,0.85,1500
0.6699453461805083,84.1,9.5,403.0,0.55,1600
0.6070586750387785,69.05,6.5,420.0,0.75,1700
0.5743655103347638,60.9,5.8,438.0,0.85,1800
0.6259703153974263,79.8,8.2,458.0,0.7,1900
0.6137383830984905,72.55,7.9,475.0,0.75,2000
0.6832504412319872,87.4,10.4,496.0,0.5,2100
0.6732471446932721,83.75,9.7,507.0,0.6,2200
0.6646511876714005,78.95,8.85,530.0,0.85,2300
0.5711179450356505,69.25,6.55,545.0,0.95,2400
0.6367542775039319,81.05,8.65,559.0,0.6,2500
0.658364498977583,83.7,9.3,569.0,0.65,2600
0.6515916946357029,76.55,8.05,581.0,0.55,2700
0.681430607773919,90.85,11.05,594.0,0.95,2800
0.6549298495547753,87.25,9.8,613.0,0.65,2900
0.6044611168307299,83.0,8.95,630.0,0.9,3000
0.6768061028520694,84.15,9.5,641.0,0.6,3100
0.650112003677598,78.75,8.8,654.0,0.6,3200
0.6319864150372249,84.65,9.4,668.0,0.8,3300
0.5994695500487995,70.6,7.0,684.0,0.6,3400
0.6013027334224433,72.25,7.3,704.0,0.65,3500
0.621388741598052,75.65,7.4,721.0,0.5,3600
0.6302739164495097,79.0,8.8,735.0,0.6,3700
0.6526313925679974,81.3,9.15,746.0,0.65,3800
0.6236688399796038,74.85,7.7,761.0,0.75,3900
0.6974012633079656,79.6,8.85,773.0,0.9,4000
0.6454050273767244,80.65,8.95,781.0,0.85,4100
0.6057832239513817,76.15,8.1,791.0,1.05,4200
0.6675913948461764,73.85,8.65,808.0,0.85,4300
0.6681945594883238,87.3,10.0,815.0,0.8,4400
0.6004533541594713,78.55,8.25,833.0,0.6,4500
0.6696910359819179,87.15,10.25,846.0,1.0,4600
0.6610713356718952,87.3,10.6,859.0,0.95,4700
0.6510814500900326,80.55,8.95,873.0,0.4,4800
0.6491826726893488,77.55,9.0,885.0,1.05,4900
0.6714848686818439,85.95,9.6,896.0,0.6,5000
0.48107808990790113,33.95,0.85,61.0,0.45,100
0.4819303173479299,35.1,0.9,85.0,0.25,200
0.4966073535879044,36.85,1.2,108.0,0.35,300
0.535420931922885,39.45,2.15,135.0,0.55,400
0.4989821853855811,37.5,1.1,157.0,0.25,500
0.5522129892301006,45.1,2.6,186.0,0.55,600
0.49302671819552185,32.65,1.1,211.0,0.6,700
0.5446430277566805,43.55,2.25,242.0,0.45,800
0.5154006274398512,37.3,1.8,269.0,0.75,900
0.5306723887320742,51.45,4.05,286.0,1.3,1000
0.5247219732810299,54.1,4.15,304.0,0.9,1100
0.584131657311785,51.55,4.55,319.0,0.85,1200
0.5987746519924337,65.9,6.9,341.0,1.4,1300
0.5927610196308365,60.2,5.6,364.0,1.0,1400
0.6095612822307388,61.95,5.95,389.0,0.95,1500
0.6006655711749738,71.25,6.7,406.0,1.0,1600
0.631663272071306,68.6,7.65,430.0,0.65,1700
0.6433410968099595,77.65,7.7,447.0,0.3,1800
0.6320469653603413,83.75,8.4,468.0,0.45,1900
0.6168009345963565,78.2,7.85,487.0,0.4,2000
0.6028679977831686,64.0,6.1,500.0,0.4,2100
0.6123579234322187,78.35,7.7,513.0,0.2,2200
0.6255879951173957,81.0,8.55,536.0,0.4,2300
0.6499007853154983,74.15,7.0,557.0,0.2,2400
0.5979921595739224,74.85,7.0,576.0,0.15,2500
0.5538856176073819,69.95,6.15,595.0,0.25,2600
0.6439726789025813,78.35,8.3,612.0,0.35,2700
0.6554199827810633,85.85,9.1,625.0,0.25,2800
0.6693240424246054,92.8,10.6,641.0,0.4,2900
0.5963352564646295,66.65,6.3,656.0,0.75,3000
0.640822871174086,84.85,9.45,671.0,0.5,3100
0.5951901838445158,77.3,7.2,689.0,0.25,3200
0.6124274774834831,73.15,7.65,705.0,0.75,3300
0.6128266252415786,75.05,7.4,725.0,0.4,3400
0.6282225892083585,85.8,8.85,741.0,0.5,3500
0.5940336729814669,70.85,6.95,754.0,0.5,3600
0.6209382402763087,76.85,8.05,771.0,0.5,3700
0.6309219337972831,78.9,8.0,784.0,0.25,3800
0.6084739422477206,79.35,8.25,801.0,0.65,3900
0.6899507237820648,88.95,10.0,812.0,0.4,4000
0.6511583953357971,78.2,9.05,828.0,0.8,4100
0.6971603566958188,87.3,10.15,848.0,0.25,4200
0.6639299252301365,85.6,9.55,857.0,0.15,4300
0.6850982286044778,89.55,10.25,870.0,0.4,4400
0.6978779478249475,90.15,10.9,890.0,0.85,4500
0.6865365934824146,84.55,9.85,902.0,0.4,4600
0.6375419641823218,83.3,9.6,911.0,0.6,4700
0.6304610442788847,73.85,7.35,918.0,0.6,4800
0.6566377138874468,80.75,9.05,931.0,0.5,4900
0.6252202673127403,77.1,8.3,947.0,0.55,5000
0.4929104780802039,33.95,0.7,56.0,0.1,100
0.5055112870494856,37.05,0.8,74.0,0.0,200
0.5073240337442657,31.65,0.9,105.0,0.6,300
0.5246598383769956,49.15,2.85,131.0,0.4,400
0.5219221322814077,45.05,3.2,153.0,0.9,500
0.5235980644744774,49.4,3.05,177.0,0.5,600
0.5197820210129886,48.1,3.05,209.0,0.55,700
0.6087619445742617,68.9,7.0,241.0,0.8,800
0.585066766261575,47.55,3.5,260.0,0.8,900
0.6373634190724242,67.5,6.3,282.0,0.45,1000
0.5548546759610795,59.4,5.0,312.0,0.85,1100
0.5457324379222064,58.55,4.65,335.0,0.75,1200
0.5729617341159479,62.65,5.35,351.0,0.65,1300
0.5480376693421171,66.85,5.1,372.0,0.3,1400
0.5878308771736209,72.65,6.1,391.0,0.35,1500
0.5787433994551907,64.5,5.15,404.0,0.4,1600
0.6263514611606518,76.05,7.7,423.0,0.6,1700
0.551604634831193,76.75,6.75,442.0,0.25,1800
0.6350225793585743,75.85,7.3,454.0,0.55,1900
0.5672357278509874,65.9,5.6,472.0,0.7,2000
0.616557583452056,73.6,7.25,492.0,0.45,2100
0.6518181024585709,79.1,7.5,507.0,0.5,2200
0.5700312004052932,77.95,7.15,529.0,0.5,2300
0.5811844761357217,72.85,6.4,552.0,0.45,2400
0.5937755709772048,69.45,6.55,571.0,0.45,2500
0.6327598061534287,85.65,8.5,594.0,0.45,2600
0.5808195425818852,66.25,6.25,607.0,0.65,2700
0.6311549499826477,76.45,7.95,620.0,0.45,2800
0.6101773715321814,76.25,7.2,643.0,0.5,2900
0.6023862242338429,77.9,7.25,656.0,0.35,3000
0.6432354886486484,82.15,8.45,671.0,0.45,3100
0.6072119681352458,76.65,6.95,686.0,0.3,3200
0.6068060612027469,75.55,7.3,704.0,0.65,3300
0.6330921974443561,80.35,8.3,717.0,0.6,3400
0.6222335389447518,86.4,8.75,736.0,0.35,3500
0.604217749376349,83.65,8.3,750.0,0.5,3600
0.6246058197037077,79.35,8.2,766.0,0.5,3700
0.619666991191044,81.1,8.1,780.0,0.4,3800
0.6864629712606888,85.15,9.55,793.0,0.35,3900
0.5754346834867109,75.35,7.15,805.0,0.65,4000
0.6626602184019992,83.6,9.65,818.0,0.5,4100
0.6211117000012589,85.1,8.65,827.0,0.05,4200
0.6600087392214534,89.05,9.85,840.0,0.5,4300
0.6553699868879594,86.4,9.15,848.0,0.4,4400
0.6393717477926419,72.7,7.5,854.0,0.6,4500
0.6236457197077648,78.45,7.95,861.0,0.45,4600
0.6456107994720159,85.1,9.55,869.0,0.4,4700
0.635514808074779,80.25,8.55,875.0,0.5,4800
0.5650896087066372,73.35,6.7,882.0,0.45,4900
0.6295352131630345,79.25,8.4,893.0,0.45,5000
0.5002137648443961,34.4,0.7,62.0,0.1,100
0.5199511455285551,34.45,1.05,99.0,0.25,200
0.5360592308562678,40.6,1.8,120.0,0.45,300
0.5177462746224755,40.7,2.2,146.0,0.75,400
0.517397313404299,39.15,2.0,172.0,0.65,500
0.5429404879272723,35.05,1.45,207.0,0.8,600
0.4961139117441176,34.6,1.55,234.0,0.9,700
0.5320116104836007,45.5,2.85,256.0,0.85,800
0.5097474124765424,36.35,1.55,287.0,0.55,900
0.5080580488430483,40.8,2.2,318.0,0.8,1000
0.48725036776713876,35.85,1.65,340.0,0.9,1100
0.554980064396051,51.0,3.7,353.0,0.8,1200
0.5658528277661239,47.35,3.45,376.0,1.1,1300
0.5741057151472143,57.2,5.7,401.0,1.65,1400
0.5732814582743168,61.25,6.05,430.0,1.45,1500
0.5591923505789135,54.0,4.45,452.0,1.45,1600
0.5476254935808684,51.15,3.95,463.0,1.15,1700
0.587641137327205,61.05,6.4,485.0,1.9,1800
0.6342689891066547,71.4,8.35,501.0,1.55,1900
0.6069013279569877,58.3,5.2,517.0,1.4,2000
0.6221733865601228,63.85,6.55,534.0,1.25,2100
0.578668758141888,57.9,5.5,552.0,1.45,2200
0.6582820372078034,63.85,7.1,569.0,1.2,2300
0.5917015080326726,63.75,6.3,587.0,1.05,2400
0.6374527706221831,75.55,9.5,604.0,1.9,2500
0.6596200057445449,74.9,8.15,619.0,1.2,2600
0.6346878054865315,73.0,8.1,633.0,1.3,2700
0.6231409426381475,73.15,8.15,653.0,1.0,2800
0.6110085958654066,71.15,7.3,672.0,1.0,2900
0.627203933742691,79.1,9.7,688.0,1.2,3000
0.6276025563925669,74.85,8.3,700.0,1.3,3100
0.6020716379372739,67.95,7.4,712.0,1.2,3200
0.6630005985586234,80.65,9.5,732.0,1.15,3300
0.6838492545472703,78.65,10.1,749.0,1.1,3400
0.6863185921928309,88.85,10.85,764.0,0.85,3500
0.6799095749443722,86.05,10.4,774.0,1.0,3600
0.6834393715850686,90.95,11.55,788.0,1.1,3700
0.6338377082072993,76.7,8.3,807.0,0.65,3800
0.6901837371991804,83.1,10.4,823.0,0.85,3900
0.6273017253872027,79.95,9.2,836.0,1.25,4000
0.6172334004046764,76.85,8.5,846.0,1.2,4100
0.6236626376009694,75.2,8.25,857.0,0.85,4200
0.6092466956911625,74.0,7.8,872.0,1.1,4300
0.6133005163356102,77.2,8.75,882.0,0.85,4400
0.6638048472540542,81.1,8.75,887.0,0.95,4500
0.6101594047177866,68.6,6.95,895.0,0.75,4600
0.6616834230750324,89.05,10.25,901.0,0.65,4700
0.6534688913792591,76.5,8.65,909.0,0.9,4800
0.6611920896739901,80.75,9.75,916.0,0.85,4900
0.630226752953911,66.7,6.65,926.0,0.55,5000
