Energy,Episode length,Green food,Number of nodes,Red food,Trained time steps
0.4843126700638843,34.35,0.5,0.0,0.35,100
0.517875762639594,41.1,1.15,0.0,0.2,200
0.493494776510259,38.95,0.9,0.0,0.25,300
0.5012355837112519,40.65,1.4,0.0,0.45,400
0.5036993358040811,39.2,1.0,0.0,0.25,500
0.5115007828782592,40.95,1.2,0.0,0.25,600
0.5027021073517369,38.4,1.2,0.0,0.5,700
0.49605608485634906,43.55,1.45,0.0,0.1,800
0.5072391264335075,35.2,0.6,0.0,0.3,900
0.49745541100026464,39.55,1.05,0.0,0.35,1000
0.4987753907019382,34.95,0.75,0.0,0.5,1100
0.49211538878622046,37.4,0.8,0.0,0.25,1200
0.4875984363854237,38.2,1.0,0.0,0.45,1300
0.4958060422548047,39.15,1.1,0.0,0.25,1400
0.5095601250760914,44.5,1.55,0.0,0.15,1500
0.5119606126427805,42.2,1.3,0.0,0.25,1600
0.4974030014534053,41.45,1.25,0.0,0.25,1700
0.5071004161904958,37.1,1.0,0.0,0.35,1800
0.5201705493809683,39.75,1.1,0.0,0.2,1900
0.5063722448287682,37.25,0.9,0.0,0.35,2000
0.5001170003639325,44.05,1.4,0.0,0.35,2100
0.5119969434620211,35.95,0.65,0.0,0.35,2200
0.5278403616176979,40.75,1.1,0.0,0.1,2300
0.5071852198094874,37.9,0.95,0.0,0.3,2400
0.4875255786508134,36.6,0.65,0.0,0.15,2500
0.4896986434639099,37.0,0.65,0.0,0.2,2600
0.49145427789528784,37.15,0.75,0.0,0.3,2700
0.5099355789979801,38.1,1.1,0.0,0.45,2800
0.5071070107866873,39.0,1.05,0.0,0.3,2900
0.4937375354088663,35.65,0.8,0.0,0.5,3000
0.5123921341108,41.4,1.25,0.0,0.25,3100
0.5044548696344784,35.35,0.8,0.0,0.3,3200
0.4884545234305497,43.45,1.6,0.0,0.5,3300
0.4935154279848045,42.2,1.2,0.0,0.25,3400
0.4846090260362998,37.0,0.85,0.0,0.35,3500
0.4906092093716003,38.2,0.85,0.0,0.3,3600
0.4836931633302119,36.75,1.05,0.0,0.5,3700
0.518700929591186,36.5,0.75,0.0,0.3,3800
0.4632339284884803,37.8,0.65,0.0,0.15,3900
0.5060247033652809,40.05,1.05,0.0,0.2,4000
0.5272621527285706,35.7,0.75,0.0,0.5,4100
0.5015513294579883,39.35,1.15,0.0,0.4,4200
0.5075771820814071,37.6,1.0,0.0,0.35,4300
0.49897503422346584,38.0,1.2,0.0,0.55,4400
0.5128416369193896,38.0,1.05,0.0,0.3,4500
0.4931815681013002,34.65,0.5,0.0,0.25,4600
0.5006096046823596,37.95,1.1,0.0,0.35,4700
0.5202975395779246,40.45,1.25,0.0,0.25,4800
0.5206269570198835,39.75,1.2,0.0,0.35,4900
0.49240304266084856,42.9,1.15,0.0,0.1,5000
0.4952968397371237,37.0,0.75,0.0,0.2,100
0.49131519453951017,35.95,0.7,0.0,0.35,200
0.48543913960622165,37.4,0.8,0.0,0.25,300
0.5035541153231935,37.75,1.05,0.0,0.4,400
0.4854093589102731,35.45,0.7,0.0,0.35,500
0.5053523562411097,38.2,0.95,0.0,0.3,600
0.5176752368047839,39.05,0.95,0.0,0.25,700
0.4934276423370002,38.75,1.05,0.0,0.25,800
0.4943887351564837,32.9,0.55,0.0,0.55,900
0.4972098731906092,39.8,0.95,0.0,0.3,1000
0.4919259778013231,36.65,0.85,0.0,0.35,1100
0.47994573914959515,40.55,1.25,0.0,0.3,1200
0.4977976770803491,35.6,0.75,0.0,0.45,1300
0.4852158474933064,37.85,0.85,0.0,0.4,1400
0.4987569497859762,32.75,0.55,0.0,0.5,1500
0.5301908225154598,37.95,1.2,0.0,0.55,1600
0.48626692765924184,38.2,0.9,0.0,0.25,1700
0.5154640816820334,37.75,1.05,0.0,0.4,1800
0.4894778602196741,38.25,1.0,0.0,0.45,1900
0.4934277666686501,39.7,1.15,0.0,0.35,2000
0.5111454929134174,35.15,0.75,0.0,0.4,2100
0.5077784519591773,37.35,0.85,0.0,0.3,2200
0.48907316424010155,37.45,1.1,0.0,0.6,2300
0.5001925002135914,35.9,0.95,0.0,0.55,2400
0.5089394771196553,40.55,1.05,0.0,0.2,2500
0.4729302978379672,37.1,0.7,0.0,0.25,2600
0.5125895421086375,40.7,1.5,0.0,0.3,2700
0.5182810483393806,38.35,1.1,0.0,0.45,2800
0.48680643588143224,39.1,1.0,0.0,0.3,2900
0.5068766779411782,40.9,1.15,0.0,0.25,3000
0.48913840440113765,36.1,0.8,0.0,0.3,3100
0.5139314484563415,39.3,1.05,0.0,0.4,3200
0.5227382176170722,37.1,0.95,0.0,0.3,3300
0.5021386856791984,39.9,0.95,0.0,0.2,3400
0.48948971993449353,36.55,0.6,0.0,0.2,3500
0.5110445935982053,33.65,0.75,0.0,0.6,3600
0.46157421082468336,36.65,0.85,0.0,0.45,3700
0.4865780087693675,38.45,1.05,0.0,0.3,3800
0.47505604436152493,36.7,0.75,0.0,0.4,3900
0.5062803185362073,40.65,1.4,0.0,0.3,4000
0.5036285945586367,38.6,1.15,0.0,0.5,4100
0.5241739431516337,39.95,0.95,0.0,0.15,4200
0.5159533191338556,41.2,1.2,0.0,0.25,4300
0.5039986440604599,40.9,1.2,0.0,0.3,4400
0.5111472663190111,36.2,0.8,0.0,0.4,4500
0.48676843955644306,36.6,0.85,0.0,0.45,4600
0.4998430813631042,40.05,1.05,0.0,0.15,4700
0.5121684016027601,36.2,0.75,0.0,0.4,4800
0.48487079400269417,37.85,0.75,0.0,0.25,4900
0.5025852875042454,37.85,0.85,0.0,0.2,5000
0.5283981114031693,40.4,1.05,0.0,0.25,100
0.4974248016738291,37.25,0.8,0.0,0.35,200
0.4948708703488949,39.2,1.0,0.0,0.25,300
0.5029621450739845,41.75,1.3,0.0,0.25,400
0.5250266272219588,37.2,0.95,0.0,0.5,500
0.4932656996614216,39.75,1.05,0.0,0.25,600
0.521406015034343,36.3,0.8,0.0,0.4,700
0.5286173892262294,39.2,0.95,0.0,0.15,800
0.5305397953942783,35.5,0.75,0.0,0.4,900
0.49473166819940184,35.4,0.7,0.0,0.4,1000
0.49912898372845926,38.55,0.95,0.0,0.25,1100
0.5166890421930809,38.6,0.85,0.0,0.25,1200
0.48274695948539925,35.8,0.5,0.0,0.1,1300
0.49537368839136153,36.75,0.9,0.0,0.3,1400
0.4794555257864534,36.35,0.75,0.0,0.45,1500
0.5199262195861859,38.35,1.1,0.0,0.4,1600
0.5137998673708706,37.2,1.05,0.0,0.5,1700
0.49975613298801924,35.2,0.6,0.0,0.45,1800
0.5017882184985978,43.65,1.45,0.0,0.2,1900
0.5117387231869202,40.2,1.1,0.0,0.2,2000
0.4737070914152456,38.7,1.1,0.0,0.3,2100
0.49889194399048886,37.3,1.05,0.0,0.55,2200
0.4853760908443306,37.85,1.0,0.0,0.3,2300
0.4890622232205043,40.25,1.1,0.0,0.35,2400
0.5123040753001464,36.25,0.8,0.0,0.2,2500
0.5192253151812373,40.05,1.2,0.0,0.35,2600
0.5047967328536712,42.3,1.15,0.0,0.15,2700
0.5146985577518467,38.2,1.05,0.0,0.3,2800
0.513989794081992,41.75,1.15,0.0,0.15,2900
0.5194533869040552,38.85,1.0,0.0,0.25,3000
0.5179717475394343,37.15,1.0,0.0,0.55,3100
0.5048298468615184,39.45,0.9,0.0,0.2,3200
0.5106406627437086,35.5,0.85,0.0,0.5,3300
0.49266364695340686,37.15,0.8,0.0,0.3,3400
0.4938725067259685,36.1,0.8,0.0,0.5,3500
0.5133236614345246,40.15,1.3,0.0,0.3,3600
0.5083027483515176,38.3,0.95,0.0,0.2,3700
0.5018893295648905,38.7,1.15,0.0,0.55,3800
0.4966086941406317,36.7,0.8,0.0,0.35,3900
0.4973661685769401,36.25,0.75,0.0,0.35,4000
0.521546010461315,41.45,1.1,0.0,0.1,4100
0.49991431558962757,37.65,0.95,0.0,0.3,4200
0.500989565899801,35.65,0.8,0.0,0.5,4300
0.5050057425537202,38.15,1.05,0.0,0.3,4400
0.4836468808382568,39.4,0.95,0.0,0.3,4500
0.5035470916451026,35.4,1.0,0.0,0.6,4600
0.5210557961988755,36.3,0.9,0.0,0.4,4700
0.4932705785541696,38.75,0.9,0.0,0.25,4800
0.4885345676156511,38.35,0.9,0.0,0.2,4900
0.4967695591904289,33.8,0.6,0.0,0.4,5000
0.4913407172442404,38.8,0.9,0.0,0.2,100
0.5047976940811427,39.9,1.35,0.0,0.5,200
0.495657641192601,40.0,1.05,0.0,0.25,300
0.506535366309389,36.95,0.7,0.0,0.2,400
0.5194986619361601,36.4,0.95,0.0,0.4,500
0.5004674158440376,41.85,1.3,0.0,0.25,600
0.5204806738150052,38.45,0.95,0.0,0.3,700
0.5035533627173379,33.0,0.55,0.0,0.55,800
0.5154141531375828,38.55,1.0,0.0,0.2,900
0.5107078368057393,35.95,0.85,0.0,0.4,1000
0.4962493414433767,36.2,0.7,0.0,0.25,1100
0.4944634185078196,41.7,1.15,0.0,0.2,1200
0.5085919520591073,41.1,1.1,0.0,0.15,1300
0.4899722156589461,41.8,1.35,0.0,0.2,1400
0.5177722194701337,40.4,1.05,0.0,0.2,1500
0.5409995628501717,43.0,1.55,0.0,0.45,1600
0.4953812010508913,36.05,0.9,0.0,0.4,1700
0.5217761812873034,40.05,1.25,0.0,0.25,1800
0.5065354000813839,37.75,1.05,0.0,0.35,1900
0.4872588799451134,37.25,0.75,0.0,0.3,2000
0.5073255032237248,38.0,0.8,0.0,0.3,2100
0.5100959580522538,41.8,1.3,0.0,0.2,2200
0.500924107079316,37.3,0.95,0.0,0.3,2300
0.5151855747143131,41.6,1.3,0.0,0.35,2400
0.5024771920490366,37.45,1.0,0.0,0.6,2500
0.509859002952787,39.45,1.15,0.0,0.35,2600
0.5161473684708864,37.05,1.2,0.0,0.5,2700
0.4900981572752512,35.5,0.65,0.0,0.35,2800
0.5077283209871294,39.3,0.95,0.0,0.15,2900
0.49575296302405897,34.55,0.6,0.0,0.35,3000
0.5133437449524932,38.45,0.95,0.0,0.45,3100
0.5065458190833177,38.8,0.9,0.0,0.3,3200
0.5177362983245674,40.0,1.2,0.0,0.4,3300
0.49423686982164067,36.75,0.7,0.0,0.2,3400
0.5027551155982288,35.35,0.7,0.0,0.35,3500
0.4928500065350517,37.0,1.0,0.0,0.35,3600
0.5324505300894391,36.9,0.8,0.0,0.4,3700
0.48763954154007594,38.95,0.95,0.0,0.25,3800
0.5094399564747615,38.2,0.95,0.0,0.4,3900
0.5154011210867605,39.2,1.1,0.0,0.4,4000
0.4968832174176935,34.0,0.5,0.0,0.35,4100
0.5031044006511988,42.65,1.4,0.0,0.3,4200
0.5143970223344898,37.25,1.15,0.0,0.45,4300
0.488143621317987,42.3,1.45,0.0,0.35,4400
0.5050903077133067,37.1,0.95,0.0,0.45,4500
0.48972864259348253,37.5,0.75,0.0,0.2,4600
0.5004725987772605,37.45,0.8,0.0,0.35,4700
0.5062246262619055,38.3,0.95,0.0,0.3,4800
0.470563374359344,35.85,0.8,0.0,0.45,4900
0.5036778559376666,36.75,0.75,0.0,0.25,5000
0.49088025239123967,35.95,0.55,0.0,0.3,100
0.5159727169456267,38.85,0.9,0.0,0.3,200
0.5150074006133882,40.35,1.15,0.0,0.35,300
0.4911598960989293,36.45,0.85,0.0,0.35,400
0.5008105919281,35.4,0.65,0.0,0.4,500
0.5033154399214156,40.25,1.05,0.0,0.3,600
0.4891937087595727,37.45,0.85,0.0,0.25,700
0.4926750529613401,41.65,1.3,0.0,0.35,800
0.5143939986246477,37.85,0.85,0.0,0.3,900
0.4971390109513923,39.85,1.0,0.0,0.25,1000
0.5040791088092146,39.45,1.2,0.0,0.35,1100
0.4946064062598296,35.35,0.8,0.0,0.45,1200
0.49423308759548046,42.95,1.25,0.0,0.25,1300
0.5000915441496679,36.35,0.85,0.0,0.45,1400
0.487571225767552,37.5,0.7,0.0,0.25,1500
0.5025818093052907,39.3,1.05,0.0,0.35,1600
0.5157705728755173,34.9,0.85,0.0,0.3,1700
0.4946749636420661,37.5,0.85,0.0,0.25,1800
0.4953482613020612,39.3,1.15,0.0,0.25,1900
0.508362123157662,39.25,1.0,0.0,0.35,2000
0.4849774181989764,36.5,0.7,0.0,0.25,2100
0.496696844656541,39.9,1.05,0.0,0.2,2200
0.501488082359863,39.7,0.95,0.0,0.25,2300
0.5027149586073116,40.8,1.05,0.0,0.15,2400
0.4988617659486524,39.6,1.2,0.0,0.25,2500
0.5040244441948135,40.75,1.15,0.0,0.2,2600
0.4960438203627858,35.45,0.65,0.0,0.4,2700
0.5023731897917662,41.2,1.05,0.0,0.15,2800
0.5029162526179755,40.5,1.0,0.0,0.1,2900
0.49801119421531875,37.15,0.85,0.0,0.4,3000
0.48164284639871235,36.35,0.75,0.0,0.2,3100
0.47645810646975234,36.6,0.7,0.0,0.3,3200
0.5026460371430981,37.6,0.9,0.0,0.35,3300
0.5089068716925091,37.95,0.95,0.0,0.4,3400
0.49898198657091103,37.0,0.85,0.0,0.4,3500
0.4899976668113575,36.4,0.7,0.0,0.3,3600
0.5030269232785797,41.2,1.15,0.0,0.15,3700
0.48786061871445147,40.6,1.25,0.0,0.25,3800
0.5149917147480296,33.35,0.6,0.0,0.6,3900
0.5103521353042775,37.1,0.8,0.0,0.25,4000
0.5152161314501116,38.25,1.1,0.0,0.45,4100
0.5054839178143319,42.35,1.3,0.0,0.15,4200
0.5272845540920291,38.45,0.8,0.0,0.15,4300
0.4944970618541175,38.8,1.1,0.0,0.3,4400
0.5167052478021902,36.85,0.95,0.0,0.5,4500
0.4923412764792884,41.15,1.25,0.0,0.35,4600
0.5110581204609014,40.45,1.15,0.0,0.25,4700
0.5072780762249295,37.35,0.95,0.0,0.5,4800
0.5004527080990798,36.15,0.6,0.0,0.3,4900
0.5099949131193348,42.9,1.3,0.0,0.1,5000
0.4745063775481542,34.75,0.55,0.0,0.25,100
0.5040217766660733,34.25,0.65,0.0,0.55,200
0.49303564057516347,41.25,1.3,0.0,0.25,300
0.5150821970953795,34.25,0.75,0.0,0.45,400
0.48286662479532244,34.5,0.65,0.0,0.4,500
0.5099324558066808,39.3,1.05,0.0,0.4,600
0.522798088196723,43.0,1.45,0.0,0.25,700
0.45989969817796766,42.65,1.25,0.0,0.25,800
0.4955884510498354,35.8,0.7,0.0,0.4,900
0.5259173195993767,39.0,1.0,0.0,0.35,1000
0.5033999828449798,39.7,1.2,0.0,0.25,1100
0.5005503964125092,38.75,1.0,0.0,0.4,1200
0.4934842969485248,38.7,1.0,0.0,0.45,1300
0.5037593955352607,38.85,1.15,0.0,0.45,1400
0.5114613344054331,39.85,1.0,0.0,0.3,1500
0.5011837976241449,35.4,1.05,0.0,0.55,1600
0.4932794229238627,37.95,0.75,0.0,0.2,1700
0.48533183209962016,41.7,1.25,0.0,0.35,1800
0.48873665182957726,36.3,0.7,0.0,0.3,1900
0.4869940885156823,36.2,0.75,0.0,0.35,2000
0.4960823204724546,39.4,1.0,0.0,0.3,2100
0.517176048851459,37.85,0.9,0.0,0.3,2200
0.4890362587450462,36.15,0.75,0.0,0.25,2300
0.4984497286191073,35.75,0.75,0.0,0.4,2400
0.500287072343861,40.0,1.15,0.0,0.35,2500
0.5096904869062875,37.3,0.95,0.0,0.5,2600
0.4953126659928384,39.4,0.95,0.0,0.2,2700
0.5271692071249252,36.05,0.75,0.0,0.35,2800
0.5381342907515257,42.2,1.2,0.0,0.2,2900
0.512549334649181,36.55,0.85,0.0,0.3,3000
0.5022849893298741,35.3,0.95,0.0,0.5,3100
0.5225698359548036,36.9,0.95,0.0,0.35,3200
0.5154935520864032,38.5,1.05,0.0,0.45,3300
0.48628585391938506,40.2,1.05,0.0,0.3,3400
0.5026314081021537,40.0,1.0,0.0,0.15,3500
0.4832967122931075,35.65,0.65,0.0,0.35,3600
0.5278547848925061,37.85,1.2,0.0,0.5,3700
0.508179937978827,35.7,0.75,0.0,0.4,3800
0.513739740762654,36.55,0.95,0.0,0.45,3900
0.5013482058116053,41.8,1.4,0.0,0.3,4000
0.48792392438567217,38.55,1.1,0.0,0.5,4100
0.5182134610346336,40.35,1.3,0.0,0.4,4200
0.5031726571776717,33.55,0.65,0.0,0.65,4300
0.5008814882337238,40.65,1.2,0.0,0.4,4400
0.5091249362486954,40.45,1.3,0.0,0.4,4500
0.5075111370085172,38.0,0.9,0.0,0.4,4600
0.5229341133302202,41.3,1.2,0.0,0.2,4700
0.5042654994631932,40.9,1.1,0.0,0.25,4800
0.49731290322416,38.65,0.95,0.0,0.35,4900
0.5056118871787904,39.95,1.05,0.0,0.2,5000
0.49316324671088047,42.75,1.3,0.0,0.25,100
0.5159040006224663,40.7,1.3,0.0,0.35,200
0.5171147942857923,39.5,1.15,0.0,0.4,300
0.47424529019686706,38.9,0.9,0.0,0.25,400
0.5158766624388976,38.4,0.85,0.0,0.2,500
0.49885401424549797,40.75,1.05,0.0,0.25,600
0.5137158008044627,37.7,0.9,0.0,0.2,700
0.5154791315899403,39.15,1.15,0.0,0.4,800
0.4914274599891451,39.3,0.95,0.0,0.15,900
0.5391343726236025,42.15,1.4,0.0,0.35,1000
0.47766465104639744,33.65,0.6,0.0,0.45,1100
0.5124547930809903,38.7,1.1,0.0,0.2,1200
0.49370268653674454,39.6,1.05,0.0,0.3,1300
0.538524291024239,42.2,1.5,0.0,0.4,1400
0.532792067924341,40.3,1.15,0.0,0.2,1500
0.4774835170741897,36.25,0.95,0.0,0.45,1600
0.5303060772769967,39.85,1.2,0.0,0.35,1700
0.5235538828257172,39.8,1.35,0.0,0.45,1800
0.48129568447661486,35.45,0.8,0.0,0.4,1900
0.5009315566937997,36.7,1.05,0.0,0.35,2000
0.5005028471757894,36.7,0.85,0.0,0.4,2100
0.4858507554538337,40.9,1.0,0.0,0.2,2200
0.5060778797026464,34.0,0.65,0.0,0.35,2300
0.49419645795709266,34.5,0.55,0.0,0.5,2400
0.523030246780935,35.1,0.7,0.0,0.6,2500
0.4979920015242267,40.25,0.95,0.0,0.2,2600
0.514649025156244,40.85,1.25,0.0,0.35,2700
0.527450254129086,39.7,1.15,0.0,0.35,2800
0.5105192088695476,36.1,0.75,0.0,0.3,2900
0.4870507645064481,39.3,1.05,0.0,0.35,3000
0.5113804948637327,37.25,0.95,0.0,0.3,3100
0.5138511213920608,38.6,0.95,0.0,0.3,3200
0.49878432391062677,41.9,1.2,0.0,0.25,3300
0.48642510027109875,34.6,0.65,0.0,0.4,3400
0.499528182285355,39.85,1.05,0.0,0.25,3500
0.48833992721016733,42.35,1.2,0.0,0.15,3600
0.530959433218497,37.3,1.05,0.0,0.45,3700
0.5275095624103241,41.45,1.3,0.0,0.35,3800
0.5256521083306174,38.45,0.95,0.0,0.3,3900
0.4986681785774986,39.1,1.15,0.0,0.45,4000
0.5139190225858931,40.45,1.15,0.0,0.2,4100
0.5312843918811239,34.9,1.05,0.0,0.55,4200
0.48653664044437966,38.25,0.85,0.0,0.25,4300
0.4990741038641926,40.35,1.1,0.0,0.2,4400
0.507054377507461,41.65,1.1,0.0,0.15,4500
0.5071326390190863,38.55,1.05,0.0,0.4,4600
0.5055749706067141,39.45,1.15,0.0,0.25,4700
0.5106134038397283,41.2,1.4,0.0,0.3,4800
0.49952798791426084,37.4,0.9,0.0,0.3,4900
0.5171235679068135,36.3,1.0,0.0,0.55,5000
0.48066901358046116,37.25,0.85,0.0,0.35,100
0.4777994305413806,36.85,0.8,0.0,0.25,200
0.46263032045494895,39.6,1.0,0.0,0.4,300
0.49546659667683085,38.4,1.0,0.0,0.3,400
0.4835433940646679,36.45,0.85,0.0,0.4,500
0.5180137034786927,39.6,1.3,0.0,0.5,600
0.5068342162433008,36.4,0.9,0.0,0.4,700
0.4733490351942821,36.8,0.65,0.0,0.25,800
0.499993848162676,37.75,1.05,0.0,0.35,900
0.5109539600955431,38.45,0.9,0.0,0.25,1000
0.48723552732177167,36.25,0.9,0.0,0.45,1100
0.5119682022650582,34.2,0.6,0.0,0.4,1200
0.5080042009313217,38.6,1.1,0.0,0.4,1300
0.5058239723707596,39.0,1.0,0.0,0.35,1400
0.5135469369491785,38.0,0.8,0.0,0.3,1500
0.5054245059801892,40.8,1.15,0.0,0.2,1600
0.5247730717368316,34.3,0.85,0.0,0.65,1700
0.4725564612258809,31.2,0.55,0.0,0.75,1800
0.4958378514966764,38.95,1.0,0.0,0.35,1900
0.5179841209923276,40.45,1.2,0.0,0.35,2000
0.5127330563421825,40.4,1.1,0.0,0.25,2100
0.5122178572768475,36.85,0.85,0.0,0.4,2200
0.504056716581112,37.35,0.9,0.0,0.3,2300
0.5168869301365422,38.95,1.0,0.0,0.3,2400
0.5055559430596095,32.8,0.55,0.0,0.5,2500
0.4897603093636021,37.4,0.95,0.0,0.4,2600
0.5047946067958891,35.6,0.7,0.0,0.45,2700
0.5020045988715411,38.2,1.1,0.0,0.35,2800
0.5171663469319466,37.25,1.0,0.0,0.5,2900
0.5003946351021307,37.7,1.0,0.0,0.3,3000
0.5136771023690536,39.65,1.1,0.0,0.25,3100
0.4934464401240016,38.45,0.95,0.0,0.25,3200
0.4861175207181948,35.45,0.8,0.0,0.5,3300
0.47222284799045894,39.4,1.0,0.0,0.1,3400
0.49715630724215487,39.5,1.05,0.0,0.35,3500
0.4928694918241564,37.65,0.85,0.0,0.25,3600
0.5018825508430551,39.25,0.95,0.0,0.25,3700
0.49157730319233534,41.9,1.4,0.0,0.3,3800
0.5243306023504324,37.65,0.9,0.0,0.3,3900
0.47969847594716936,37.75,0.95,0.0,0.25,4000
0.5060708672361556,36.9,1.0,0.0,0.35,4100
0.5143725996066344,42.0,1.3,0.0,0.2,4200
0.48686750958111374,37.1,0.8,0.0,0.35,4300
0.5272082577379014,39.95,0.95,0.0,0.2,4400
0.49151446504477797,39.1,1.1,0.0,0.3,4500
0.4897431172349168,37.85,0.9,0.0,0.25,4600
0.5028176494692381,39.2,1.05,0.0,0.35,4700
0.5214905673228282,40.25,1.1,0.0,0.25,4800
0.5021526598738276,41.9,1.25,0.0,0.1,4900
0.5316808273311473,37.35,0.9,0.0,0.3,5000
0.49194571946410326,38.6,1.0,0.0,0.35,100
0.49156042468255573,42.4,1.3,0.0,0.35,200
0.4917973120205864,36.35,0.7,0.0,0.35,300
0.4841005051206679,40.95,1.1,0.0,0.2,400
0.4862948012931311,40.55,1.1,0.0,0.2,500
0.5072096923693288,40.05,1.0,0.0,0.2,600
0.5002908287914861,38.1,0.8,0.0,0.3,700
0.5129967221077798,41.65,1.25,0.0,0.25,800
0.5035768006755451,40.65,1.15,0.0,0.25,900
0.510817860982511,36.4,0.85,0.0,0.45,1000
0.5180290431789458,39.85,1.0,0.0,0.2,1100
0.492634146859534,40.95,1.2,0.0,0.25,1200
0.5200288835903517,37.95,0.95,0.0,0.3,1300
0.5254522895943918,41.75,1.35,0.0,0.3,1400
0.49932337931324466,42.3,1.35,0.0,0.25,1500
0.5023314794661049,37.8,0.9,0.0,0.2,1600
0.4849914505816697,40.0,1.2,0.0,0.4,1700
0.5098509100694157,35.45,0.95,0.0,0.65,1800
0.503388309884507,38.95,1.15,0.0,0.45,1900
0.4893165040372711,39.2,0.85,0.0,0.25,2000
0.5020751706837892,36.95,0.85,0.0,0.35,2100
0.5061118497383336,37.8,0.85,0.0,0.25,2200
0.5158810641966635,38.65,1.1,0.0,0.25,2300
0.49159374927886024,42.5,1.1,0.0,0.2,2400
0.49176831043416086,34.3,0.55,0.0,0.35,2500
0.4916003187325934,41.0,1.2,0.0,0.3,2600
0.5017789814930878,36.55,0.7,0.0,0.25,2700
0.4993577811202372,34.9,0.55,0.0,0.3,2800
0.474167470554018,33.65,0.65,0.0,0.55,2900
0.5059854917173171,37.4,1.0,0.0,0.3,3000
0.49608956626082,37.3,0.95,0.0,0.45,3100
0.5182980847644784,40.95,1.3,0.0,0.5,3200
0.4885087678151626,37.15,0.75,0.0,0.35,3300
0.49645502376139394,39.95,1.4,0.0,0.55,3400
0.49302610498252114,42.65,1.15,0.0,0.1,3500
0.49557967644194456,34.5,0.65,0.0,0.45,3600
0.4864876222518322,36.05,0.55,0.0,0.25,3700
0.4971340244455728,44.1,1.5,0.0,0.3,3800
0.5104862139735385,40.35,1.1,0.0,0.35,3900
0.500634122782365,39.4,1.05,0.0,0.35,4000
0.521383543277733,40.4,1.2,0.0,0.35,4100
0.49676833745764404,35.6,0.6,0.0,0.2,4200
0.5226227066755396,36.65,0.95,0.0,0.4,4300
0.5008228026754397,36.65,0.65,0.0,0.2,4400
0.4930781758346507,39.25,1.0,0.0,0.35,4500
0.5174559738510726,42.65,1.45,0.0,0.3,4600
0.5236469187960247,36.65,0.85,0.0,0.4,4700
0.5014124822391136,36.95,0.75,0.0,0.35,4800
0.5276195096712687,41.85,1.3,0.0,0.2,4900
0.49485480120395337,38.1,0.9,0.0,0.3,5000
0.5026166519161654,40.4,1.15,0.0,0.4,100
0.48280390939167817,35.15,0.75,0.0,0.5,200
0.49965732788858463,44.85,1.55,0.0,0.15,300
0.5147127973356553,39.15,1.25,0.0,0.35,400
0.5264845728001213,40.5,1.2,0.0,0.4,500
0.49704388234129115,41.95,1.2,0.0,0.25,600
0.5023505593853501,39.45,1.05,0.0,0.3,700
0.5176522869438628,41.8,1.45,0.0,0.35,800
0.5179875166209991,38.05,0.85,0.0,0.2,900
0.5372562927790201,37.0,1.0,0.0,0.4,1000
0.49626957404633565,33.45,0.55,0.0,0.4,1100
0.5149387107079811,42.65,1.35,0.0,0.3,1200
0.5071221617339263,35.7,0.85,0.0,0.55,1300
0.4930363282213894,37.45,0.9,0.0,0.45,1400
0.4919661624065229,38.45,0.9,0.0,0.3,1500
0.5081687277053653,38.05,0.9,0.0,0.3,1600
0.5022312234473321,40.15,1.1,0.0,0.3,1700
0.5120052245811124,34.3,0.65,0.0,0.5,1800
0.4914519619880154,36.65,0.75,0.0,0.3,1900
0.5097779095019617,38.95,0.95,0.0,0.35,2000
0.5187795768631271,38.6,0.8,0.0,0.2,2100
0.5060476016391349,35.7,0.85,0.0,0.4,2200
0.5320868666096684,41.9,1.3,0.0,0.5,2300
0.4877912866369213,32.65,0.55,0.0,0.45,2400
0.5039917400020147,38.2,1.15,0.0,0.45,2500
0.503960431898902,41.9,1.25,0.0,0.25,2600
0.48498685845308664,38.55,0.85,0.0,0.25,2700
0.493885299956723,37.45,0.8,0.0,0.3,2800
0.522542096894175,36.7,0.9,0.0,0.4,2900
0.5191047089352474,36.3,0.9,0.0,0.4,3000
0.5130961549052829,38.0,1.05,0.0,0.3,3100
0.5116084828240888,40.45,1.05,0.0,0.2,3200
0.5313342109213819,42.7,1.5,0.0,0.3,3300
0.49573565709749945,38.9,1.1,0.0,0.5,3400
0.5184153093777197,41.0,1.2,0.0,0.3,3500
0.48988861750546037,36.05,0.75,0.0,0.25,3600
0.5146001950061211,35.8,0.95,0.0,0.45,3700
0.5091902994581365,40.8,1.1,0.0,0.2,3800
0.49674055315147597,40.1,1.1,0.0,0.35,3900
0.49193961491658716,38.0,0.95,0.0,0.45,4000
0.49464099122800287,36.5,0.85,0.0,0.5,4100
0.4922192796897641,38.3,0.9,0.0,0.35,4200
0.5015582636470519,40.1,1.1,0.0,0.2,4300
0.5053379018228374,40.9,1.15,0.0,0.3,4400
0.500872110495989,34.4,0.75,0.0,0.55,4500
0.48750388821439683,37.5,0.75,0.0,0.2,4600
0.4942626000763731,40.55,1.2,0.0,0.35,4700
0.4945190489438989,41.8,1.35,0.0,0.45,4800
0.5197138044753418,40.6,1.2,0.0,0.25,4900
0.5091716141414212,40.35,1.05,0.0,0.3,5000
0.5182204214731881,37.0,1.1,0.0,0.4,100
0.48150244289561916,37.35,0.75,0.0,0.25,200
0.5234518733086088,34.45,0.8,0.0,0.55,300
0.4969546378225339,37.65,0.7,0.0,0.2,400
0.5203856396496349,35.75,0.75,0.0,0.4,500
0.518854898199187,39.65,1.35,0.0,0.5,600
0.5111338671720806,36.8,0.65,0.0,0.2,700
0.5032753673057762,38.8,0.95,0.0,0.3,800
0.5202724178007261,39.8,1.15,0.0,0.3,900
0.4972307787765464,38.0,0.85,0.0,0.25,1000
0.4947195181400933,43.35,1.4,0.0,0.25,1100
0.5011020083944036,34.7,0.9,0.0,0.45,1200
0.5077068653009033,39.5,1.15,0.0,0.4,1300
0.5019812063771514,36.85,0.75,0.0,0.25,1400
0.5265456617522722,35.3,0.65,0.0,0.4,1500
0.4916391835666749,37.5,0.9,0.0,0.5,1600
0.4893252662074035,41.3,1.25,0.0,0.45,1700
0.49109477347608943,39.85,1.1,0.0,0.3,1800
0.4656719917989644,40.5,1.05,0.0,0.2,1900
0.49325021266709335,34.45,0.65,0.0,0.45,2000
0.5159500872348362,40.2,1.15,0.0,0.2,2100
0.4938728376464795,38.45,0.9,0.0,0.35,2200
0.5060738076573863,39.0,1.05,0.0,0.3,2300
0.4845807058662081,36.75,0.9,0.0,0.6,2400
0.501879662325156,41.9,1.1,0.0,0.1,2500
0.5000228278359218,37.75,0.85,0.0,0.3,2600
0.5043614034033373,36.95,0.9,0.0,0.45,2700
0.5019198428322815,42.45,1.45,0.0,0.3,2800
0.4802513926434872,40.85,1.1,0.0,0.3,2900
0.5042801060689495,42.8,1.3,0.0,0.2,3000
0.5052954862152653,40.05,1.0,0.0,0.2,3100
0.49887755618399554,38.25,0.95,0.0,0.3,3200
0.5063484160969041,41.55,1.3,0.0,0.45,3300
0.48956390745263045,34.7,0.65,0.0,0.4,3400
0.49942632659995684,40.35,1.2,0.0,0.25,3500
0.49546928381923305,39.25,1.05,0.0,0.5,3600
0.5107031558326544,38.15,0.9,0.0,0.4,3700
0.5022551732166036,36.25,0.85,0.0,0.55,3800
0.502832667223011,42.35,1.4,0.0,0.3,3900
0.4817620086454376,36.75,0.75,0.0,0.3,4000
0.48650155430994646,37.05,0.65,0.0,0.1,4100
0.49172348856163567,38.35,1.0,0.0,0.25,4200
0.5017755444946557,39.6,1.05,0.0,0.3,4300
0.4901600150623686,46.85,1.65,0.0,0.2,4400
0.4844981585636908,36.9,0.75,0.0,0.45,4500
0.4882468105785347,35.5,0.8,0.0,0.5,4600
0.5022945845481962,38.1,0.95,0.0,0.4,4700
0.49934874184841915,37.85,0.95,0.0,0.4,4800
0.5146322035636202,37.8,0.95,0.0,0.3,4900
0.4979688582013183,37.5,1.15,0.0,0.5,5000
0.4899996063358282,34.0,0.6,0.0,0.5,100
0.4930313539738395,38.65,1.05,0.0,0.4,200
0.501398991751879,36.75,0.9,0.0,0.3,300
0.5207063796670397,35.35,0.85,0.0,0.6,400
0.4827236221254326,38.2,0.95,0.0,0.35,500
0.4783823476104089,35.9,0.6,0.0,0.35,600
0.4816439532307456,40.0,0.9,0.0,0.2,700
0.5137254302503944,36.7,0.85,0.0,0.45,800
0.47992627383614134,41.7,1.15,0.0,0.15,900
0.49064796227807517,34.7,0.65,0.0,0.35,1000
0.537885490710557,38.5,1.15,0.0,0.35,1100
0.490026961227014,33.95,0.75,0.0,0.55,1200
0.5100102956773938,37.15,0.9,0.0,0.35,1300
0.5327441194219822,38.2,1.05,0.0,0.45,1400
0.48973881759853455,36.15,0.9,0.0,0.3,1500
0.5072127041808032,37.45,0.85,0.0,0.3,1600
0.5198875445700464,39.15,1.05,0.0,0.3,1700
0.4955648635829345,40.25,1.0,0.0,0.2,1800
0.48339414607219017,36.15,0.7,0.0,0.2,1900
0.5094316181153908,38.1,0.9,0.0,0.25,2000
0.5030222881593367,39.15,1.05,0.0,0.4,2100
0.5127230820349125,41.1,1.25,0.0,0.3,2200
0.4906202533177833,39.4,1.1,0.0,0.45,2300
0.4802591403077295,35.9,0.45,0.0,0.2,2400
0.47570069110393387,38.8,0.95,0.0,0.35,2500
0.503848251035492,42.75,1.2,0.0,0.2,2600
0.49378464625108054,38.4,0.8,0.0,0.3,2700
0.4843850727967641,31.9,0.6,0.0,0.6,2800
0.4871874921550271,38.45,0.95,0.0,0.45,2900
0.5241287792644561,34.35,0.75,0.0,0.45,3000
0.5277122751403498,37.15,1.0,0.0,0.45,3100
0.5197274704594835,34.7,0.7,0.0,0.4,3200
0.4995213237773174,38.55,0.8,0.0,0.15,3300
0.49501308923108034,40.4,1.2,0.0,0.4,3400
0.5032052111350866,40.85,1.0,0.0,0.2,3500
0.5010231730492103,38.2,1.0,0.0,0.35,3600
0.5392136219082896,37.1,1.15,0.0,0.55,3700
0.5040017250135849,38.85,0.9,0.0,0.15,3800
0.5179850284817042,41.1,1.3,0.0,0.4,3900
0.5040946929387239,41.4,1.2,0.0,0.25,4000
0.4956375906814473,37.6,0.7,0.0,0.1,4100
0.5264700133518093,40.85,1.2,0.0,0.2,4200
0.5196040582453068,35.9,0.95,0.0,0.5,4300
0.5048141011576122,39.4,1.05,0.0,0.4,4400
0.5100709800755163,39.95,1.2,0.0,0.3,4500
0.5164556909426763,40.8,1.15,0.0,0.4,4600
0.5185803035900461,42.8,1.3,0.0,0.2,4700
0.5028452296754518,38.35,0.95,0.0,0.25,4800
0.5019264894775348,41.3,1.15,0.0,0.2,4900
0.5261466717708991,39.8,1.05,0.0,0.2,5000
0.5088848360202112,34.75,0.85,0.0,0.7,100
0.5014419015975877,36.0,0.85,0.0,0.45,200
0.5125117429890935,39.35,1.2,0.0,0.3,300
0.4785821812121589,35.85,0.8,0.0,0.4,400
0.5042012145299506,36.65,0.75,0.0,0.35,500
0.5271248037191133,41.1,1.2,0.0,0.25,600
0.5128395585864265,39.6,1.05,0.0,0.25,700
0.49380293316705615,41.55,1.1,0.0,0.15,800
0.49117695974719355,40.25,1.1,0.0,0.3,900
0.4944711270984767,37.1,1.05,0.0,0.55,1000
0.50823410854443,40.2,1.1,0.0,0.4,1100
0.5175505455411008,37.35,0.85,0.0,0.25,1200
0.4688698515378037,39.75,1.2,0.0,0.4,1300
0.523053472847659,37.15,1.1,0.0,0.6,1400
0.5088143651946411,42.5,1.4,0.0,0.1,1500
0.5173897514265609,42.95,1.5,0.0,0.25,1600
0.48962393679918736,38.75,0.9,0.0,0.2,1700
0.5103606948525388,39.5,0.95,0.0,0.25,1800
0.5163480127758849,41.55,1.4,0.0,0.4,1900
0.5124141902133175,39.75,1.0,0.0,0.25,2000
0.4980914457056388,41.85,1.2,0.0,0.2,2100
0.5090018274525628,42.6,1.45,0.0,0.45,2200
0.49192397521894576,39.85,1.0,0.0,0.25,2300
0.5024536239871156,35.45,0.7,0.0,0.45,2400
0.5029768182553653,34.2,0.65,0.0,0.55,2500
0.5028959616347041,39.5,1.05,0.0,0.35,2600
0.49707374628388556,34.35,0.75,0.0,0.4,2700
0.4828116927186863,33.8,0.55,0.0,0.4,2800
0.5141216569854776,38.5,1.1,0.0,0.35,2900
0.5156574365456587,35.55,0.7,0.0,0.35,3000
0.5139215214274115,41.45,1.2,0.0,0.2,3100
0.5255953611971393,39.65,1.1,0.0,0.3,3200
0.5242565813471326,37.45,0.95,0.0,0.2,3300
0.49887203907607913,38.0,1.05,0.0,0.25,3400
0.5194921876898044,38.75,1.1,0.0,0.35,3500
0.47821811858359176,44.2,1.3,0.0,0.05,3600
0.5071989991889696,40.25,1.05,0.0,0.2,3700
0.500125744401294,39.05,0.85,0.0,0.3,3800
0.4882455085390312,37.5,0.85,0.0,0.25,3900
0.515044673578756,37.5,1.1,0.0,0.45,4000
0.5110762556004479,37.8,0.85,0.0,0.2,4100
0.48975350764967773,39.1,0.95,0.0,0.3,4200
0.5089307354335033,36.75,0.75,0.0,0.3,4300
0.49541620982491563,39.25,1.0,0.0,0.25,4400
0.5004377810688105,35.6,0.75,0.0,0.45,4500
0.5061582478683938,36.4,0.65,0.0,0.2,4600
0.49592693697091306,40.45,0.95,0.0,0.15,4700
0.5115364134240609,40.9,1.2,0.0,0.4,4800
0.4829635028883077,35.25,0.7,0.0,0.4,4900
0.5401209678190271,40.05,1.35,0.0,0.4,5000
0.5030996180618115,36.95,1.0,0.0,0.25,100
0.4889629193345909,41.3,1.3,0.0,0.35,200
0.5104624124786921,40.6,1.1,0.0,0.4,300
0.527192396028858,44.45,1.45,0.0,0.2,400
0.5156848946551894,34.2,0.75,0.0,0.5,500
0.4726122807646802,35.5,0.8,0.0,0.45,600
0.5065937591149028,37.9,0.8,0.0,0.35,700
0.5125418417341672,37.7,0.9,0.0,0.25,800
0.5011384677444634,39.25,1.0,0.0,0.3,900
0.49598821590097064,38.0,0.85,0.0,0.25,1000
0.4872284261488435,40.05,1.05,0.0,0.25,1100
0.47935217444898637,38.75,1.1,0.0,0.3,1200
0.4961208214978436,39.15,1.1,0.0,0.35,1300
0.5380650075967739,38.85,1.05,0.0,0.4,1400
0.4769079092448272,38.55,1.1,0.0,0.55,1500
0.5045427052983645,39.3,1.1,0.0,0.4,1600
0.5165478000126603,40.15,1.2,0.0,0.35,1700
0.5164813346976647,39.9,1.15,0.0,0.35,1800
0.5254671985768382,37.75,1.05,0.0,0.4,1900
0.49781919677356373,37.4,0.75,0.0,0.15,2000
0.5139858748761755,40.95,1.2,0.0,0.15,2100
0.4978184008452196,37.25,0.8,0.0,0.25,2200
0.5096970347698371,37.7,0.85,0.0,0.3,2300
0.5207024247528101,41.7,1.25,0.0,0.2,2400
0.4851774204860645,36.2,0.85,0.0,0.4,2500
0.5109448930352646,37.2,0.9,0.0,0.3,2600
0.5041407449327909,37.3,0.9,0.0,0.45,2700
0.5040950450866973,39.05,1.05,0.0,0.3,2800
0.5123503745732745,36.35,0.7,0.0,0.4,2900
0.5195059841724061,38.8,1.1,0.0,0.35,3000
0.5082324388163226,41.25,1.15,0.0,0.2,3100
0.5007618183296918,37.85,0.95,0.0,0.25,3200
0.5109904380982468,34.4,0.6,0.0,0.25,3300
0.49703990653136165,37.9,1.0,0.0,0.4,3400
0.47755085365277017,37.65,0.85,0.0,0.45,3500
0.48415560712489397,41.6,1.3,0.0,0.25,3600
0.46530307902949913,36.7,0.75,0.0,0.45,3700
0.4752538907519302,39.0,1.1,0.0,0.5,3800
0.5168997434906004,40.3,1.15,0.0,0.3,3900
0.5233552535875741,40.15,1.1,0.0,0.25,4000
0.49232767919039544,41.4,1.3,0.0,0.25,4100
0.48713775207890586,36.25,0.8,0.0,0.35,4200
0.49361580035043906,33.85,0.7,0.0,0.4,4300
0.485644832994654,35.6,0.85,0.0,0.45,4400
0.5290266683441032,40.5,1.2,0.0,0.25,4500
0.5241488908465024,38.5,0.9,0.0,0.3,4600
0.5032075282024325,37.2,0.75,0.0,0.2,4700
0.48295753968943744,43.85,1.35,0.0,0.25,4800
0.5170012495961173,40.8,1.25,0.0,0.3,4900
0.5190725905891528,37.25,0.95,0.0,0.4,5000
0.5122262852242103,35.2,0.65,0.0,0.25,100
0.4950692232359758,36.85,0.85,0.0,0.4,200
0.5093407246086268,36.1,0.85,0.0,0.5,300
0.49281366369996943,36.5,0.9,0.0,0.3,400
0.5037738623793417,36.85,1.0,0.0,0.5,500
0.4912429938795042,40.2,1.15,0.0,0.25,600
0.48754564067255374,37.45,0.8,0.0,0.3,700
0.5195294825376944,41.55,1.2,0.0,0.3,800
0.4978884439180888,36.9,1.0,0.0,0.35,900
0.5019317342259286,34.95,0.55,0.0,0.4,1000
0.48439468204545894,38.6,0.95,0.0,0.25,1100
0.5196808707031987,37.8,0.85,0.0,0.2,1200
0.5114925365312244,35.9,0.85,0.0,0.4,1300
0.5361034745911095,44.95,1.6,0.0,0.2,1400
0.4836715537070527,37.1,0.75,0.0,0.2,1500
0.5138848487527897,43.65,1.65,0.0,0.25,1600
0.48519981470120876,38.85,0.9,0.0,0.25,1700
0.49951782313905435,37.55,0.95,0.0,0.3,1800
0.5195222616126884,39.9,1.1,0.0,0.25,1900
0.5085636426112409,39.85,1.15,0.0,0.45,2000
0.4967692827897408,41.4,1.2,0.0,0.2,2100
0.5024277923953238,40.25,1.15,0.0,0.25,2200
0.49529861216392385,36.05,0.75,0.0,0.4,2300
0.48881693701610496,38.75,1.05,0.0,0.25,2400
0.5278660008975699,38.1,1.1,0.0,0.45,2500
0.4830022860012562,36.0,0.95,0.0,0.45,2600
0.5030090799201772,39.9,1.2,0.0,0.25,2700
0.4859352966711764,34.05,0.5,0.0,0.3,2800
0.5248608825495849,38.55,1.2,0.0,0.35,2900
0.5312864682113767,39.85,1.05,0.0,0.2,3000
0.4910836118050006,39.8,1.0,0.0,0.2,3100
0.495982017811868,38.9,0.9,0.0,0.25,3200
0.47493694647423956,36.45,0.75,0.0,0.25,3300
0.4863694271325077,34.6,0.65,0.0,0.45,3400
0.5159898963406019,44.0,1.55,0.0,0.4,3500
0.49503283108180895,38.1,1.05,0.0,0.35,3600
0.47336582303917574,37.9,0.8,0.0,0.3,3700
0.4872641323607029,37.75,0.8,0.0,0.3,3800
0.49589059672040287,37.45,0.8,0.0,0.3,3900
0.5068328550542549,36.45,0.9,0.0,0.35,4000
0.5184909044521471,37.25,0.9,0.0,0.4,4100
0.47598361694291375,38.85,0.95,0.0,0.25,4200
0.48516513405271,41.05,1.3,0.0,0.35,4300
0.523906747243337,39.2,1.0,0.0,0.4,4400
0.5233314907119878,39.85,1.05,0.0,0.25,4500
0.4999098688214664,40.4,1.25,0.0,0.55,4600
0.477406221684749,38.5,0.9,0.0,0.4,4700
0.5185004934388998,37.0,0.95,0.0,0.45,4800
0.4917625618498526,35.15,0.5,0.0,0.2,4900
0.5318026440224937,37.65,0.9,0.0,0.4,5000
0.5127212436916129,41.65,1.1,0.0,0.2,100
0.5066612346203689,37.15,1.05,0.0,0.55,200
0.5212429014196325,38.85,1.0,0.0,0.25,300
0.48686999190526753,38.3,1.05,0.0,0.5,400
0.5309392758310867,40.1,1.1,0.0,0.15,500
0.5137677162507189,36.1,0.85,0.0,0.5,600
0.5101418045006179,36.7,0.85,0.0,0.35,700
0.49279528354055746,36.8,0.9,0.0,0.45,800
0.5277215695540571,40.1,1.15,0.0,0.3,900
0.5238057596209388,39.0,0.8,0.0,0.05,1000
0.5053340246882077,36.9,0.85,0.0,0.4,1100
0.5052334016154771,42.55,1.25,0.0,0.15,1200
0.5203141360294474,38.35,1.0,0.0,0.35,1300
0.5182282285152083,40.4,1.15,0.0,0.25,1400
0.48274349696275387,37.55,0.9,0.0,0.4,1500
0.512487831595748,35.85,0.75,0.0,0.35,1600
0.5123528952116009,37.9,0.85,0.0,0.25,1700
0.5226155701447399,38.45,1.0,0.0,0.35,1800
0.4932482510281512,35.7,0.8,0.0,0.35,1900
0.4864197866562435,36.65,0.85,0.0,0.3,2000
0.5094437592264632,37.05,0.7,0.0,0.15,2100
0.5101031765423041,40.15,1.15,0.0,0.4,2200
0.5023081012619898,38.8,0.95,0.0,0.35,2300
0.4926548147658748,41.95,1.2,0.0,0.15,2400
0.49252599727711177,37.75,0.9,0.0,0.3,2500
0.5136305126039903,37.2,0.8,0.0,0.3,2600
0.505577935914338,39.1,0.95,0.0,0.25,2700
0.505215540165367,37.9,0.8,0.0,0.25,2800
0.49712539414033535,36.15,0.8,0.0,0.45,2900
0.48185210467276524,37.45,0.95,0.0,0.35,3000
0.5110090540083088,37.9,0.85,0.0,0.3,3100
0.5085758276052457,36.65,0.75,0.0,0.35,3200
0.5080596842394199,36.95,0.75,0.0,0.3,3300
0.5041555449027377,37.9,0.8,0.0,0.2,3400
0.5143319454177602,35.75,0.65,0.0,0.4,3500
0.5244673315423494,40.45,1.15,0.0,0.1,3600
0.5000707215835583,42.5,1.25,0.0,0.35,3700
0.489773245191327,38.15,0.95,0.0,0.4,3800
0.48842143720772324,33.65,0.6,0.0,0.5,3900
0.4823526741717569,39.05,0.9,0.0,0.25,4000
0.5070794833047418,42.05,1.3,0.0,0.3,4100
0.5039984803969131,34.4,0.75,0.0,0.4,4200
0.48901524822694753,37.75,0.7,0.0,0.2,4300
0.49922475557050205,38.7,0.9,0.0,0.25,4400
0.5163951313792161,36.4,0.9,0.0,0.5,4500
0.5032736808621695,34.7,0.85,0.0,0.55,4600
0.4868543665859214,35.7,0.75,0.0,0.45,4700
0.5078488519816313,38.85,0.95,0.0,0.3,4800
0.49269603232096076,37.15,0.95,0.0,0.35,4900
0.4926232093495545,40.95,1.2,0.0,0.3,5000
0.48889175375656146,40.6,1.15,0.0,0.3,100
0.5144201015335546,38.9,1.05,0.0,0.3,200
0.49143451849289105,38.3,0.85,0.0,0.25,300
0.4914628596777405,39.55,0.95,0.0,0.2,400
0.49983051934046596,39.05,1.1,0.0,0.45,500
0.5166271522221652,39.95,1.1,0.0,0.3,600
0.5086382437624832,37.85,0.85,0.0,0.4,700
0.4996188307464465,33.05,0.6,0.0,0.45,800
0.49383341256545954,40.15,0.95,0.0,0.2,900
0.5146378352783487,38.5,1.05,0.0,0.4,1000
0.5033226372508679,36.4,0.9,0.0,0.35,1100
0.5155352071399675,37.3,1.0,0.0,0.2,1200
0.521147200913945,38.35,0.95,0.0,0.3,1300
0.4883755869716221,37.7,0.8,0.0,0.25,1400
0.5270911729804243,45.95,1.7,0.0,0.2,1500
0.4940072208097609,40.65,1.25,0.0,0.2,1600
0.5127172137469385,42.75,1.45,0.0,0.2,1700
0.5138566560673586,42.2,1.25,0.0,0.2,1800
0.5015510716677428,38.3,0.95,0.0,0.35,1900
0.499356751095376,37.65,1.0,0.0,0.4,2000
0.49995681802661834,34.5,0.45,0.0,0.35,2100
0.5222150942573965,39.3,1.15,0.0,0.35,2200
0.5002446048124861,42.55,1.3,0.0,0.2,2300
0.48860741269124786,35.75,0.8,0.0,0.5,2400
0.5085961158722431,34.4,0.85,0.0,0.5,2500
0.5042374185978022,36.15,0.7,0.0,0.25,2600
0.5076685700566659,38.8,1.0,0.0,0.4,2700
0.5070207930428725,43.25,1.5,0.0,0.3,2800
0.5173715642334058,37.9,0.9,0.0,0.25,2900
0.4932879263589377,36.5,0.8,0.0,0.35,3000
0.5044264775512469,34.75,0.65,0.0,0.35,3100
0.532309955411281,37.4,1.15,0.0,0.4,3200
0.49358937581988105,36.2,0.75,0.0,0.35,3300
0.5073045969480959,36.5,0.85,0.0,0.4,3400
0.5174474586379978,33.6,0.75,0.0,0.65,3500
0.5036540544542839,37.15,0.8,0.0,0.25,3600
0.502651971472736,35.95,0.85,0.0,0.5,3700
0.5206362381188947,35.9,0.85,0.0,0.35,3800
0.47884730254265484,37.05,0.8,0.0,0.35,3900
0.4981041427099965,38.0,1.0,0.0,0.4,4000
0.4972515429223553,36.15,0.75,0.0,0.5,4100
0.5057887290862707,38.85,0.9,0.0,0.3,4200
0.5031856356900108,38.95,1.0,0.0,0.2,4300
0.5022397929550901,39.55,0.9,0.0,0.2,4400
0.4984265592424665,41.2,1.1,0.0,0.2,4500
0.4987699586276431,37.9,0.85,0.0,0.25,4600
0.4844261563615448,36.0,0.75,0.0,0.3,4700
0.5129917662157406,39.1,1.05,0.0,0.4,4800
0.4725980376778998,36.1,0.7,0.0,0.4,4900
0.5154387487810838,33.2,0.55,0.0,0.45,5000
0.4913734498082098,39.5,1.0,0.0,0.4,100
0.49389941370199003,35.9,0.85,0.0,0.35,200
0.5020684591311224,36.4,0.6,0.0,0.25,300
0.5126567424945482,40.25,1.15,0.0,0.35,400
0.516911528015467,41.1,1.15,0.0,0.25,500
0.5030421812383812,38.4,1.0,0.0,0.3,600
0.48148294427720584,35.05,0.6,0.0,0.4,700
0.4976382494858914,35.5,0.75,0.0,0.35,800
0.5066100120123013,41.4,1.3,0.0,0.3,900
0.5054832904515568,37.25,0.7,0.0,0.1,1000
0.4853860574699331,42.55,1.35,0.0,0.25,1100
0.5052884684172583,44.0,1.35,0.0,0.2,1200
0.48779421148536883,39.15,0.85,0.0,0.2,1300
0.5040367852969773,41.25,1.15,0.0,0.2,1400
0.4862236526033287,40.25,1.05,0.0,0.3,1500
0.490425393354686,35.85,0.75,0.0,0.45,1600
0.4912718553121528,37.55,0.9,0.0,0.25,1700
0.4945723521479232,40.05,1.05,0.0,0.15,1800
0.5081396107833822,35.95,0.65,0.0,0.2,1900
0.5072406192275427,35.15,0.65,0.0,0.3,2000
0.4885363683046796,35.5,0.85,0.0,0.6,2100
0.505531686657348,37.95,0.95,0.0,0.35,2200
0.4982531699592253,38.3,1.0,0.0,0.4,2300
0.49655015131500974,37.45,0.85,0.0,0.35,2400
0.50404713916626,38.85,0.85,0.0,0.2,2500
0.5147056773705623,36.0,0.75,0.0,0.35,2600
0.4888663090175582,39.45,0.95,0.0,0.25,2700
0.5005495237255407,37.45,0.75,0.0,0.3,2800
0.4987523945734952,42.85,1.15,0.0,0.05,2900
0.4891808799078431,38.1,1.0,0.0,0.35,3000
0.4684068905086495,36.9,0.9,0.0,0.4,3100
0.5343065256518018,45.3,1.65,0.0,0.15,3200
0.49520198008740995,43.5,1.25,0.0,0.25,3300
0.5063363630763227,38.4,1.15,0.0,0.45,3400
0.4923487709812925,35.65,0.85,0.0,0.45,3500
0.4962453197311345,41.9,1.35,0.0,0.4,3600
0.48504110988514143,37.9,1.1,0.0,0.5,3700
0.5092386300694046,42.1,1.25,0.0,0.25,3800
0.5181477158838839,39.35,1.15,0.0,0.3,3900
0.49913449491859696,36.85,0.85,0.0,0.3,4000
0.5096812888573431,31.45,0.55,0.0,0.7,4100
0.5167280354219936,40.5,1.3,0.0,0.35,4200
0.5060222563471629,35.5,0.8,0.0,0.55,4300
0.5118811180838189,40.05,1.15,0.0,0.25,4400
0.5178281214603626,40.25,0.9,0.0,0.1,4500
0.48365551956601466,37.7,0.8,0.0,0.3,4600
0.5295119816054003,39.55,1.0,0.0,0.3,4700
0.491774095994079,37.55,0.9,0.0,0.35,4800
0.5080710154023542,39.0,0.8,0.0,0.1,4900
0.5063866005036115,36.9,0.9,0.0,0.5,5000
0.49783838546070813,36.05,0.8,0.0,0.4,100
0.5037087204910644,37.0,0.8,0.0,0.2,200
0.5074248950384193,36.95,0.75,0.0,0.3,300
0.498227775937987,36.65,0.7,0.0,0.2,400
0.49184170242940706,36.45,0.75,0.0,0.3,500
0.5246974875649604,40.0,1.05,0.0,0.25,600
0.5139347010741088,38.7,0.85,0.0,0.25,700
0.5179835141141836,39.1,1.05,0.0,0.15,800
0.5104393377233858,34.6,0.55,0.0,0.35,900
0.5222653764410475,38.7,1.1,0.0,0.45,1000
0.50028083545211,38.4,0.95,0.0,0.35,1100
0.4863407359138011,34.4,0.65,0.0,0.4,1200
0.49216014980645656,39.35,1.0,0.0,0.35,1300
0.5131396818236506,44.25,1.7,0.0,0.2,1400
0.510986180767955,38.3,1.0,0.0,0.35,1500
0.48874249384230833,38.4,0.8,0.0,0.3,1600
0.5164057679327372,40.15,1.1,0.0,0.3,1700
0.4926836300207005,39.45,1.0,0.0,0.2,1800
0.4828687302202613,40.7,1.05,0.0,0.2,1900
0.49849171442386425,39.15,0.9,0.0,0.15,2000
0.4992005456851964,37.0,0.8,0.0,0.35,2100
0.49338593461569963,36.7,0.6,0.0,0.2,2200
0.508180594846958,40.7,1.2,0.0,0.35,2300
0.5174912545369158,36.5,0.85,0.0,0.35,2400
0.5192745876636946,41.0,1.25,0.0,0.35,2500
0.49382542754579467,37.15,0.9,0.0,0.4,2600
0.4955887265762408,38.2,0.85,0.0,0.25,2700
0.4775365393133993,37.8,0.85,0.0,0.3,2800
0.5046599389179953,38.5,1.05,0.0,0.35,2900
0.504609342912217,43.0,1.45,0.0,0.3,3000
0.5163961910114518,42.1,1.35,0.0,0.35,3100
0.5031174799067618,37.65,1.05,0.0,0.45,3200
0.4799308445615968,39.6,0.95,0.0,0.15,3300
0.46908168887192814,36.2,0.8,0.0,0.45,3400
0.4833020152683969,39.6,1.15,0.0,0.4,3500
0.506003845885245,37.75,0.95,0.0,0.4,3600
0.4915882293848851,35.5,0.85,0.0,0.55,3700
0.48579427163395,34.2,0.55,0.0,0.55,3800
0.5005472953059579,39.25,1.1,0.0,0.25,3900
0.5183793820368583,41.85,1.25,0.0,0.15,4000
0.49295145865307005,44.25,1.4,0.0,0.1,4100
0.5040651046290278,41.8,1.2,0.0,0.1,4200
0.509780883318375,33.4,0.65,0.0,0.5,4300
0.49888347911194647,35.05,0.55,0.0,0.3,4400
0.49764907013726195,35.4,0.75,0.0,0.5,4500
0.5038651580252563,38.5,1.05,0.0,0.45,4600
0.5056975414584157,36.85,0.95,0.0,0.4,4700
0.513346165209084,36.55,0.8,0.0,0.2,4800
0.4811677570805474,35.35,0.45,0.0,0.25,4900
0.5049687455728209,37.85,0.95,0.0,0.25,5000
0.5411447173131163,38.75,1.15,0.0,0.35,100
0.5177137215522378,39.85,0.95,0.0,0.2,200
0.50693956916555,39.0,1.15,0.0,0.5,300
0.48932016966107617,39.3,1.25,0.0,0.6,400
0.5033775614278878,41.45,1.15,0.0,0.2,500
0.4718759734212382,37.6,0.9,0.0,0.4,600
0.5015353449484803,34.3,0.6,0.0,0.35,700
0.4957732273611704,39.75,1.15,0.0,0.3,800
0.49307409477334685,36.2,0.7,0.0,0.3,900
0.5152266692321065,42.8,1.3,0.0,0.35,1000
0.4871648562544693,35.35,0.5,0.0,0.25,1100
0.49751304100328825,33.0,0.4,0.0,0.25,1200
0.5060225004130909,38.05,0.85,0.0,0.25,1300
0.5302639001576613,35.9,0.75,0.0,0.35,1400
0.49753571751295855,43.05,1.25,0.0,0.25,1500
0.5027423593944279,38.4,1.0,0.0,0.2,1600
0.5097703112721328,40.4,1.15,0.0,0.25,1700
0.5055100329074351,35.85,0.85,0.0,0.45,1800
0.49542048132881567,37.2,0.8,0.0,0.3,1900
0.4864646711741802,39.9,0.95,0.0,0.15,2000
0.5064655169444292,36.4,0.7,0.0,0.3,2100
0.479812613880464,36.7,0.8,0.0,0.3,2200
0.509582294820773,37.65,0.85,0.0,0.3,2300
0.5235711200092539,39.65,1.4,0.0,0.45,2400
0.5136614691139016,37.2,0.8,0.0,0.2,2500
0.4959585621502054,39.55,0.9,0.0,0.2,2600
0.5019723813096885,39.75,1.1,0.0,0.25,2700
0.5018641802225519,39.6,1.3,0.0,0.45,2800
0.5073589422005113,41.95,1.4,0.0,0.3,2900
0.5005610179474423,35.5,0.75,0.0,0.35,3000
0.5186552806285082,38.5,1.05,0.0,0.35,3100
0.5055961468348935,39.35,1.05,0.0,0.3,3200
0.49994242015385304,44.05,1.45,0.0,0.35,3300
0.5082015057655382,39.3,0.95,0.0,0.25,3400
0.5094419052390898,37.2,0.85,0.0,0.25,3500
0.5136514405322453,37.75,1.0,0.0,0.45,3600
0.5011278463825591,37.35,0.95,0.0,0.5,3700
0.5046020501186191,42.25,1.4,0.0,0.4,3800
0.5137437008196769,36.25,0.85,0.0,0.4,3900
0.5193422014065574,37.5,1.1,0.0,0.45,4000
0.524552606176691,38.4,1.05,0.0,0.3,4100
0.491548622511906,39.25,1.1,0.0,0.3,4200
0.5372200519559728,38.2,1.0,0.0,0.35,4300
0.48991497285678437,39.6,1.1,0.0,0.3,4400
0.49839020477786783,35.75,0.6,0.0,0.25,4500
0.4540225573238087,33.15,0.5,0.0,0.35,4600
0.4784552874208387,34.45,0.75,0.0,0.5,4700
0.5226579728999831,40.45,1.05,0.0,0.2,4800
0.5082332143114822,35.9,0.8,0.0,0.35,4900
0.4928326796047915,41.05,1.25,0.0,0.4,5000
