Energy,Episode length,Green food,Number of nodes,Red food,Trained time steps
0.5421514263112399,52.65,3.5,0.0,0.4,200
0.6251017540579141,76.75,8.95,0.0,1.65,400
0.8958524999999999,100.0,20.75,0.0,0.0,600
0.8478774999999998,100.0,17.6,0.0,0.0,800
0.9096625000000002,100.0,23.45,0.0,0.0,1000
0.91364,100.0,24.55,0.0,0.0,1200
0.8392699999999997,100.0,17.7,0.0,0.0,1400
0.7916514263322882,97.15,14.1,0.0,0.0,1600
0.8209076384274641,98.5,17.95,0.0,0.0,1800
0.859005,100.0,19.5,0.0,0.0,2000
0.9011799999999999,100.0,22.9,0.0,0.0,2200
0.914315,100.0,24.6,0.0,0.0,2400
0.8785949999999998,100.0,21.25,0.0,0.0,2600
0.91231,100.0,23.9,0.0,0.0,2800
0.8839374999999998,100.0,21.05,0.0,0.0,3000
0.9158125,100.0,24.45,0.0,0.0,3200
0.9105174999999999,100.0,23.85,0.0,0.0,3400
0.8735249999999999,100.0,20.35,0.0,0.0,3600
0.90648,100.0,23.2,0.0,0.0,3800
0.9157375,100.0,24.75,0.0,0.0,4000
0.9238925,100.0,26.25,0.0,0.0,4200
0.909205,100.0,24.0,0.0,0.0,4400
0.9266,100.0,26.85,0.0,0.0,4600
0.9079525,100.0,23.35,0.0,0.0,4800
0.9150600000000001,100.0,24.65,0.0,0.0,5000
0.9233749999999998,100.0,25.9,0.0,0.0,5200
0.9259175000000001,100.0,27.65,0.0,0.0,5400
0.9251249999999999,100.0,26.65,0.0,0.0,5600
0.9328799999999999,100.0,28.8,0.0,0.0,5800
0.8906100000000002,100.0,22.3,0.0,0.0,6000
0.929885,100.0,28.2,0.0,0.0,6200
0.9227749999999999,100.0,26.7,0.0,0.0,6400
0.9294800000000002,100.0,27.9,0.0,0.0,6600
0.9231149999999999,100.0,26.7,0.0,0.0,6800
0.932615,100.0,28.7,0.0,0.0,7000
0.92738,100.0,27.1,0.0,0.0,7200
0.91912,100.0,27.7,0.0,0.0,7400
0.9279400000000001,100.0,28.2,0.0,0.0,7600
0.931245,100.0,28.95,0.0,0.0,7800
0.9344100000000001,100.0,29.5,0.0,0.0,8000
0.933075,100.0,29.2,0.0,0.0,8200
0.9291,100.0,28.05,0.0,0.0,8400
0.9293899999999999,100.0,27.75,0.0,0.0,8600
0.9253400000000003,100.0,27.45,0.0,0.0,8800
0.9279299999999999,100.0,28.6,0.0,0.0,9000
0.92215,100.0,26.8,0.0,0.0,9200
0.9299100000000001,100.0,28.5,0.0,0.0,9400
0.93505,100.0,29.7,0.0,0.0,9600
0.935055,100.0,29.35,0.0,0.0,9800
0.9335100000000003,100.0,29.3,0.0,0.0,10000
0.5081285487997467,33.95,0.4,0.0,0.15,200
0.5579004005606563,55.85,5.8,0.0,2.5,400
0.7625420588901106,83.65,17.2,0.0,3.6,600
0.8732225,100.0,21.55,0.0,0.9,800
0.8945099999999998,100.0,22.15,0.0,0.05,1000
0.8701399999999998,100.0,20.35,0.0,0.0,1200
0.88194,100.0,21.55,0.0,0.0,1400
0.8482018181818182,97.2,18.2,0.0,0.0,1600
0.8207544086021503,99.65,16.65,0.0,0.0,1800
0.8335618113101901,96.6,17.4,0.0,0.0,2000
0.88337,100.0,20.85,0.0,0.0,2200
0.8442407894736839,96.9,16.7,0.0,0.0,2400
0.8623875,100.0,18.5,0.0,0.0,2600
0.909395,100.0,24.2,0.0,0.0,2800
0.9157400000000001,100.0,25.1,0.0,0.0,3000
0.9137599999999999,100.0,24.3,0.0,0.0,3200
0.9154850000000001,100.0,25.15,0.0,0.0,3400
0.9185125000000001,100.0,25.95,0.0,0.0,3600
0.9248024999999999,100.0,26.6,0.0,0.0,3800
0.8994624999999999,100.0,24.0,0.0,0.0,4000
0.9245725,100.0,26.8,0.0,0.0,4200
0.912265,100.0,24.25,0.0,0.0,4400
0.9161050000000002,100.0,25.0,0.0,0.0,4600
0.908485,100.0,24.95,0.0,0.0,4800
0.9158975,100.0,25.05,0.0,0.0,5000
0.8992850000000001,100.0,23.75,0.0,0.0,5200
0.905555,100.0,25.15,0.0,0.0,5400
0.9288125,100.0,28.05,0.0,0.0,5600
0.924935,100.0,26.6,0.0,0.0,5800
0.92926,100.0,28.1,0.0,0.0,6000
0.92394,100.0,27.45,0.0,0.0,6200
0.9252749999999998,100.0,27.15,0.0,0.0,6400
0.9234399999999999,100.0,26.55,0.0,0.0,6600
0.926505,100.0,27.7,0.0,0.0,6800
0.9311499999999999,100.0,28.45,0.0,0.0,7000
0.9247750000000001,100.0,27.15,0.0,0.0,7200
0.9254450000000002,100.0,27.65,0.0,0.0,7400
0.9235300000000001,100.0,26.95,0.0,0.0,7600
0.932385,100.0,29.05,0.0,0.0,7800
0.9337899999999999,100.0,29.65,0.0,0.0,8000
0.933675,100.0,29.35,0.0,0.0,8200
0.9311200000000002,100.0,28.3,0.0,0.0,8400
0.9279799999999998,100.0,28.1,0.0,0.0,8600
0.928115,100.0,27.85,0.0,0.0,8800
0.9317350000000001,100.0,28.55,0.0,0.0,9000
0.93158,100.0,29.2,0.0,0.0,9200
0.93467,100.0,29.05,0.0,0.0,9400
0.927795,100.0,28.1,0.0,0.0,9600
0.9369100000000001,100.0,30.3,0.0,0.0,9800
0.93781,100.0,30.6,0.0,0.0,10000
0.4776062416443846,33.2,0.0,0.0,0.0,200
0.47637249330311515,31.45,0.0,0.0,0.0,400
0.47825575444728113,30.6,0.0,0.0,0.0,600
0.47537582163547193,32.45,0.0,0.0,0.0,800
0.47876562221479474,32.35,0.05,0.0,0.0,1000
0.4850908187547337,38.15,0.6,0.0,0.05,1200
0.5696078401228509,47.55,4.05,0.0,1.35,1400
0.7711802663424849,88.65,15.65,0.0,1.6,1600
0.8959474999999999,100.0,20.75,0.0,0.0,1800
0.9111849999999999,100.0,23.9,0.0,0.0,2000
0.9108175000000003,100.0,23.5,0.0,0.0,2200
0.922025,100.0,26.1,0.0,0.0,2400
0.9210900000000001,100.0,26.25,0.0,0.0,2600
0.9250150000000001,100.0,27.05,0.0,0.0,2800
0.9227775000000001,100.0,27.05,0.0,0.0,3000
0.9258625,100.0,27.0,0.0,0.0,3200
0.917985,100.0,26.1,0.0,0.0,3400
0.913105,100.0,25.05,0.0,0.0,3600
0.9254850000000001,100.0,27.1,0.0,0.0,3800
0.92408,100.0,26.35,0.0,0.0,4000
0.9107575000000001,100.0,24.55,0.0,0.0,4200
0.9230475,100.0,26.7,0.0,0.0,4400
0.9261950000000001,100.0,26.7,0.0,0.0,4600
0.9080375000000002,100.0,23.6,0.0,0.0,4800
0.9253,100.0,26.7,0.0,0.0,5000
0.9263150000000001,100.0,26.8,0.0,0.0,5200
0.9316800000000001,100.0,28.95,0.0,0.0,5400
0.9321100000000001,100.0,28.6,0.0,0.0,5600
0.9217100000000003,100.0,26.1,0.0,0.0,5800
0.9207150000000001,100.0,25.9,0.0,0.0,6000
0.9279000000000002,100.0,28.1,0.0,0.0,6200
0.92957,100.0,28.05,0.0,0.0,6400
0.9194900000000003,100.0,26.4,0.0,0.0,6600
0.9255149999999999,100.0,27.95,0.0,0.0,6800
0.9294549999999999,100.0,28.5,0.0,0.0,7000
0.93184,100.0,29.7,0.0,0.0,7200
0.9320549999999999,100.0,28.55,0.0,0.0,7400
0.9238649999999999,100.0,26.95,0.0,0.0,7600
0.9274900000000003,100.0,28.2,0.0,0.0,7800
0.931915,100.0,28.55,0.0,0.0,8000
0.93259,100.0,29.35,0.0,0.0,8200
0.9278700000000001,100.0,28.45,0.0,0.0,8400
0.9301450000000001,100.0,29.2,0.0,0.0,8600
0.924915,100.0,27.0,0.0,0.0,8800
0.934965,100.0,29.75,0.0,0.0,9000
0.9346500000000001,100.0,29.85,0.0,0.0,9200
0.9358250000000001,100.0,30.3,0.0,0.0,9400
0.93627,100.0,29.75,0.0,0.0,9600
0.9344149999999999,100.0,29.95,0.0,0.0,9800
0.9351050000000003,100.0,29.8,0.0,0.0,10000
0.4753594585561493,32.95,0.0,0.0,0.0,200
0.5282453810138861,41.75,1.5,0.0,0.25,400
0.5166782893911347,51.45,3.45,0.0,0.9,600
0.8213561458333333,99.8,19.6,0.0,2.35,800
0.9019,100.0,22.45,0.0,0.05,1000
0.9055799999999999,100.0,23.1,0.0,0.0,1200
0.9164475000000001,100.0,25.3,0.0,0.0,1400
0.875569660493827,99.05,20.0,0.0,0.0,1600
0.8786250000000001,100.0,21.25,0.0,0.0,1800
0.8469602659574467,99.7,18.85,0.0,0.0,2000
0.7276786459457038,84.55,11.9,0.0,0.0,2200
0.8679243478260869,99.6,19.3,0.0,0.0,2400
0.8942744230769231,98.25,21.95,0.0,0.0,2600
0.8982624999999999,100.0,22.1,0.0,0.0,2800
0.9182600000000003,100.0,26.05,0.0,0.0,3000
0.9177225000000002,100.0,26.2,0.0,0.0,3200
0.9261550000000002,100.0,27.2,0.0,0.0,3400
0.9185374999999999,100.0,25.2,0.0,0.0,3600
0.8959024999999998,100.0,22.1,0.0,0.0,3800
0.9075875,100.0,25.05,0.0,0.0,4000
0.91551,100.0,24.75,0.0,0.0,4200
0.9099175,100.0,25.05,0.0,0.0,4400
0.9044800000000001,100.0,23.75,0.0,0.0,4600
0.9195974999999998,100.0,26.75,0.0,0.0,4800
0.9160325,100.0,25.3,0.0,0.0,5000
0.9158500000000002,100.0,25.4,0.0,0.0,5200
0.9286524999999999,100.0,27.85,0.0,0.0,5400
0.9261174999999999,100.0,26.85,0.0,0.0,5600
0.9305725,100.0,27.8,0.0,0.0,5800
0.9335074999999999,100.0,29.6,0.0,0.0,6000
0.9269700000000001,100.0,27.75,0.0,0.0,6200
0.9241700000000002,100.0,26.95,0.0,0.0,6400
0.91135,100.0,24.8,0.0,0.0,6600
0.9229450000000001,100.0,26.6,0.0,0.0,6800
0.8828949999999999,100.0,20.95,0.0,0.0,7000
0.92663,100.0,27.05,0.0,0.0,7200
0.928335,100.0,27.45,0.0,0.0,7400
0.9287750000000001,100.0,28.6,0.0,0.0,7600
0.92484,100.0,26.3,0.0,0.0,7800
0.93043,100.0,28.15,0.0,0.0,8000
0.9282900000000002,100.0,27.15,0.0,0.0,8200
0.9252649999999999,100.0,27.1,0.0,0.0,8400
0.9261300000000002,100.0,27.95,0.0,0.0,8600
0.9320499999999999,100.0,29.15,0.0,0.0,8800
0.918465,100.0,26.6,0.0,0.0,9000
0.9288400000000001,100.0,28.55,0.0,0.0,9200
0.9304050000000001,100.0,28.95,0.0,0.0,9400
0.9319150000000003,100.0,28.4,0.0,0.0,9600
0.93116,100.0,29.05,0.0,0.0,9800
0.932205,100.0,28.8,0.0,0.0,10000
0.5259156424274511,41.0,1.9,0.0,0.6,200
0.6471900326454271,72.1,8.5,0.0,0.9,400
0.7909695744680849,97.35,15.1,0.0,0.1,600
0.8928750000000001,100.0,20.75,0.0,0.0,800
0.8888,100.0,20.4,0.0,0.0,1000
0.8178060687520363,99.6,17.05,0.0,0.0,1200
0.8098332530120478,99.15,15.2,0.0,0.0,1400
0.8254349999999999,100.0,17.05,0.0,0.0,1600
0.9046574999999999,100.0,23.6,0.0,0.0,1800
0.8296077027027027,96.85,16.95,0.0,0.0,2000
0.91326,100.0,24.75,0.0,0.0,2200
0.8950699999999999,100.0,23.2,0.0,0.0,2400
0.9202175,100.0,25.8,0.0,0.0,2600
0.8968149999999998,100.0,23.25,0.0,0.0,2800
0.9066525000000002,100.0,23.05,0.0,0.0,3000
0.9107050000000001,100.0,24.0,0.0,0.0,3200
0.9105175000000001,100.0,24.15,0.0,0.0,3400
0.9138600000000002,100.0,25.2,0.0,0.0,3600
0.90115,100.0,23.5,0.0,0.0,3800
0.9212375000000002,100.0,26.25,0.0,0.0,4000
0.92028,100.0,25.9,0.0,0.0,4200
0.9063525,100.0,24.2,0.0,0.0,4400
0.9238675000000003,100.0,26.95,0.0,0.0,4600
0.9076975,100.0,23.8,0.0,0.0,4800
0.9066425,100.0,23.75,0.0,0.0,5000
0.9188750000000001,100.0,26.3,0.0,0.0,5200
0.9166025000000001,100.0,26.2,0.0,0.0,5400
0.9264275,100.0,27.4,0.0,0.0,5600
0.9184849999999999,100.0,25.95,0.0,0.0,5800
0.9026125000000003,100.0,24.4,0.0,0.0,6000
0.9252149999999999,100.0,26.85,0.0,0.0,6200
0.9213800000000001,100.0,26.25,0.0,0.0,6400
0.9248575000000002,100.0,26.9,0.0,0.0,6600
0.9220600000000001,100.0,26.35,0.0,0.0,6800
0.9295,100.0,27.8,0.0,0.0,7000
0.930115,100.0,28.2,0.0,0.0,7200
0.9276300000000001,100.0,27.7,0.0,0.0,7400
0.9310800000000002,100.0,28.2,0.0,0.0,7600
0.92462,100.0,26.9,0.0,0.0,7800
0.9303250000000002,100.0,28.9,0.0,0.0,8000
0.9312699999999999,100.0,28.45,0.0,0.0,8200
0.9325300000000001,100.0,28.65,0.0,0.0,8400
0.92706,100.0,27.8,0.0,0.0,8600
0.9349000000000001,100.0,29.65,0.0,0.0,8800
0.9352050000000001,100.0,30.05,0.0,0.0,9000
0.9341849999999999,100.0,29.55,0.0,0.0,9200
0.93162,100.0,28.7,0.0,0.0,9400
0.9355249999999999,100.0,29.75,0.0,0.0,9600
0.9245349999999999,100.0,27.4,0.0,0.0,9800
0.92865,100.0,28.6,0.0,0.0,10000
0.5107717849587512,42.25,1.8,0.0,0.5,200
0.595570281086724,68.75,6.4,0.0,0.8,400
0.6721270523887768,78.7,11.25,0.0,2.35,600
0.9077575000000001,100.0,23.35,0.0,0.0,800
0.9154875000000002,100.0,24.8,0.0,0.05,1000
0.9040000000000001,100.0,23.05,0.0,0.0,1200
0.8576028921568628,97.55,18.15,0.0,0.0,1400
0.7982799999999998,100.0,16.45,0.0,0.0,1600
0.84995,100.0,17.8,0.0,0.0,1800
0.8069396896324011,96.8,15.65,0.0,0.0,2000
0.8890424999999998,100.0,21.3,0.0,0.0,2200
0.8901600000000001,100.0,21.75,0.0,0.0,2400
0.88507,100.0,19.7,0.0,0.0,2600
0.9143575,100.0,24.4,0.0,0.0,2800
0.9283775000000001,100.0,27.6,0.0,0.0,3000
0.9189925000000001,100.0,26.2,0.0,0.0,3200
0.8950950000000001,100.0,22.35,0.0,0.0,3400
0.9228775,100.0,26.55,0.0,0.0,3600
0.9187100000000001,100.0,25.4,0.0,0.0,3800
0.9256774999999999,100.0,27.15,0.0,0.0,4000
0.9183050000000001,100.0,25.3,0.0,0.0,4200
0.924545,100.0,26.65,0.0,0.0,4400
0.922095,100.0,26.3,0.0,0.0,4600
0.8847774999999999,100.0,22.95,0.0,0.0,4800
0.9248550000000002,100.0,26.7,0.0,0.0,5000
0.9245575,100.0,26.75,0.0,0.0,5200
0.90953,100.0,23.7,0.0,0.0,5400
0.9201125000000001,100.0,26.25,0.0,0.0,5600
0.9247799999999999,100.0,27.1,0.0,0.0,5800
0.9222750000000002,100.0,26.05,0.0,0.0,6000
0.920415,100.0,25.8,0.0,0.0,6200
0.9257000000000002,100.0,27.6,0.0,0.0,6400
0.92996,100.0,28.1,0.0,0.0,6600
0.917375,100.0,25.35,0.0,0.0,6800
0.93195,100.0,28.75,0.0,0.0,7000
0.92882,100.0,27.6,0.0,0.0,7200
0.9320449999999999,100.0,28.55,0.0,0.0,7400
0.9303000000000001,100.0,28.55,0.0,0.0,7600
0.934135,100.0,29.6,0.0,0.0,7800
0.9376300000000001,100.0,30.75,0.0,0.0,8000
0.9329850000000001,100.0,29.75,0.0,0.0,8200
0.9381650000000002,100.0,30.5,0.0,0.0,8400
0.932235,100.0,28.25,0.0,0.0,8600
0.9312800000000001,100.0,28.35,0.0,0.0,8800
0.9235850000000001,100.0,26.6,0.0,0.0,9000
0.93034,100.0,29.0,0.0,0.0,9200
0.9340250000000001,100.0,29.4,0.0,0.0,9400
0.93008,100.0,28.2,0.0,0.0,9600
0.9351450000000001,100.0,29.75,0.0,0.0,9800
0.933825,100.0,29.6,0.0,0.0,10000
0.47821762199197815,32.95,0.0,0.0,0.0,200
0.4909110254136143,36.9,0.45,0.0,0.0,400
0.5375210973352029,49.75,2.4,0.0,0.1,600
0.7939548809523809,88.9,20.05,0.0,3.9,800
0.9101125000000001,100.0,24.55,0.0,0.05,1000
0.9109450000000001,100.0,24.3,0.0,0.0,1200
0.8988674999999999,100.0,22.6,0.0,0.0,1400
0.8992975000000001,100.0,22.9,0.0,0.0,1600
0.886995,100.0,21.5,0.0,0.0,1800
0.7864823076923073,98.45,14.5,0.0,0.0,2000
0.8613899999999999,100.0,18.95,0.0,0.0,2200
0.9112674999999998,100.0,24.35,0.0,0.0,2400
0.903945,100.0,23.55,0.0,0.0,2600
0.8902275,100.0,23.35,0.0,0.0,2800
0.8568413636363635,97.2,18.6,0.0,0.0,3000
0.9093125000000001,100.0,23.85,0.0,0.0,3200
0.892465,100.0,20.65,0.0,0.0,3400
0.8801725000000001,100.0,22.85,0.0,0.0,3600
0.9270349999999998,100.0,27.7,0.0,0.0,3800
0.9221450000000001,100.0,25.55,0.0,0.0,4000
0.8606274999999999,100.0,19.9,0.0,0.0,4200
0.9185374999999999,100.0,25.2,0.0,0.0,4400
0.9301900000000002,100.0,27.9,0.0,0.0,4600
0.9169149999999998,100.0,24.85,0.0,0.0,4800
0.912035,100.0,24.0,0.0,0.0,5000
0.92839,100.0,28.35,0.0,0.0,5200
0.9285650000000001,100.0,27.7,0.0,0.0,5400
0.92903,100.0,27.9,0.0,0.0,5600
0.930045,100.0,29.15,0.0,0.0,5800
0.932415,100.0,29.1,0.0,0.0,6000
0.9347100000000003,100.0,29.7,0.0,0.0,6200
0.930405,100.0,28.25,0.0,0.0,6400
0.9299750000000001,100.0,29.0,0.0,0.0,6600
0.93212,100.0,28.85,0.0,0.0,6800
0.9320450000000001,100.0,28.75,0.0,0.0,7000
0.9346450000000001,100.0,29.3,0.0,0.0,7200
0.9334700000000001,100.0,29.05,0.0,0.0,7400
0.9356050000000001,100.0,29.6,0.0,0.0,7600
0.9361349999999999,100.0,30.35,0.0,0.0,7800
0.936655,100.0,30.35,0.0,0.0,8000
0.9327399999999999,100.0,29.45,0.0,0.0,8200
0.936735,100.0,30.2,0.0,0.0,8400
0.9367449999999999,100.0,30.75,0.0,0.0,8600
0.934135,100.0,29.85,0.0,0.0,8800
0.9358749999999997,100.0,30.3,0.0,0.0,9000
0.9332650000000001,100.0,29.4,0.0,0.0,9200
0.9347050000000001,100.0,30.2,0.0,0.0,9400
0.9255949999999998,100.0,28.0,0.0,0.0,9600
0.9342150000000002,100.0,29.5,0.0,0.0,9800
0.93665,100.0,30.75,0.0,0.0,10000
0.5389884571921473,43.25,1.95,0.0,0.4,200
0.6575108918983956,80.3,9.5,0.0,1.15,400
0.7243117785537517,89.2,13.4,0.0,0.05,600
0.8182817441860465,99.3,16.45,0.0,0.0,800
0.8929975000000001,100.0,22.25,0.0,0.2,1000
0.8651974999999998,100.0,19.45,0.0,0.0,1200
0.8802174999999999,100.0,20.95,0.0,0.0,1400
0.8989375,100.0,22.0,0.0,0.0,1600
0.7676954200542003,95.15,13.45,0.0,0.0,1800
0.90779,100.0,23.5,0.0,0.0,2000
0.87385,100.0,18.7,0.0,0.0,2200
0.8983400000000001,100.0,21.3,0.0,0.0,2400
0.9067050000000002,100.0,22.75,0.0,0.0,2600
0.897365,100.0,22.3,0.0,0.0,2800
0.8676450000000001,100.0,20.85,0.0,0.0,3000
0.9096350000000001,100.0,22.75,0.0,0.0,3200
0.9169625,100.0,24.9,0.0,0.0,3400
0.9228350000000001,100.0,26.2,0.0,0.0,3600
0.9148399999999999,100.0,24.45,0.0,0.0,3800
0.9247250000000001,100.0,26.8,0.0,0.0,4000
0.9143000000000001,100.0,24.7,0.0,0.0,4200
0.8989032584269662,99.45,23.9,0.0,0.0,4400
0.9002550000000001,100.0,22.6,0.0,0.0,4600
0.897485,100.0,22.2,0.0,0.0,4800
0.8871949999999998,100.0,22.15,0.0,0.0,5000
0.9089825000000001,100.0,23.8,0.0,0.0,5200
0.9185975000000001,100.0,25.65,0.0,0.0,5400
0.9254300000000001,100.0,26.5,0.0,0.0,5600
0.930425,100.0,27.65,0.0,0.0,5800
0.9274049999999999,100.0,28.05,0.0,0.0,6000
0.9289975000000001,100.0,28.05,0.0,0.0,6200
0.9269150000000002,100.0,27.6,0.0,0.0,6400
0.931695,100.0,28.65,0.0,0.0,6600
0.930415,100.0,28.55,0.0,0.0,6800
0.928955,100.0,28.1,0.0,0.0,7000
0.92364,100.0,27.4,0.0,0.0,7200
0.9241299999999999,100.0,27.15,0.0,0.0,7400
0.92172,100.0,25.8,0.0,0.0,7600
0.9217700000000001,100.0,25.9,0.0,0.0,7800
0.921125,100.0,26.45,0.0,0.0,8000
0.9279999999999999,100.0,27.7,0.0,0.0,8200
0.91935,100.0,25.85,0.0,0.0,8400
0.930595,100.0,28.25,0.0,0.0,8600
0.91546,100.0,25.95,0.0,0.0,8800
0.90717,100.0,24.25,0.0,0.0,9000
0.9193149999999999,100.0,26.9,0.0,0.0,9200
0.9284749999999999,100.0,28.8,0.0,0.0,9400
0.9312900000000001,100.0,28.65,0.0,0.0,9600
0.9349100000000001,100.0,29.95,0.0,0.0,9800
0.9239650000000001,100.0,27.75,0.0,0.0,10000
0.4990125201465916,35.95,0.45,0.0,0.15,200
0.5990087513444777,57.7,6.3,0.0,1.35,400
0.8620345707070707,96.25,23.3,0.0,2.25,600
0.9165875,100.0,24.95,0.0,0.0,800
0.8229271589339959,96.1,16.35,0.0,0.0,1000
0.7523932289930023,89.3,13.05,0.0,0.0,1200
0.8930925000000001,100.0,21.5,0.0,0.0,1400
0.796677498371165,93.95,14.8,0.0,0.0,1600
0.7564019423558894,89.75,13.55,0.0,0.0,1800
0.8809249999999998,100.0,20.8,0.0,0.0,2000
0.8302624999999999,100.0,17.7,0.0,0.0,2200
0.8454324999999999,100.0,18.8,0.0,0.0,2400
0.9133825,100.0,24.1,0.0,0.0,2600
0.9130625000000002,100.0,24.3,0.0,0.0,2800
0.9043374999999999,100.0,23.15,0.0,0.0,3000
0.9038275,100.0,25.05,0.0,0.0,3200
0.9140725,100.0,25.0,0.0,0.0,3400
0.9199724999999999,100.0,26.3,0.0,0.0,3600
0.9031525000000002,100.0,23.65,0.0,0.0,3800
0.8921474999999999,100.0,22.05,0.0,0.0,4000
0.9237249999999999,100.0,26.15,0.0,0.0,4200
0.9188800000000003,100.0,25.4,0.0,0.0,4400
0.9118774999999999,100.0,24.3,0.0,0.0,4600
0.9209100000000001,100.0,26.3,0.0,0.0,4800
0.9250900000000002,100.0,26.9,0.0,0.0,5000
0.9172475,100.0,25.55,0.0,0.0,5200
0.927115,100.0,26.8,0.0,0.0,5400
0.9110850000000001,100.0,25.3,0.0,0.0,5600
0.9211250000000002,100.0,26.9,0.0,0.0,5800
0.918365,100.0,25.5,0.0,0.0,6000
0.9151475,100.0,25.2,0.0,0.0,6200
0.920125,100.0,26.25,0.0,0.0,6400
0.9217299999999998,100.0,26.45,0.0,0.0,6600
0.9194000000000001,100.0,26.7,0.0,0.0,6800
0.926295,100.0,27.55,0.0,0.0,7000
0.927195,100.0,27.7,0.0,0.0,7200
0.9182450000000001,100.0,26.4,0.0,0.0,7400
0.92917,100.0,27.7,0.0,0.0,7600
0.926185,100.0,26.65,0.0,0.0,7800
0.9236749999999999,100.0,26.65,0.0,0.0,8000
0.93306,100.0,29.5,0.0,0.0,8200
0.9266900000000001,100.0,27.65,0.0,0.0,8400
0.92498,100.0,27.05,0.0,0.0,8600
0.9370400000000002,100.0,30.3,0.0,0.0,8800
0.8907399999999999,100.0,23.6,0.0,0.0,9000
0.9284800000000001,100.0,27.85,0.0,0.0,9200
0.9317050000000002,100.0,28.8,0.0,0.0,9400
0.90518,100.0,24.7,0.0,0.0,9600
0.9210900000000001,100.0,26.4,0.0,0.0,9800
0.9318750000000001,100.0,29.5,0.0,0.0,10000
0.4916545270373053,38.35,0.6,0.0,0.0,200
0.5147506060351934,46.45,1.65,0.0,0.05,400
0.6639859704595251,82.3,10.5,0.0,2.25,600
0.8663500000000001,100.0,23.15,0.0,1.25,800
0.912585,100.0,23.65,0.0,0.0,1000
0.8967274999999999,100.0,22.8,0.0,0.0,1200
0.9165275000000002,100.0,24.65,0.0,0.0,1400
0.892375,100.0,21.4,0.0,0.0,1600
0.89129,100.0,21.05,0.0,0.0,1800
0.9107300000000003,100.0,24.25,0.0,0.0,2000
0.9117124999999999,100.0,23.55,0.0,0.0,2200
0.8873775,100.0,21.75,0.0,0.0,2400
0.9227699999999999,100.0,26.15,0.0,0.0,2600
0.898915,100.0,23.45,0.0,0.0,2800
0.9201,100.0,25.15,0.0,0.0,3000
0.9134950000000002,100.0,24.8,0.0,0.0,3200
0.9015225000000001,100.0,23.1,0.0,0.0,3400
0.9060675000000001,100.0,23.75,0.0,0.0,3600
0.886675,100.0,21.75,0.0,0.0,3800
0.8837546153846153,98.25,22.1,0.0,0.0,4000
0.9067450000000001,100.0,23.55,0.0,0.0,4200
0.909675,100.0,24.4,0.0,0.0,4400
0.91533,100.0,25.8,0.0,0.0,4600
0.9169849999999998,100.0,25.65,0.0,0.0,4800
0.9184650000000001,100.0,25.5,0.0,0.0,5000
0.9246899999999998,100.0,27.55,0.0,0.0,5200
0.9282125000000001,100.0,27.3,0.0,0.0,5400
0.9258200000000002,100.0,27.05,0.0,0.0,5600
0.9266375,100.0,27.9,0.0,0.0,5800
0.9280225000000002,100.0,27.35,0.0,0.0,6000
0.9281375000000001,100.0,28.35,0.0,0.0,6200
0.9216025,100.0,26.9,0.0,0.0,6400
0.9220200000000001,100.0,27.15,0.0,0.0,6600
0.9277249999999999,100.0,28.2,0.0,0.0,6800
0.914715,100.0,24.95,0.0,0.0,7000
0.92214,100.0,26.9,0.0,0.0,7200
0.9254049999999999,100.0,26.9,0.0,0.0,7400
0.9299949999999999,100.0,28.3,0.0,0.0,7600
0.9248499999999998,100.0,26.85,0.0,0.0,7800
0.9295350000000001,100.0,28.7,0.0,0.0,8000
0.91558,100.0,25.7,0.0,0.0,8200
0.9293950000000001,100.0,27.8,0.0,0.0,8400
0.9352349999999999,100.0,29.85,0.0,0.0,8600
0.93201,100.0,29.3,0.0,0.0,8800
0.9285650000000001,100.0,27.75,0.0,0.0,9000
0.9288700000000001,100.0,28.25,0.0,0.0,9200
0.928555,100.0,27.9,0.0,0.0,9400
0.9325149999999999,100.0,29.25,0.0,0.0,9600
0.9350250000000001,100.0,29.95,0.0,0.0,9800
0.9347150000000003,100.0,29.9,0.0,0.0,10000
0.4894870102002252,34.6,0.4,0.0,0.15,200
0.5475456908087268,49.05,4.3,0.0,1.5,400
0.571904552433338,58.35,4.85,0.0,0.3,600
0.88634,100.0,21.2,0.0,0.05,800
0.8869,100.0,21.45,0.0,0.0,1000
0.8823474999999998,100.0,20.9,0.0,0.0,1200
0.8348049999999997,100.0,16.9,0.0,0.0,1400
0.8530949999999999,100.0,19.0,0.0,0.0,1600
0.868485,100.0,20.35,0.0,0.0,1800
0.916175,100.0,25.1,0.0,0.0,2000
0.9085975,100.0,23.65,0.0,0.0,2200
0.9038274999999999,100.0,23.7,0.0,0.0,2400
0.8773423684210526,97.85,21.75,0.0,0.0,2600
0.9168500000000002,100.0,25.05,0.0,0.0,2800
0.9060575000000002,100.0,24.25,0.0,0.0,3000
0.9081875,100.0,24.25,0.0,0.0,3200
0.9139299999999999,100.0,25.45,0.0,0.0,3400
0.9105825000000001,100.0,24.1,0.0,0.0,3600
0.9143874999999999,100.0,24.25,0.0,0.0,3800
0.9143775000000002,100.0,24.55,0.0,0.0,4000
0.9265625,100.0,27.5,0.0,0.0,4200
0.9218999999999999,100.0,25.9,0.0,0.0,4400
0.9174049999999999,100.0,25.65,0.0,0.0,4600
0.9198074999999999,100.0,25.5,0.0,0.0,4800
0.9106799999999999,100.0,24.1,0.0,0.0,5000
0.9251699999999999,100.0,26.9,0.0,0.0,5200
0.9278025,100.0,27.85,0.0,0.0,5400
0.9144500000000001,100.0,24.2,0.0,0.0,5600
0.9317,100.0,29.2,0.0,0.0,5800
0.9197650000000002,100.0,26.85,0.0,0.0,6000
0.9205000000000002,100.0,26.55,0.0,0.0,6200
0.927905,100.0,27.65,0.0,0.0,6400
0.9285450000000003,100.0,28.45,0.0,0.0,6600
0.9300200000000001,100.0,27.75,0.0,0.0,6800
0.927045,100.0,28.55,0.0,0.0,7000
0.9333350000000001,100.0,29.25,0.0,0.0,7200
0.9301300000000001,100.0,28.55,0.0,0.0,7400
0.93026,100.0,28.15,0.0,0.0,7600
0.920365,100.0,26.5,0.0,0.0,7800
0.9276500000000001,100.0,28.1,0.0,0.0,8000
0.925905,100.0,27.15,0.0,0.0,8200
0.9275250000000002,100.0,28.05,0.0,0.0,8400
0.9306300000000001,100.0,28.35,0.0,0.0,8600
0.9330950000000001,100.0,29.4,0.0,0.0,8800
0.93703,100.0,30.4,0.0,0.0,9000
0.935005,100.0,29.95,0.0,0.0,9200
0.9356599999999998,100.0,29.85,0.0,0.0,9400
0.93787,100.0,30.75,0.0,0.0,9600
0.9357650000000002,100.0,29.8,0.0,0.0,9800
0.9353650000000002,100.0,29.5,0.0,0.0,10000
0.49809826165415155,41.35,2.0,0.0,0.8,200
0.6201714666870882,71.2,9.0,0.0,2.35,400
0.7782154099629756,90.25,17.6,0.0,2.25,600
0.9035950000000001,100.0,22.95,0.0,0.0,800
0.888755,100.0,22.25,0.0,0.0,1000
0.8897774999999998,100.0,21.6,0.0,0.0,1200
0.8679263888888888,99.05,18.8,0.0,0.0,1400
0.7911222167325426,95.65,15.85,0.0,0.0,1600
0.8268049999999999,100.0,17.3,0.0,0.0,1800
0.909065,100.0,23.95,0.0,0.0,2000
0.9098675,100.0,23.4,0.0,0.0,2200
0.8605389814814813,97.7,19.75,0.0,0.0,2400
0.8924450000000002,100.0,20.8,0.0,0.0,2600
0.9078674999999998,100.0,22.2,0.0,0.0,2800
0.8844775,100.0,21.3,0.0,0.0,3000
0.8894425,100.0,21.85,0.0,0.0,3200
0.9124275,100.0,25.25,0.0,0.0,3400
0.8908375,100.0,21.5,0.0,0.0,3600
0.8485824999999998,100.0,18.95,0.0,0.0,3800
0.9052999999999999,100.0,24.4,0.0,0.0,4000
0.9217299999999999,100.0,26.75,0.0,0.0,4200
0.9228200000000001,100.0,26.7,0.0,0.0,4400
0.9088525000000001,100.0,24.45,0.0,0.0,4600
0.8928225,100.0,22.45,0.0,0.0,4800
0.9134324999999999,100.0,25.55,0.0,0.0,5000
0.9004499999999999,100.0,22.65,0.0,0.0,5200
0.9258200000000001,100.0,27.45,0.0,0.0,5400
0.9269625000000001,100.0,26.65,0.0,0.0,5600
0.9221450000000001,100.0,26.25,0.0,0.0,5800
0.9165300000000001,100.0,25.25,0.0,0.0,6000
0.9121874999999999,100.0,23.95,0.0,0.0,6200
0.9054724999999999,100.0,24.45,0.0,0.0,6400
0.92919,100.0,27.75,0.0,0.0,6600
0.9333625000000001,100.0,29.0,0.0,0.0,6800
0.92949,100.0,27.75,0.0,0.0,7000
0.9290950000000002,100.0,28.1,0.0,0.0,7200
0.9315899999999999,100.0,28.8,0.0,0.0,7400
0.9330500000000003,100.0,29.2,0.0,0.0,7600
0.9339549999999999,100.0,30.0,0.0,0.0,7800
0.9215499999999999,100.0,26.6,0.0,0.0,8000
0.929405,100.0,27.7,0.0,0.0,8200
0.933395,100.0,29.35,0.0,0.0,8400
0.93414,100.0,29.45,0.0,0.0,8600
0.9345650000000001,100.0,30.25,0.0,0.0,8800
0.932305,100.0,29.25,0.0,0.0,9000
0.9306700000000001,100.0,28.65,0.0,0.0,9200
0.930455,100.0,28.95,0.0,0.0,9400
0.933935,100.0,29.75,0.0,0.0,9600
0.93245,100.0,29.1,0.0,0.0,9800
0.939705,100.0,31.45,0.0,0.0,10000
0.5486327615038358,49.9,3.85,0.0,1.25,200
0.6090918708548343,63.8,5.9,0.0,0.9,400
0.8227094736842103,99.75,18.15,0.0,0.45,600
0.8981724999999999,100.0,21.85,0.0,0.0,800
0.9131350000000001,100.0,24.15,0.0,0.0,1000
0.8858649999999999,100.0,20.85,0.0,0.0,1200
0.91572,100.0,25.6,0.0,0.0,1400
0.7414493579386929,90.65,12.3,0.0,0.0,1600
0.8556382692307691,99.55,18.2,0.0,0.0,1800
0.8177133333333332,97.25,16.1,0.0,0.0,2000
0.8833624999999998,100.0,20.45,0.0,0.0,2200
0.9217675000000002,100.0,25.5,0.0,0.0,2400
0.8918375000000001,100.0,21.85,0.0,0.0,2600
0.9117425000000001,100.0,23.85,0.0,0.0,2800
0.895945,100.0,21.45,0.0,0.0,3000
0.8762749999999999,100.0,20.85,0.0,0.0,3200
0.9143400000000002,100.0,24.85,0.0,0.0,3400
0.9080299999999999,100.0,24.05,0.0,0.0,3600
0.9132449999999999,100.0,24.7,0.0,0.0,3800
0.911945,100.0,25.2,0.0,0.0,4000
0.9186925,100.0,25.45,0.0,0.0,4200
0.9168949999999999,100.0,25.85,0.0,0.0,4400
0.907315,100.0,25.15,0.0,0.0,4600
0.9268599999999999,100.0,27.5,0.0,0.0,4800
0.9284525,100.0,27.65,0.0,0.0,5000
0.9256174999999999,100.0,27.45,0.0,0.0,5200
0.9323475,100.0,29.4,0.0,0.0,5400
0.9261950000000001,100.0,27.55,0.0,0.0,5600
0.9276100000000002,100.0,27.6,0.0,0.0,5800
0.9277900000000001,100.0,28.0,0.0,0.0,6000
0.9167500000000001,100.0,25.05,0.0,0.0,6200
0.918365,100.0,25.75,0.0,0.0,6400
0.9144574999999999,100.0,25.5,0.0,0.0,6600
0.9116900000000001,100.0,25.5,0.0,0.0,6800
0.9201599999999999,100.0,26.9,0.0,0.0,7000
0.9219600000000001,100.0,26.95,0.0,0.0,7200
0.9193675000000001,100.0,26.0,0.0,0.0,7400
0.9234500000000001,100.0,26.65,0.0,0.0,7600
0.915745,100.0,25.4,0.0,0.0,7800
0.9158000000000002,100.0,25.45,0.0,0.0,8000
0.9263299999999999,100.0,27.15,0.0,0.0,8200
0.8990199999999998,100.0,22.85,0.0,0.0,8400
0.92736,100.0,28.0,0.0,0.0,8600
0.933,100.0,29.35,0.0,0.0,8800
0.9251900000000001,100.0,27.75,0.0,0.0,9000
0.929335,100.0,28.4,0.0,0.0,9200
0.9245950000000001,100.0,28.35,0.0,0.0,9400
0.9218149999999999,100.0,27.35,0.0,0.0,9600
0.9121500000000001,100.0,24.6,0.0,0.0,9800
0.9336350000000001,100.0,29.75,0.0,0.0,10000
0.5387495660246244,42.8,1.85,0.0,0.3,200
0.7836031451612901,96.55,17.4,0.0,2.0,400
0.9053125,100.0,22.5,0.0,0.0,600
0.8946125,100.0,22.9,0.0,0.0,800
0.9183625,100.0,25.75,0.0,0.0,1000
0.8798324999999998,100.0,19.7,0.0,0.0,1200
0.8950999999999999,100.0,22.1,0.0,0.0,1400
0.7342809501576989,89.15,12.55,0.0,0.0,1600
0.8364144736842103,96.9,18.1,0.0,0.0,1800
0.895215,100.0,21.9,0.0,0.0,2000
0.9081150000000001,100.0,22.6,0.0,0.0,2200
0.8805149999999997,100.0,20.55,0.0,0.0,2400
0.9125150000000002,100.0,24.0,0.0,0.0,2600
0.8779225,100.0,19.4,0.0,0.0,2800
0.8977975,100.0,22.05,0.0,0.0,3000
0.88561,100.0,22.35,0.0,0.0,3200
0.8768499999999999,100.0,20.8,0.0,0.0,3400
0.8990574999999998,100.0,22.5,0.0,0.0,3600
0.9092525,100.0,23.8,0.0,0.0,3800
0.9178625,100.0,25.3,0.0,0.0,4000
0.88504,100.0,20.9,0.0,0.0,4200
0.8570625,100.0,19.8,0.0,0.0,4400
0.8933025000000001,100.0,22.35,0.0,0.0,4600
0.91197,100.0,23.45,0.0,0.0,4800
0.9071225,100.0,23.05,0.0,0.0,5000
0.9153199999999998,100.0,24.75,0.0,0.0,5200
0.8978775000000001,100.0,22.8,0.0,0.0,5400
0.92484,100.0,27.05,0.0,0.0,5600
0.919115,100.0,26.45,0.0,0.0,5800
0.9074300000000001,100.0,23.6,0.0,0.0,6000
0.9189549999999999,100.0,25.45,0.0,0.0,6200
0.9283300000000002,100.0,27.95,0.0,0.0,6400
0.92921,100.0,27.55,0.0,0.0,6600
0.925925,100.0,27.8,0.0,0.0,6800
0.921025,100.0,26.6,0.0,0.0,7000
0.9194449999999998,100.0,25.8,0.0,0.0,7200
0.928835,100.0,28.45,0.0,0.0,7400
0.93011,100.0,29.25,0.0,0.0,7600
0.90724,100.0,24.55,0.0,0.0,7800
0.922185,100.0,26.3,0.0,0.0,8000
0.92408,100.0,26.3,0.0,0.0,8200
0.92607,100.0,28.2,0.0,0.0,8400
0.9269800000000001,100.0,27.05,0.0,0.0,8600
0.9281750000000002,100.0,28.35,0.0,0.0,8800
0.93237,100.0,29.2,0.0,0.0,9000
0.93277,100.0,28.9,0.0,0.0,9200
0.92864,100.0,27.65,0.0,0.0,9400
0.928475,100.0,28.6,0.0,0.0,9600
0.931495,100.0,29.3,0.0,0.0,9800
0.9288350000000001,100.0,27.85,0.0,0.0,10000
0.5128316825995605,38.15,0.85,0.0,0.15,200
0.510815518297265,43.35,1.55,0.0,0.2,400
0.6756955739989845,82.3,10.7,0.0,0.85,600
0.8432080737704919,98.05,17.1,0.0,0.35,800
0.8690449999999998,100.0,21.8,0.0,0.5,1000
0.9247399999999999,100.0,27.1,0.0,0.05,1200
0.9054525,100.0,24.4,0.0,0.0,1400
0.90055,100.0,22.3,0.0,0.0,1600
0.6435942335558767,75.0,7.75,0.0,0.0,1800
0.9020300000000001,100.0,23.0,0.0,0.0,2000
0.9030049999999997,100.0,22.65,0.0,0.0,2200
0.9098325,100.0,24.2,0.0,0.0,2400
0.9241250000000001,100.0,26.75,0.0,0.0,2600
0.9275550000000002,100.0,27.5,0.0,0.0,2800
0.8999749999999999,100.0,21.55,0.0,0.0,3000
0.8972049999999999,100.0,22.35,0.0,0.0,3200
0.911975,100.0,23.85,0.0,0.0,3400
0.9144824999999999,100.0,25.3,0.0,0.0,3600
0.92017,100.0,25.4,0.0,0.0,3800
0.8916175,100.0,21.3,0.0,0.0,4000
0.8969199999999999,100.0,22.4,0.0,0.0,4200
0.915065,100.0,25.15,0.0,0.0,4400
0.9172100000000001,100.0,25.85,0.0,0.0,4600
0.9242275000000001,100.0,27.0,0.0,0.0,4800
0.8987599999999999,100.0,23.7,0.0,0.0,5000
0.9253125000000001,100.0,26.5,0.0,0.0,5200
0.9244600000000002,100.0,26.3,0.0,0.0,5400
0.8928299999999998,100.0,22.45,0.0,0.0,5600
0.843545,100.0,19.0,0.0,0.0,5800
0.9077499999999998,100.0,24.25,0.0,0.0,6000
0.920275,100.0,25.55,0.0,0.0,6200
0.9211600000000001,100.0,26.85,0.0,0.0,6400
0.92466,100.0,26.6,0.0,0.0,6600
0.92874,100.0,28.5,0.0,0.0,6800
0.9279600000000002,100.0,27.7,0.0,0.0,7000
0.92635,100.0,28.0,0.0,0.0,7200
0.9301100000000002,100.0,29.0,0.0,0.0,7400
0.9323499999999999,100.0,29.1,0.0,0.0,7600
0.93505,100.0,29.95,0.0,0.0,7800
0.93502,100.0,29.65,0.0,0.0,8000
0.9152250000000001,100.0,25.95,0.0,0.0,8200
0.92486,100.0,27.45,0.0,0.0,8400
0.930955,100.0,28.8,0.0,0.0,8600
0.9295500000000001,100.0,28.25,0.0,0.0,8800
0.9261099999999999,100.0,27.75,0.0,0.0,9000
0.9284800000000001,100.0,27.85,0.0,0.0,9200
0.92957,100.0,27.65,0.0,0.0,9400
0.9241100000000001,100.0,27.1,0.0,0.0,9600
0.9198549999999999,100.0,26.1,0.0,0.0,9800
0.900455,100.0,24.0,0.0,0.0,10000
0.5466834746110926,46.9,2.15,0.0,0.25,200
0.7219859525146378,85.25,12.55,0.0,1.25,400
0.885635,100.0,20.7,0.0,0.0,600
0.8465849999999999,100.0,16.65,0.0,0.05,800
0.8478149999999998,100.0,19.4,0.0,0.0,1000
0.8746925000000001,100.0,19.75,0.0,0.0,1200
0.8648445253164555,98.95,18.1,0.0,0.0,1400
0.846055752688172,99.65,17.3,0.0,0.0,1600
0.8638124999999999,100.0,18.4,0.0,0.0,1800
0.8898274999999998,100.0,20.7,0.0,0.0,2000
0.896975,100.0,23.3,0.0,0.0,2200
0.9112299999999998,100.0,24.1,0.0,0.0,2400
0.8931549999999999,100.0,22.85,0.0,0.0,2600
0.8485245454545453,95.2,19.0,0.0,0.0,2800
0.9063725,100.0,22.55,0.0,0.0,3000
0.8800975,100.0,19.5,0.0,0.0,3200
0.8469574999999997,100.0,17.9,0.0,0.0,3400
0.8981599999999998,100.0,22.7,0.0,0.0,3600
0.91738,100.0,26.45,0.0,0.0,3800
0.9268850000000001,100.0,27.35,0.0,0.0,4000
0.9178475,100.0,25.65,0.0,0.0,4200
0.916425,100.0,26.2,0.0,0.0,4400
0.9242475000000001,100.0,26.55,0.0,0.0,4600
0.90526,100.0,23.3,0.0,0.0,4800
0.91278,100.0,24.35,0.0,0.0,5000
0.9187025,100.0,26.15,0.0,0.0,5200
0.9228450000000002,100.0,25.95,0.0,0.0,5400
0.9281200000000001,100.0,28.4,0.0,0.0,5600
0.9150525,100.0,25.25,0.0,0.0,5800
0.92257,100.0,26.35,0.0,0.0,6000
0.92178,100.0,26.05,0.0,0.0,6200
0.929305,100.0,27.5,0.0,0.0,6400
0.9148249999999999,100.0,24.65,0.0,0.0,6600
0.9250800000000001,100.0,27.25,0.0,0.0,6800
0.9259350000000002,100.0,27.25,0.0,0.0,7000
0.9265924999999999,100.0,27.25,0.0,0.0,7200
0.9268374999999999,100.0,27.5,0.0,0.0,7400
0.9269550000000001,100.0,27.8,0.0,0.0,7600
0.9280650000000001,100.0,28.1,0.0,0.0,7800
0.9281900000000001,100.0,28.75,0.0,0.0,8000
0.9279400000000002,100.0,28.55,0.0,0.0,8200
0.929835,100.0,28.3,0.0,0.0,8400
0.93069,100.0,28.05,0.0,0.0,8600
0.9318200000000001,100.0,28.95,0.0,0.0,8800
0.9286300000000003,100.0,28.25,0.0,0.0,9000
0.92805,100.0,28.1,0.0,0.0,9200
0.93291,100.0,29.15,0.0,0.0,9400
0.9166700000000002,100.0,26.6,0.0,0.0,9600
0.9087650000000002,100.0,25.6,0.0,0.0,9800
0.92569,100.0,27.45,0.0,0.0,10000
0.5122899686366138,42.35,1.25,0.0,0.25,200
0.5390189026539267,47.75,3.1,0.0,0.9,400
0.7457146787363731,86.65,13.65,0.0,1.0,600
0.8857674999999998,100.0,20.65,0.0,0.0,800
0.9101225,100.0,24.2,0.0,0.0,1000
0.8899574999999998,100.0,21.35,0.0,0.0,1200
0.8920049999999999,100.0,21.5,0.0,0.0,1400
0.8336749999999998,100.0,18.4,0.0,0.0,1600
0.8598815789473683,98.8,18.35,0.0,0.0,1800
0.87492,100.0,20.1,0.0,0.0,2000
0.8998174999999999,100.0,23.15,0.0,0.0,2200
0.9071050000000002,100.0,23.65,0.0,0.0,2400
0.90785,100.0,23.3,0.0,0.0,2600
0.8883424999999999,100.0,21.05,0.0,0.0,2800
0.8927075,100.0,22.1,0.0,0.0,3000
0.9228,100.0,25.85,0.0,0.0,3200
0.9076374999999999,100.0,23.7,0.0,0.0,3400
0.9179400000000001,100.0,25.45,0.0,0.0,3600
0.9226550000000001,100.0,26.05,0.0,0.0,3800
0.9292575,100.0,27.45,0.0,0.0,4000
0.90995,100.0,24.2,0.0,0.0,4200
0.9021224999999999,100.0,24.15,0.0,0.0,4400
0.9201024999999999,100.0,26.2,0.0,0.0,4600
0.9216725,100.0,25.4,0.0,0.0,4800
0.9055950000000001,100.0,25.15,0.0,0.0,5000
0.9200375000000001,100.0,26.05,0.0,0.0,5200
0.9165400000000001,100.0,25.4,0.0,0.0,5400
0.9183950000000001,100.0,25.35,0.0,0.0,5600
0.9065,100.0,24.55,0.0,0.0,5800
0.9281950000000002,100.0,27.55,0.0,0.0,6000
0.9267925000000001,100.0,28.0,0.0,0.0,6200
0.9117575,100.0,24.8,0.0,0.0,6400
0.9251700000000002,100.0,27.8,0.0,0.0,6600
0.9159675,100.0,26.1,0.0,0.0,6800
0.9270175,100.0,27.85,0.0,0.0,7000
0.9292349999999999,100.0,28.05,0.0,0.0,7200
0.9261700000000002,100.0,27.35,0.0,0.0,7400
0.92914,100.0,28.2,0.0,0.0,7600
0.9332249999999999,100.0,29.15,0.0,0.0,7800
0.9302999999999999,100.0,27.9,0.0,0.0,8000
0.9366900000000002,100.0,30.55,0.0,0.0,8200
0.9342349999999998,100.0,29.45,0.0,0.0,8400
0.93302,100.0,28.9,0.0,0.0,8600
0.9204950000000002,100.0,27.15,0.0,0.0,8800
0.9308850000000002,100.0,28.35,0.0,0.0,9000
0.9288700000000001,100.0,28.4,0.0,0.0,9200
0.93202,100.0,28.45,0.0,0.0,9400
0.9277249999999999,100.0,28.0,0.0,0.0,9600
0.9273500000000002,100.0,29.0,0.0,0.0,9800
0.9305450000000001,100.0,28.6,0.0,0.0,10000
0.5086666231936168,42.75,1.85,0.0,0.35,200
0.5788194710339865,57.35,4.55,0.0,0.5,400
0.598397732378215,64.25,5.0,0.0,0.05,600
0.8852675000000001,100.0,20.75,0.0,0.2,800
0.882855,100.0,21.15,0.0,0.0,1000
0.8950925,100.0,21.8,0.0,0.0,1200
0.9133475000000001,100.0,25.1,0.0,0.0,1400
0.8891925,100.0,21.7,0.0,0.0,1600
0.8851649999999998,100.0,20.5,0.0,0.0,1800
0.8981825000000001,100.0,22.9,0.0,0.0,2000
0.9109174999999998,100.0,23.95,0.0,0.0,2200
0.9007075,100.0,23.2,0.0,0.0,2400
0.9130225000000001,100.0,24.85,0.0,0.0,2600
0.8534362837837837,96.85,19.75,0.0,0.0,2800
0.9126025,100.0,24.25,0.0,0.0,3000
0.90611,100.0,22.5,0.0,0.0,3200
0.9122899999999999,100.0,24.65,0.0,0.0,3400
0.9009650000000002,100.0,22.75,0.0,0.0,3600
0.9235075000000001,100.0,26.95,0.0,0.0,3800
0.9151,100.0,24.35,0.0,0.0,4000
0.9260575,100.0,27.1,0.0,0.0,4200
0.9252274999999999,100.0,26.4,0.0,0.0,4400
0.9244000000000001,100.0,26.95,0.0,0.0,4600
0.9251775,100.0,27.65,0.0,0.0,4800
0.918435,100.0,25.85,0.0,0.0,5000
0.92581,100.0,27.35,0.0,0.0,5200
0.9307924999999999,100.0,28.3,0.0,0.0,5400
0.9200524999999999,100.0,25.85,0.0,0.0,5600
0.9183700000000001,100.0,25.55,0.0,0.0,5800
0.9272199999999999,100.0,27.75,0.0,0.0,6000
0.9247950000000001,100.0,26.8,0.0,0.0,6200
0.9334150000000001,100.0,28.95,0.0,0.0,6400
0.92422,100.0,26.35,0.0,0.0,6600
0.9331800000000001,100.0,29.55,0.0,0.0,6800
0.9300200000000001,100.0,28.45,0.0,0.0,7000
0.9342400000000002,100.0,29.95,0.0,0.0,7200
0.9324150000000001,100.0,29.35,0.0,0.0,7400
0.9313350000000001,100.0,28.45,0.0,0.0,7600
0.9253200000000001,100.0,27.45,0.0,0.0,7800
0.9287750000000001,100.0,28.25,0.0,0.0,8000
0.9297350000000002,100.0,28.3,0.0,0.0,8200
0.93245,100.0,28.85,0.0,0.0,8400
0.9365350000000001,100.0,30.4,0.0,0.0,8600
0.93083,100.0,28.3,0.0,0.0,8800
0.935805,100.0,29.95,0.0,0.0,9000
0.922795,100.0,27.9,0.0,0.0,9200
0.928865,100.0,28.5,0.0,0.0,9400
0.9259950000000001,100.0,27.65,0.0,0.0,9600
0.9340300000000001,100.0,29.75,0.0,0.0,9800
0.9358850000000001,100.0,30.3,0.0,0.0,10000
0.5154481477031615,36.8,0.8,0.0,0.1,200
0.4747047117347309,33.6,0.95,0.0,0.5,400
0.5742126573303836,52.35,5.4,0.0,1.65,600
0.8353028658536583,99.1,18.15,0.0,0.25,800
0.8564043506493506,98.85,19.8,0.0,0.0,1000
0.8151824999999999,98.25,17.65,0.0,0.0,1200
0.8321760714285714,95.8,18.15,0.0,0.0,1400
0.8861449999999997,100.0,19.65,0.0,0.0,1600
0.87496,100.0,19.25,0.0,0.0,1800
0.8526177020202018,99.95,17.05,0.0,0.0,2000
0.7565455753181525,93.7,13.95,0.0,0.0,2200
0.879955,100.0,19.5,0.0,0.0,2400
0.9034875,100.0,23.45,0.0,0.0,2600
0.9112300000000001,100.0,24.0,0.0,0.0,2800
0.8981800000000002,100.0,23.0,0.0,0.0,3000
0.9017224999999998,100.0,23.25,0.0,0.0,3200
0.9121349999999999,100.0,24.15,0.0,0.0,3400
0.9163649999999999,100.0,25.1,0.0,0.0,3600
0.9167449999999999,100.0,24.35,0.0,0.0,3800
0.9191,100.0,25.05,0.0,0.0,4000
0.9222775000000001,100.0,26.35,0.0,0.0,4200
0.924925,100.0,27.4,0.0,0.0,4400
0.9283775000000002,100.0,27.55,0.0,0.0,4600
0.9249175000000001,100.0,27.0,0.0,0.0,4800
0.9157825,100.0,25.3,0.0,0.0,5000
0.9234925,100.0,26.2,0.0,0.0,5200
0.9208250000000001,100.0,26.45,0.0,0.0,5400
0.9133850000000001,100.0,24.05,0.0,0.0,5600
0.9070475,100.0,24.1,0.0,0.0,5800
0.9180699999999998,100.0,25.9,0.0,0.0,6000
0.9268075,100.0,27.55,0.0,0.0,6200
0.9245800000000001,100.0,26.6,0.0,0.0,6400
0.92852,100.0,28.3,0.0,0.0,6600
0.9270150000000001,100.0,27.75,0.0,0.0,6800
0.9293250000000002,100.0,27.9,0.0,0.0,7000
0.92621,100.0,27.55,0.0,0.0,7200
0.9368650000000001,100.0,30.55,0.0,0.0,7400
0.9300150000000003,100.0,28.3,0.0,0.0,7600
0.9348650000000001,100.0,29.65,0.0,0.0,7800
0.9370100000000001,100.0,30.65,0.0,0.0,8000
0.9365600000000001,100.0,30.35,0.0,0.0,8200
0.9287699999999999,100.0,28.5,0.0,0.0,8400
0.931495,100.0,28.3,0.0,0.0,8600
0.9323749999999998,100.0,29.35,0.0,0.0,8800
0.9353750000000002,100.0,29.75,0.0,0.0,9000
0.9338000000000001,100.0,29.45,0.0,0.0,9200
0.9301350000000002,100.0,28.85,0.0,0.0,9400
0.933235,100.0,28.45,0.0,0.0,9600
0.9330100000000001,100.0,29.2,0.0,0.0,9800
0.93523,100.0,30.2,0.0,0.0,10000
0.5400253415076731,47.1,2.5,0.0,0.4,200
0.5924447654563549,63.4,5.6,0.0,0.7,400
0.6489080938728071,85.05,8.75,0.0,0.0,600
0.7445068464104981,85.85,11.1,0.0,0.0,800
0.8973500000000001,100.0,22.05,0.0,0.0,1000
0.8834350000000001,100.0,21.15,0.0,0.0,1200
0.89157,100.0,21.65,0.0,0.0,1400
0.8615875,100.0,18.95,0.0,0.0,1600
0.86484,100.0,20.15,0.0,0.0,1800
0.8788400000000001,100.0,20.0,0.0,0.0,2000
0.9174,100.0,25.45,0.0,0.0,2200
0.8937625,100.0,21.9,0.0,0.0,2400
0.8609599999999998,100.0,19.65,0.0,0.0,2600
0.8281723962148961,95.1,17.9,0.0,0.0,2800
0.9065900000000001,100.0,23.75,0.0,0.0,3000
0.9092475,100.0,23.55,0.0,0.0,3200
0.9052000000000001,100.0,23.9,0.0,0.0,3400
0.919185,100.0,25.1,0.0,0.0,3600
0.9196799999999999,100.0,25.65,0.0,0.0,3800
0.9049150000000001,100.0,24.45,0.0,0.0,4000
0.9224225,100.0,25.45,0.0,0.0,4200
0.9232949999999999,100.0,26.95,0.0,0.0,4400
0.9240625,100.0,27.0,0.0,0.0,4600
0.9180249999999999,100.0,24.8,0.0,0.0,4800
0.9248625000000003,100.0,27.3,0.0,0.0,5000
0.9211475000000002,100.0,26.55,0.0,0.0,5200
0.9007850000000002,100.0,23.0,0.0,0.0,5400
0.9242575000000001,100.0,26.65,0.0,0.0,5600
0.9242874999999999,100.0,26.15,0.0,0.0,5800
0.9301625,100.0,28.1,0.0,0.0,6000
0.9276025000000002,100.0,28.45,0.0,0.0,6200
0.9162524999999999,100.0,26.35,0.0,0.0,6400
0.92553,100.0,26.5,0.0,0.0,6600
0.9292300000000001,100.0,27.65,0.0,0.0,6800
0.9223250000000001,100.0,26.2,0.0,0.0,7000
0.92363,100.0,26.25,0.0,0.0,7200
0.92361,100.0,26.55,0.0,0.0,7400
0.9181100000000001,100.0,25.65,0.0,0.0,7600
0.91217,100.0,25.6,0.0,0.0,7800
0.9283250000000001,100.0,28.0,0.0,0.0,8000
0.9240150000000001,100.0,27.35,0.0,0.0,8200
0.9269699999999998,100.0,28.1,0.0,0.0,8400
0.9298200000000001,100.0,28.1,0.0,0.0,8600
0.9324199999999999,100.0,28.65,0.0,0.0,8800
0.93051,100.0,28.4,0.0,0.0,9000
0.91341,100.0,25.6,0.0,0.0,9200
0.9309749999999999,100.0,29.4,0.0,0.0,9400
0.9354000000000001,100.0,30.55,0.0,0.0,9600
0.9298650000000002,100.0,28.35,0.0,0.0,9800
0.9321399999999999,100.0,29.3,0.0,0.0,10000
