Episode length,Green food,Need,Number of nodes,Red food,Trained episodes
33.6,0.0,0.47640489917557893,27.0,0.0,100
33.8,0.0,0.4758215240641707,27.0,0.0,200
32.6,0.0,0.4770741691104591,27.0,0.0,300
31.8,0.5,0.47898058518096204,28.0,0.1,400
34.15,1.1,0.505775583836386,31.0,0.45,500
33.8,1.0,0.5054877951434842,33.0,0.1,600
40.55,1.55,0.5284947620027539,39.0,0.1,700
100.0,25.75,0.9163549999999997,49.0,0.1,800
100.0,30.6,0.9344775000000001,55.0,0.05,900
100.0,29.7,0.9305275,56.0,0.0,1000
100.0,30.9,0.9379850000000001,56.0,0.0,1100
100.0,31.2,0.9384000000000002,56.0,0.0,1200
100.0,30.65,0.93645,56.0,0.0,1300
100.0,30.25,0.9365100000000002,56.0,0.0,1400
100.0,31.35,0.9390250000000002,56.0,0.0,1500
100.0,31.6,0.9398099999999999,56.0,0.0,1600
100.0,31.25,0.9389900000000001,56.0,0.0,1700
100.0,30.4,0.93679,56.0,0.0,1800
100.0,29.8,0.93381,56.0,0.0,1900
100.0,30.35,0.9365000000000002,56.0,0.0,2000
100.0,29.45,0.9320600000000001,56.0,0.0,2100
100.0,28.7,0.9333500000000001,56.0,0.0,2200
100.0,29.1,0.9328049999999999,56.0,0.0,2300
100.0,30.1,0.9357900000000001,56.0,0.0,2400
100.0,30.4,0.9362700000000002,56.0,0.0,2500
100.0,30.45,0.9355600000000001,56.0,0.0,2600
100.0,30.6,0.93826,56.0,0.0,2700
100.0,31.1,0.9380849999999998,56.0,0.0,2800
100.0,29.45,0.9331800000000001,56.0,0.0,2900
100.0,29.15,0.933905,56.0,0.0,3000
33.8,0.0,0.47612700534759317,27.0,0.0,100
33.75,0.0,0.47672482174688025,27.0,0.0,200
32.9,0.0,0.4758124721479497,27.0,0.0,300
33.9,0.0,0.4754387254901958,27.0,0.0,400
35.55,0.25,0.48259282614678434,27.0,0.0,500
37.55,1.1,0.5129499437020656,28.0,0.15,600
35.5,0.85,0.48167731837472116,29.0,0.1,700
80.2,9.05,0.6648201863584905,31.0,0.0,800
64.7,5.25,0.5952839102128287,32.0,0.0,900
100.0,20.2,0.8755049999999999,47.0,0.1,1000
100.0,25.0,0.9037499999999999,51.0,0.0,1100
100.0,30.9,0.9373100000000001,52.0,0.0,1200
100.0,29.55,0.9338550000000001,52.0,0.0,1300
100.0,29.9,0.936545,52.0,0.0,1400
100.0,29.05,0.9323750000000001,52.0,0.0,1500
100.0,30.85,0.9379499999999998,52.0,0.0,1600
100.0,28.6,0.9323950000000002,52.0,0.0,1700
100.0,27.75,0.9276500000000001,52.0,0.0,1800
100.0,25.65,0.90994,52.0,0.0,1900
100.0,28.4,0.9278450000000001,52.0,0.0,2000
100.0,26.05,0.916325,52.0,0.0,2100
100.0,27.6,0.9264000000000001,52.0,0.0,2200
100.0,28.15,0.9295350000000002,52.0,0.0,2300
100.0,22.1,0.8853699999999998,52.0,0.0,2400
100.0,22.75,0.8916449999999999,52.0,0.0,2500
100.0,27.5,0.9266,52.0,0.0,2600
100.0,26.6,0.9225450000000002,52.0,0.0,2700
100.0,25.05,0.9084499999999999,52.0,0.0,2800
100.0,25.0,0.9119700000000002,52.0,0.0,2900
100.0,23.35,0.90506,52.0,0.0,3000
36.6,1.3,0.5096958495815656,27.0,0.6,100
48.85,2.75,0.550027843713512,28.0,0.05,200
45.55,2.1,0.5354017987681227,33.0,0.0,300
87.4,11.95,0.7345104284064703,33.0,0.0,400
46.25,2.7,0.5480210042237726,50.0,0.0,500
100.0,26.15,0.9196750000000001,52.0,0.0,600
99.15,26.05,0.9075949397590362,52.0,0.0,700
100.0,30.15,0.9350150000000002,52.0,0.0,800
100.0,28.6,0.9292900000000002,52.0,0.0,900
100.0,28.95,0.9326450000000002,52.0,0.0,1000
100.0,27.05,0.92106,52.0,0.0,1100
100.0,26.65,0.92276,52.0,0.0,1200
100.0,22.6,0.891885,52.0,0.0,1300
100.0,21.85,0.8808399999999998,52.0,0.0,1400
100.0,19.75,0.84644,52.0,0.0,1500
96.9,18.55,0.826275789473684,52.0,0.0,1600
94.55,18.25,0.8196630238331679,52.0,0.0,1700
100.0,26.1,0.913565,52.0,0.0,1800
100.0,26.1,0.919365,52.0,0.0,1900
98.8,21.8,0.8701089473684209,52.0,0.0,2000
100.0,19.8,0.8347449999999998,52.0,0.0,2100
96.85,18.0,0.8102627027027026,52.0,0.0,2200
100.0,24.05,0.902685,52.0,0.0,2300
97.65,16.8,0.778878726962634,52.0,0.0,2400
94.45,16.15,0.7952253950103948,52.0,0.0,2500
81.65,12.45,0.7033557703973066,52.0,0.0,2600
99.15,17.85,0.8021630376408535,52.0,0.0,2700
81.25,11.55,0.6881071082904704,52.0,0.0,2800
99.25,16.35,0.7642449999999997,52.0,0.0,2900
100.0,24.05,0.8861549999999999,52.0,0.0,3000
33.85,0.0,0.4756802584670227,27.0,0.0,100
33.9,0.0,0.47472883244206737,27.0,0.0,200
32.8,0.0,0.47956676136363596,27.0,0.0,300
33.5,0.0,0.4773756684491975,27.0,0.0,400
34.2,0.4,0.49231857217508423,27.0,0.1,500
39.6,1.55,0.4923725504437219,27.0,0.45,600
32.8,0.1,0.4813463285607494,27.0,0.0,700
37.45,0.85,0.5036283634690112,28.0,0.0,800
41.8,2.05,0.5539892660209698,28.0,0.1,900
44.25,1.75,0.5260433482736804,33.0,0.0,1000
34.35,0.75,0.5073706351209963,38.0,0.0,1100
86.15,12.0,0.7603274388458037,46.0,0.0,1200
97.2,22.15,0.8645622727272727,51.0,0.0,1300
100.0,26.8,0.9201050000000001,51.0,0.0,1400
100.0,31.25,0.9388099999999999,52.0,0.0,1500
100.0,29.9,0.9361400000000002,52.0,0.0,1600
100.0,28.0,0.9311550000000002,52.0,0.0,1700
100.0,23.9,0.90556,52.0,0.0,1800
100.0,27.55,0.9262250000000002,52.0,0.0,1900
100.0,25.4,0.8994850000000001,52.0,0.0,2000
100.0,28.8,0.9253449999999999,52.0,0.0,2100
100.0,26.55,0.9209700000000002,52.0,0.0,2200
100.0,29.7,0.9359700000000002,52.0,0.0,2300
100.0,28.75,0.931675,52.0,0.0,2400
100.0,26.7,0.9193250000000001,52.0,0.0,2500
100.0,26.2,0.916925,52.0,0.0,2600
100.0,26.35,0.91658,52.0,0.0,2700
100.0,25.15,0.9177,52.0,0.0,2800
100.0,23.55,0.8938149999999998,52.0,0.0,2900
100.0,24.0,0.90252,52.0,0.0,3000
33.6,0.0,0.47640489917557893,27.0,0.0,100
33.4,0.0,0.4765652995802423,27.0,0.0,200
33.35,0.0,0.47953698752228124,27.0,0.0,300
37.1,0.45,0.4846356376356735,27.0,0.0,400
33.8,0.4,0.4702869956568316,27.0,0.35,500
32.8,0.0,0.4770530442290548,27.0,0.0,600
33.2,0.0,0.47901964962121174,27.0,0.0,700
33.1,0.0,0.48033489304812793,27.0,0.0,800
31.2,0.25,0.4827694634855194,27.0,0.05,900
33.15,0.6,0.4916697386830301,30.0,0.3,1000
64.35,6.3,0.5819734256995586,31.0,0.65,1100
40.2,1.95,0.5393545752932574,33.0,0.3,1200
51.65,3.85,0.5616938393454667,40.0,0.2,1300
100.0,28.65,0.9090199999999999,52.0,1.5,1400
97.05,17.2,0.8100646341463413,54.0,0.0,1500
100.0,31.3,0.93983,54.0,0.0,1600
100.0,30.15,0.9372900000000002,54.0,0.0,1700
100.0,31.8,0.94031,54.0,0.0,1800
100.0,31.5,0.9401550000000001,54.0,0.0,1900
100.0,31.75,0.9404050000000002,54.0,0.0,2000
100.0,31.6,0.94034,54.0,0.0,2100
100.0,31.1,0.93936,54.0,0.0,2200
100.0,31.35,0.9392900000000001,54.0,0.0,2300
100.0,30.95,0.9386250000000003,54.0,0.0,2400
100.0,31.9,0.9400600000000001,54.0,0.0,2500
100.0,32.2,0.9420950000000001,54.0,0.0,2600
100.0,29.85,0.9336850000000002,54.0,0.0,2700
100.0,31.4,0.9388250000000001,54.0,0.0,2800
100.0,31.6,0.9402699999999999,54.0,0.0,2900
100.0,31.45,0.9394450000000003,54.0,0.0,3000
33.6,0.0,0.47640489917557893,27.0,0.0,100
33.4,0.0,0.4765652995802423,27.0,0.0,200
32.75,0.0,0.4772227746212117,27.0,0.0,300
34.15,0.65,0.4872597817074321,27.0,0.15,400
36.85,1.0,0.4980043428097659,28.0,0.35,500
38.95,1.5,0.5038409464718214,29.0,0.2,600
37.55,1.25,0.5119614137145396,31.0,0.05,700
66.5,5.2,0.5860891212478293,31.0,0.0,800
94.65,14.7,0.7567034860610907,38.0,0.0,900
100.0,26.1,0.9172199999999998,47.0,0.0,1000
100.0,30.15,0.9355800000000001,52.0,0.0,1100
100.0,30.4,0.93686,52.0,0.0,1200
100.0,28.8,0.930315,52.0,0.0,1300
100.0,25.75,0.9216050000000001,52.0,0.0,1400
100.0,29.3,0.9337950000000002,52.0,0.0,1500
100.0,28.25,0.929625,52.0,0.0,1600
100.0,29.6,0.933455,52.0,0.0,1700
100.0,30.1,0.93584,52.0,0.0,1800
100.0,31.55,0.9398150000000001,52.0,0.0,1900
100.0,31.35,0.9392199999999997,52.0,0.0,2000
100.0,31.95,0.9403450000000001,52.0,0.0,2100
100.0,31.25,0.9382349999999999,52.0,0.0,2200
100.0,32.05,0.9407849999999998,52.0,0.0,2300
100.0,31.5,0.9390000000000001,52.0,0.0,2400
100.0,31.65,0.9405300000000002,52.0,0.0,2500
100.0,31.85,0.940545,52.0,0.0,2600
100.0,32.4,0.9425500000000003,52.0,0.0,2700
100.0,32.35,0.942695,52.0,0.0,2800
100.0,31.65,0.9406550000000001,52.0,0.0,2900
100.0,32.1,0.9417500000000002,52.0,0.0,3000
33.85,0.0,0.4763128342245985,27.0,0.0,100
33.4,0.0,0.47737487466577494,27.0,0.0,200
32.45,0.0,0.475572272924932,27.0,0.0,300
33.3,0.0,0.477207985182709,27.0,0.0,400
38.7,1.0,0.5150456854298443,27.0,0.0,500
40.3,1.5,0.5146397109078258,28.0,0.15,600
38.95,1.25,0.5089533349431267,29.0,0.15,700
34.8,0.8,0.5141766403819593,34.0,0.05,800
59.35,4.8,0.5807804787200769,34.0,0.4,900
35.35,0.8,0.5008794148460122,43.0,0.0,1000
100.0,25.55,0.9153649999999999,46.0,0.0,1100
49.7,3.65,0.5806925007681631,50.0,0.0,1200
100.0,24.85,0.9140499999999999,52.0,0.0,1300
96.25,16.5,0.7788225990735973,52.0,0.0,1400
100.0,25.3,0.91199,52.0,0.0,1500
100.0,31.0,0.9376850000000001,52.0,0.0,1600
100.0,31.05,0.9385150000000001,52.0,0.0,1700
100.0,30.05,0.935215,52.0,0.0,1800
100.0,27.4,0.92574,52.0,0.0,1900
100.0,26.2,0.9161000000000001,52.0,0.0,2000
100.0,27.2,0.9228050000000001,52.0,0.0,2100
100.0,26.75,0.9186500000000002,52.0,0.0,2200
100.0,25.8,0.90769,52.0,0.0,2300
100.0,28.15,0.928115,52.0,0.0,2400
100.0,26.95,0.92164,52.0,0.0,2500
100.0,25.25,0.9032250000000002,52.0,0.0,2600
100.0,22.85,0.8839949999999999,52.0,0.0,2700
100.0,23.95,0.9063500000000001,52.0,0.0,2800
94.9,15.95,0.7994110587002095,52.0,0.0,2900
100.0,21.1,0.8826699999999998,52.0,0.0,3000
33.85,0.0,0.4754872994652402,27.0,0.0,100
33.1,0.0,0.4788598484848481,27.0,0.0,200
33.35,0.05,0.47769349296536767,27.0,0.0,300
34.8,0.2,0.4884029025722335,27.0,0.0,400
34.0,0.2,0.49373831947805924,27.0,0.1,500
34.1,0.95,0.5110711797100176,27.0,0.35,600
35.7,1.15,0.48455973957846876,30.0,0.6,700
55.8,6.1,0.5759175175388029,32.0,1.5,800
49.15,2.75,0.5549790687398468,36.0,0.15,900
44.4,2.8,0.5616783602100516,49.0,0.2,1000
97.0,20.4,0.8330099591782485,54.0,0.8,1100
100.0,30.25,0.92866,54.0,0.65,1200
100.0,30.85,0.934005,54.0,0.3,1300
100.0,29.95,0.9355600000000001,54.0,0.0,1400
100.0,30.5,0.935405,54.0,0.0,1500
100.0,29.55,0.9335849999999999,54.0,0.0,1600
100.0,29.05,0.93266,54.0,0.0,1700
100.0,28.0,0.9277150000000001,54.0,0.0,1800
100.0,29.55,0.93247,54.0,0.0,1900
100.0,30.1,0.9347099999999999,54.0,0.0,2000
100.0,29.0,0.9321950000000001,54.0,0.0,2100
100.0,28.6,0.93133,54.0,0.0,2200
100.0,26.7,0.9194950000000002,54.0,0.0,2300
100.0,27.85,0.9222800000000001,54.0,0.0,2400
100.0,29.75,0.9337750000000001,54.0,0.0,2500
100.0,28.7,0.930035,54.0,0.0,2600
100.0,27.6,0.9223650000000001,54.0,0.0,2700
100.0,24.8,0.9071450000000002,54.0,0.0,2800
100.0,21.6,0.8671449999999998,54.0,0.0,2900
100.0,27.0,0.9165149999999999,54.0,0.0,3000
33.7,0.0,0.474723930481283,27.0,0.0,100
32.5,0.0,0.47759707427692444,27.0,0.0,200
33.9,0.0,0.47470008912655937,27.0,0.0,300
37.1,0.5,0.46017338748164144,27.0,0.0,400
30.65,0.25,0.4869309342280433,28.0,0.15,500
38.15,1.35,0.48782469102844955,28.0,0.35,600
55.9,4.15,0.5298120089238757,29.0,0.95,700
97.8,18.95,0.8528901785714286,43.0,0.5,800
100.0,30.75,0.9369375,49.0,0.05,900
100.0,31.75,0.9400850000000002,52.0,0.0,1000
100.0,31.75,0.9407350000000001,52.0,0.0,1100
100.0,29.85,0.931915,52.0,0.0,1200
100.0,31.25,0.9391650000000002,52.0,0.0,1300
100.0,31.5,0.940075,52.0,0.0,1400
100.0,31.95,0.9408150000000001,52.0,0.0,1500
100.0,31.9,0.9406650000000001,52.0,0.0,1600
100.0,31.45,0.9396450000000002,52.0,0.0,1700
100.0,30.85,0.9375350000000001,52.0,0.0,1800
100.0,31.45,0.9395450000000001,52.0,0.0,1900
100.0,31.45,0.9384350000000001,52.0,0.0,2000
100.0,31.8,0.93965,52.0,0.0,2100
100.0,31.8,0.9395600000000002,52.0,0.0,2200
100.0,32.1,0.9415150000000002,52.0,0.0,2300
100.0,30.65,0.9373800000000001,52.0,0.0,2400
100.0,30.8,0.9379200000000001,52.0,0.0,2500
100.0,30.95,0.9371550000000001,52.0,0.0,2600
100.0,31.65,0.939495,52.0,0.0,2700
100.0,32.05,0.9405300000000001,52.0,0.0,2800
100.0,31.7,0.9398150000000001,52.0,0.0,2900
100.0,31.6,0.9394350000000001,52.0,0.0,3000
33.6,0.0,0.47640489917557893,27.0,0.0,100
33.4,0.0,0.4765652995802423,27.0,0.0,200
32.75,0.0,0.4772227746212117,27.0,0.0,300
36.5,0.9,0.5156792598517426,27.0,0.15,400
33.15,0.45,0.4937656332948448,27.0,0.05,500
41.05,1.25,0.520107629086741,30.0,0.05,600
42.35,1.8,0.5228492228553276,32.0,0.1,700
95.65,15.8,0.7882748914266557,34.0,0.1,800
66.0,6.85,0.6336005880862936,48.0,0.0,900
58.15,4.9,0.5970326031454339,51.0,0.0,1000
100.0,22.35,0.8735574999999999,54.0,0.0,1100
100.0,26.65,0.917855,54.0,0.0,1200
100.0,25.05,0.8965299999999999,54.0,0.0,1300
96.15,19.45,0.8185229059829059,54.0,0.0,1400
97.8,19.25,0.8126277805297761,54.0,0.0,1500
94.5,19.1,0.8126963605959625,54.0,0.0,1600
95.2,17.15,0.7890757503607502,54.0,0.0,1700
99.85,18.8,0.8116473711340204,54.0,0.0,1800
95.45,18.45,0.8079099158249156,54.0,0.0,1900
100.0,19.6,0.8272899999999999,54.0,0.0,2000
100.0,25.1,0.9064100000000002,54.0,0.0,2100
93.75,18.55,0.8087873728048802,54.0,0.0,2200
84.05,11.9,0.6969744393607586,54.0,0.0,2300
86.8,13.85,0.723111963596249,54.0,0.0,2400
86.65,15.95,0.7795965441205299,54.0,0.0,2500
98.8,19.9,0.8372734210526314,54.0,0.0,2600
85.15,16.15,0.7807662958253924,54.0,0.0,2700
99.05,23.25,0.8729541975308642,54.0,0.0,2800
100.0,26.55,0.9161300000000001,54.0,0.0,2900
100.0,27.35,0.9215150000000001,54.0,0.0,3000
33.6,0.0,0.47640489917557893,27.0,0.0,100
39.7,1.6,0.5105486265710037,28.0,0.35,200
44.6,1.95,0.5325156530375756,28.0,0.15,300
38.9,1.45,0.5311472786490211,30.0,0.05,400
61.55,6.6,0.6279250279980356,33.0,0.6,500
75.4,9.1,0.660438172176107,47.0,0.0,600
93.75,15.75,0.7606561366304141,50.0,0.0,700
100.0,24.0,0.8886474999999999,54.0,0.0,800
79.65,10.65,0.6878749497203905,54.0,0.0,900
100.0,23.5,0.8875,54.0,0.0,1000
95.5,17.15,0.7985128381522097,54.0,0.0,1100
100.0,23.95,0.887365,54.0,0.0,1200
100.0,24.5,0.9018599999999999,54.0,0.0,1300
100.0,30.2,0.936735,54.0,0.0,1400
100.0,29.15,0.93238,54.0,0.0,1500
100.0,28.05,0.9272700000000003,54.0,0.0,1600
100.0,25.5,0.9126800000000002,54.0,0.0,1700
100.0,28.85,0.928895,54.0,0.0,1800
100.0,26.45,0.9222250000000001,54.0,0.0,1900
94.75,19.25,0.8366962820512818,54.0,0.0,2000
100.0,21.9,0.8722850000000001,54.0,0.0,2100
100.0,24.35,0.90231,54.0,0.0,2200
100.0,27.25,0.923415,54.0,0.0,2300
100.0,23.5,0.889295,54.0,0.0,2400
100.0,24.0,0.9041250000000002,54.0,0.0,2500
100.0,21.75,0.86532,54.0,0.0,2600
97.0,20.35,0.84193,54.0,0.0,2700
91.9,14.4,0.7458136842105262,54.0,0.0,2800
77.15,9.7,0.6676042256579908,54.0,0.0,2900
88.25,11.9,0.6867273837204027,54.0,0.0,3000
32.5,0.0,0.48010688718302524,27.0,0.0,100
33.25,0.0,0.4793360071301243,27.0,0.0,200
33.25,0.0,0.47915040106951834,27.0,0.0,300
33.65,0.0,0.476076426024955,27.0,0.0,400
38.65,1.3,0.5100388046321394,27.0,0.3,500
38.3,0.9,0.5024123654462685,28.0,0.05,600
36.25,1.35,0.5130196594227041,28.0,0.3,700
41.8,2.4,0.5517641149826251,32.0,0.2,800
89.1,13.75,0.7406903111946531,44.0,0.0,900
75.4,10.85,0.6925470352269707,50.0,0.0,1000
100.0,28.85,0.9315399999999998,52.0,0.0,1100
100.0,25.6,0.9180399999999999,52.0,0.0,1200
100.0,28.55,0.9299200000000001,52.0,0.0,1300
100.0,31.0,0.9375250000000002,52.0,0.0,1400
100.0,30.05,0.9355249999999999,52.0,0.0,1500
100.0,30.6,0.9360000000000002,52.0,0.0,1600
100.0,29.6,0.931405,52.0,0.0,1700
100.0,30.25,0.9366100000000002,52.0,0.0,1800
100.0,31.75,0.9393,52.0,0.0,1900
100.0,31.55,0.9398549999999999,52.0,0.0,2000
100.0,31.75,0.940755,52.0,0.0,2100
100.0,31.2,0.937845,52.0,0.0,2200
100.0,30.7,0.9363500000000002,52.0,0.0,2300
100.0,32.25,0.9411499999999998,52.0,0.0,2400
100.0,30.8,0.9381000000000002,52.0,0.0,2500
100.0,30.45,0.9367300000000001,52.0,0.0,2600
100.0,31.85,0.9411050000000001,52.0,0.0,2700
100.0,31.55,0.94004,52.0,0.0,2800
100.0,30.8,0.9367849999999999,52.0,0.0,2900
100.0,32.05,0.9409800000000003,52.0,0.0,3000
36.25,0.45,0.4902616006292756,27.0,0.0,100
35.2,0.8,0.5214600490295214,28.0,0.0,200
58.1,5.45,0.6223741740912543,29.0,0.05,300
35.25,1.1,0.5140161936886616,30.0,0.1,400
56.75,4.45,0.6180712027355703,36.0,0.25,500
39.15,1.95,0.5445665758844019,40.0,0.0,600
66.05,6.35,0.6122357935699829,45.0,0.0,700
68.95,7.7,0.6485467538211969,50.0,0.0,800
100.0,28.65,0.9297100000000003,52.0,0.0,900
100.0,23.95,0.8974449999999997,52.0,0.0,1000
100.0,28.2,0.9285450000000001,52.0,0.0,1100
100.0,27.85,0.9251799999999999,52.0,0.0,1200
100.0,19.95,0.8733599999999999,52.0,0.0,1300
100.0,25.4,0.9198999999999999,52.0,0.0,1400
100.0,20.2,0.8676400000000001,52.0,0.0,1500
92.55,15.45,0.802617222222222,52.0,0.0,1600
100.0,23.3,0.9018249999999999,52.0,0.0,1700
100.0,26.4,0.9207099999999999,52.0,0.0,1800
100.0,26.4,0.9241999999999999,52.0,0.0,1900
100.0,25.45,0.9164000000000001,52.0,0.0,2000
100.0,26.1,0.9199550000000001,52.0,0.0,2100
100.0,25.95,0.9207599999999999,52.0,0.0,2200
100.0,22.1,0.8835299999999998,52.0,0.0,2300
100.0,25.3,0.913185,52.0,0.0,2400
100.0,26.9,0.92398,52.0,0.0,2500
100.0,24.45,0.9104500000000002,52.0,0.0,2600
100.0,22.3,0.8981599999999998,52.0,0.0,2700
100.0,20.8,0.8676099999999998,52.0,0.0,2800
100.0,21.25,0.8796099999999999,52.0,0.0,2900
99.2,19.5,0.845745476190476,52.0,0.0,3000
33.6,0.0,0.47640489917557893,27.0,0.0,100
33.9,0.0,0.47520365418894794,27.0,0.0,200
33.35,0.0,0.4786226465017821,27.0,0.0,300
33.9,0.05,0.4770654924760597,27.0,0.0,400
34.9,0.7,0.4752305946874868,27.0,0.15,500
31.15,0.85,0.5151083897540463,28.0,0.5,600
37.2,1.5,0.48356681419115466,31.0,0.3,700
42.55,2.35,0.5397690277126863,34.0,0.3,800
100.0,27.25,0.9202925000000001,50.0,0.0,900
100.0,30.15,0.9351800000000001,52.0,0.0,1000
92.9,16.45,0.7836428722447142,52.0,0.0,1100
81.65,11.15,0.6987825031832873,52.0,0.0,1200
100.0,31.6,0.9398750000000001,52.0,0.0,1300
100.0,30.4,0.9366700000000001,52.0,0.0,1400
100.0,31.5,0.9389800000000001,52.0,0.0,1500
100.0,31.35,0.9392000000000001,52.0,0.0,1600
100.0,31.55,0.9386199999999999,52.0,0.0,1700
100.0,29.45,0.9324200000000001,52.0,0.0,1800
100.0,27.75,0.92641,52.0,0.0,1900
100.0,29.55,0.933895,52.0,0.0,2000
100.0,31.2,0.938185,52.0,0.0,2100
100.0,30.65,0.9372100000000003,52.0,0.0,2200
100.0,30.2,0.934995,52.0,0.0,2300
100.0,30.2,0.93649,52.0,0.0,2400
100.0,31.3,0.9391449999999999,52.0,0.0,2500
100.0,31.2,0.9385850000000001,52.0,0.0,2600
100.0,30.45,0.9379950000000001,52.0,0.0,2700
100.0,31.4,0.9388850000000002,52.0,0.0,2800
100.0,29.65,0.935605,52.0,0.0,2900
100.0,28.05,0.9295050000000001,52.0,0.0,3000
38.7,1.2,0.5210744803515508,27.0,0.2,100
35.75,1.25,0.4907677073868806,28.0,0.45,200
38.85,1.85,0.5043340397978844,30.0,0.55,300
94.65,12.35,0.7482777722743774,31.0,0.0,400
41.4,1.6,0.543661422349089,48.0,0.0,500
89.5,15.7,0.7819215955171256,51.0,0.0,600
100.0,25.7,0.9107099999999999,52.0,0.0,700
82.6,13.35,0.731313112118142,52.0,0.0,800
100.0,31.4,0.9395300000000001,52.0,0.0,900
100.0,30.2,0.936445,52.0,0.0,1000
100.0,31.2,0.93832,52.0,0.0,1100
100.0,30.95,0.9381449999999999,52.0,0.0,1200
100.0,26.55,0.9209999999999999,52.0,0.0,1300
100.0,24.75,0.9006299999999999,52.0,0.0,1400
100.0,31.65,0.9396349999999998,52.0,0.0,1500
100.0,31.35,0.9394500000000001,52.0,0.0,1600
100.0,30.7,0.9366000000000001,52.0,0.0,1700
100.0,29.9,0.93444,52.0,0.0,1800
100.0,29.95,0.9340350000000003,52.0,0.0,1900
100.0,27.3,0.92408,52.0,0.0,2000
100.0,28.4,0.9298150000000002,52.0,0.0,2100
100.0,26.95,0.92448,52.0,0.0,2200
100.0,28.3,0.9304399999999999,52.0,0.0,2300
100.0,25.05,0.907805,52.0,0.0,2400
100.0,23.05,0.8909900000000001,52.0,0.0,2500
100.0,25.7,0.9152149999999999,52.0,0.0,2600
100.0,25.3,0.9140200000000002,52.0,0.0,2700
100.0,21.75,0.8794449999999999,52.0,0.0,2800
97.4,20.05,0.8477520833333332,52.0,0.0,2900
99.1,21.2,0.8554625609756096,52.0,0.0,3000
33.6,0.0,0.47640489917557893,27.0,0.0,100
33.4,0.0,0.4765652995802423,27.0,0.0,200
32.55,0.0,0.4767760111192566,27.0,0.0,300
36.15,0.45,0.49525251892493855,27.0,0.0,400
39.75,0.9,0.5128332263119764,27.0,0.0,500
41.5,1.65,0.5281598890313032,28.0,0.15,600
39.65,1.2,0.5111175150307801,28.0,0.25,700
36.65,1.25,0.493217908449048,32.0,0.35,800
44.55,2.5,0.5543433041764969,33.0,0.1,900
40.05,1.9,0.5358792686915143,40.0,0.05,1000
63.7,5.45,0.6031915958564464,53.0,0.0,1100
100.0,29.25,0.93245,53.0,0.0,1200
100.0,30.85,0.93793,54.0,0.0,1300
100.0,30.0,0.9355500000000001,54.0,0.0,1400
100.0,25.6,0.9161849999999999,54.0,0.0,1500
100.0,25.75,0.9164800000000002,54.0,0.0,1600
100.0,27.55,0.923465,54.0,0.0,1700
100.0,26.55,0.9210900000000001,54.0,0.0,1800
100.0,27.75,0.92836,54.0,0.0,1900
100.0,28.8,0.9300900000000001,54.0,0.0,2000
100.0,28.55,0.9300000000000003,54.0,0.0,2100
100.0,27.65,0.9244850000000001,54.0,0.0,2200
100.0,21.05,0.8659249999999998,54.0,0.0,2300
93.7,17.9,0.8103346488294314,54.0,0.0,2400
100.0,24.7,0.9067799999999998,54.0,0.0,2500
96.95,21.0,0.8506994871794872,54.0,0.0,2600
100.0,20.5,0.8657449999999999,54.0,0.0,2700
100.0,23.8,0.8959699999999999,54.0,0.0,2800
100.0,24.45,0.904215,54.0,0.0,2900
100.0,24.25,0.9081549999999998,54.0,0.0,3000
35.0,0.6,0.48193940621714004,28.0,0.05,100
35.5,1.05,0.49932545811506535,28.0,0.2,200
40.6,1.9,0.5387996414662463,29.0,0.2,300
37.0,1.6,0.5335059530769259,33.0,0.0,400
59.25,5.7,0.6088949732604855,47.0,0.0,500
100.0,25.75,0.9109499999999999,52.0,0.0,600
100.0,23.55,0.89862,52.0,0.0,700
100.0,27.0,0.9237950000000001,52.0,0.0,800
100.0,29.95,0.9351450000000001,52.0,0.0,900
100.0,31.4,0.9388700000000002,52.0,0.0,1000
100.0,30.15,0.937115,52.0,0.0,1100
100.0,30.35,0.936595,52.0,0.0,1200
100.0,31.75,0.9382700000000002,52.0,0.0,1300
100.0,31.45,0.9382700000000002,52.0,0.0,1400
100.0,30.3,0.9366099999999999,52.0,0.0,1500
100.0,29.4,0.9321699999999999,52.0,0.0,1600
100.0,30.25,0.9367599999999999,52.0,0.0,1700
100.0,30.9,0.9368000000000001,52.0,0.0,1800
100.0,28.0,0.927725,52.0,0.0,1900
100.0,27.8,0.925315,52.0,0.0,2000
100.0,26.4,0.922405,52.0,0.0,2100
100.0,25.4,0.91114,52.0,0.0,2200
100.0,26.35,0.9191499999999999,52.0,0.0,2300
100.0,25.45,0.9183,52.0,0.0,2400
100.0,26.35,0.920645,52.0,0.0,2500
100.0,26.5,0.91936,52.0,0.0,2600
100.0,25.25,0.9074250000000001,52.0,0.0,2700
100.0,27.1,0.9254199999999999,52.0,0.0,2800
100.0,27.85,0.9229049999999999,52.0,0.0,2900
100.0,24.3,0.9087799999999999,52.0,0.0,3000
33.6,0.0,0.47640489917557893,27.0,0.0,100
33.75,0.0,0.47465686274509766,27.0,0.0,200
32.85,0.0,0.4775053475935825,27.0,0.0,300
33.4,0.1,0.48222847947492353,27.0,0.0,400
31.55,0.55,0.4837069144050338,27.0,0.45,500
34.3,1.0,0.5050700094887084,28.0,0.2,600
60.75,4.35,0.5597226708848831,29.0,0.05,700
66.1,5.4,0.5824258982103383,34.0,0.05,800
73.5,8.9,0.662993652179742,37.0,0.0,900
84.2,10.95,0.6827828624576597,42.0,0.0,1000
48.1,3.15,0.5470456703683734,48.0,0.0,1100
100.0,30.75,0.9384399999999999,54.0,0.0,1200
100.0,25.5,0.9127000000000001,54.0,0.0,1300
100.0,29.75,0.9332100000000001,54.0,0.0,1400
100.0,30.9,0.9370050000000001,54.0,0.0,1500
100.0,30.5,0.9375800000000002,54.0,0.0,1600
100.0,31.85,0.940245,54.0,0.0,1700
100.0,31.4,0.9400700000000001,54.0,0.0,1800
100.0,31.8,0.9398500000000001,54.0,0.0,1900
100.0,32.0,0.94105,54.0,0.0,2000
100.0,31.45,0.9373949999999999,54.0,0.0,2100
100.0,31.55,0.9397500000000001,54.0,0.0,2200
100.0,31.9,0.93915,54.0,0.0,2300
100.0,31.45,0.93955,54.0,0.0,2400
100.0,31.95,0.94085,54.0,0.0,2500
100.0,31.7,0.9401400000000002,54.0,0.0,2600
100.0,31.4,0.9370749999999999,54.0,0.0,2700
100.0,31.35,0.9392500000000001,54.0,0.0,2800
100.0,31.95,0.9407349999999999,54.0,0.0,2900
100.0,31.35,0.9397950000000002,54.0,0.0,3000
33.6,0.0,0.47640489917557893,27.0,0.0,100
33.1,0.0,0.4788485032667754,27.0,0.0,200
33.3,0.0,0.47956113524955396,27.0,0.0,300
33.8,0.05,0.47604220621916804,27.0,0.0,400
31.2,0.4,0.478146675968234,27.0,0.25,500
36.5,1.5,0.5360811173499787,28.0,0.6,600
37.05,1.5,0.5227827652512942,28.0,0.3,700
93.1,12.35,0.7207639021825815,33.0,0.65,800
82.6,13.25,0.7331795957296557,47.0,1.3,900
98.15,19.5,0.8481157539682538,56.0,0.0,1000
81.95,13.95,0.7337764122411248,56.0,0.0,1100
54.45,4.05,0.5691253588200356,56.0,0.0,1200
100.0,25.85,0.9132100000000001,57.0,0.0,1300
100.0,28.45,0.9303550000000002,58.0,0.0,1400
100.0,26.05,0.9155700000000001,58.0,0.0,1500
100.0,26.45,0.9228400000000001,58.0,0.0,1600
100.0,25.25,0.907085,58.0,0.0,1700
100.0,26.75,0.9198300000000001,58.0,0.0,1800
100.0,27.05,0.922165,58.0,0.0,1900
100.0,27.55,0.9269300000000001,58.0,0.0,2000
100.0,25.15,0.90675,58.0,0.0,2100
100.0,23.5,0.8804299999999998,58.0,0.0,2200
96.2,19.2,0.8365615088282501,58.0,0.0,2300
97.95,18.55,0.8339213014386081,58.0,0.0,2400
100.0,24.15,0.9036500000000001,58.0,0.0,2500
100.0,24.45,0.899455,58.0,0.0,2600
97.8,19.5,0.8444528571428572,58.0,0.0,2700
97.85,18.6,0.8193099122807016,58.0,0.0,2800
99.05,19.25,0.8359383333333332,58.0,0.0,2900
96.95,19.05,0.834154487179487,58.0,0.0,3000
32.25,0.0,0.4750888700513192,27.0,0.0,100
32.2,0.0,0.4760435444339023,27.0,0.0,200
33.55,0.0,0.4770394385026734,27.0,0.0,300
33.2,0.15,0.48217241952979106,27.0,0.0,400
32.4,0.45,0.49511149486320943,27.0,0.1,500
35.45,0.8,0.5080032595240803,27.0,0.2,600
33.8,0.7,0.5038109765336536,28.0,0.1,700
49.9,2.95,0.5524606428962227,29.0,0.0,800
44.1,2.0,0.5410760202575322,32.0,0.0,900
76.8,10.45,0.6896132920329926,44.0,0.05,1000
96.9,16.8,0.8106411842105261,47.0,0.0,1100
47.75,3.5,0.56516157886649,50.0,0.0,1200
100.0,26.3,0.913275,52.0,0.0,1300
100.0,31.55,0.9379900000000001,52.0,0.0,1400
100.0,31.35,0.9388949999999999,52.0,0.0,1500
100.0,30.5,0.936365,52.0,0.0,1600
100.0,31.15,0.9379,52.0,0.0,1700
100.0,31.95,0.9402750000000001,52.0,0.0,1800
100.0,31.55,0.9394300000000001,52.0,0.0,1900
100.0,30.05,0.9353049999999999,52.0,0.0,2000
100.0,29.0,0.9325900000000003,52.0,0.0,2100
100.0,26.6,0.9205,52.0,0.0,2200
100.0,27.75,0.9269999999999999,52.0,0.0,2300
100.0,30.55,0.9368750000000002,52.0,0.0,2400
100.0,28.1,0.9274249999999998,52.0,0.0,2500
100.0,23.45,0.886755,52.0,0.0,2600
100.0,29.65,0.9319900000000001,52.0,0.0,2700
100.0,30.85,0.9382100000000001,52.0,0.0,2800
100.0,28.35,0.9290900000000001,52.0,0.0,2900
100.0,26.0,0.9156500000000001,52.0,0.0,3000
