Episode length,Green food,Need,Number of nodes,Red food,Trained episodes
31.7,0.3,0.4862754815171213,28.0,0.0,100
40.5,1.55,0.5285872954560089,28.0,0.1,200
36.15,1.25,0.49749827976820055,31.0,0.35,300
38.2,1.7,0.5206367574842388,36.0,0.35,400
43.6,2.35,0.5444566290724382,45.0,0.0,500
79.15,11.1,0.7018805125745078,51.0,0.0,600
100.0,23.8,0.895735,51.0,0.0,700
100.0,28.9,0.924775,52.0,0.0,800
100.0,28.85,0.930855,52.0,0.0,900
100.0,30.55,0.9364200000000003,52.0,0.0,1000
100.0,28.45,0.922515,52.0,0.0,1100
100.0,27.0,0.91597,52.0,0.0,1200
100.0,28.15,0.9242000000000001,52.0,0.0,1300
100.0,29.6,0.9332450000000001,101.0,0.0,1400
100.0,32.45,0.9413500000000002,190.0,0.0,1500
100.0,31.4,0.9400900000000002,230.0,0.0,1600
100.0,31.55,0.9403349999999999,260.0,0.0,1700
100.0,31.8,0.9390200000000002,272.0,0.0,1800
100.0,32.35,0.94131,285.0,0.0,1900
100.0,31.6,0.9401500000000003,298.0,0.0,2000
100.0,31.55,0.9382900000000001,306.0,0.0,2100
100.0,31.9,0.94018,321.0,0.0,2200
100.0,32.25,0.9411800000000001,322.0,0.0,2300
100.0,32.05,0.9407650000000001,328.0,0.0,2400
100.0,32.3,0.939245,331.0,0.0,2500
100.0,31.65,0.9395399999999998,341.0,0.0,2600
100.0,32.1,0.9407950000000002,343.0,0.0,2700
100.0,31.65,0.9398799999999999,364.0,0.0,2800
100.0,32.25,0.942075,377.0,0.0,2900
100.0,31.75,0.9384650000000001,392.0,0.0,3000
31.7,0.3,0.4862754815171213,28.0,0.0,100
40.5,1.55,0.5285872954560089,28.0,0.1,200
36.1,1.0,0.5116026348176093,29.0,0.15,300
36.15,1.1,0.5031413350029381,36.0,0.15,400
69.0,7.7,0.6623490327841262,37.0,0.0,500
100.0,22.45,0.8725599999999998,47.0,0.0,600
100.0,25.05,0.911965,50.0,0.0,700
100.0,30.5,0.9372499999999999,52.0,0.0,800
100.0,30.65,0.934395,52.0,0.0,900
100.0,29.7,0.9341000000000002,52.0,0.0,1000
100.0,27.35,0.9273,52.0,0.0,1100
100.0,27.05,0.9228150000000002,52.0,0.0,1200
100.0,30.95,0.9366899999999999,52.0,0.0,1300
100.0,30.35,0.93747,112.0,0.0,1400
100.0,31.15,0.9384399999999999,156.0,0.0,1500
100.0,31.05,0.9381950000000001,170.0,0.0,1600
100.0,31.7,0.9400000000000001,175.0,0.0,1700
100.0,32.45,0.9418300000000002,178.0,0.0,1800
100.0,31.15,0.9389100000000001,220.0,0.0,1900
100.0,31.65,0.9389200000000001,280.0,0.0,2000
100.0,31.8,0.940785,298.0,0.0,2100
100.0,31.85,0.94056,302.0,0.0,2200
100.0,31.35,0.9393350000000001,315.0,0.0,2300
100.0,32.55,0.94093,321.0,0.0,2400
100.0,32.45,0.9414349999999999,327.0,0.0,2500
100.0,32.0,0.940705,330.0,0.0,2600
100.0,32.1,0.941215,342.0,0.0,2700
100.0,31.4,0.9379,383.0,0.0,2800
100.0,31.1,0.9393050000000003,392.0,0.0,2900
100.0,31.9,0.9398150000000001,399.0,0.0,3000
31.7,0.3,0.4862754815171213,28.0,0.0,100
58.15,3.75,0.5701655902710441,28.0,0.05,200
40.25,1.45,0.5323676874539264,31.0,0.05,300
55.25,3.7,0.5774958298910728,35.0,0.0,400
100.0,24.25,0.9122675000000001,46.0,0.0,500
100.0,29.35,0.9331674999999999,52.0,0.0,600
100.0,30.3,0.9372549999999998,52.0,0.0,700
100.0,30.35,0.9363900000000001,52.0,0.0,800
100.0,30.55,0.93599,52.0,0.0,900
100.0,26.8,0.916395,52.0,0.0,1000
100.0,26.35,0.9157150000000002,52.0,0.0,1100
100.0,27.8,0.9247099999999999,101.0,0.0,1200
100.0,29.2,0.9328000000000001,145.0,0.0,1300
100.0,31.2,0.938625,160.0,0.0,1400
100.0,31.65,0.9396800000000001,194.0,0.0,1500
100.0,31.65,0.9403600000000001,207.0,0.0,1600
100.0,30.55,0.9367699999999999,212.0,0.0,1700
100.0,31.55,0.9386150000000001,279.0,0.0,1800
100.0,32.1,0.938805,335.0,0.0,1900
100.0,31.05,0.9376599999999999,352.0,0.0,2000
100.0,31.1,0.9384499999999999,374.0,0.0,2100
100.0,32.35,0.9413000000000002,378.0,0.0,2200
100.0,31.7,0.9401200000000001,386.0,0.0,2300
100.0,32.3,0.9409600000000001,393.0,0.0,2400
100.0,30.9,0.9382150000000001,396.0,0.0,2500
100.0,31.7,0.938795,400.0,0.0,2600
100.0,31.75,0.94009,404.0,0.0,2700
100.0,31.9,0.9401550000000001,404.0,0.0,2800
100.0,31.1,0.939035,405.0,0.0,2900
100.0,32.0,0.940065,405.0,0.0,3000
33.4,0.5,0.5006902798266386,28.0,0.1,100
52.0,2.75,0.5319659417957225,28.0,0.05,200
95.55,14.35,0.7737068710256908,31.0,0.0,300
98.35,17.05,0.7952698188405793,35.0,1.05,400
100.0,24.25,0.9065525000000001,44.0,0.3,500
100.0,25.65,0.9151475,51.0,0.0,600
100.0,27.9,0.924965,52.0,0.0,700
100.0,31.8,0.9397399999999999,52.0,0.0,800
100.0,30.3,0.93681,52.0,0.0,900
100.0,31.5,0.9390450000000001,52.0,0.0,1000
100.0,29.55,0.932535,52.0,0.0,1100
100.0,25.8,0.9194150000000001,52.0,0.0,1200
100.0,29.25,0.93178,84.0,0.0,1300
100.0,29.95,0.93506,137.0,0.0,1400
100.0,31.5,0.9391300000000001,171.0,0.0,1500
100.0,32.45,0.94105,174.0,0.0,1600
100.0,30.75,0.938495,176.0,0.0,1700
100.0,31.55,0.9406400000000001,177.0,0.0,1800
100.0,32.3,0.941135,223.0,0.0,1900
100.0,31.05,0.9390000000000001,266.0,0.0,2000
100.0,31.8,0.9405650000000001,290.0,0.0,2100
100.0,31.1,0.9379000000000002,305.0,0.0,2200
100.0,31.3,0.94004,316.0,0.0,2300
100.0,30.9,0.93825,321.0,0.0,2400
100.0,31.55,0.9388650000000002,330.0,0.0,2500
100.0,31.85,0.9411149999999999,358.0,0.0,2600
100.0,31.6,0.938485,371.0,0.0,2700
100.0,32.65,0.942385,382.0,0.0,2800
100.0,31.3,0.9374699999999999,396.0,0.0,2900
100.0,31.05,0.9395249999999999,406.0,0.0,3000
31.7,0.55,0.48846912549234267,28.0,0.25,100
32.05,0.7,0.48453770068752633,29.0,0.2,200
49.05,5.25,0.5857329721421856,33.0,2.0,300
100.0,21.55,0.8638225,34.0,1.05,400
100.0,28.85,0.92979,52.0,0.0,500
100.0,29.45,0.9325950000000001,54.0,0.0,600
100.0,30.0,0.9366750000000001,55.0,0.0,700
93.95,18.7,0.8165912357374172,56.0,0.0,800
100.0,29.1,0.9306450000000002,56.0,0.0,900
100.0,28.2,0.93096,82.0,0.0,1000
100.0,26.05,0.9185249999999998,95.0,0.0,1100
100.0,26.45,0.9184200000000002,97.0,0.0,1200
100.0,26.55,0.9177,106.0,0.0,1300
100.0,27.6,0.9239799999999999,131.0,0.0,1400
99.15,23.25,0.8873695783132529,136.0,0.0,1500
100.0,25.2,0.9081649999999998,157.0,0.0,1600
100.0,30.2,0.9348400000000001,258.0,0.0,1700
100.0,30.35,0.93544,297.0,0.0,1800
100.0,30.65,0.9367449999999999,309.0,0.0,1900
100.0,30.95,0.9356750000000001,317.0,0.0,2000
100.0,31.35,0.9388200000000001,332.0,0.0,2100
100.0,30.5,0.937505,340.0,0.0,2200
100.0,30.95,0.9373100000000001,346.0,0.0,2300
100.0,31.15,0.9383949999999999,348.0,0.0,2400
100.0,32.45,0.94106,352.0,0.0,2500
100.0,31.25,0.9398350000000001,356.0,0.0,2600
100.0,31.9,0.9407350000000001,360.0,0.0,2700
100.0,32.1,0.9408100000000001,363.0,0.0,2800
100.0,32.35,0.940935,363.0,0.0,2900
100.0,32.05,0.94145,364.0,0.0,3000
31.7,0.3,0.4862754815171213,28.0,0.0,100
43.35,2.3,0.547582216353009,28.0,0.3,200
37.2,1.2,0.5199933807331636,29.0,0.1,300
37.0,1.4,0.5254243734147533,31.0,0.15,400
39.05,1.75,0.5343201944813009,42.0,0.1,500
59.15,5.45,0.5965442405167071,47.0,0.1,600
100.0,28.05,0.9226300000000002,52.0,0.1,700
100.0,31.55,0.939675,52.0,0.0,800
100.0,32.2,0.9418050000000001,52.0,0.0,900
100.0,32.3,0.9404100000000002,52.0,0.0,1000
100.0,30.9,0.93832,52.0,0.0,1100
100.0,31.75,0.9404499999999999,52.0,0.0,1200
100.0,31.15,0.9388750000000001,78.0,0.0,1300
100.0,31.45,0.939745,129.0,0.0,1400
100.0,31.5,0.9380600000000001,157.0,0.0,1500
100.0,32.05,0.9412649999999999,165.0,0.0,1600
100.0,31.2,0.93979,174.0,0.0,1700
100.0,32.2,0.9406599999999999,178.0,0.0,1800
100.0,31.15,0.9391450000000002,180.0,0.0,1900
100.0,31.3,0.9379000000000002,252.0,0.0,2000
100.0,31.5,0.9385000000000001,286.0,0.0,2100
100.0,32.15,0.9405199999999999,303.0,0.0,2200
100.0,31.9,0.93995,309.0,0.0,2300
100.0,30.75,0.935725,314.0,0.0,2400
100.0,31.3,0.9387100000000002,319.0,0.0,2500
100.0,31.7,0.9404250000000001,320.0,0.0,2600
100.0,31.0,0.93808,325.0,0.0,2700
100.0,32.1,0.9399000000000001,327.0,0.0,2800
100.0,30.75,0.9374600000000001,328.0,0.0,2900
100.0,31.9,0.940535,332.0,0.0,3000
30.75,0.35,0.4850015202840261,28.0,0.15,100
37.95,1.1,0.5250673044740691,28.0,0.05,200
92.05,11.65,0.6964022212091623,30.0,0.75,300
41.3,2.15,0.5328188062780375,32.0,0.05,400
42.9,2.25,0.5549100309414343,42.0,0.05,500
46.05,2.65,0.5429502784258979,51.0,0.0,600
90.6,15.9,0.7745171191553544,52.0,0.0,700
100.0,26.9,0.9214274999999998,53.0,0.0,800
100.0,30.45,0.93528,54.0,0.0,900
100.0,30.9,0.937795,54.0,0.0,1000
100.0,29.05,0.9320450000000001,54.0,0.0,1100
100.0,30.6,0.9372499999999999,54.0,0.0,1200
100.0,31.1,0.9383800000000001,91.0,0.0,1300
100.0,31.05,0.9376099999999999,123.0,0.0,1400
100.0,31.0,0.937765,178.0,0.0,1500
100.0,31.75,0.9388400000000001,207.0,0.0,1600
100.0,31.35,0.9406650000000001,217.0,0.0,1700
100.0,31.85,0.941105,221.0,0.0,1800
100.0,31.35,0.9399450000000001,260.0,0.0,1900
100.0,31.9,0.9385200000000002,323.0,0.0,2000
100.0,31.35,0.9379800000000001,349.0,0.0,2100
100.0,32.05,0.9407650000000002,371.0,0.0,2200
100.0,32.0,0.9388100000000001,377.0,0.0,2300
100.0,31.7,0.9397100000000002,381.0,0.0,2400
100.0,31.4,0.9399200000000002,386.0,0.0,2500
100.0,31.05,0.940325,388.0,0.0,2600
100.0,31.0,0.9365850000000002,389.0,0.0,2700
100.0,33.05,0.9424650000000001,391.0,0.0,2800
100.0,31.55,0.93947,395.0,0.0,2900
100.0,31.3,0.9400350000000002,400.0,0.0,3000
31.7,0.3,0.4862754815171213,28.0,0.0,100
40.5,1.55,0.5285872954560089,28.0,0.1,200
45.7,3.05,0.5527733760743696,28.0,0.4,300
57.9,5.1,0.5997158609399229,32.0,0.0,400
39.25,1.45,0.5160798167980329,39.0,0.0,500
81.45,10.6,0.7078806414663517,47.0,0.0,600
100.0,27.6,0.9219525,50.0,0.0,700
100.0,28.4,0.92896,51.0,0.0,800
100.0,21.95,0.89308,52.0,0.0,900
100.0,27.85,0.9261900000000003,52.0,0.0,1000
100.0,27.5,0.928475,52.0,0.0,1100
100.0,29.4,0.9347200000000002,52.0,0.0,1200
100.0,25.1,0.9129950000000001,66.0,0.0,1300
100.0,28.8,0.9288400000000001,79.0,0.0,1400
100.0,29.3,0.9291500000000001,89.0,0.0,1500
100.0,24.3,0.9053950000000001,90.0,0.0,1600
100.0,26.3,0.9169699999999998,91.0,0.0,1700
100.0,28.15,0.929505,131.0,0.0,1800
100.0,31.65,0.93829,158.0,0.0,1900
100.0,30.15,0.935355,209.0,0.0,2000
100.0,31.85,0.9397550000000001,278.0,0.0,2100
100.0,31.9,0.9397,300.0,0.0,2200
100.0,32.3,0.9414550000000002,314.0,0.0,2300
100.0,31.7,0.9395549999999998,323.0,0.0,2400
100.0,32.05,0.93983,325.0,0.0,2500
100.0,32.0,0.9394349999999999,330.0,0.0,2600
100.0,30.65,0.9372299999999999,332.0,0.0,2700
100.0,31.65,0.9382550000000001,334.0,0.0,2800
100.0,31.05,0.9389400000000002,334.0,0.0,2900
100.0,32.65,0.94249,339.0,0.0,3000
31.7,0.3,0.4862754815171213,28.0,0.0,100
37.4,1.1,0.4926905485992162,28.0,0.2,200
50.65,2.65,0.5445867353850544,29.0,0.1,300
34.2,0.6,0.5010567365041448,31.0,0.05,400
78.35,10.85,0.672216725361746,34.0,1.05,500
100.0,26.6,0.9065824999999998,48.0,1.05,600
97.25,19.15,0.8257155555555553,52.0,0.0,700
100.0,31.6,0.94023,52.0,0.0,800
100.0,31.55,0.9397550000000001,52.0,0.0,900
100.0,31.55,0.9398750000000001,52.0,0.0,1000
100.0,26.6,0.9150699999999998,52.0,0.0,1100
100.0,24.85,0.8952450000000001,54.0,0.0,1200
100.0,30.15,0.9350200000000001,128.0,0.0,1300
100.0,31.3,0.9394600000000001,151.0,0.0,1400
100.0,31.6,0.94092,187.0,0.0,1500
100.0,31.45,0.9400000000000001,205.0,0.0,1600
100.0,30.9,0.9372100000000001,214.0,0.0,1700
100.0,31.8,0.9387450000000002,221.0,0.0,1800
100.0,30.6,0.9375500000000001,279.0,0.0,1900
100.0,32.3,0.9409950000000002,326.0,0.0,2000
100.0,32.15,0.9412949999999999,343.0,0.0,2100
100.0,32.65,0.9416400000000001,349.0,0.0,2200
100.0,32.0,0.9370200000000002,358.0,0.0,2300
100.0,30.95,0.937435,373.0,0.0,2400
100.0,31.35,0.9386850000000001,380.0,0.0,2500
100.0,31.55,0.93926,388.0,0.0,2600
100.0,31.85,0.9404349999999999,390.0,0.0,2700
100.0,31.9,0.9404300000000001,391.0,0.0,2800
100.0,31.3,0.940075,396.0,0.0,2900
100.0,31.1,0.93915,399.0,0.0,3000
31.7,0.3,0.4862754815171213,28.0,0.0,100
40.5,1.55,0.5285872954560089,28.0,0.1,200
45.7,3.05,0.5527733760743696,28.0,0.4,300
36.95,1.4,0.5287948426060209,32.0,0.0,400
100.0,20.95,0.8746324999999999,37.0,0.0,500
43.45,2.3,0.5517896969876939,50.0,0.0,600
100.0,31.35,0.9378549999999999,52.0,0.0,700
100.0,31.15,0.9386149999999999,52.0,0.0,800
100.0,31.25,0.9378550000000001,52.0,0.0,900
100.0,31.4,0.9385049999999999,52.0,0.0,1000
100.0,31.1,0.938195,52.0,0.0,1100
100.0,32.0,0.9411150000000001,74.0,0.0,1200
100.0,32.15,0.9413350000000001,149.0,0.0,1300
100.0,32.4,0.9409000000000001,187.0,0.0,1400
100.0,32.15,0.9408900000000001,209.0,0.0,1500
100.0,30.95,0.9374,218.0,0.0,1600
100.0,31.9,0.9408200000000001,221.0,0.0,1700
100.0,32.75,0.9421450000000002,248.0,0.0,1800
100.0,30.75,0.9372450000000002,317.0,0.0,1900
100.0,32.3,0.9415849999999999,336.0,0.0,2000
100.0,32.05,0.9413350000000001,351.0,0.0,2100
100.0,30.55,0.9362450000000001,371.0,0.0,2200
100.0,32.6,0.9426050000000001,374.0,0.0,2300
100.0,31.0,0.9359250000000001,375.0,0.0,2400
100.0,31.7,0.938945,380.0,0.0,2500
100.0,31.35,0.9382999999999999,385.0,0.0,2600
100.0,32.0,0.93984,392.0,0.0,2700
100.0,31.75,0.9390000000000001,393.0,0.0,2800
100.0,31.75,0.94086,395.0,0.0,2900
100.0,31.25,0.9388150000000002,397.0,0.0,3000
31.7,0.3,0.4862754815171213,28.0,0.0,100
40.5,1.55,0.5285872954560089,28.0,0.1,200
46.95,3.45,0.5642375426116504,28.0,0.25,300
65.35,6.0,0.6135741910186866,30.0,0.0,400
93.15,15.4,0.7845267141353593,41.0,0.0,500
77.05,13.6,0.7327890567527298,50.0,0.0,600
100.0,30.25,0.9371,52.0,0.0,700
100.0,29.55,0.9346200000000001,52.0,0.0,800
100.0,30.85,0.9362,52.0,0.0,900
100.0,30.35,0.9377000000000001,52.0,0.0,1000
100.0,30.25,0.9359400000000002,52.0,0.0,1100
100.0,30.8,0.9380900000000001,78.0,0.0,1200
100.0,30.95,0.9377600000000001,138.0,0.0,1300
100.0,31.85,0.938035,184.0,0.0,1400
100.0,32.4,0.9421499999999998,200.0,0.0,1500
100.0,31.3,0.9394250000000002,210.0,0.0,1600
100.0,31.45,0.9405050000000001,216.0,0.0,1700
100.0,31.75,0.9413450000000001,271.0,0.0,1800
100.0,31.3,0.9387150000000002,309.0,0.0,1900
100.0,32.2,0.9377150000000002,336.0,0.0,2000
100.0,32.45,0.9401250000000001,364.0,0.0,2100
100.0,31.65,0.9393400000000002,372.0,0.0,2200
100.0,31.2,0.9377300000000002,378.0,0.0,2300
100.0,31.3,0.937705,380.0,0.0,2400
100.0,31.5,0.938715,388.0,0.0,2500
100.0,31.55,0.939705,391.0,0.0,2600
100.0,32.6,0.9409300000000002,395.0,0.0,2700
100.0,31.75,0.9392849999999999,397.0,0.0,2800
100.0,31.4,0.9393950000000002,397.0,0.0,2900
100.0,31.4,0.9399649999999999,400.0,0.0,3000
31.35,0.4,0.49205033681152416,28.0,0.15,100
36.9,2.35,0.5401997737399313,29.0,1.05,200
87.4,11.8,0.7136108197277771,33.0,0.55,300
89.15,11.1,0.7056595440670435,36.0,0.0,400
97.9,20.6,0.8576039655172414,45.0,0.0,500
100.0,29.25,0.9323925000000003,51.0,0.0,600
100.0,30.3,0.9357200000000001,52.0,0.0,700
100.0,30.75,0.9384950000000002,52.0,0.0,800
100.0,30.75,0.9368300000000002,52.0,0.0,900
100.0,30.3,0.9345549999999999,52.0,0.0,1000
100.0,31.5,0.938645,68.0,0.0,1100
100.0,31.95,0.9399949999999999,107.0,0.0,1200
100.0,31.4,0.9395049999999999,164.0,0.0,1300
100.0,32.4,0.9409749999999999,194.0,0.0,1400
100.0,31.85,0.9402700000000002,213.0,0.0,1500
100.0,32.5,0.9426250000000002,219.0,0.0,1600
100.0,31.3,0.9369850000000002,222.0,0.0,1700
100.0,31.7,0.9394100000000002,234.0,0.0,1800
100.0,30.75,0.9368550000000001,317.0,0.0,1900
100.0,32.0,0.941285,344.0,0.0,2000
100.0,32.85,0.94249,352.0,0.0,2100
100.0,31.85,0.9367749999999999,369.0,0.0,2200
100.0,32.2,0.938035,380.0,0.0,2300
100.0,32.45,0.9415549999999999,388.0,0.0,2400
100.0,31.5,0.939565,390.0,0.0,2500
100.0,31.45,0.9398350000000001,393.0,0.0,2600
100.0,32.25,0.9407349999999999,397.0,0.0,2700
100.0,30.95,0.9382149999999999,403.0,0.0,2800
100.0,31.2,0.93832,404.0,0.0,2900
100.0,32.25,0.9417700000000002,405.0,0.0,3000
31.7,0.3,0.4862754815171213,28.0,0.0,100
40.25,1.3,0.5253389629233529,28.0,0.1,200
42.35,1.55,0.5291202066478522,29.0,0.0,300
49.85,3.0,0.5487207823423824,31.0,0.0,400
58.35,5.2,0.6285527296375755,33.0,0.05,500
68.2,6.5,0.6172322846805127,48.0,0.05,600
100.0,31.15,0.9385425,53.0,0.0,700
100.0,27.25,0.9242550000000002,53.0,0.0,800
100.0,24.0,0.90479,53.0,0.0,900
100.0,25.6,0.91253,53.0,0.0,1000
100.0,27.4,0.9239900000000001,53.0,0.0,1100
100.0,27.65,0.924825,78.0,0.0,1200
100.0,26.85,0.9202600000000001,86.0,0.0,1300
100.0,26.5,0.919795,111.0,0.0,1400
100.0,29.75,0.9332550000000002,140.0,0.0,1500
100.0,30.45,0.9364649999999999,227.0,0.0,1600
100.0,31.25,0.938105,254.0,0.0,1700
100.0,31.05,0.9379249999999999,284.0,0.0,1800
100.0,31.7,0.9402900000000001,302.0,0.0,1900
100.0,31.0,0.9350500000000002,307.0,0.0,2000
100.0,31.0,0.9368199999999998,321.0,0.0,2100
100.0,31.8,0.9396650000000001,332.0,0.0,2200
100.0,30.9,0.9375249999999999,339.0,0.0,2300
100.0,31.3,0.9378400000000001,341.0,0.0,2400
100.0,30.3,0.9348400000000001,342.0,0.0,2500
100.0,31.6,0.93994,343.0,0.0,2600
100.0,32.15,0.9382250000000001,345.0,0.0,2700
100.0,31.95,0.940495,345.0,0.0,2800
100.0,32.5,0.9414300000000001,348.0,0.0,2900
100.0,30.6,0.9376900000000001,365.0,0.0,3000
31.75,0.45,0.48463747480545105,28.0,0.15,100
31.6,0.5,0.483283865529973,28.0,0.15,200
77.5,10.85,0.6486534766127434,30.0,2.0,300
35.8,1.35,0.5214201636025886,37.0,0.15,400
58.15,4.2,0.5831475208523815,50.0,0.1,500
100.0,26.8,0.9146550000000003,51.0,0.1,600
100.0,27.3,0.9156549999999999,53.0,0.0,700
100.0,30.1,0.9354750000000001,53.0,0.0,800
100.0,30.05,0.9355650000000001,53.0,0.0,900
100.0,30.9,0.9376150000000001,53.0,0.0,1000
100.0,27.85,0.9280050000000001,54.0,0.0,1100
100.0,32.45,0.9409850000000001,89.0,0.0,1200
100.0,31.05,0.9374750000000001,136.0,0.0,1300
100.0,32.0,0.9408800000000002,175.0,0.0,1400
100.0,31.8,0.9404150000000001,199.0,0.0,1500
100.0,32.3,0.9417249999999999,208.0,0.0,1600
100.0,32.45,0.941175,214.0,0.0,1700
100.0,31.2,0.938555,301.0,0.0,1800
100.0,31.1,0.939405,343.0,0.0,1900
100.0,31.95,0.94051,360.0,0.0,2000
100.0,30.55,0.9371550000000001,378.0,0.0,2100
100.0,31.65,0.9402950000000002,388.0,0.0,2200
100.0,31.1,0.93883,396.0,0.0,2300
100.0,31.35,0.9393900000000001,399.0,0.0,2400
100.0,31.45,0.9402900000000001,403.0,0.0,2500
100.0,31.9,0.9381050000000002,407.0,0.0,2600
100.0,32.35,0.9417249999999999,410.0,0.0,2700
100.0,32.95,0.94324,418.0,0.0,2800
100.0,31.85,0.939745,420.0,0.0,2900
100.0,31.2,0.9380500000000002,420.0,0.0,3000
31.7,0.3,0.4862754815171213,28.0,0.0,100
40.5,1.55,0.5285872954560089,28.0,0.1,200
45.7,3.05,0.5527733760743696,28.0,0.4,300
100.0,16.65,0.8280324999999997,33.0,0.3,400
41.65,2.15,0.5549953833843769,35.0,0.0,500
46.05,2.75,0.5496088465258205,41.0,0.0,600
100.0,26.05,0.91816,51.0,0.0,700
100.0,31.45,0.9387200000000002,52.0,0.0,800
100.0,31.8,0.9402800000000001,52.0,0.0,900
100.0,32.65,0.9420550000000001,52.0,0.0,1000
100.0,32.05,0.9409050000000001,52.0,0.0,1100
100.0,31.65,0.940645,64.0,0.0,1200
100.0,31.55,0.93934,100.0,0.0,1300
100.0,30.75,0.9382900000000001,130.0,0.0,1400
100.0,31.3,0.93901,160.0,0.0,1500
100.0,32.4,0.9413950000000002,171.0,0.0,1600
100.0,31.65,0.93847,176.0,0.0,1700
100.0,31.5,0.9402600000000001,249.0,0.0,1800
100.0,32.15,0.9408500000000002,289.0,0.0,1900
100.0,31.75,0.94024,304.0,0.0,2000
100.0,31.75,0.9389350000000001,318.0,0.0,2100
100.0,31.45,0.9391250000000001,331.0,0.0,2200
100.0,32.1,0.9394450000000001,366.0,0.0,2300
100.0,31.95,0.9398899999999999,385.0,0.0,2400
100.0,31.95,0.941695,399.0,0.0,2500
100.0,31.4,0.9398250000000001,401.0,0.0,2600
100.0,31.85,0.93964,406.0,0.0,2700
100.0,32.05,0.9409300000000002,410.0,0.0,2800
100.0,31.05,0.93908,416.0,0.0,2900
100.0,31.9,0.940715,417.0,0.0,3000
31.7,0.3,0.4862754815171213,28.0,0.0,100
39.35,1.4,0.5132338433205706,28.0,0.35,200
49.3,2.6,0.550102140605233,31.0,0.0,300
57.45,4.8,0.5988697190234978,35.0,0.0,400
38.85,1.75,0.535808989669728,49.0,0.0,500
38.05,1.95,0.5337889300992881,52.0,0.0,600
98.4,23.1,0.8706279411764706,53.0,0.0,700
100.0,26.65,0.9213100000000001,53.0,0.0,800
100.0,31.5,0.9391849999999999,53.0,0.0,900
100.0,31.05,0.9383349999999998,54.0,0.0,1000
100.0,31.05,0.9390050000000001,54.0,0.0,1100
100.0,31.65,0.939635,54.0,0.0,1200
100.0,31.6,0.940165,73.0,0.0,1300
100.0,31.35,0.9386050000000001,147.0,0.0,1400
100.0,31.2,0.9384650000000001,195.0,0.0,1500
100.0,30.95,0.93815,211.0,0.0,1600
100.0,31.75,0.939385,217.0,0.0,1700
100.0,31.65,0.940015,221.0,0.0,1800
100.0,30.65,0.93592,272.0,0.0,1900
100.0,31.8,0.9389900000000001,333.0,0.0,2000
100.0,32.4,0.941105,356.0,0.0,2100
100.0,30.85,0.939125,375.0,0.0,2200
100.0,30.55,0.9372800000000001,388.0,0.0,2300
100.0,31.8,0.9393800000000001,396.0,0.0,2400
100.0,32.7,0.9415949999999998,406.0,0.0,2500
100.0,31.5,0.939955,409.0,0.0,2600
100.0,32.55,0.9427900000000001,412.0,0.0,2700
100.0,31.85,0.9410400000000001,412.0,0.0,2800
100.0,31.45,0.938775,412.0,0.0,2900
100.0,31.7,0.93854,412.0,0.0,3000
31.7,0.3,0.4862754815171213,28.0,0.0,100
35.8,1.15,0.5227127010428415,28.0,0.25,200
40.95,1.55,0.49076302479278616,28.0,0.2,300
100.0,19.65,0.8376175,32.0,1.0,400
98.05,19.1,0.8584078278688523,42.0,0.35,500
60.3,5.25,0.5943409559281039,47.0,0.0,600
100.0,21.1,0.8748900000000001,52.0,0.0,700
100.0,25.85,0.9070449999999999,52.0,0.0,800
100.0,27.55,0.91938,52.0,0.0,900
100.0,29.4,0.9306949999999998,52.0,0.0,1000
100.0,22.1,0.8768299999999998,52.0,0.0,1100
100.0,29.5,0.9321100000000001,52.0,0.0,1200
100.0,29.05,0.9279249999999999,62.0,0.0,1300
100.0,31.25,0.9392100000000001,108.0,0.0,1400
100.0,32.25,0.9416350000000001,141.0,0.0,1500
100.0,31.3,0.9382750000000002,158.0,0.0,1600
100.0,31.3,0.9375349999999999,168.0,0.0,1700
100.0,31.35,0.9388949999999999,174.0,0.0,1800
100.0,31.6,0.9392000000000001,178.0,0.0,1900
100.0,31.85,0.9387900000000002,238.0,0.0,2000
100.0,31.1,0.9393099999999999,286.0,0.0,2100
100.0,32.25,0.9396500000000001,301.0,0.0,2200
100.0,31.25,0.9396500000000001,313.0,0.0,2300
100.0,32.2,0.9395900000000001,318.0,0.0,2400
100.0,31.25,0.9398950000000001,322.0,0.0,2500
100.0,31.2,0.939735,331.0,0.0,2600
100.0,31.65,0.9391700000000001,359.0,0.0,2700
100.0,31.5,0.938495,379.0,0.0,2800
100.0,31.0,0.9374750000000001,391.0,0.0,2900
100.0,32.55,0.941065,400.0,0.0,3000
31.7,0.3,0.4862754815171213,28.0,0.0,100
40.5,1.55,0.5285872954560089,28.0,0.1,200
45.7,3.05,0.5527733760743696,28.0,0.4,300
42.9,1.95,0.5266785530329157,32.0,0.0,400
75.7,7.4,0.6233886905711684,33.0,0.0,500
53.7,3.55,0.5794142175058619,40.0,0.0,600
49.55,3.1,0.5763143053692565,52.0,0.0,700
100.0,25.9,0.9060200000000002,53.0,0.0,800
100.0,31.3,0.9388650000000001,53.0,0.0,900
100.0,31.25,0.9376000000000003,53.0,0.0,1000
100.0,32.05,0.94133,54.0,0.0,1100
100.0,29.05,0.93187,54.0,0.0,1200
100.0,28.15,0.9270000000000002,54.0,0.0,1300
100.0,31.55,0.9404150000000001,80.0,0.0,1400
100.0,31.3,0.9387350000000001,137.0,0.0,1500
100.0,32.65,0.94191,161.0,0.0,1600
100.0,31.25,0.9398150000000001,171.0,0.0,1700
100.0,31.35,0.9380700000000001,179.0,0.0,1800
100.0,32.6,0.94267,208.0,0.0,1900
100.0,31.9,0.9403400000000002,267.0,0.0,2000
100.0,31.4,0.93916,294.0,0.0,2100
100.0,32.1,0.9410300000000001,310.0,0.0,2200
100.0,30.85,0.937635,321.0,0.0,2300
100.0,32.35,0.9411750000000001,330.0,0.0,2400
100.0,32.55,0.9429150000000002,333.0,0.0,2500
100.0,31.8,0.94037,340.0,0.0,2600
100.0,31.65,0.94086,343.0,0.0,2700
100.0,31.35,0.9383200000000003,357.0,0.0,2800
100.0,32.1,0.9400100000000003,383.0,0.0,2900
100.0,30.85,0.9372200000000002,397.0,0.0,3000
42.3,1.4,0.5319875578175118,27.0,0.05,100
37.1,0.8,0.5145128461874625,28.0,0.0,200
46.1,1.95,0.5264690143901752,30.0,0.0,300
43.8,2.2,0.5164357302114477,40.0,0.2,400
100.0,26.95,0.9245999999999999,49.0,0.0,500
99.55,21.55,0.8567653846153845,54.0,0.0,600
96.75,20.75,0.8410254653204564,54.0,0.0,700
100.0,31.9,0.941255,54.0,0.0,800
100.0,23.9,0.887335,54.0,0.0,900
100.0,31.2,0.9378200000000001,54.0,0.0,1000
100.0,29.6,0.9341899999999999,54.0,0.0,1100
100.0,29.6,0.932285,103.0,0.0,1200
100.0,25.1,0.9092550000000001,121.0,0.0,1300
100.0,32.15,0.9405950000000001,155.0,0.0,1400
100.0,32.5,0.9425200000000002,170.0,0.0,1500
100.0,31.15,0.9386450000000002,173.0,0.0,1600
100.0,32.35,0.94099,178.0,0.0,1700
100.0,31.4,0.938595,188.0,0.0,1800
100.0,31.1,0.93801,251.0,0.0,1900
100.0,31.55,0.93849,285.0,0.0,2000
100.0,32.6,0.94239,301.0,0.0,2100
100.0,32.25,0.9415500000000001,312.0,0.0,2200
100.0,31.4,0.9388000000000002,323.0,0.0,2300
100.0,31.95,0.9413400000000001,327.0,0.0,2400
100.0,30.7,0.9384400000000002,335.0,0.0,2500
100.0,31.8,0.9401900000000001,342.0,0.0,2600
100.0,31.6,0.9409800000000003,383.0,0.0,2700
100.0,31.5,0.9392699999999998,398.0,0.0,2800
100.0,31.45,0.9386600000000002,412.0,0.0,2900
100.0,31.55,0.9395550000000001,425.0,0.0,3000
31.7,0.3,0.4862754815171213,28.0,0.0,100
40.5,1.55,0.5285872954560089,28.0,0.1,200
83.55,12.45,0.7127135142609664,29.0,1.0,300
43.4,2.0,0.5479276798727736,32.0,0.05,400
37.7,1.8,0.5123364614756111,34.0,0.4,500
84.25,13.55,0.7435004239754394,46.0,0.0,600
100.0,27.5,0.9288900000000002,49.0,0.0,700
48.3,3.5,0.5625201453153482,52.0,0.0,800
41.25,2.4,0.5416461933832897,52.0,0.0,900
100.0,30.75,0.9379700000000002,52.0,0.0,1000
100.0,29.95,0.9347099999999999,52.0,0.0,1100
100.0,30.85,0.9370749999999999,52.0,0.0,1200
100.0,31.55,0.9396150000000001,52.0,0.0,1300
100.0,30.95,0.93857,52.0,0.0,1400
100.0,32.2,0.940615,78.0,0.0,1500
100.0,28.8,0.9332050000000001,109.0,0.0,1600
100.0,28.6,0.92735,124.0,0.0,1700
100.0,30.75,0.9366350000000001,132.0,0.0,1800
100.0,32.45,0.9414450000000001,158.0,0.0,1900
100.0,31.85,0.940345,171.0,0.0,2000
100.0,32.35,0.941225,175.0,0.0,2100
100.0,31.45,0.938915,241.0,0.0,2200
100.0,31.85,0.9399150000000001,281.0,0.0,2300
100.0,32.2,0.9406950000000001,301.0,0.0,2400
100.0,32.0,0.9405950000000003,317.0,0.0,2500
100.0,31.9,0.9403,321.0,0.0,2600
100.0,31.2,0.9388299999999999,327.0,0.0,2700
100.0,32.55,0.940475,337.0,0.0,2800
100.0,31.5,0.9406900000000002,338.0,0.0,2900
100.0,31.3,0.9390400000000001,367.0,0.0,3000
